<?xml version="1.0" ?><svg cb-auto-time="07/13/2017 11:37:48" cb-classname="ControlFunction" cb-component="00ACA01EG001" cb-create-time="05/19/2017" cb-drop-id="99" cb-filename="Y:\OVATION\NET0\UNIT0\CONTROLFUNCTIONS\001C.svg" cb-function-id="001C" cb-key="551123424433" cb-modified-timestamp="1582708855" cb-path="Y:/OVATION/NET0/UNIT0/CONTROLFUNCTIONS" cb-revision="A" cb-sheet-number="S11146" cb-sheet-title="00ACA01EG001-TRANSF COUPL CB-LOG" cb-snap-grid="10" cb-task-id="1" height="3522" id="1" width="5450" xmlns="http://www.w3.org/2000/svg">
<style cb-classname="EntityStyle" id="2" type="text/css">
	.algorithm { fill: white; stroke: black; stroke-width: 3 }
	.algorithm-function { fill: black; stroke: none }
	.algorithm-functionline { fill: none; stroke: black; stroke-linecap: round; stroke-width: 3 }
	.algorithm-name { fill: black; stroke: none }
	.algorithm-nameline { fill: none; stroke: black; stroke-linecap: round; stroke-width: 3 }
	.algorithm-sequence { fill: black; stroke: none; visibility: hidden }
	.algorithm-sequenceline { fill: none; stroke: black; stroke-linecap: round; stroke-width: 3; visibility: hidden }
	.algorithmline { fill: none; stroke: black; stroke-linecap: round; stroke-width: 3 }
	.annotation { fill: black; stroke: none }
	.annotationline { fill: none; stroke: black; stroke-linecap: round; stroke-width: 3 }
	.description { fill: black; stroke: none }
	.descriptionline { fill: none; stroke: black; stroke-linecap: round; stroke-width: 3 }
	.frame { fill: black; stroke: none }
	.frameline { fill: none; stroke: black; stroke-linecap: round; stroke-width: 3 }
	.signal { fill: black; stroke: none }
	.signalline { fill: none; stroke: black; stroke-linecap: round; stroke-width: 3 }
	text.algorithm { fill: black; font-family: Arial; font-size: 22; stroke: none }
	text.algorithm-function { fill: black; font-family: Arial; font-size: 22; stroke: none }
	text.algorithm-name { fill: black; font-family: Arial; font-size: 22; stroke: none }
	text.algorithm-sequence { fill: black; font-family: Arial; font-size: 22; stroke: none; visibility: hidden }
	text.annotation { fill: black; font-family: Arial; font-size: 22; stroke: none }
	text.description { fill: black; font-family: Arial; font-size: 28; stroke: none }
	text.frame { fill: black; font-family: Arial; font-size: 18; stroke: none }
	text.signal { fill: black; font-family: Arial; font-size: 12; stroke: none }
</style>
<g cb-classname="NamedObject" cb-objectname="Comments" id="3"/>
<g cb-classname="AlgorithmContainer" cb-objectname="Algorithms" id="4">
<g cb-alg-rJ4v="NO" cb-alg-rw2="31ACA01GS007-XB01" cb-algorithm-id="031" cb-classname="ExternalPointInterface" cb-function-name="INPUT" id="2s3">
<ellipse cb-classname="GraphicEllipseEntity" class="algorithm" cx="670" cy="260" id="2sS" rx="40" ry="40"/>
<rect cb-classname="GraphicRectangleEntity" class="algorithm" height="80" id="2sU" width="30" x="600" y="220"/>
<line cb-classname="GraphicLineEntity" class="algorithm" id="2sD" x1="600" x2="630" y1="260" y2="260"/>
<g cb-classname="ControlPin" cb-pin-name="2U-xJ1-sAg" id="2s5">
<line cb-classname="GraphicLineEntity" class="signalline" id="24j" x1="710" x2="1080" y1="260" y2="260"/>
<g cb-classname="SignalSegment" id="3aj">
<g cb-classname="SignalConnection" cb-graphic-line="$363$" cb-input-pin="$zzC$" id="3sO"/>
<line cb-classname="GraphicLineEntity" class="signalline" id="3sz" stroke="#1e12bf" stroke-dasharray="5,4" x1="1080" x2="1420" y1="260" y2="260"/>
</g>
</g>
<g cb-classname="PointStatusIndicator" cb-indicator-type="Highway" cb-source="XG-aLj-pTr" id="24k" visibility="hidden">
<line cb-classname="GraphicLineEntity" class="algorithmline" id="24i" x1="630" x2="670" y1="260" y2="220"/>
<line cb-classname="GraphicLineEntity" class="algorithmline" id="24z" x1="670" x2="710" y1="220" y2="260"/>
<line cb-classname="GraphicLineEntity" class="algorithmline" id="24O" x1="710" x2="670" y1="260" y2="300"/>
<line cb-classname="GraphicLineEntity" class="algorithmline" id="243" x1="670" x2="630" y1="300" y2="260"/>
</g>
<g cb-classname="PointStatusIndicator" cb-indicator-type="hardware" cb-source="hu-bxv-boA" id="24S" visibility="hidden">
<text cb-classname="GraphicTextEntity" class="algorithm" fill="#000000" font-family="arial" font-size="20" id="24U" x="660" y="270">
H
</text>
</g>
<g cb-classname="PointStatusIndicator" cb-indicator-type="alarm" cb-source="wO-eCR-KNj" id="24D" visibility="hidden">
<text cb-classname="GraphicTextEntity" class="algorithm" fill="#000000" font-family="arial" font-size="20" id="245" x="607" y="249">
A
</text>
</g>
<g cb-classname="PointStatusIndicator" cb-indicator-type="ingraphic" cb-source="l0-ydy-wWL" id="2Ej" visibility="hidden">
<text cb-classname="GraphicTextEntity" class="algorithm" fill="#000000" font-family="Arial" font-size="20" id="2Ek" x="605" y="289">
G
</text>
</g>
<g baseline-shift="-100%" cb-anchor-x="130" cb-anchor-y="220" cb-classname="PointDescription" cb-content="extended" cb-labeled="false" cb-max-width="460" cb-source="2U-xJ1-sAg" class="algorithm" font-style="normal" id="2Ei" text-anchor="start">
<text baseline-shift="-100%" cb-classname="GraphicTextEntity" class="algorithm" id="2Ez" text-anchor="start" x="130" y="220">
@ Ovation Control Builder @
</text>
</g>
<g cb-classname="DynamicText" cb-labeled="false" cb-pin-name="zOB" cb-source="XG-aLj-pTr" class="algorithm" id="2EO" text-anchor="start">
<text baseline-shift="-100%" cb-classname="GraphicTextEntity" class="algorithm" fill="black" font-family="arial" font-size="20" font-style="normal" font-weight="normal" id="2E3" text-anchor="start" text-decoration="normal" x="715" y="222"/>
</g>
</g>
<g cb-alg-K6Po="NO" cb-alg-KNj="31MKA01DE011-XT01" cb-algorithm-id="004" cb-classname="ExternalPointInterface" cb-function-name="INPUT" id="3Xk">
<ellipse cb-classname="GraphicEllipseEntity" class="algorithm" cx="670" cy="340" id="3Xi" rx="40" ry="40"/>
<rect cb-classname="GraphicRectangleEntity" class="algorithm" height="80" id="3Xz" width="30" x="600" y="300"/>
<line cb-classname="GraphicLineEntity" class="algorithm" id="3XO" x1="600" x2="630" y1="340" y2="340"/>
<g cb-classname="ControlPin" cb-pin-name="hu-bxv-boA" id="3X3">
<line cb-classname="GraphicLineEntity" class="signalline" id="3XS" x1="710" x2="1080" y1="340" y2="340"/>
<g cb-classname="SignalSegment" id="3s3">
<g cb-classname="SignalConnection" cb-graphic-line="$368$" cb-input-pin="$XH5$" id="3s5"/>
<line cb-classname="GraphicLineEntity" class="signalline" id="3sD" stroke="#1e12bf" stroke-dasharray="5,4" x1="1080" x2="1420" y1="340" y2="340"/>
</g>
</g>
<g cb-classname="PointStatusIndicator" cb-indicator-type="Highway" cb-source="wO-eCR-KNj" id="3XU" visibility="hidden">
<line cb-classname="GraphicLineEntity" class="algorithmline" id="3XD" x1="630" x2="670" y1="340" y2="300"/>
<line cb-classname="GraphicLineEntity" class="algorithmline" id="3X5" x1="670" x2="710" y1="300" y2="340"/>
<line cb-classname="GraphicLineEntity" class="algorithmline" id="3Jj" x1="710" x2="670" y1="340" y2="380"/>
<line cb-classname="GraphicLineEntity" class="algorithmline" id="3Jk" x1="670" x2="630" y1="380" y2="340"/>
</g>
<g cb-classname="PointStatusIndicator" cb-indicator-type="hardware" cb-source="JN-qYo-mo5" id="3Ji" visibility="hidden">
<text cb-classname="GraphicTextEntity" class="algorithm" fill="#000000" font-family="arial" font-size="20" id="3Jz" x="660" y="350">
H
</text>
</g>
<g cb-classname="PointStatusIndicator" cb-indicator-type="alarm" cb-source="C8-V09-XAr" id="3JO" visibility="hidden">
<text cb-classname="GraphicTextEntity" class="algorithm" fill="#000000" font-family="arial" font-size="20" id="3J3" x="607" y="329">
A
</text>
</g>
<g cb-classname="PointStatusIndicator" cb-indicator-type="ingraphic" cb-source="Hq-jS6-K95" id="3JS" visibility="hidden">
<text cb-classname="GraphicTextEntity" class="algorithm" fill="#000000" font-family="Arial" font-size="20" id="3JU" x="605" y="369">
G
</text>
</g>
<g baseline-shift="-100%" cb-anchor-x="130" cb-anchor-y="300" cb-classname="PointDescription" cb-content="extended" cb-labeled="false" cb-max-width="460" cb-source="hu-bxv-boA" class="algorithm" font-style="normal" id="3JD" text-anchor="start">
<text baseline-shift="-100%" cb-classname="GraphicTextEntity" class="algorithm" id="3J5" text-anchor="start" x="130" y="300">
@ Ovation Control Builder @
</text>
</g>
<g cb-classname="DynamicText" cb-labeled="false" cb-pin-name="osL" cb-source="aB-mgW-TKG" class="algorithm" id="3zk" text-anchor="start">
<text baseline-shift="-100%" cb-classname="GraphicTextEntity" class="algorithm" fill="black" font-family="arial" font-size="20" font-style="normal" font-weight="normal" id="3zi" text-anchor="start" text-decoration="normal" x="715" y="302"/>
</g>
</g>
<g cb-alg-q7G="$311$cb-alg-out$" cb-alg-q7w="$265$cb-alg-out$" cb-algorithm-id="006" cb-classname="FastBooleanAlgorithm" cb-function-name="AND" id="3zz">
<rect cb-classname="GraphicRectangleEntity" class="algorithm" height="100" id="3zO" width="60" x="1440" y="250"/>
<text baseline-shift="-50%" cb-classname="GraphicTextEntity" class="algorithm" font-size="22" id="3z3" text-anchor="middle" x="1470" y="290">
&amp;
</text>
<g cb-classname="ControlPin" cb-pin-name="XG-aLj-PKM" id="3zS">
<line cb-classname="GraphicLineEntity" class="signalline" id="3zU" x1="1420" x2="1440" y1="260" y2="260"/>
<polygon cb-classname="GraphicPolygonEntity" class="signal" id="3zD" points="1440,260 1429,254 1429,265"/>
<g cb-classname="DynamicText" cb-source="Hq-Tz0-umcD" class="signal" id="3z5" text-anchor="end">
<text cb-classname="GraphicTextEntity" class="signal" fill="black" font-style="normal" font-weight="normal" id="3pj" text-anchor="end" text-decoration="normal" x="1425" y="257"/>
</g>
</g>
<g cb-classname="ControlPin" cb-pin-name="hu-bxv-boA" id="3pk">
<line cb-classname="GraphicLineEntity" class="signalline" id="3pi" x1="1500" x2="1520" y1="340" y2="340"/>
<g cb-classname="DynamicText" cb-source="wO-hqS-gqf2" class="signal" id="3pz" text-anchor="start">
<text cb-classname="GraphicTextEntity" class="signal" fill="black" font-style="normal" font-weight="normal" id="3pO" text-anchor="start" text-decoration="normal" x="1514" y="337"/>
</g>
<g cb-classname="SignalSegment" id="5J3">
<g cb-classname="SignalConnection" cb-graphic-line="$532$" cb-input-pin="$ajC$" id="5zz"/>
<line cb-classname="GraphicLineEntity" class="signalline" id="5zi" stroke="#1e12bf" stroke-dasharray="5,4" x1="1520" x2="1960" y1="340" y2="340"/>
</g>
</g>
<g cb-classname="ControlPin" cb-pin-name="l0-ydy-P86" id="3p3">
<line cb-classname="GraphicLineEntity" class="signalline" id="3pS" x1="1420" x2="1440" y1="340" y2="340"/>
<polygon cb-classname="GraphicPolygonEntity" class="signal" id="3pU" points="1440,340 1429,334 1429,345"/>
<g cb-classname="DynamicText" cb-source="JN-1P8-bGub" id="3pD">
<text cb-classname="GraphicTextEntity" class="signal" id="3p5" text-anchor="end" x="1425" y="337"/>
</g>
</g>
</g>
<g cb-alg-pRqX="NO" cb-alg-pSx="32ACA01GS007-XB01" cb-algorithm-id="001" cb-classname="ExternalPointInterface" cb-function-name="INPUT" id="34j">
<ellipse cb-classname="GraphicEllipseEntity" class="algorithm" cx="670" cy="420" id="34k" rx="40" ry="40"/>
<rect cb-classname="GraphicRectangleEntity" class="algorithm" height="80" id="34i" width="30" x="600" y="380"/>
<line cb-classname="GraphicLineEntity" class="algorithm" id="34z" x1="600" x2="630" y1="420" y2="420"/>
<g cb-classname="ControlPin" cb-pin-name="JN-qYo-mo5" id="34O">
<line cb-classname="GraphicLineEntity" class="signalline" id="343" x1="710" x2="1080" y1="420" y2="420"/>
<g cb-classname="SignalSegment" id="34S">
<g cb-classname="SignalConnection" cb-graphic-line="$378$" cb-input-pin="$piy$" id="34U"/>
<line cb-classname="GraphicLineEntity" class="signalline" id="34D" stroke="#1e12bf" stroke-dasharray="5,4" x1="1080" x2="1420" y1="420" y2="420"/>
</g>
</g>
<g cb-classname="PointStatusIndicator" cb-indicator-type="Highway" cb-source="AQ-62a-WsS" id="345" visibility="hidden">
<line cb-classname="GraphicLineEntity" class="algorithmline" id="3Ej" x1="630" x2="670" y1="420" y2="380"/>
<line cb-classname="GraphicLineEntity" class="algorithmline" id="3Ek" x1="670" x2="710" y1="380" y2="420"/>
<line cb-classname="GraphicLineEntity" class="algorithmline" id="3Ei" x1="710" x2="670" y1="420" y2="460"/>
<line cb-classname="GraphicLineEntity" class="algorithmline" id="3Ez" x1="670" x2="630" y1="460" y2="420"/>
</g>
<g cb-classname="PointStatusIndicator" cb-indicator-type="hardware" cb-source="l0-ydy-wWL" id="3EO" visibility="hidden">
<text cb-classname="GraphicTextEntity" class="algorithm" fill="#000000" font-family="arial" font-size="20" id="3E3" x="660" y="430">
H
</text>
</g>
<g cb-classname="PointStatusIndicator" cb-indicator-type="alarm" cb-source="2U-xJ1-sAg" id="3ES" visibility="hidden">
<text cb-classname="GraphicTextEntity" class="algorithm" fill="#000000" font-family="arial" font-size="20" id="3EU" x="607" y="409">
A
</text>
</g>
<g cb-classname="PointStatusIndicator" cb-indicator-type="ingraphic" cb-source="XG-aLj-pTr" id="3ED" visibility="hidden">
<text cb-classname="GraphicTextEntity" class="algorithm" fill="#000000" font-family="Arial" font-size="20" id="3E5" x="605" y="449">
G
</text>
</g>
<g baseline-shift="-100%" cb-anchor-x="130" cb-anchor-y="380" cb-classname="PointDescription" cb-content="extended" cb-labeled="false" cb-max-width="460" cb-source="cL-l19-5tx" class="algorithm" font-style="normal" id="3Rj" text-anchor="start">
<text baseline-shift="-100%" cb-classname="GraphicTextEntity" class="algorithm" id="3Rk" text-anchor="start" x="130" y="380">
@ Ovation Control Builder @
</text>
</g>
<g cb-classname="DynamicText" cb-labeled="false" cb-pin-name="s66" cb-source="AQ-62a-WsS" class="algorithm" id="3Ri" text-anchor="start">
<text baseline-shift="-100%" cb-classname="GraphicTextEntity" class="algorithm" fill="black" font-family="arial" font-size="20" font-style="normal" font-weight="normal" id="3Rz" text-anchor="start" text-decoration="normal" x="715" y="382"/>
</g>
</g>
<g cb-alg-XYHa="NO" cb-alg-Xtn="32MKA01DE011-XT01" cb-algorithm-id="002" cb-classname="ExternalPointInterface" cb-function-name="INPUT" id="3RO">
<ellipse cb-classname="GraphicEllipseEntity" class="algorithm" cx="670" cy="500" id="3R3" rx="40" ry="40"/>
<rect cb-classname="GraphicRectangleEntity" class="algorithm" height="80" id="3RS" width="30" x="600" y="460"/>
<line cb-classname="GraphicLineEntity" class="algorithm" id="3RU" x1="600" x2="630" y1="500" y2="500"/>
<g cb-classname="ControlPin" cb-pin-name="fr-nVg-y28" id="3RD">
<line cb-classname="GraphicLineEntity" class="signalline" id="3R5" x1="710" x2="1080" y1="500" y2="500"/>
<g cb-classname="SignalSegment" id="4Uj">
<g cb-classname="SignalConnection" cb-graphic-line="$402$" cb-input-pin="$F24$" id="4Uk"/>
<line cb-classname="GraphicLineEntity" class="signalline" id="4Ui" stroke="#1e12bf" stroke-dasharray="5,4" x1="1080" x2="1420" y1="500" y2="500"/>
</g>
</g>
<g cb-classname="PointStatusIndicator" cb-indicator-type="Highway" cb-source="cL-l19-5tx" id="4Uz" visibility="hidden">
<line cb-classname="GraphicLineEntity" class="algorithmline" id="4UO" x1="630" x2="670" y1="500" y2="460"/>
<line cb-classname="GraphicLineEntity" class="algorithmline" id="4U3" x1="670" x2="710" y1="460" y2="500"/>
<line cb-classname="GraphicLineEntity" class="algorithmline" id="4US" x1="710" x2="670" y1="500" y2="540"/>
<line cb-classname="GraphicLineEntity" class="algorithmline" id="4UU" x1="670" x2="630" y1="540" y2="500"/>
</g>
<g cb-classname="PointStatusIndicator" cb-indicator-type="hardware" cb-source="wO-eCR-KNj" id="4UD" visibility="hidden">
<text cb-classname="GraphicTextEntity" class="algorithm" fill="#000000" font-family="arial" font-size="20" id="4U5" x="660" y="510">
H
</text>
</g>
<g cb-classname="PointStatusIndicator" cb-indicator-type="alarm" cb-source="l0-ydy-wWL" id="4Xj" visibility="hidden">
<text cb-classname="GraphicTextEntity" class="algorithm" fill="#000000" font-family="arial" font-size="20" id="4Xk" x="607" y="489">
A
</text>
</g>
<g cb-classname="PointStatusIndicator" cb-indicator-type="ingraphic" cb-source="2U-xJ1-sAg" id="4Xi" visibility="hidden">
<text cb-classname="GraphicTextEntity" class="algorithm" fill="#000000" font-family="Arial" font-size="20" id="4Xz" x="605" y="529">
G
</text>
</g>
<g baseline-shift="-100%" cb-anchor-x="130" cb-anchor-y="460" cb-classname="PointDescription" cb-content="extended" cb-labeled="false" cb-max-width="460" cb-source="XG-aLj-pTr" class="algorithm" font-style="normal" id="4XO" text-anchor="start">
<text baseline-shift="-100%" cb-classname="GraphicTextEntity" class="algorithm" id="4X3" text-anchor="start" x="130" y="460">
@ Ovation Control Builder @
</text>
</g>
<g cb-classname="DynamicText" cb-labeled="false" cb-pin-name="WdW" cb-source="Hq-jS6-K95" class="algorithm" id="4XU" text-anchor="start">
<text baseline-shift="-100%" cb-classname="GraphicTextEntity" class="algorithm" fill="black" font-family="arial" font-size="20" font-style="normal" font-weight="normal" id="4XD" text-anchor="start" text-decoration="normal" x="715" y="462"/>
</g>
</g>
<g cb-alg-YI3="$394$cb-alg-out$" cb-alg-YIk="$370$cb-alg-out$" cb-algorithm-id="003" cb-classname="FastBooleanAlgorithm" cb-function-name="AND" id="4X5">
<rect cb-classname="GraphicRectangleEntity" class="algorithm" height="100" id="4Jj" width="60" x="1440" y="410"/>
<text baseline-shift="-50%" cb-classname="GraphicTextEntity" class="algorithm" font-size="22" id="4Jk" text-anchor="middle" x="1470" y="450">
&amp;
</text>
<g cb-classname="ControlPin" cb-pin-name="aB-mgW-yMz" id="4Ji">
<line cb-classname="GraphicLineEntity" class="signalline" id="4Jz" x1="1420" x2="1440" y1="420" y2="420"/>
<polygon cb-classname="GraphicPolygonEntity" class="signal" id="4JO" points="1440,420 1429,414 1429,425"/>
<g cb-classname="DynamicText" cb-source="2U-pyM-daD9" class="signal" id="4J3" text-anchor="end">
<text cb-classname="GraphicTextEntity" class="signal" fill="black" font-style="normal" font-weight="normal" id="4JS" text-anchor="end" text-decoration="normal" x="1425" y="417"/>
</g>
</g>
<g cb-classname="ControlPin" cb-pin-name="XG-aLj-pTr" id="4JU">
<line cb-classname="GraphicLineEntity" class="signalline" id="4JD" x1="1500" x2="1520" y1="500" y2="500"/>
<g cb-classname="DynamicText" cb-source="cL-JgN-oe6x" class="signal" id="4J5" text-anchor="start">
<text cb-classname="GraphicTextEntity" class="signal" fill="black" font-style="normal" font-weight="normal" id="4zj" text-anchor="start" text-decoration="normal" x="1514" y="497"/>
</g>
<g cb-classname="SignalSegment" id="5zO">
<line cb-classname="GraphicLineEntity" class="signalline" id="5z3" stroke="#1e12bf" stroke-dasharray="5,4" x1="1520" x2="1670" y1="500" y2="500"/>
<g cb-classname="SignalSegment" id="5zS">
<line cb-classname="GraphicLineEntity" class="signalline" id="5zU" stroke="#1e12bf" stroke-dasharray="5,4" x1="1670" x2="1670" y1="500" y2="420"/>
<g cb-classname="SignalSegment" id="5zD">
<line cb-classname="GraphicLineEntity" class="signalline" id="5z5" stroke="#1e12bf" stroke-dasharray="5,4" x1="1670" x2="1960" y1="420" y2="420"/>
<g cb-classname="SignalConnection" cb-graphic-line="$539$" cb-input-pin="$5GX$" id="5pj"/>
</g>
</g>
</g>
</g>
<g cb-classname="ControlPin" cb-pin-name="AQ-62a-qSl" id="4zk">
<line cb-classname="GraphicLineEntity" class="signalline" id="4zi" x1="1420" x2="1440" y1="500" y2="500"/>
<polygon cb-classname="GraphicPolygonEntity" class="signal" id="4zz" points="1440,500 1429,494 1429,505"/>
<g cb-classname="DynamicText" cb-source="wO-hqS-gqf2" id="4zO">
<text cb-classname="GraphicTextEntity" class="signal" id="4z3" text-anchor="end" x="1425" y="497"/>
</g>
</g>
</g>
<g cb-alg-5bqR="NO" cb-alg-5tx="30ACA01GS007-XG01" cb-algorithm-id="005" cb-classname="ExternalPointInterface" cb-function-name="INPUT" id="4zS">
<ellipse cb-classname="GraphicEllipseEntity" class="algorithm" cx="670" cy="580" id="4zU" rx="40" ry="40"/>
<rect cb-classname="GraphicRectangleEntity" class="algorithm" height="80" id="4zD" width="30" x="600" y="540"/>
<line cb-classname="GraphicLineEntity" class="algorithm" id="4z5" x1="600" x2="630" y1="580" y2="580"/>
<g cb-classname="ControlPin" cb-pin-name="XG-aLj-pTr" id="4pj">
<line cb-classname="GraphicLineEntity" class="signalline" id="4pk" x1="710" x2="1080" y1="580" y2="580"/>
<g cb-classname="SignalSegment" id="4pi">
<g cb-classname="SignalConnection" cb-graphic-line="$444$" cb-input-pin="$O1S$" id="4pz"/>
<line cb-classname="GraphicLineEntity" class="signalline" id="4pO" stroke="#1e12bf" stroke-dasharray="5,4" x1="1080" x2="1420" y1="580" y2="580"/>
</g>
</g>
<g cb-classname="PointStatusIndicator" cb-indicator-type="Highway" cb-source="hu-bxv-boA" id="4p3" visibility="hidden">
<line cb-classname="GraphicLineEntity" class="algorithmline" id="4pS" x1="630" x2="670" y1="580" y2="540"/>
<line cb-classname="GraphicLineEntity" class="algorithmline" id="4pU" x1="670" x2="710" y1="540" y2="580"/>
<line cb-classname="GraphicLineEntity" class="algorithmline" id="4pD" x1="710" x2="670" y1="580" y2="620"/>
<line cb-classname="GraphicLineEntity" class="algorithmline" id="4p5" x1="670" x2="630" y1="620" y2="580"/>
</g>
<g cb-classname="PointStatusIndicator" cb-indicator-type="hardware" cb-source="fr-nVg-y28" id="4aj" visibility="hidden">
<text cb-classname="GraphicTextEntity" class="algorithm" fill="#000000" font-family="arial" font-size="20" id="4ak" x="660" y="590">
H
</text>
</g>
<g cb-classname="PointStatusIndicator" cb-indicator-type="alarm" cb-source="JN-qYo-mo5" id="4ai" visibility="hidden">
<text cb-classname="GraphicTextEntity" class="algorithm" fill="#000000" font-family="arial" font-size="20" id="4az" x="607" y="569">
A
</text>
</g>
<g cb-classname="PointStatusIndicator" cb-indicator-type="ingraphic" cb-source="C8-V09-XAr" id="4aO" visibility="hidden">
<text cb-classname="GraphicTextEntity" class="algorithm" fill="#000000" font-family="Arial" font-size="20" id="4a3" x="605" y="609">
G
</text>
</g>
<g baseline-shift="-100%" cb-anchor-x="130" cb-anchor-y="540" cb-classname="PointDescription" cb-content="extended" cb-labeled="false" cb-max-width="460" cb-source="Hq-jS6-K95" class="algorithm" font-style="normal" id="4aS" text-anchor="start">
<text baseline-shift="-100%" cb-classname="GraphicTextEntity" class="algorithm" id="4aU" text-anchor="start" x="130" y="540">
@ Ovation Control Builder @
</text>
</g>
<g cb-classname="DynamicText" cb-labeled="false" cb-pin-name="B2I" cb-source="hu-bxv-boA" class="algorithm" id="4aD" text-anchor="start">
<text baseline-shift="-100%" cb-classname="GraphicTextEntity" class="algorithm" fill="black" font-family="arial" font-size="20" font-style="normal" font-weight="normal" id="4a5" text-anchor="start" text-decoration="normal" x="715" y="542"/>
</g>
</g>
<g cb-alg-rJ4v="NO" cb-alg-rw2="30MKA01DE011-XT01" cb-algorithm-id="007" cb-classname="ExternalPointInterface" cb-function-name="INPUT" id="4sj">
<ellipse cb-classname="GraphicEllipseEntity" class="algorithm" cx="670" cy="660" id="4sk" rx="40" ry="40"/>
<rect cb-classname="GraphicRectangleEntity" class="algorithm" height="80" id="4si" width="30" x="600" y="620"/>
<line cb-classname="GraphicLineEntity" class="algorithm" id="4sz" x1="600" x2="630" y1="660" y2="660"/>
<g cb-classname="ControlPin" cb-pin-name="2U-xJ1-sAg" id="4sO">
<line cb-classname="GraphicLineEntity" class="signalline" id="4s3" x1="710" x2="1080" y1="660" y2="660"/>
<g cb-classname="SignalSegment" id="4sS">
<g cb-classname="SignalConnection" cb-graphic-line="$468$" cb-input-pin="$pX9$" id="4sU"/>
<line cb-classname="GraphicLineEntity" class="signalline" id="4sD" stroke="#1e12bf" stroke-dasharray="5,4" x1="1080" x2="1420" y1="660" y2="660"/>
</g>
</g>
<g cb-classname="PointStatusIndicator" cb-indicator-type="Highway" cb-source="Hq-jS6-K95" id="4s5" visibility="hidden">
<line cb-classname="GraphicLineEntity" class="algorithmline" id="44j" x1="630" x2="670" y1="660" y2="620"/>
<line cb-classname="GraphicLineEntity" class="algorithmline" id="44k" x1="670" x2="710" y1="620" y2="660"/>
<line cb-classname="GraphicLineEntity" class="algorithmline" id="44i" x1="710" x2="670" y1="660" y2="700"/>
<line cb-classname="GraphicLineEntity" class="algorithmline" id="44z" x1="670" x2="630" y1="700" y2="660"/>
</g>
<g cb-classname="PointStatusIndicator" cb-indicator-type="hardware" cb-source="aB-mgW-TKG" id="44O" visibility="hidden">
<text cb-classname="GraphicTextEntity" class="algorithm" fill="#000000" font-family="arial" font-size="20" id="443" x="660" y="670">
H
</text>
</g>
<g cb-classname="PointStatusIndicator" cb-indicator-type="alarm" cb-source="fr-nVg-y28" id="44S" visibility="hidden">
<text cb-classname="GraphicTextEntity" class="algorithm" fill="#000000" font-family="arial" font-size="20" id="44U" x="607" y="649">
A
</text>
</g>
<g cb-classname="PointStatusIndicator" cb-indicator-type="ingraphic" cb-source="JN-qYo-mo5" id="44D" visibility="hidden">
<text cb-classname="GraphicTextEntity" class="algorithm" fill="#000000" font-family="Arial" font-size="20" id="445" x="605" y="689">
G
</text>
</g>
<g baseline-shift="-100%" cb-anchor-x="130" cb-anchor-y="620" cb-classname="PointDescription" cb-content="extended" cb-labeled="false" cb-max-width="460" cb-source="C8-V09-XAr" class="algorithm" font-style="normal" id="4Ej" text-anchor="start">
<text baseline-shift="-100%" cb-classname="GraphicTextEntity" class="algorithm" id="4Ek" text-anchor="start" x="130" y="620">
@ Ovation Control Builder @
</text>
</g>
<g cb-classname="DynamicText" cb-labeled="false" cb-pin-name="s66" cb-source="AQ-62a-WsS" class="algorithm" id="4Ez" text-anchor="start">
<text baseline-shift="-100%" cb-classname="GraphicTextEntity" class="algorithm" fill="black" font-family="arial" font-size="20" font-style="normal" font-weight="normal" id="4EO" text-anchor="start" text-decoration="normal" x="715" y="622"/>
</g>
</g>
<g cb-alg-gN7="$436$cb-alg-out$" cb-alg-gNG="$460$cb-alg-out$" cb-algorithm-id="008" cb-classname="FastBooleanAlgorithm" cb-function-name="AND" id="4E3">
<rect cb-classname="GraphicRectangleEntity" class="algorithm" height="100" id="4ES" width="60" x="1440" y="570"/>
<text baseline-shift="-50%" cb-classname="GraphicTextEntity" class="algorithm" font-size="22" id="4EU" text-anchor="middle" x="1470" y="610">
&amp;
</text>
<g cb-classname="ControlPin" cb-pin-name="l0-ydy-P8Q" id="4ED">
<line cb-classname="GraphicLineEntity" class="signalline" id="4E5" x1="1420" x2="1440" y1="580" y2="580"/>
<polygon cb-classname="GraphicPolygonEntity" class="signal" id="4Rj" points="1440,580 1429,574 1429,585"/>
<g cb-classname="DynamicText" cb-source="JN-1P8-bGub" class="signal" id="4Rk" text-anchor="end">
<text cb-classname="GraphicTextEntity" class="signal" fill="black" font-style="normal" font-weight="normal" id="4Ri" text-anchor="end" text-decoration="normal" x="1425" y="577"/>
</g>
</g>
<g cb-classname="ControlPin" cb-pin-name="C8-V09-XAr" id="4Rz">
<line cb-classname="GraphicLineEntity" class="signalline" id="4RO" x1="1500" x2="1520" y1="660" y2="660"/>
<g cb-classname="DynamicText" cb-source="Hq-Tz0-umcD" class="signal" id="4R3" text-anchor="start">
<text cb-classname="GraphicTextEntity" class="signal" fill="black" font-style="normal" font-weight="normal" id="4RS" text-anchor="start" text-decoration="normal" x="1514" y="657"/>
</g>
<g cb-classname="SignalSegment" id="5pk">
<line cb-classname="GraphicLineEntity" class="signalline" id="5pi" stroke="#1e12bf" stroke-dasharray="5,4" x1="1520" x2="1770" y1="660" y2="660"/>
<g cb-classname="SignalSegment" id="5pz">
<line cb-classname="GraphicLineEntity" class="signalline" id="5pO" stroke="#1e12bf" stroke-dasharray="5,4" x1="1770" x2="1770" y1="660" y2="500"/>
<g cb-classname="SignalSegment" id="5p3">
<line cb-classname="GraphicLineEntity" class="signalline" id="5pS" stroke="#1e12bf" stroke-dasharray="5,4" x1="1770" x2="1960" y1="500" y2="500"/>
<g cb-classname="SignalConnection" cb-graphic-line="$546$" cb-input-pin="$3yZ$" id="5pU"/>
</g>
</g>
</g>
</g>
<g cb-classname="ControlPin" cb-pin-name="hu-bxv-qT5" id="4RU">
<line cb-classname="GraphicLineEntity" class="signalline" id="4RD" x1="1420" x2="1440" y1="660" y2="660"/>
<polygon cb-classname="GraphicPolygonEntity" class="signal" id="4R5" points="1440,660 1429,654 1429,665"/>
<g cb-classname="DynamicText" cb-source="aB-oqT-taJR" id="5Uj">
<text cb-classname="GraphicTextEntity" class="signal" id="5Uk" text-anchor="end" x="1425" y="657"/>
</g>
</g>
</g>
<g cb-alg-WsS="00ACA01EG001-ZV01" cb-alg-qSQ="$333$cb-alg-out$" cb-alg-qSl="$419$cb-alg-out$" cb-alg-qSu="$485$cb-alg-out$" cb-algorithm-id="009" cb-classname="FastBooleanAlgorithm" cb-function-name="OR" id="5Uz">
<rect cb-classname="GraphicRectangleEntity" class="algorithm" height="180" id="5UO" width="60" x="1980" y="330"/>
<text baseline-shift="-50%" cb-classname="GraphicTextEntity" class="algorithm" font-size="22" id="5U3" text-anchor="middle" x="2010" y="375">
1
</text>
<g cb-classname="ControlPin" cb-pin-name="C8-V09-Fw3" id="5US">
<line cb-classname="GraphicLineEntity" class="signalline" id="5UU" x1="1960" x2="1980" y1="340" y2="340"/>
<polygon cb-classname="GraphicPolygonEntity" class="signal" id="5UD" points="1980,340 1969,334 1969,345"/>
<g cb-classname="DynamicText" cb-source="AQ-PHo-7yLI" class="signal" id="5U5" text-anchor="end">
<text cb-classname="GraphicTextEntity" class="signal" fill="black" font-style="normal" font-weight="normal" id="5Xj" text-anchor="end" text-decoration="normal" x="1965" y="337"/>
</g>
</g>
<g cb-classname="ControlPin" cb-pin-name="fU-vMX-Owj" id="5Xk">
<line cb-classname="GraphicLineEntity" class="signalline" id="5Xi" x1="2040" x2="2060" y1="500" y2="500"/>
<g cb-classname="DynamicText" cb-source="aB-oqT-taJR" class="signal" id="5Xz" text-anchor="start">
<text cb-classname="GraphicTextEntity" class="signal" fill="black" font-style="normal" font-weight="normal" id="5XO" text-anchor="start" text-decoration="normal" x="2054" y="497"/>
</g>
<g cb-classname="SignalSegment" id="5pD">
<g cb-classname="SignalConnection" cb-graphic-line="$551$" cb-input-pin="$dnA$" id="5ai"/>
<line cb-classname="GraphicLineEntity" class="signalline" id="5ak" stroke="#1e12bf" stroke-dasharray="5,4" x1="2060" x2="4340" y1="500" y2="500"/>
</g>
</g>
<g cb-classname="ControlPin" cb-pin-name="fr-nVg-1dQ" id="5X3">
<line cb-classname="GraphicLineEntity" class="signalline" id="5XS" x1="1960" x2="1980" y1="420" y2="420"/>
<polygon cb-classname="GraphicPolygonEntity" class="signal" id="5XU" points="1980,420 1969,414 1969,425"/>
<g cb-classname="DynamicText" cb-source="XG-G1d-cjtw" class="signal" id="5XD" text-anchor="end">
<text cb-classname="GraphicTextEntity" class="signal" fill="black" font-style="normal" font-weight="normal" id="5X5" text-anchor="end" text-decoration="normal" x="1965" y="417"/>
</g>
</g>
<g cb-classname="ControlPin" cb-pin-name="cL-l19-4uh" id="5Jj">
<line cb-classname="GraphicLineEntity" class="signalline" id="5Jk" x1="1960" x2="1980" y1="500" y2="500"/>
<polygon cb-classname="GraphicPolygonEntity" class="signal" id="5Ji" points="1980,500 1969,494 1969,505"/>
<g cb-classname="DynamicText" cb-source="hu-I4u-SniQ" class="signal" id="5Jz" text-anchor="end">
<text cb-classname="GraphicTextEntity" class="signal" fill="black" font-style="normal" font-weight="normal" id="5JO" text-anchor="end" text-decoration="normal" x="1965" y="497"/>
</g>
</g>
</g>
<g cb-alg-iO="$503$cb-alg-out$" cb-algorithm-id="034" cb-classname="ExternalPointInterface" cb-function-name="OUTPUT" id="2ES">
<ellipse cb-classname="GraphicEllipseEntity" class="algorithm" cx="4750" cy="500" id="2EU" rx="40" ry="40"/>
<rect cb-classname="GraphicRectangleEntity" class="algorithm" height="80" id="2ED" width="30" x="4790" y="460"/>
<line cb-classname="GraphicLineEntity" class="algorithm" id="2E5" x1="4790" x2="4820" y1="500" y2="500"/>
<g cb-classname="ControlPin" cb-pin-name="fU-vMX-Rg" id="2Rj">
<line cb-classname="GraphicLineEntity" class="signalline" id="2Rk" x1="4340" x2="4710" y1="500" y2="500"/>
<polygon cb-classname="GraphicPolygonEntity" class="signal" id="2Ri" points="4710,500 4699,494 4699,505"/>
</g>
<g cb-classname="PointStatusIndicator" cb-indicator-type="highway" cb-source="l0-ydy-P8" id="2Rz" visibility="hidden">
<line cb-classname="GraphicLineEntity" class="algorithmline" id="2RO" x1="4710" x2="4750" y1="500" y2="460"/>
<line cb-classname="GraphicLineEntity" class="algorithmline" id="2R3" x1="4750" x2="4790" y1="460" y2="500"/>
<line cb-classname="GraphicLineEntity" class="algorithmline" id="2RS" x1="4790" x2="4750" y1="500" y2="540"/>
<line cb-classname="GraphicLineEntity" class="algorithmline" id="2RU" x1="4750" x2="4710" y1="540" y2="500"/>
</g>
<g cb-classname="PointStatusIndicator" cb-indicator-type="hardware" cb-source="C8-V09-Fw" id="2RD" visibility="hidden">
<text cb-classname="GraphicTextEntity" class="algorithm" fill="#000000" font-family="Arial" font-size="20" id="2R5" x="4740" y="510">
H
</text>
</g>
<g cb-classname="PointStatusIndicator" cb-indicator-type="alarm" cb-source="Hq-jS6-q7" id="3Uj" visibility="hidden">
<text cb-classname="GraphicTextEntity" class="algorithm" fill="#000000" font-family="Arial" font-size="20" id="3Uk" x="4797" y="528">
A
</text>
</g>
<g cb-classname="PointStatusIndicator" cb-indicator-type="ingraphic" cb-source="hu-bxv-qT" id="3Ui" visibility="hidden">
<text cb-classname="GraphicTextEntity" class="algorithm" fill="#000000" font-family="Arial" font-size="20" id="3Uz" x="4796" y="489">
G
</text>
</g>
<g cb-classname="DynamicText" cb-labeled="false" cb-pin-name="CD" cb-source="wO-eCR-Rt" class="algorithm" id="3UO" text-anchor="end">
<text baseline-shift="-100%" cb-classname="GraphicTextEntity" class="algorithm" fill="black" font-family="MS Shell Dlg" font-size="20" font-style="normal" font-weight="normal" id="3U3" text-anchor="end" text-decoration="normal" x="4690" y="460"/>
</g>
<g baseline-shift="-100%" cb-anchor-x="4690" cb-anchor-y="500" cb-classname="PointReferences" cb-max-width="400" cb-originator="false" cb-source="l0-ydy-P8" class="signal" id="3US" text-anchor="end">
<text baseline-shift="-100%" cb-classname="GraphicTextEntity" class="algorithm" id="3UU" text-anchor="end" x="4690" y="500">
-
</text>
</g>
<g baseline-shift="-100%" cb-anchor-x="4840" cb-anchor-y="460" cb-classname="PointDescription" cb-content="extended" cb-labeled="false" cb-max-width="460" cb-source="2U-xJ1-yb" class="algorithm" id="3UD" text-anchor="start">
<text baseline-shift="-100%" cb-classname="GraphicTextEntity" class="algorithm" id="3U5" text-anchor="start" x="4840" y="460">
@ Ovation Control Builder @
</text>
</g>
</g>
</g>
<g cb-classname="IncludeDocument" cb-modify-time="09/25/2018 01:40:30" cb-objectname="frame" id="5">
<text cb-classname="GraphicTextEntity" class="frame" font-size="50" id="1XzK" x="3660" y="3146">
Project Title &lt;Edit in FRAME.SVG&gt;
</text>
<g baseline-shift="-50%" cb-classname="DynamicText" cb-source="Hq-9YpN-qP" class="frame" id="1Xzy">
<text cb-classname="GraphicTextEntity" class="frame" fill="black" font-family="arial" font-size="25" font-style="normal" font-weight="normal" id="1Xzp" text-decoration="normal" x="4715" y="3325">
99
</text>
</g>
<g baseline-shift="-50%" cb-classname="DynamicText" cb-source="hu-kRKo-RE" class="frame" id="1Xzt" text-anchor="middle">
<text cb-classname="GraphicTextEntity" class="frame" fill="black" font-family="arial" font-size="48" font-style="normal" font-weight="normal" id="1Xza" text-anchor="middle" text-decoration="normal" x="4900" y="3320">
99
</text>
</g>
<g baseline-shift="-50%" cb-classname="DynamicText" cb-source="wO-xmhj-yd" class="frame" id="1XzC" text-anchor="middle">
<text cb-classname="GraphicTextEntity" class="frame" fill="black" font-family="arial" font-size="48" font-style="normal" font-weight="normal" id="1Xz9" text-anchor="middle" text-decoration="normal" x="5067" y="3324">
1
</text>
</g>
<g cb-classname="DynamicText" cb-source="l0-hyIQj-L2grb" class="frame" id="1Xz1">
<text cb-classname="GraphicTextEntity" class="frame" fill="black" font-family="arial" font-size="48" font-style="normal" font-weight="normal" id="1XzF" text-decoration="normal" x="3660" y="3224">
00ACA01EG001-TRANSF COUPL CB-LOG
</text>
</g>
<g baseline-shift="-50%" cb-classname="DynamicText" cb-source="2U-eEx2L-cTtmrf" class="frame" id="1XOd" text-anchor="middle">
<text cb-classname="GraphicTextEntity" class="frame" fill="black" font-family="arial" font-size="48" font-style="normal" font-weight="normal" id="1XOK" text-anchor="middle" text-decoration="normal" x="5270" y="3324">
S11146
</text>
</g>
<g baseline-shift="0%" cb-classname="DynamicText" cb-source="XG-c2I21Fz7" class="frame" id="1XOy" text-anchor="middle">
<text cb-classname="GraphicTextEntity" class="frame" fill="black" font-family="arial" font-size="36" font-style="normal" font-weight="normal" id="1XOp" text-anchor="middle" text-decoration="normal" x="5270" y="3150">
A
</text>
</g>
<g baseline-shift="0%" cb-classname="DynamicText" cb-source="cL-niXHIqWS-Ayf2" class="frame" id="1XOt" text-anchor="middle">
<text cb-classname="GraphicTextEntity" class="frame" fill="black" font-family="arial" font-size="20" font-style="normal" font-weight="normal" id="1XOa" text-anchor="middle" text-decoration="normal" x="5270" y="3230">

</text>
</g>
<g baseline-shift="-50%" cb-classname="DynamicText" cb-source="AQ-D0aq7xDm" class="frame" id="1XOC" text-anchor="end">
<text cb-classname="GraphicTextEntity" class="frame" fill="black" font-family="arial" font-size="26" font-style="normal" font-weight="normal" id="1XO9" text-anchor="end" text-decoration="normal" x="4500" y="3420">

</text>
</g>
<g baseline-shift="-50%" cb-classname="DynamicText" cb-source="fU-RNvqDoQc" class="frame" id="1XO1" text-anchor="end">
<text cb-classname="GraphicTextEntity" class="frame" fill="black" font-family="arial" font-size="26" font-style="normal" font-weight="normal" id="1XOF" text-anchor="end" text-decoration="normal" x="5353" y="3420">

</text>
</g>
<g cb-classname="GraphicShape" cb-tag="BORDER" id="1X3d">
<line cb-classname="GraphicLineEntity" class="frameline" id="1X3K" x1="40" x2="40" y1="40" y2="3460"/>
<line cb-classname="GraphicLineEntity" class="frameline" id="1X3y" x1="40" x2="5380" y1="3460" y2="3460"/>
<line cb-classname="GraphicLineEntity" class="frameline" id="1X3p" x1="5380" x2="5380" y1="3460" y2="40"/>
<line cb-classname="GraphicLineEntity" class="frameline" id="1X3t" x1="5380" x2="40" y1="40" y2="40"/>
<line cb-classname="GraphicLineEntity" class="frame" id="1X3a" x1="5430" x2="5440" y1="3510" y2="3510"/>
</g>
<g cb-classname="GraphicShape" cb-tag="TITLE BOX" id="1X3C">
<line cb-classname="GraphicLineEntity" class="frameline" id="1X39" x1="2340" x2="2340" y1="3080" y2="3460"/>
<line cb-classname="GraphicLineEntity" class="frameline" id="1X31" x1="2340" x2="5380" y1="3080" y2="3080"/>
<line cb-classname="GraphicLineEntity" class="frameline" id="1X3F" x1="3650" x2="3650" y1="3460" y2="3080"/>
<line cb-classname="GraphicLineEntity" class="frameline" id="1XSd" x1="3650" x2="5380" y1="3240" y2="3240"/>
<line cb-classname="GraphicLineEntity" class="frameline" id="1XSK" x1="3650" x2="5380" y1="3390" y2="3390"/>
<line cb-classname="GraphicLineEntity" class="frameline" id="1XSy" x1="3650" x2="5380" y1="3160" y2="3160"/>
<line cb-classname="GraphicLineEntity" class="frameline" id="1XSp" x1="3650" x2="4520" y1="3320" y2="3320"/>
<line cb-classname="GraphicLineEntity" class="frameline" id="1XSt" x1="4520" x2="5380" y1="3290" y2="3290"/>
<line cb-classname="GraphicLineEntity" class="frameline" id="1XSa" x1="4520" x2="5380" y1="3240" y2="3240"/>
<line cb-classname="GraphicLineEntity" class="frameline" id="1XSC" x1="4520" x2="4520" y1="3240" y2="3460"/>
<line cb-classname="GraphicLineEntity" class="frameline" id="1XS9" x1="4810" x2="4810" y1="3240" y2="3390"/>
<line cb-classname="GraphicLineEntity" class="frameline" id="1XS1" x1="4990" x2="4990" y1="3240" y2="3390"/>
<line cb-classname="GraphicLineEntity" class="frameline" id="1XSF" x1="5150" x2="5150" y1="3080" y2="3390"/>
</g>
<g cb-classname="GraphicShape" cb-tag="TEXT LABELS" id="1XUd">
<text baseline-shift="-50%" cb-classname="GraphicTextEntity" class="frame" font-size="25" id="1XUK" text-anchor="middle" x="4890" y="3252">
Drop
</text>
<text baseline-shift="-50%" cb-classname="GraphicTextEntity" class="frame" font-size="25" id="1XUy" text-anchor="middle" x="5075" y="3252">
Task
</text>
<text baseline-shift="-50%" cb-classname="GraphicTextEntity" class="frame" font-size="25" id="1XUp" text-anchor="middle" x="5265" y="3252">
Sheet
</text>
<text cb-classname="GraphicTextEntity" class="frame" font-size="25" id="1XUt" x="5152" y="3107">
Rev.
</text>
<text cb-classname="GraphicTextEntity" class="frame" font-size="25" id="1XUa" x="3653" y="3418">
Engineer
</text>
<text cb-classname="GraphicTextEntity" class="frame" font-size="25" id="1XUC" x="4528" y="3419">
Approved
</text>
<text cb-classname="GraphicTextEntity" class="frame" font-size="25" id="1XU9" x="5152" y="3187">
Date
</text>
<text baseline-shift="-50%" cb-classname="GraphicTextEntity" class="frame" font-size="25" id="1XU1" text-anchor="middle" x="4660" y="3252">
Drawing Number
</text>
<text baseline-shift="-50%" cb-classname="GraphicTextEntity" class="frame" font-size="25" id="1XUF" text-anchor="middle" x="4680" y="3325">
CTL
</text>
</g>
<text baseline-shift="-50%" cb-classname="GraphicTextEntity" class="frame" font-size="48" id="1XDd" text-anchor="middle" x="3000" y="3100">
EMERSON PROCESS MANAGEMENT
</text>
<g baseline-shift="-100%" cb-anchor-x="2360" cb-anchor-y="3140" cb-classname="GroupText" cb-max-width="1260" fill="black" id="1XDK">
<text baseline-shift="-100%" cb-classname="GraphicTextEntity" class="frame" fill="black" font-family="arial" font-size="22" font-weight="normal" id="1XDy" text-anchor="start" text-decoration="normal" x="2360" y="3140">
THIS DOCUMENT CONTAINS INFORMATION PROPRIETARY TO EMERSON PROCESS
</text>
<text baseline-shift="-100%" cb-classname="GraphicTextEntity" class="frame" fill="black" font-family="arial" font-size="22" font-weight="normal" id="1XDp" text-anchor="start" text-decoration="normal" x="2360" y="3176">
MANAGEMENT POWER &amp; WATER SOLUTIONS, INC. IT IS SUBMITTED IN CONFIDENCE AND
</text>
<text baseline-shift="-100%" cb-classname="GraphicTextEntity" class="frame" fill="black" font-family="arial" font-size="22" font-weight="normal" id="1XDt" text-anchor="start" text-decoration="normal" x="2360" y="3212">
TRUST, IS TO BE USED BY YOU SOLELY FOR THE PURPOSES FOR WHICH IT IS
</text>
<text baseline-shift="-100%" cb-classname="GraphicTextEntity" class="frame" fill="black" font-family="arial" font-size="22" font-weight="normal" id="1XDa" text-anchor="start" text-decoration="normal" x="2360" y="3248">
FURNISHED AND IS TO BE RETURNED UPON REQUEST. THIS DOCUMENT AND ANY
</text>
<text baseline-shift="-100%" cb-classname="GraphicTextEntity" class="frame" fill="black" font-family="arial" font-size="22" font-weight="normal" id="1XDC" text-anchor="start" text-decoration="normal" x="2360" y="3284">
OTHER INFORMATION PROVIDED TO YOU IS NOT TO BE REPRODUCED, TRANSMITTED,
</text>
<text baseline-shift="-100%" cb-classname="GraphicTextEntity" class="frame" fill="black" font-family="arial" font-size="22" font-weight="normal" id="1XD9" text-anchor="start" text-decoration="normal" x="2360" y="3320">
DISCLOSED, OR USED OTHERWISE IN WHOLE OR IN PART WITHOUT THE PRIOR
</text>
<text baseline-shift="-100%" cb-classname="GraphicTextEntity" class="frame" fill="black" font-family="arial" font-size="22" font-weight="normal" id="1XD1" text-anchor="start" text-decoration="normal" x="2360" y="3356">
WRITTEN AUTHORIZATION OF EMERSON PROCESS MANAGEMENT POWER &amp; WATER
</text>
<text baseline-shift="-100%" cb-classname="GraphicTextEntity" class="frame" fill="black" font-family="arial" font-size="22" font-weight="normal" id="1XDF" text-anchor="start" text-decoration="normal" x="2360" y="3392">
SOLUTIONS,INC.
</text>
</g>
</g>
</svg>