<?xml version="1.0" ?><svg cb-auto-time="07/03/2017 08:54:05" cb-classname="ControlFunction" cb-component="STNBY MOTR2-" cb-create-time="03/16/2017" cb-drop-id="99" cb-filename="Y:\OVATION\NET0\UNIT0\CONTROLFUNCTIONS\0026.svg" cb-function-id="0026" cb-key="551123424433" cb-modified-timestamp="1582708948" cb-modify-id="00000003" cb-path="Y:/OVATION/NET0/UNIT0/CONTROLFUNCTIONS" cb-revision="A" cb-sheet-number="S11089" cb-sheet-title="STNBY MOTR2-TEST-DEV" cb-snap-grid="10" cb-task-id="1" height="3522" id="1" width="5450" xmlns="http://www.w3.org/2000/svg">
<style cb-classname="EntityStyle" id="2" type="text/css">
	.algorithm { fill: white; stroke: black; stroke-width: 3 }
	.algorithm-function { fill: black; stroke: none }
	.algorithm-functionline { fill: none; stroke: black; stroke-linecap: round; stroke-width: 3 }
	.algorithm-name { fill: black; stroke: none }
	.algorithm-nameline { fill: none; stroke: black; stroke-linecap: round; stroke-width: 3 }
	.algorithm-sequence { fill: black; stroke: none; visibility: hidden }
	.algorithm-sequenceline { fill: none; stroke: black; stroke-linecap: round; stroke-width: 3; visibility: hidden }
	.algorithmline { fill: none; stroke: black; stroke-linecap: round; stroke-width: 3 }
	.annotation { fill: black; stroke: none }
	.annotationline { fill: none; stroke: black; stroke-linecap: round; stroke-width: 3 }
	.description { fill: black; stroke: none }
	.descriptionline { fill: none; stroke: black; stroke-linecap: round; stroke-width: 3 }
	.frame { fill: black; stroke: none }
	.frameline { fill: none; stroke: black; stroke-linecap: round; stroke-width: 3 }
	.signal { fill: black; stroke: none }
	.signalline { fill: none; stroke: black; stroke-linecap: round; stroke-width: 3 }
	text.algorithm { fill: black; font-family: Arial; font-size: 22; stroke: none }
	text.algorithm-function { fill: black; font-family: Arial; font-size: 22; stroke: none }
	text.algorithm-name { fill: black; font-family: Arial; font-size: 22; stroke: none }
	text.algorithm-sequence { fill: black; font-family: Arial; font-size: 22; stroke: none; visibility: hidden }
	text.annotation { fill: black; font-family: Arial; font-size: 22; stroke: none }
	text.description { fill: black; font-family: Arial; font-size: 28; stroke: none }
	text.frame { fill: black; font-family: Arial; font-size: 18; stroke: none }
	text.signal { fill: black; font-family: Arial; font-size: 12; stroke: none }
</style>
<g cb-classname="NamedObject" cb-objectname="Comments" id="3"/>
<g cb-classname="AlgorithmContainer" cb-objectname="Algorithms" id="4">
<g cb-alg-rJ4v="NO" cb-alg-rw2="MOTR2-XU90[3]" cb-algorithm-id="001" cb-classname="ExternalPointInterface" cb-function-name="INPUT" id="1XOF">
<ellipse cb-classname="GraphicEllipseEntity" class="algorithm" cx="670" cy="180" id="1X3d" rx="40" ry="40"/>
<rect cb-classname="GraphicRectangleEntity" class="algorithm" height="80" id="1X3K" width="30" x="600" y="140"/>
<line cb-classname="GraphicLineEntity" class="algorithm" id="1X3y" x1="600" x2="630" y1="180" y2="180"/>
<g cb-classname="ControlPin" cb-pin-name="2U-xJ1-sAg" id="1X3p">
<line cb-classname="GraphicLineEntity" class="signalline" id="1X3t" x1="710" x2="1080" y1="180" y2="180"/>
<g cb-classname="SignalSegment" id="1X3a">
<line cb-classname="GraphicLineEntity" class="signalline" id="1X3C" stroke="#1e12bf" stroke-dasharray="5,4" x1="1080" x2="3810" y1="180" y2="180"/>
<g cb-classname="SignalSegment" id="1X39">
<g cb-classname="SignalConnection" cb-graphic-line="$1159$" cb-input-pin="$kaWG$" id="1X31"/>
<line cb-classname="GraphicLineEntity" class="signalline" id="1X3F" stroke="#1e12bf" stroke-dasharray="5,4" x1="3810" x2="3810" y1="180" y2="2210"/>
</g>
</g>
</g>
<g cb-classname="PointStatusIndicator" cb-indicator-type="Highway" cb-source="hu-bxv-boA" id="1XSd" visibility="hidden">
<line cb-classname="GraphicLineEntity" class="algorithmline" id="1XSK" x1="630" x2="670" y1="180" y2="140"/>
<line cb-classname="GraphicLineEntity" class="algorithmline" id="1XSy" x1="670" x2="710" y1="140" y2="180"/>
<line cb-classname="GraphicLineEntity" class="algorithmline" id="1XSp" x1="710" x2="670" y1="180" y2="220"/>
<line cb-classname="GraphicLineEntity" class="algorithmline" id="1XSt" x1="670" x2="630" y1="220" y2="180"/>
</g>
<g cb-classname="PointStatusIndicator" cb-indicator-type="hardware" cb-source="fr-nVg-y28" id="1XSa" visibility="hidden">
<text cb-classname="GraphicTextEntity" class="algorithm" fill="#000000" font-family="arial" font-size="20" id="1XSC" x="660" y="190">
H
</text>
</g>
<g cb-classname="PointStatusIndicator" cb-indicator-type="alarm" cb-source="JN-qYo-mo5" id="1XS9" visibility="hidden">
<text cb-classname="GraphicTextEntity" class="algorithm" fill="#000000" font-family="arial" font-size="20" id="1XS1" x="607" y="169">
A
</text>
</g>
<g cb-classname="PointStatusIndicator" cb-indicator-type="ingraphic" cb-source="C8-V09-XAr" id="1XSF" visibility="hidden">
<text cb-classname="GraphicTextEntity" class="algorithm" fill="#000000" font-family="Arial" font-size="20" id="1XUd" x="605" y="209">
G
</text>
</g>
<g baseline-shift="-100%" cb-anchor-x="120" cb-anchor-y="140" cb-classname="PointDescription" cb-content="extended" cb-labeled="false" cb-max-width="460" cb-source="Hq-jS6-K95" class="algorithm" font-style="normal" id="1XUK" text-anchor="start">
<text baseline-shift="-100%" cb-classname="GraphicTextEntity" class="algorithm" id="1XUy" text-anchor="start" x="120" y="140">
@ Ovation Control Builder @
</text>
</g>
<g cb-classname="DynamicText" cb-labeled="false" cb-pin-name="B2I" cb-source="hu-bxv-boA" class="algorithm" id="1XUp" text-anchor="start">
<text baseline-shift="-100%" cb-classname="GraphicTextEntity" class="algorithm" fill="black" font-family="arial" font-size="20" font-style="normal" font-weight="normal" id="1XUt" text-anchor="start" text-decoration="normal" x="715" y="142"/>
</g>
<g baseline-shift="-100%" cb-anchor-x="730" cb-anchor-y="180" cb-classname="PointReferences" cb-max-width="350" cb-originator="true" cb-source="wO-eCR-KNj" class="signal" id="1XUa" text-anchor="start">
<text baseline-shift="-100%" cb-classname="GraphicTextEntity" class="algorithm" id="1XUC" text-anchor="start" x="730" y="180">
99/S11088
</text>
</g>
</g>
<g cb-alg-5bqR="NO" cb-alg-5tx="MOTR2-XU90[4]" cb-algorithm-id="003" cb-classname="ExternalPointInterface" cb-function-name="INPUT" id="1XU9">
<ellipse cb-classname="GraphicEllipseEntity" class="algorithm" cx="670" cy="340" id="1XU1" rx="40" ry="40"/>
<rect cb-classname="GraphicRectangleEntity" class="algorithm" height="80" id="1XUF" width="30" x="600" y="300"/>
<line cb-classname="GraphicLineEntity" class="algorithm" id="1XDd" x1="600" x2="630" y1="340" y2="340"/>
<g cb-classname="ControlPin" cb-pin-name="XG-aLj-pTr" id="1XDK">
<line cb-classname="GraphicLineEntity" class="signalline" id="1XDy" x1="710" x2="1080" y1="340" y2="340"/>
<g cb-classname="SignalSegment" id="1XDp">
<line cb-classname="GraphicLineEntity" class="signalline" id="1XDt" stroke="#1e12bf" stroke-dasharray="5,4" x1="1080" x2="3750" y1="340" y2="340"/>
<g cb-classname="SignalSegment" id="1XDa">
<g cb-classname="SignalConnection" cb-graphic-line="$1187$" cb-input-pin="$3GhY$" id="1XDC"/>
<line cb-classname="GraphicLineEntity" class="signalline" id="1XD9" stroke="#1e12bf" stroke-dasharray="5,4" x1="3750" x2="3750" y1="340" y2="2210"/>
</g>
</g>
</g>
<g cb-classname="PointStatusIndicator" cb-indicator-type="Highway" cb-source="wO-eCR-KNj" id="1XD1" visibility="hidden">
<line cb-classname="GraphicLineEntity" class="algorithmline" id="1XDF" x1="630" x2="670" y1="340" y2="300"/>
<line cb-classname="GraphicLineEntity" class="algorithmline" id="1X5d" x1="670" x2="710" y1="300" y2="340"/>
<line cb-classname="GraphicLineEntity" class="algorithmline" id="1X5K" x1="710" x2="670" y1="340" y2="380"/>
<line cb-classname="GraphicLineEntity" class="algorithmline" id="1X5y" x1="670" x2="630" y1="380" y2="340"/>
</g>
<g cb-classname="PointStatusIndicator" cb-indicator-type="hardware" cb-source="JN-qYo-mo5" id="1X5p" visibility="hidden">
<text cb-classname="GraphicTextEntity" class="algorithm" fill="#000000" font-family="arial" font-size="20" id="1X5t" x="660" y="350">
H
</text>
</g>
<g cb-classname="PointStatusIndicator" cb-indicator-type="alarm" cb-source="C8-V09-XAr" id="1X5a" visibility="hidden">
<text cb-classname="GraphicTextEntity" class="algorithm" fill="#000000" font-family="arial" font-size="20" id="1X5C" x="607" y="329">
A
</text>
</g>
<g cb-classname="PointStatusIndicator" cb-indicator-type="ingraphic" cb-source="Hq-jS6-K95" id="1X59" visibility="hidden">
<text cb-classname="GraphicTextEntity" class="algorithm" fill="#000000" font-family="Arial" font-size="20" id="1X51" x="605" y="369">
G
</text>
</g>
<g baseline-shift="-100%" cb-anchor-x="120" cb-anchor-y="300" cb-classname="PointDescription" cb-content="extended" cb-labeled="false" cb-max-width="460" cb-source="hu-bxv-boA" class="algorithm" font-style="normal" id="1X5F" text-anchor="start">
<text baseline-shift="-100%" cb-classname="GraphicTextEntity" class="algorithm" id="1Jjd" text-anchor="start" x="120" y="300">
@ Ovation Control Builder @
</text>
</g>
<g cb-classname="DynamicText" cb-labeled="false" cb-pin-name="0KT" cb-source="wO-eCR-KNj" class="algorithm" id="1JjK" text-anchor="start">
<text baseline-shift="-100%" cb-classname="GraphicTextEntity" class="algorithm" fill="black" font-family="arial" font-size="20" font-style="normal" font-weight="normal" id="1Jjy" text-anchor="start" text-decoration="normal" x="715" y="302"/>
</g>
<g baseline-shift="-100%" cb-anchor-x="730" cb-anchor-y="340" cb-classname="PointReferences" cb-max-width="350" cb-originator="true" cb-source="l0-ydy-wWL" class="signal" id="1Jjp" text-anchor="start">
<text baseline-shift="-100%" cb-classname="GraphicTextEntity" class="algorithm" id="1Jjt" text-anchor="start" x="730" y="340">
99/S11088
</text>
</g>
</g>
<g cb-alg-WHRy="NO" cb-alg-WsS="MOTR2-XU90[5]" cb-algorithm-id="005" cb-classname="ExternalPointInterface" cb-function-name="INPUT" id="1Jja">
<ellipse cb-classname="GraphicEllipseEntity" class="algorithm" cx="670" cy="500" id="1JjC" rx="40" ry="40"/>
<rect cb-classname="GraphicRectangleEntity" class="algorithm" height="80" id="1Jj9" width="30" x="600" y="460"/>
<line cb-classname="GraphicLineEntity" class="algorithm" id="1Jj1" x1="600" x2="630" y1="500" y2="500"/>
<g cb-classname="ControlPin" cb-pin-name="cL-l19-5tx" id="1JjF">
<line cb-classname="GraphicLineEntity" class="signalline" id="1Jkd" x1="710" x2="1080" y1="500" y2="500"/>
<g cb-classname="SignalSegment" id="1JkK">
<line cb-classname="GraphicLineEntity" class="signalline" id="1Jky" stroke="#1e12bf" stroke-dasharray="5,4" x1="1080" x2="3690" y1="500" y2="500"/>
<g cb-classname="SignalSegment" id="1Jkp">
<g cb-classname="SignalConnection" cb-graphic-line="$1215$" cb-input-pin="$7YCN$" id="1Jkt"/>
<line cb-classname="GraphicLineEntity" class="signalline" id="1Jka" stroke="#1e12bf" stroke-dasharray="5,4" x1="3690" x2="3690" y1="500" y2="2210"/>
</g>
</g>
</g>
<g cb-classname="PointStatusIndicator" cb-indicator-type="Highway" cb-source="l0-ydy-wWL" id="1JkC" visibility="hidden">
<line cb-classname="GraphicLineEntity" class="algorithmline" id="1Jk9" x1="630" x2="670" y1="500" y2="460"/>
<line cb-classname="GraphicLineEntity" class="algorithmline" id="1Jk1" x1="670" x2="710" y1="460" y2="500"/>
<line cb-classname="GraphicLineEntity" class="algorithmline" id="1JkF" x1="710" x2="670" y1="500" y2="540"/>
<line cb-classname="GraphicLineEntity" class="algorithmline" id="1Jid" x1="670" x2="630" y1="540" y2="500"/>
</g>
<g cb-classname="PointStatusIndicator" cb-indicator-type="hardware" cb-source="C8-V09-XAr" id="1JiK" visibility="hidden">
<text cb-classname="GraphicTextEntity" class="algorithm" fill="#000000" font-family="arial" font-size="20" id="1Jiy" x="660" y="510">
H
</text>
</g>
<g cb-classname="PointStatusIndicator" cb-indicator-type="alarm" cb-source="Hq-jS6-K95" id="1Jip" visibility="hidden">
<text cb-classname="GraphicTextEntity" class="algorithm" fill="#000000" font-family="arial" font-size="20" id="1Jit" x="607" y="489">
A
</text>
</g>
<g cb-classname="PointStatusIndicator" cb-indicator-type="ingraphic" cb-source="hu-bxv-boA" id="1Jia" visibility="hidden">
<text cb-classname="GraphicTextEntity" class="algorithm" fill="#000000" font-family="Arial" font-size="20" id="1JiC" x="605" y="529">
G
</text>
</g>
<g baseline-shift="-100%" cb-anchor-x="120" cb-anchor-y="460" cb-classname="PointDescription" cb-content="extended" cb-labeled="false" cb-max-width="460" cb-source="wO-eCR-KNj" class="algorithm" font-style="normal" id="1Ji9" text-anchor="start">
<text baseline-shift="-100%" cb-classname="GraphicTextEntity" class="algorithm" id="1Ji1" text-anchor="start" x="120" y="460">
@ Ovation Control Builder @
</text>
</g>
<g cb-classname="DynamicText" cb-labeled="false" cb-pin-name="E8y" cb-source="l0-ydy-wWL" class="algorithm" id="1JiF" text-anchor="start">
<text baseline-shift="-100%" cb-classname="GraphicTextEntity" class="algorithm" fill="black" font-family="arial" font-size="20" font-style="normal" font-weight="normal" id="1Jzd" text-anchor="start" text-decoration="normal" x="715" y="462"/>
</g>
<g baseline-shift="-100%" cb-anchor-x="730" cb-anchor-y="500" cb-classname="PointReferences" cb-max-width="350" cb-originator="true" cb-source="2U-xJ1-sAg" class="signal" id="1JzK" text-anchor="start">
<text baseline-shift="-100%" cb-classname="GraphicTextEntity" class="algorithm" id="1Jzy" text-anchor="start" x="730" y="500">
99/S11088
</text>
</g>
</g>
<g cb-alg-Omy1="NO" cb-alg-Owj="MOTR2-XU90[7]" cb-algorithm-id="009" cb-classname="ExternalPointInterface" cb-function-name="INPUT" id="1Jzp">
<ellipse cb-classname="GraphicEllipseEntity" class="algorithm" cx="670" cy="1140" id="1Jzt" rx="40" ry="40"/>
<rect cb-classname="GraphicRectangleEntity" class="algorithm" height="80" id="1Jza" width="30" x="600" y="1100"/>
<line cb-classname="GraphicLineEntity" class="algorithm" id="1JzC" x1="600" x2="630" y1="1140" y2="1140"/>
<g cb-classname="ControlPin" cb-pin-name="AQ-62a-WsS" id="1Jz9">
<line cb-classname="GraphicLineEntity" class="signalline" id="1Jz1" x1="710" x2="1080" y1="1140" y2="1140"/>
<g cb-classname="SignalSegment" id="1JzF">
<g cb-classname="SignalSegment" id="1JOd">
<line cb-classname="GraphicLineEntity" class="signalline" id="1JOK" stroke="#1e12bf" stroke-dasharray="5,4" x1="3570" x2="3570" y1="1140" y2="2210"/>
<g cb-classname="SignalConnection" cb-graphic-line="$1241$" cb-input-pin="$Ztj4$" id="1JOy"/>
</g>
<line cb-classname="GraphicLineEntity" class="signalline" id="1JOp" stroke="#1e12bf" stroke-dasharray="5,4" x1="1080" x2="3570" y1="1140" y2="1140"/>
</g>
</g>
<g cb-classname="PointStatusIndicator" cb-indicator-type="Highway" cb-source="2U-xJ1-sAg" id="1JOt" visibility="hidden">
<line cb-classname="GraphicLineEntity" class="algorithmline" id="1JOa" x1="630" x2="670" y1="1140" y2="1100"/>
<line cb-classname="GraphicLineEntity" class="algorithmline" id="1JOC" x1="670" x2="710" y1="1100" y2="1140"/>
<line cb-classname="GraphicLineEntity" class="algorithmline" id="1JO9" x1="710" x2="670" y1="1140" y2="1180"/>
<line cb-classname="GraphicLineEntity" class="algorithmline" id="1JO1" x1="670" x2="630" y1="1180" y2="1140"/>
</g>
<g cb-classname="PointStatusIndicator" cb-indicator-type="hardware" cb-source="Hq-jS6-K95" id="1JOF" visibility="hidden">
<text cb-classname="GraphicTextEntity" class="algorithm" fill="#000000" font-family="arial" font-size="20" id="1J3d" x="660" y="1150">
H
</text>
</g>
<g cb-classname="PointStatusIndicator" cb-indicator-type="alarm" cb-source="hu-bxv-boA" id="1J3K" visibility="hidden">
<text cb-classname="GraphicTextEntity" class="algorithm" fill="#000000" font-family="arial" font-size="20" id="1J3y" x="607" y="1129">
A
</text>
</g>
<g cb-classname="PointStatusIndicator" cb-indicator-type="ingraphic" cb-source="wO-eCR-KNj" id="1J3p" visibility="hidden">
<text cb-classname="GraphicTextEntity" class="algorithm" fill="#000000" font-family="Arial" font-size="20" id="1J3t" x="605" y="1169">
G
</text>
</g>
<g baseline-shift="-100%" cb-anchor-x="120" cb-anchor-y="1100" cb-classname="PointDescription" cb-content="extended" cb-labeled="false" cb-max-width="460" cb-source="l0-ydy-wWL" class="algorithm" font-style="normal" id="1J3a" text-anchor="start">
<text baseline-shift="-100%" cb-classname="GraphicTextEntity" class="algorithm" id="1J3C" text-anchor="start" x="120" y="1100">
@ Ovation Control Builder @
</text>
</g>
<g cb-classname="DynamicText" cb-labeled="false" cb-pin-name="SI3" cb-source="2U-xJ1-sAg" class="algorithm" id="1J39" text-anchor="start">
<text baseline-shift="-100%" cb-classname="GraphicTextEntity" class="algorithm" fill="black" font-family="arial" font-size="20" font-style="normal" font-weight="normal" id="1J31" text-anchor="start" text-decoration="normal" x="715" y="1102"/>
</g>
<g baseline-shift="-100%" cb-anchor-x="730" cb-anchor-y="1140" cb-classname="PointReferences" cb-max-width="350" cb-originator="true" cb-source="XG-aLj-pTr" class="signal" id="1J3F" text-anchor="start">
<text baseline-shift="-100%" cb-classname="GraphicTextEntity" class="algorithm" id="1JSd" text-anchor="start" x="730" y="1140">
99/S11088
</text>
</g>
</g>
<g cb-alg-oFHw="NO" cb-alg-ohv="MOTR2-XU90[8]" cb-algorithm-id="00B" cb-classname="ExternalPointInterface" cb-function-name="INPUT" id="1JSK">
<ellipse cb-classname="GraphicEllipseEntity" class="algorithm" cx="670" cy="1300" id="1JSy" rx="40" ry="40"/>
<rect cb-classname="GraphicRectangleEntity" class="algorithm" height="80" id="1JSp" width="30" x="600" y="1260"/>
<line cb-classname="GraphicLineEntity" class="algorithm" id="1JSt" x1="600" x2="630" y1="1300" y2="1300"/>
<g cb-classname="ControlPin" cb-pin-name="fU-vMX-Owj" id="1JSa">
<line cb-classname="GraphicLineEntity" class="signalline" id="1JSC" x1="710" x2="1080" y1="1300" y2="1300"/>
<g cb-classname="SignalSegment" id="1JS9">
<g cb-classname="SignalSegment" id="1JS1">
<line cb-classname="GraphicLineEntity" class="signalline" id="1JSF" stroke="#1e12bf" stroke-dasharray="5,4" x1="3510" x2="3510" y1="1300" y2="2210"/>
<g cb-classname="SignalConnection" cb-graphic-line="$1269$" cb-input-pin="$wEJO$" id="1JUd"/>
</g>
<line cb-classname="GraphicLineEntity" class="signalline" id="1JUK" stroke="#1e12bf" stroke-dasharray="5,4" x1="1080" x2="3510" y1="1300" y2="1300"/>
</g>
</g>
<g cb-classname="PointStatusIndicator" cb-indicator-type="Highway" cb-source="XG-aLj-pTr" id="1JUy" visibility="hidden">
<line cb-classname="GraphicLineEntity" class="algorithmline" id="1JUp" x1="630" x2="670" y1="1300" y2="1260"/>
<line cb-classname="GraphicLineEntity" class="algorithmline" id="1JUt" x1="670" x2="710" y1="1260" y2="1300"/>
<line cb-classname="GraphicLineEntity" class="algorithmline" id="1JUa" x1="710" x2="670" y1="1300" y2="1340"/>
<line cb-classname="GraphicLineEntity" class="algorithmline" id="1JUC" x1="670" x2="630" y1="1340" y2="1300"/>
</g>
<g cb-classname="PointStatusIndicator" cb-indicator-type="hardware" cb-source="hu-bxv-boA" id="1JU9" visibility="hidden">
<text cb-classname="GraphicTextEntity" class="algorithm" fill="#000000" font-family="arial" font-size="20" id="1JU1" x="660" y="1310">
H
</text>
</g>
<g cb-classname="PointStatusIndicator" cb-indicator-type="alarm" cb-source="wO-eCR-KNj" id="1JUF" visibility="hidden">
<text cb-classname="GraphicTextEntity" class="algorithm" fill="#000000" font-family="arial" font-size="20" id="1JDd" x="607" y="1289">
A
</text>
</g>
<g cb-classname="PointStatusIndicator" cb-indicator-type="ingraphic" cb-source="l0-ydy-wWL" id="1JDK" visibility="hidden">
<text cb-classname="GraphicTextEntity" class="algorithm" fill="#000000" font-family="Arial" font-size="20" id="1JDy" x="605" y="1329">
G
</text>
</g>
<g baseline-shift="-100%" cb-anchor-x="120" cb-anchor-y="1260" cb-classname="PointDescription" cb-content="extended" cb-labeled="false" cb-max-width="460" cb-source="2U-xJ1-sAg" class="algorithm" font-style="normal" id="1JDp" text-anchor="start">
<text baseline-shift="-100%" cb-classname="GraphicTextEntity" class="algorithm" id="1JDt" text-anchor="start" x="120" y="1260">
@ Ovation Control Builder @
</text>
</g>
<g cb-classname="DynamicText" cb-labeled="false" cb-pin-name="zOB" cb-source="XG-aLj-pTr" class="algorithm" id="1JDa" text-anchor="start">
<text baseline-shift="-100%" cb-classname="GraphicTextEntity" class="algorithm" fill="black" font-family="arial" font-size="20" font-style="normal" font-weight="normal" id="1JDC" text-anchor="start" text-decoration="normal" x="715" y="1262"/>
</g>
<g baseline-shift="-100%" cb-anchor-x="730" cb-anchor-y="1300" cb-classname="PointReferences" cb-max-width="350" cb-originator="true" cb-source="cL-l19-5tx" class="signal" id="1JD9" text-anchor="start">
<text baseline-shift="-100%" cb-classname="GraphicTextEntity" class="algorithm" id="1JD1" text-anchor="start" x="730" y="1300">
99/S11088
</text>
</g>
</g>
<g cb-alg-uMD="MOTR2-XU90[9]" cb-alg-ung9="NO" cb-algorithm-id="00C" cb-classname="ExternalPointInterface" cb-function-name="INPUT" id="1JDF">
<ellipse cb-classname="GraphicEllipseEntity" class="algorithm" cx="670" cy="1460" id="1J5d" rx="40" ry="40"/>
<rect cb-classname="GraphicRectangleEntity" class="algorithm" height="80" id="1J5K" width="30" x="600" y="1420"/>
<line cb-classname="GraphicLineEntity" class="algorithm" id="1J5y" x1="600" x2="630" y1="1460" y2="1460"/>
<g cb-classname="ControlPin" cb-pin-name="aB-mgW-TKG" id="1J5p">
<line cb-classname="GraphicLineEntity" class="signalline" id="1J5t" x1="710" x2="1080" y1="1460" y2="1460"/>
<g cb-classname="SignalSegment" id="1J5a">
<g cb-classname="SignalSegment" id="1J5C">
<line cb-classname="GraphicLineEntity" class="signalline" id="1J59" stroke="#1e12bf" stroke-dasharray="5,4" x1="3450" x2="3450" y1="1460" y2="2210"/>
<g cb-classname="SignalConnection" cb-graphic-line="$1297$" cb-input-pin="$0xXE$" id="1J51"/>
</g>
<line cb-classname="GraphicLineEntity" class="signalline" id="1J5F" stroke="#1e12bf" stroke-dasharray="5,4" x1="1080" x2="3450" y1="1460" y2="1460"/>
</g>
</g>
<g cb-classname="PointStatusIndicator" cb-indicator-type="Highway" cb-source="cL-l19-5tx" id="1zjd" visibility="hidden">
<line cb-classname="GraphicLineEntity" class="algorithmline" id="1zjK" x1="630" x2="670" y1="1460" y2="1420"/>
<line cb-classname="GraphicLineEntity" class="algorithmline" id="1zjy" x1="670" x2="710" y1="1420" y2="1460"/>
<line cb-classname="GraphicLineEntity" class="algorithmline" id="1zjp" x1="710" x2="670" y1="1460" y2="1500"/>
<line cb-classname="GraphicLineEntity" class="algorithmline" id="1zjt" x1="670" x2="630" y1="1500" y2="1460"/>
</g>
<g cb-classname="PointStatusIndicator" cb-indicator-type="hardware" cb-source="wO-eCR-KNj" id="1zja" visibility="hidden">
<text cb-classname="GraphicTextEntity" class="algorithm" fill="#000000" font-family="arial" font-size="20" id="1zjC" x="660" y="1470">
H
</text>
</g>
<g cb-classname="PointStatusIndicator" cb-indicator-type="alarm" cb-source="l0-ydy-wWL" id="1zj9" visibility="hidden">
<text cb-classname="GraphicTextEntity" class="algorithm" fill="#000000" font-family="arial" font-size="20" id="1zj1" x="607" y="1449">
A
</text>
</g>
<g cb-classname="PointStatusIndicator" cb-indicator-type="ingraphic" cb-source="2U-xJ1-sAg" id="1zjF" visibility="hidden">
<text cb-classname="GraphicTextEntity" class="algorithm" fill="#000000" font-family="Arial" font-size="20" id="1zkd" x="605" y="1489">
G
</text>
</g>
<g baseline-shift="-100%" cb-anchor-x="120" cb-anchor-y="1420" cb-classname="PointDescription" cb-content="extended" cb-labeled="false" cb-max-width="460" cb-source="XG-aLj-pTr" class="algorithm" font-style="normal" id="1zkK" text-anchor="start">
<text baseline-shift="-100%" cb-classname="GraphicTextEntity" class="algorithm" id="1zky" text-anchor="start" x="120" y="1420">
@ Ovation Control Builder @
</text>
</g>
<g cb-classname="DynamicText" cb-labeled="false" cb-pin-name="ObT" cb-source="cL-l19-5tx" class="algorithm" id="1zkp" text-anchor="start">
<text baseline-shift="-100%" cb-classname="GraphicTextEntity" class="algorithm" fill="black" font-family="arial" font-size="20" font-style="normal" font-weight="normal" id="1zkt" text-anchor="start" text-decoration="normal" x="715" y="1422"/>
</g>
<g baseline-shift="-100%" cb-anchor-x="730" cb-anchor-y="1460" cb-classname="PointReferences" cb-max-width="350" cb-originator="true" cb-source="AQ-62a-WsS" class="signal" id="1zka" text-anchor="start">
<text baseline-shift="-100%" cb-classname="GraphicTextEntity" class="algorithm" id="1zkC" text-anchor="start" x="730" y="1460">
99/S11088
</text>
</g>
</g>
<g cb-alg-XYHa="NO" cb-alg-Xtn="MOTR2-XU90[2]" cb-algorithm-id="00D" cb-classname="ExternalPointInterface" cb-function-name="INPUT" id="1zk9">
<ellipse cb-classname="GraphicEllipseEntity" class="algorithm" cx="670" cy="2340" id="1zk1" rx="40" ry="40"/>
<rect cb-classname="GraphicRectangleEntity" class="algorithm" height="80" id="1zkF" width="30" x="600" y="2300"/>
<line cb-classname="GraphicLineEntity" class="algorithm" id="1zid" x1="600" x2="630" y1="2340" y2="2340"/>
<g cb-classname="ControlPin" cb-pin-name="fr-nVg-y28" id="1ziK">
<line cb-classname="GraphicLineEntity" class="signalline" id="1ziy" x1="710" x2="1080" y1="2340" y2="2340"/>
<g cb-classname="SignalSegment" id="1zip">
<line cb-classname="GraphicLineEntity" class="signalline" id="1zit" stroke="#1e12bf" stroke-dasharray="5,4" x1="1080" x2="3100" y1="2340" y2="2340"/>
<g cb-classname="SignalConnection" cb-graphic-line="$1324$" cb-input-pin="$sQDM$" id="1zia"/>
</g>
</g>
<g cb-classname="PointStatusIndicator" cb-indicator-type="Highway" cb-source="cL-l19-5tx" id="1ziC" visibility="hidden">
<line cb-classname="GraphicLineEntity" class="algorithmline" id="1zi9" x1="630" x2="670" y1="2340" y2="2300"/>
<line cb-classname="GraphicLineEntity" class="algorithmline" id="1zi1" x1="670" x2="710" y1="2300" y2="2340"/>
<line cb-classname="GraphicLineEntity" class="algorithmline" id="1ziF" x1="710" x2="670" y1="2340" y2="2380"/>
<line cb-classname="GraphicLineEntity" class="algorithmline" id="1zzd" x1="670" x2="630" y1="2380" y2="2340"/>
</g>
<g cb-classname="PointStatusIndicator" cb-indicator-type="hardware" cb-source="wO-eCR-KNj" id="1zzK" visibility="hidden">
<text cb-classname="GraphicTextEntity" class="algorithm" fill="#000000" font-family="arial" font-size="20" id="1zzy" x="660" y="2350">
H
</text>
</g>
<g cb-classname="PointStatusIndicator" cb-indicator-type="alarm" cb-source="l0-ydy-wWL" id="1zzp" visibility="hidden">
<text cb-classname="GraphicTextEntity" class="algorithm" fill="#000000" font-family="arial" font-size="20" id="1zzt" x="607" y="2329">
A
</text>
</g>
<g cb-classname="PointStatusIndicator" cb-indicator-type="ingraphic" cb-source="2U-xJ1-sAg" id="1zza" visibility="hidden">
<text cb-classname="GraphicTextEntity" class="algorithm" fill="#000000" font-family="Arial" font-size="20" id="1zzC" x="605" y="2369">
G
</text>
</g>
<g baseline-shift="-100%" cb-anchor-x="120" cb-anchor-y="2300" cb-classname="PointDescription" cb-content="extended" cb-labeled="false" cb-max-width="460" cb-source="XG-aLj-pTr" class="algorithm" font-style="normal" id="1zz9" text-anchor="start">
<text baseline-shift="-100%" cb-classname="GraphicTextEntity" class="algorithm" id="1zz1" text-anchor="start" x="120" y="2300">
@ Ovation Control Builder @
</text>
</g>
<g cb-classname="DynamicText" cb-labeled="false" cb-pin-name="ObT" cb-source="cL-l19-5tx" class="algorithm" id="1zzF" text-anchor="start">
<text baseline-shift="-100%" cb-classname="GraphicTextEntity" class="algorithm" fill="black" font-family="arial" font-size="20" font-style="normal" font-weight="normal" id="1zOd" text-anchor="start" text-decoration="normal" x="715" y="2302"/>
</g>
<g baseline-shift="-100%" cb-anchor-x="730" cb-anchor-y="2340" cb-classname="PointReferences" cb-max-width="350" cb-originator="true" cb-source="AQ-62a-WsS" class="signal" id="1zOK" text-anchor="start">
<text baseline-shift="-100%" cb-classname="GraphicTextEntity" class="algorithm" id="1zOy" text-anchor="start" x="730" y="2340">
99/S11088
</text>
</g>
</g>
<g cb-alg-XYHa="NO" cb-alg-Xtn="MOTR2-XU90[1]" cb-algorithm-id="00E" cb-classname="ExternalPointInterface" cb-function-name="INPUT" id="1zOp">
<ellipse cb-classname="GraphicEllipseEntity" class="algorithm" cx="670" cy="2260" id="1zOt" rx="40" ry="40"/>
<rect cb-classname="GraphicRectangleEntity" class="algorithm" height="80" id="1zOa" width="30" x="600" y="2220"/>
<line cb-classname="GraphicLineEntity" class="algorithm" id="1zOC" x1="600" x2="630" y1="2260" y2="2260"/>
<g cb-classname="ControlPin" cb-pin-name="fr-nVg-y28" id="1zO9">
<line cb-classname="GraphicLineEntity" class="signalline" id="1zO1" x1="710" x2="1080" y1="2260" y2="2260"/>
<g cb-classname="SignalSegment" id="1zOF">
<line cb-classname="GraphicLineEntity" class="signalline" id="1z3d" stroke="#1e12bf" stroke-dasharray="5,4" x1="1080" x2="3100" y1="2260" y2="2260"/>
<g cb-classname="SignalConnection" cb-graphic-line="$1350$" cb-input-pin="$sQx1$" id="1z3K"/>
</g>
</g>
<g cb-classname="PointStatusIndicator" cb-indicator-type="Highway" cb-source="cL-l19-5tx" id="1z3y" visibility="hidden">
<line cb-classname="GraphicLineEntity" class="algorithmline" id="1z3p" x1="630" x2="670" y1="2260" y2="2220"/>
<line cb-classname="GraphicLineEntity" class="algorithmline" id="1z3t" x1="670" x2="710" y1="2220" y2="2260"/>
<line cb-classname="GraphicLineEntity" class="algorithmline" id="1z3a" x1="710" x2="670" y1="2260" y2="2300"/>
<line cb-classname="GraphicLineEntity" class="algorithmline" id="1z3C" x1="670" x2="630" y1="2300" y2="2260"/>
</g>
<g cb-classname="PointStatusIndicator" cb-indicator-type="hardware" cb-source="wO-eCR-KNj" id="1z39" visibility="hidden">
<text cb-classname="GraphicTextEntity" class="algorithm" fill="#000000" font-family="arial" font-size="20" id="1z31" x="660" y="2270">
H
</text>
</g>
<g cb-classname="PointStatusIndicator" cb-indicator-type="alarm" cb-source="l0-ydy-wWL" id="1z3F" visibility="hidden">
<text cb-classname="GraphicTextEntity" class="algorithm" fill="#000000" font-family="arial" font-size="20" id="1zSd" x="607" y="2249">
A
</text>
</g>
<g cb-classname="PointStatusIndicator" cb-indicator-type="ingraphic" cb-source="2U-xJ1-sAg" id="1zSK" visibility="hidden">
<text cb-classname="GraphicTextEntity" class="algorithm" fill="#000000" font-family="Arial" font-size="20" id="1zSy" x="605" y="2289">
G
</text>
</g>
<g baseline-shift="-100%" cb-anchor-x="120" cb-anchor-y="2220" cb-classname="PointDescription" cb-content="extended" cb-labeled="false" cb-max-width="460" cb-source="XG-aLj-pTr" class="algorithm" font-style="normal" id="1zSp" text-anchor="start">
<text baseline-shift="-100%" cb-classname="GraphicTextEntity" class="algorithm" id="1zSt" text-anchor="start" x="120" y="2220">
@ Ovation Control Builder @
</text>
</g>
<g cb-classname="DynamicText" cb-labeled="false" cb-pin-name="ObT" cb-source="cL-l19-5tx" class="algorithm" id="1zSa" text-anchor="start">
<text baseline-shift="-100%" cb-classname="GraphicTextEntity" class="algorithm" fill="black" font-family="arial" font-size="20" font-style="normal" font-weight="normal" id="1zSC" text-anchor="start" text-decoration="normal" x="715" y="2222"/>
</g>
<g baseline-shift="-100%" cb-anchor-x="730" cb-anchor-y="2260" cb-classname="PointReferences" cb-max-width="350" cb-originator="true" cb-source="AQ-62a-WsS" class="signal" id="1zS9" text-anchor="start">
<text baseline-shift="-100%" cb-classname="GraphicTextEntity" class="algorithm" id="1zS1" text-anchor="start" x="730" y="2260">
99/S11088
</text>
</g>
</g>
<g cb-alg-XYHa="NO" cb-alg-Xtn="MOTR2-XB48" cb-algorithm-id="007" cb-classname="ExternalPointInterface" cb-function-name="INPUT" id="1zSF">
<ellipse cb-classname="GraphicEllipseEntity" class="algorithm" cx="670" cy="2500" id="1zUd" rx="40" ry="40"/>
<rect cb-classname="GraphicRectangleEntity" class="algorithm" height="80" id="1zUK" width="30" x="600" y="2460"/>
<line cb-classname="GraphicLineEntity" class="algorithm" id="1zUy" x1="600" x2="630" y1="2500" y2="2500"/>
<g cb-classname="ControlPin" cb-pin-name="fr-nVg-y28" id="1zUp">
<line cb-classname="GraphicLineEntity" class="signalline" id="1zUt" x1="710" x2="1080" y1="2500" y2="2500"/>
<g cb-classname="SignalSegment" id="1zUa">
<line cb-classname="GraphicLineEntity" class="signalline" id="1zUC" stroke="#1e12bf" stroke-dasharray="5,4" x1="1080" x2="3100" y1="2500" y2="2500"/>
<g cb-classname="SignalConnection" cb-graphic-line="$1376$" cb-input-pin="$sQxM$" id="1zU9"/>
</g>
</g>
<g cb-classname="PointStatusIndicator" cb-indicator-type="Highway" cb-source="cL-l19-5tx" id="1zU1" visibility="hidden">
<line cb-classname="GraphicLineEntity" class="algorithmline" id="1zUF" x1="630" x2="670" y1="2500" y2="2460"/>
<line cb-classname="GraphicLineEntity" class="algorithmline" id="1zDd" x1="670" x2="710" y1="2460" y2="2500"/>
<line cb-classname="GraphicLineEntity" class="algorithmline" id="1zDK" x1="710" x2="670" y1="2500" y2="2540"/>
<line cb-classname="GraphicLineEntity" class="algorithmline" id="1zDy" x1="670" x2="630" y1="2540" y2="2500"/>
</g>
<g cb-classname="PointStatusIndicator" cb-indicator-type="hardware" cb-source="wO-eCR-KNj" id="1zDp" visibility="hidden">
<text cb-classname="GraphicTextEntity" class="algorithm" fill="#000000" font-family="arial" font-size="20" id="1zDt" x="660" y="2510">
H
</text>
</g>
<g cb-classname="PointStatusIndicator" cb-indicator-type="alarm" cb-source="l0-ydy-wWL" id="1zDa" visibility="hidden">
<text cb-classname="GraphicTextEntity" class="algorithm" fill="#000000" font-family="arial" font-size="20" id="1zDC" x="607" y="2489">
A
</text>
</g>
<g cb-classname="PointStatusIndicator" cb-indicator-type="ingraphic" cb-source="2U-xJ1-sAg" id="1zD9" visibility="hidden">
<text cb-classname="GraphicTextEntity" class="algorithm" fill="#000000" font-family="Arial" font-size="20" id="1zD1" x="605" y="2529">
G
</text>
</g>
<g baseline-shift="-100%" cb-anchor-x="165" cb-anchor-y="2460" cb-classname="PointDescription" cb-content="extended" cb-labeled="false" cb-max-width="460" cb-source="XG-aLj-pTr" class="algorithm" font-style="normal" id="1zDF" text-anchor="start">
<text baseline-shift="-100%" cb-classname="GraphicTextEntity" class="algorithm" id="1z5d" text-anchor="start" x="165" y="2460">
@ Ovation Control Builder @
</text>
</g>
<g cb-classname="DynamicText" cb-labeled="false" cb-pin-name="ObT" cb-source="cL-l19-5tx" class="algorithm" id="1z5K" text-anchor="start">
<text baseline-shift="-100%" cb-classname="GraphicTextEntity" class="algorithm" fill="black" font-family="arial" font-size="20" font-style="normal" font-weight="normal" id="1z5y" text-anchor="start" text-decoration="normal" x="715" y="2462"/>
</g>
<g baseline-shift="-100%" cb-anchor-x="730" cb-anchor-y="2500" cb-classname="PointReferences" cb-max-width="350" cb-originator="true" cb-source="AQ-62a-WsS" class="signal" id="1z5p" text-anchor="start">
<text baseline-shift="-100%" cb-classname="GraphicTextEntity" class="algorithm" id="1z5t" text-anchor="start" x="730" y="2500">
99/S11085
</text>
</g>
</g>
<g cb-alg-XYHa="NO" cb-alg-Xtn="MOTR2-XB02" cb-algorithm-id="006" cb-classname="ExternalPointInterface" cb-function-name="INPUT" id="1z5a">
<ellipse cb-classname="GraphicEllipseEntity" class="algorithm" cx="670" cy="2820" id="1z5C" rx="40" ry="40"/>
<rect cb-classname="GraphicRectangleEntity" class="algorithm" height="80" id="1z59" width="30" x="600" y="2780"/>
<line cb-classname="GraphicLineEntity" class="algorithm" id="1z51" x1="600" x2="630" y1="2820" y2="2820"/>
<g cb-classname="ControlPin" cb-pin-name="fr-nVg-y28" id="1z5F">
<line cb-classname="GraphicLineEntity" class="signalline" id="1pjd" x1="710" x2="1080" y1="2820" y2="2820"/>
<g cb-classname="SignalSegment" id="1pjK">
<line cb-classname="GraphicLineEntity" class="signalline" id="1pjy" stroke="#1e12bf" stroke-dasharray="5,4" x1="1080" x2="3210" y1="2820" y2="2820"/>
<g cb-classname="SignalSegment" id="1pjp">
<line cb-classname="GraphicLineEntity" class="signalline" id="1pjt" stroke="#1e12bf" stroke-dasharray="5,4" x1="3210" x2="3210" y1="2820" y2="2560"/>
<g cb-classname="SignalConnection" cb-graphic-line="$1404$" cb-input-pin="$kao4$" id="1pja"/>
</g>
</g>
</g>
<g cb-classname="PointStatusIndicator" cb-indicator-type="Highway" cb-source="AQ-62a-WsS" id="1pjC" visibility="hidden">
<line cb-classname="GraphicLineEntity" class="algorithmline" id="1pj9" x1="630" x2="670" y1="2820" y2="2780"/>
<line cb-classname="GraphicLineEntity" class="algorithmline" id="1pj1" x1="670" x2="710" y1="2780" y2="2820"/>
<line cb-classname="GraphicLineEntity" class="algorithmline" id="1pjF" x1="710" x2="670" y1="2820" y2="2860"/>
<line cb-classname="GraphicLineEntity" class="algorithmline" id="1pkd" x1="670" x2="630" y1="2860" y2="2820"/>
</g>
<g cb-classname="PointStatusIndicator" cb-indicator-type="hardware" cb-source="l0-ydy-wWL" id="1pkK" visibility="hidden">
<text cb-classname="GraphicTextEntity" class="algorithm" fill="#000000" font-family="arial" font-size="20" id="1pky" x="660" y="2830">
H
</text>
</g>
<g cb-classname="PointStatusIndicator" cb-indicator-type="alarm" cb-source="2U-xJ1-sAg" id="1pkp" visibility="hidden">
<text cb-classname="GraphicTextEntity" class="algorithm" fill="#000000" font-family="arial" font-size="20" id="1pkt" x="607" y="2809">
A
</text>
</g>
<g cb-classname="PointStatusIndicator" cb-indicator-type="ingraphic" cb-source="XG-aLj-pTr" id="1pka" visibility="visible">
<text cb-classname="GraphicTextEntity" class="algorithm" fill="#000000" font-family="Arial" font-size="20" id="1pkC" x="605" y="2849">
G
</text>
</g>
<g baseline-shift="-100%" cb-anchor-x="165" cb-anchor-y="2780" cb-classname="PointDescription" cb-content="extended" cb-labeled="false" cb-max-width="460" cb-source="cL-l19-5tx" class="algorithm" font-style="normal" id="1pk9" text-anchor="start">
<text baseline-shift="-100%" cb-classname="GraphicTextEntity" class="algorithm" id="1pk1" text-anchor="start" x="165" y="2780">
@ Ovation Control Builder @
</text>
</g>
<g cb-classname="DynamicText" cb-labeled="false" cb-pin-name="s66" cb-source="AQ-62a-WsS" class="algorithm" id="1pkF" text-anchor="start">
<text baseline-shift="-100%" cb-classname="GraphicTextEntity" class="algorithm" fill="black" font-family="arial" font-size="20" font-style="normal" font-weight="normal" id="1pid" text-anchor="start" text-decoration="normal" x="715" y="2782"/>
</g>
<g baseline-shift="-100%" cb-anchor-x="730" cb-anchor-y="2820" cb-classname="PointReferences" cb-max-width="350" cb-originator="true" cb-source="fU-vMX-Owj" class="signal" id="1piK" text-anchor="start">
<text baseline-shift="-100%" cb-classname="GraphicTextEntity" class="algorithm" id="1piy" text-anchor="start" x="730" y="2820">
99/S11085
</text>
</g>
</g>
<g cb-alg-pRqX="NO" cb-alg-pSx="MOTR2-XB01" cb-algorithm-id="008" cb-classname="ExternalPointInterface" cb-function-name="INPUT" id="1pip">
<ellipse cb-classname="GraphicEllipseEntity" class="algorithm" cx="670" cy="2980" id="1pit" rx="40" ry="40"/>
<rect cb-classname="GraphicRectangleEntity" class="algorithm" height="80" id="1pia" width="30" x="600" y="2940"/>
<line cb-classname="GraphicLineEntity" class="algorithm" id="1piC" x1="600" x2="630" y1="2980" y2="2980"/>
<g cb-classname="ControlPin" cb-pin-name="JN-qYo-mo5" id="1pi9">
<line cb-classname="GraphicLineEntity" class="signalline" id="1pi1" x1="710" x2="1080" y1="2980" y2="2980"/>
<g cb-classname="SignalSegment" id="1piF">
<line cb-classname="GraphicLineEntity" class="signalline" id="1pzd" stroke="#1e12bf" stroke-dasharray="5,4" x1="1080" x2="3270" y1="2980" y2="2980"/>
<g cb-classname="SignalSegment" id="1pzK">
<line cb-classname="GraphicLineEntity" class="signalline" id="1pzy" stroke="#1e12bf" stroke-dasharray="5,4" x1="3270" x2="3270" y1="2980" y2="2560"/>
<g cb-classname="SignalConnection" cb-graphic-line="$1432$" cb-input-pin="$3G8Y$" id="1pzp"/>
</g>
</g>
</g>
<g cb-classname="PointStatusIndicator" cb-indicator-type="Highway" cb-source="fU-vMX-Owj" id="1pzt" visibility="hidden">
<line cb-classname="GraphicLineEntity" class="algorithmline" id="1pza" x1="630" x2="670" y1="2980" y2="2940"/>
<line cb-classname="GraphicLineEntity" class="algorithmline" id="1pzC" x1="670" x2="710" y1="2940" y2="2980"/>
<line cb-classname="GraphicLineEntity" class="algorithmline" id="1pz9" x1="710" x2="670" y1="2980" y2="3020"/>
<line cb-classname="GraphicLineEntity" class="algorithmline" id="1pz1" x1="670" x2="630" y1="3020" y2="2980"/>
</g>
<g cb-classname="PointStatusIndicator" cb-indicator-type="hardware" cb-source="2U-xJ1-sAg" id="1pzF" visibility="hidden">
<text cb-classname="GraphicTextEntity" class="algorithm" fill="#000000" font-family="arial" font-size="20" id="1pOd" x="660" y="2990">
H
</text>
</g>
<g cb-classname="PointStatusIndicator" cb-indicator-type="alarm" cb-source="XG-aLj-pTr" id="1pOK" visibility="hidden">
<text cb-classname="GraphicTextEntity" class="algorithm" fill="#000000" font-family="arial" font-size="20" id="1pOy" x="607" y="2969">
A
</text>
</g>
<g cb-classname="PointStatusIndicator" cb-indicator-type="ingraphic" cb-source="cL-l19-5tx" id="1pOp" visibility="visible">
<text cb-classname="GraphicTextEntity" class="algorithm" fill="#000000" font-family="Arial" font-size="20" id="1pOt" x="605" y="3009">
G
</text>
</g>
<g baseline-shift="-100%" cb-anchor-x="165" cb-anchor-y="2940" cb-classname="PointDescription" cb-content="extended" cb-labeled="false" cb-max-width="460" cb-source="AQ-62a-WsS" class="algorithm" font-style="normal" id="1pOa" text-anchor="start">
<text baseline-shift="-100%" cb-classname="GraphicTextEntity" class="algorithm" id="1pOC" text-anchor="start" x="165" y="2940">
@ Ovation Control Builder @
</text>
</g>
<g cb-classname="DynamicText" cb-labeled="false" cb-pin-name="AoN" cb-source="fU-vMX-Owj" class="algorithm" id="1pO9" text-anchor="start">
<text baseline-shift="-100%" cb-classname="GraphicTextEntity" class="algorithm" fill="black" font-family="arial" font-size="20" font-style="normal" font-weight="normal" id="1pO1" text-anchor="start" text-decoration="normal" x="715" y="2942"/>
</g>
<g baseline-shift="-100%" cb-anchor-x="730" cb-anchor-y="2980" cb-classname="PointReferences" cb-max-width="350" cb-originator="true" cb-source="aB-mgW-TKG" class="signal" id="1pOF" text-anchor="start">
<text baseline-shift="-100%" cb-classname="GraphicTextEntity" class="algorithm" id="1p3d" text-anchor="start" x="730" y="2980">
99/S11085
</text>
</g>
</g>
<g cb-alg-rJ4v="NO" cb-alg-rw2="MOTR2-XB31" cb-algorithm-id="012" cb-classname="ExternalPointInterface" cb-function-name="INPUT" id="1pUt">
<ellipse cb-classname="GraphicEllipseEntity" class="algorithm" cx="670" cy="2420" id="1pUa" rx="40" ry="40"/>
<rect cb-classname="GraphicRectangleEntity" class="algorithm" height="80" id="1pUC" width="30" x="600" y="2380"/>
<line cb-classname="GraphicLineEntity" class="algorithm" id="1pU9" x1="600" x2="630" y1="2420" y2="2420"/>
<g cb-classname="ControlPin" cb-pin-name="2U-xJ1-sAg" id="1pU1">
<line cb-classname="GraphicLineEntity" class="signalline" id="1pUF" x1="710" x2="1080" y1="2420" y2="2420"/>
<g cb-classname="SignalSegment" id="1pDd">
<g cb-classname="SignalConnection" cb-graphic-line="$1482$" cb-input-pin="$sTE1$" id="1pDK"/>
<line cb-classname="GraphicLineEntity" class="signalline" id="1pDy" stroke="#1e12bf" stroke-dasharray="5,4" x1="1080" x2="3100" y1="2420" y2="2420"/>
</g>
</g>
<g cb-classname="PointStatusIndicator" cb-indicator-type="Highway" cb-source="Hq-jS6-K95" id="1pDp" visibility="hidden">
<line cb-classname="GraphicLineEntity" class="algorithmline" id="1pDt" x1="630" x2="670" y1="2420" y2="2380"/>
<line cb-classname="GraphicLineEntity" class="algorithmline" id="1pDa" x1="670" x2="710" y1="2380" y2="2420"/>
<line cb-classname="GraphicLineEntity" class="algorithmline" id="1pDC" x1="710" x2="670" y1="2420" y2="2460"/>
<line cb-classname="GraphicLineEntity" class="algorithmline" id="1pD9" x1="670" x2="630" y1="2460" y2="2420"/>
</g>
<g cb-classname="PointStatusIndicator" cb-indicator-type="hardware" cb-source="aB-mgW-TKG" id="1pD1" visibility="hidden">
<text cb-classname="GraphicTextEntity" class="algorithm" fill="#000000" font-family="arial" font-size="20" id="1pDF" x="660" y="2430">
H
</text>
</g>
<g cb-classname="PointStatusIndicator" cb-indicator-type="alarm" cb-source="fr-nVg-y28" id="1p5d" visibility="hidden">
<text cb-classname="GraphicTextEntity" class="algorithm" fill="#000000" font-family="arial" font-size="20" id="1p5K" x="607" y="2409">
A
</text>
</g>
<g cb-classname="PointStatusIndicator" cb-indicator-type="ingraphic" cb-source="JN-qYo-mo5" id="1p5y" visibility="hidden">
<text cb-classname="GraphicTextEntity" class="algorithm" fill="#000000" font-family="Arial" font-size="20" id="1p5p" x="605" y="2449">
G
</text>
</g>
<g baseline-shift="-100%" cb-anchor-x="165" cb-anchor-y="2380" cb-classname="PointDescription" cb-content="extended" cb-labeled="false" cb-max-width="460" cb-source="C8-V09-XAr" class="algorithm" font-style="normal" id="1p5t" text-anchor="start">
<text baseline-shift="-100%" cb-classname="GraphicTextEntity" class="algorithm" id="1p5a" text-anchor="start" x="165" y="2380">
@ Ovation Control Builder @
</text>
</g>
<g cb-classname="DynamicText" cb-labeled="false" cb-pin-name="WdW" cb-source="Hq-jS6-K95" class="algorithm" id="1p5C" text-anchor="start">
<text baseline-shift="-100%" cb-classname="GraphicTextEntity" class="algorithm" fill="black" font-family="arial" font-size="20" font-style="normal" font-weight="normal" id="1p59" text-anchor="start" text-decoration="normal" x="715" y="2382"/>
</g>
<g baseline-shift="-100%" cb-anchor-x="730" cb-anchor-y="2420" cb-classname="PointReferences" cb-max-width="350" cb-originator="true" cb-source="hu-bxv-boA" class="signal" id="1p51" text-anchor="start">
<text baseline-shift="-100%" cb-classname="GraphicTextEntity" class="algorithm" id="1p5F" text-anchor="start" x="730" y="2420">
99/S11085
</text>
</g>
</g>
<g cb-alg-1Ixx="MOTR2" cb-alg-1Ixx-5YpQ="0" cb-alg-1Ixx-ZRg="0" cb-alg-1Ixx-cnC="0" cb-alg-1Ixx-yT="FACEPLATE" cb-alg-1OlR="$1395$cb-alg-out$" cb-alg-1Olb="$1423$cb-alg-out$" cb-alg-5CfP="MOTR2-XM92" cb-alg-5JQZ="MOTR2-XR01" cb-alg-5JQa="MOTR2-XR04" cb-alg-5JfB="MOTR2-XR93" cb-alg-5JfP="MOTR2-XR92" cb-alg-5JfZ="MOTR2-XR91" cb-alg-62aN="MOTR2-ALG" cb-alg-62aN-5OmS="CONTACTS" cb-alg-62aN-5d96="4.0" cb-alg-62aN-5d97="4.000000" cb-alg-62aN-5d9J="60" cb-alg-62aN-5dJP="4.0" cb-alg-62aN-5f76="60" cb-alg-62aN-5f7J="4.000000" cb-alg-62aN-5fp="1.000000" cb-alg-62aN-5v5z="2.000000" cb-alg-62aN-5vF5="5.000000" cb-alg-62aN-5vFz="2.000000" cb-alg-62aN-5vQ5="5.000000" cb-alg-62aN-5vQz="2.000000" cb-alg-62aN-5vX5="5.000000" cb-alg-62aN-5vXz="2.000000" cb-alg-62aN-JLpJ="10.000000" cb-alg-62aN-PNC6="1.000000" cb-alg-62aN-PNC7="1.000000" cb-alg-62aN-PNCJ="1.000000" cb-alg-62aN-PNV6="1.000000" cb-alg-62aN-PNVJ="1.000000" cb-alg-62aN-PRxg="120" cb-alg-62aN-PvCJ="YES" cb-alg-62aN-bqm="30.000000" cb-alg-62aN-gdCJ="GO_MANUAL" cb-alg-62aN-gvAT="FEEDBACK" cb-alg-62aN-hTpi="DONT_STOP" cb-alg-62aN-yT="EDEVICE" cb-alg-62aN-ynCo="BOTH" cb-alg-62aN-zsm="3.000000" cb-alg-6w2R="$1289$cb-alg-out$" cb-alg-6w2b="$1205$cb-alg-out$" cb-alg-DCRR="$1233$cb-alg-out$" cb-alg-DCRb="$1149$cb-alg-out$" cb-alg-FrQ_Mx="1" cb-alg-LC5D="$1474$cb-alg-out$" cb-alg-LJ8R="4.0" cb-alg-LJrf="4.000000" cb-alg-LqNq2="MOTOR" cb-alg-PJ9K7="0" cb-alg-PLRR="$1261$cb-alg-out$" cb-alg-PLRb="$1177$cb-alg-out$" cb-alg-PrR="3.000000" cb-alg-R28Z="MOTR2-XU95" cb-alg-SLWb="0" cb-alg-U2q="TIMEOUT" cb-alg-YLmO="$1317$cb-alg-out$" cb-alg-YLme="$1343$cb-alg-out$" cb-alg-YwbDC8="1" cb-alg-e0Np="DONT_STOP" cb-alg-i7JQ="5.000000" cb-alg-i7Ja="2.000000" cb-alg-iHITG="TYPICAL:MMA" cb-alg-izGK="4.000000" cb-alg-m0vOu="XXX#AMOT01" cb-alg-nJX3="$1369$cb-alg-out$" cb-alg-rnVhu="IMPULS" cb-alg-w78PJjQ-CaL2="0" cb-alg-w78PJjQ-HPVj="65" cb-alg-w78PJjQ-qM="DVALGEN" cb-alg-w7J5hXQ-HPVj="16" cb-alg-w7J5hXQ-qM="ALARMMON" cb-alg-w7J5hXQ-qYgS="UNAK_ALM" cb-alg-w7J5tdQ-6jyh8="RETRIGGABLE" cb-alg-w7J5tdQ-8aIR="1" cb-alg-w7J5tdQ-HPVj="98" cb-alg-w7J5tdQ-JGI="0" cb-alg-w7J5tdQ-Qd2L="POSITIVE" cb-alg-w7J5tdQ-jagj="2" cb-alg-w7J5tdQ-qM="ONESHOT" cb-alg-w7JagdQ-EPIh="51.5" cb-alg-w7JagdQ-EPXw="0.0" cb-alg-w7JagdQ-HPVj="74" cb-alg-w7JagdQ-JwIh="49.5" cb-alg-w7JagdQ-JwXw="0.000000" cb-alg-w7JagdQ-qM="HIGHLOWMON" cb-alg-w7JatdQ-EPIh="0.5" cb-alg-w7JatdQ-EPXw="0" cb-alg-w7JatdQ-HPVj="63" cb-alg-w7JatdQ-qM="HIGHMON" cb-alg-w7MBhGQ-EPIh="310.1" cb-alg-w7MBhGQ-EPXw="0.000000" cb-alg-w7MBhGQ-HPVj="74" cb-alg-w7MBhGQ-JwIh="309.9" cb-alg-w7MBhGQ-JwXw="0.000000" cb-alg-w7MBhGQ-qM="HIGHLOWMON" cb-alg-w7MngGQ-8aIR="1" cb-alg-w7MngGQ-HPVj="98" cb-alg-w7MngGQ-JGI="0" cb-alg-w7MngGQ-jagj="1" cb-alg-w7MngGQ-qM="ONESHOT" cb-alg-w7fBDKQ-CaL2="0" cb-alg-w7fBDKQ-HPVj="65" cb-alg-w7fBDKQ-qM="DVALGEN" cb-alg-wCXR="MOTR2-YB02" cb-alg-wCXb="MOTR2-YB01" cb-algorithm-id="010" cb-classname="ControlMacroReference" cb-function-name="TYP_MMA" cb-macro-crc="59463" cb-modify-id="00000003" id="1ajd">
<rect cb-classname="GraphicRectangleEntity" class="annotation" fill="white" height="310" id="1ajK" width="720" x="3120" y="2230"/>
<g cb-classname="GraphicShape" id="1ajy">
<rect cb-classname="GraphicRectangleEntity" class="annotation" fill="none" height="30" id="1ajp" width="60" x="3120" y="2230"/>
<rect cb-classname="GraphicRectangleEntity" class="annotation" fill="none" height="30" id="1ajt" width="60" x="3180" y="2230"/>
<rect cb-classname="GraphicRectangleEntity" class="annotation" fill="none" height="30" id="1aja" width="60" x="3240" y="2230"/>
<rect cb-classname="GraphicRectangleEntity" class="annotation" fill="none" height="30" id="1ajC" width="60" x="3300" y="2230"/>
<rect cb-classname="GraphicRectangleEntity" class="annotation" fill="none" height="30" id="1aj9" width="60" x="3360" y="2230"/>
<rect cb-classname="GraphicRectangleEntity" class="annotation" fill="none" height="30" id="1aj1" width="60" x="3420" y="2230"/>
<rect cb-classname="GraphicRectangleEntity" class="annotation" fill="none" height="30" id="1ajF" width="60" x="3480" y="2230"/>
<rect cb-classname="GraphicRectangleEntity" class="annotation" fill="none" height="30" id="1akd" width="60" x="3540" y="2230"/>
<rect cb-classname="GraphicRectangleEntity" class="annotation" fill="none" height="30" id="1akK" width="60" x="3600" y="2230"/>
<rect cb-classname="GraphicRectangleEntity" class="annotation" fill="none" height="30" id="1aky" width="60" x="3660" y="2230"/>
<rect cb-classname="GraphicRectangleEntity" class="annotation" fill="none" height="30" id="1akp" width="60" x="3720" y="2230"/>
<rect cb-classname="GraphicRectangleEntity" class="annotation" fill="none" height="30" id="1akt" width="60" x="3780" y="2230"/>
<rect cb-classname="GraphicRectangleEntity" class="annotation" fill="none" height="30" id="1aka" width="240" x="3120" y="2260"/>
<rect cb-classname="GraphicRectangleEntity" class="annotation" fill="none" height="30" id="1akC" width="240" x="3360" y="2260"/>
<rect cb-classname="GraphicRectangleEntity" class="annotation" fill="none" height="30" id="1ak9" width="240" x="3600" y="2260"/>
<rect cb-classname="GraphicRectangleEntity" class="annotation" fill="none" height="30" id="1ak1" width="360" x="3120" y="2480"/>
<rect cb-classname="GraphicRectangleEntity" class="annotation" fill="none" height="30" id="1akF" width="360" x="3480" y="2480"/>
<rect cb-classname="GraphicRectangleEntity" class="annotation" fill="none" height="30" id="1aid" width="60" x="3120" y="2510"/>
<rect cb-classname="GraphicRectangleEntity" class="annotation" fill="none" height="30" id="1aiK" width="60" x="3240" y="2510"/>
<rect cb-classname="GraphicRectangleEntity" class="annotation" fill="none" height="30" id="1aiy" width="60" x="3540" y="2510"/>
<rect cb-classname="GraphicRectangleEntity" class="annotation" fill="none" height="30" id="1aip" width="60" x="3660" y="2510"/>
<rect cb-classname="GraphicRectangleEntity" class="annotation" fill="none" height="30" id="1ait" width="60" x="3780" y="2510"/>
<text baseline-shift="0%" cb-classname="GraphicTextEntity" class="annotation" fill="#000000" font-family="MS Shell Dlg 2" font-size="14" id="1aia" x="3465" y="2282">
OFF
</text>
<text baseline-shift="0%" cb-classname="GraphicTextEntity" class="annotation" fill="#000000" font-family="MS Shell Dlg 2" font-size="14" id="1aiC" x="3385" y="2252">
M
</text>
<text baseline-shift="0%" cb-classname="GraphicTextEntity" class="annotation" fill="#000000" font-family="MS Shell Dlg 2" font-size="14" id="1ai9" x="3445" y="2252">
A
</text>
<text baseline-shift="0%" cb-classname="GraphicTextEntity" class="annotation" fill="#000000" font-family="MS Shell Dlg 2" font-size="14" id="1ai1" x="3505" y="2252">
P
</text>
<text baseline-shift="0%" cb-classname="GraphicTextEntity" class="annotation" fill="#000000" font-family="MS Shell Dlg 2" font-size="14" id="1aiF" x="3565" y="2252">
E
</text>
<text baseline-shift="0%" cb-classname="GraphicTextEntity" class="annotation" fill="#000000" font-family="MS Shell Dlg 2" font-size="14" id="1azd" x="3705" y="2282">
ON
</text>
<text baseline-shift="0%" cb-classname="GraphicTextEntity" class="annotation" fill="#000000" font-family="MS Shell Dlg 2" font-size="14" id="1azK" x="3625" y="2252">
M
</text>
<text baseline-shift="0%" cb-classname="GraphicTextEntity" class="annotation" fill="#000000" font-family="MS Shell Dlg 2" font-size="14" id="1azy" x="3685" y="2252">
A
</text>
<text baseline-shift="0%" cb-classname="GraphicTextEntity" class="annotation" fill="#000000" font-family="MS Shell Dlg 2" font-size="14" id="1azp" x="3745" y="2252">
P
</text>
<text baseline-shift="0%" cb-classname="GraphicTextEntity" class="annotation" fill="#000000" font-family="MS Shell Dlg 2" font-size="14" id="1azt" x="3805" y="2252">
E
</text>
<text baseline-shift="0%" cb-classname="GraphicTextEntity" class="annotation" fill="#000000" font-family="MS Shell Dlg 2" font-size="14" id="1aza" text-anchor="middle" x="3210" y="2532">
OFF:
</text>
<text baseline-shift="0%" cb-classname="GraphicTextEntity" class="annotation" fill="#000000" font-family="MS Shell Dlg 2" font-size="14" id="1azC" text-anchor="middle" x="3270" y="2532">
ON:
</text>
<text baseline-shift="0%" cb-classname="GraphicTextEntity" class="annotation" fill="#000000" font-family="MS Shell Dlg 2" font-size="14" id="1az9" x="3560" y="2532">
ERR
</text>
<text baseline-shift="0%" cb-classname="GraphicTextEntity" class="annotation" fill="#000000" font-family="MS Shell Dlg 2" font-size="14" id="1az1" x="3610" y="2532">
AUTO
</text>
<text baseline-shift="0%" cb-classname="GraphicTextEntity" class="annotation" fill="#000000" font-family="MS Shell Dlg 2" font-size="14" id="1azF" text-anchor="middle" x="3690" y="2532">
ON!
</text>
<text baseline-shift="0%" cb-classname="GraphicTextEntity" class="annotation" fill="#000000" font-family="MS Shell Dlg 2" font-size="14" id="1aOd" text-anchor="middle" x="3750" y="2532">
OFF!
</text>
<g cb-classname="DynamicText" cb-labeled="false" cb-source="l0-oogPj1sb-KIar" id="1aOK">
<text cb-classname="GraphicTextEntity" class="algorithm" id="1aOy" text-anchor="middle" x="3290" y="2505"/>
</g>
</g>
<g cb-classname="GraphicShape" id="1aOp">
<g cb-classname="DynamicText" cb-labeled="false" cb-source="JN-qYo-0drr" id="1aOt">
<text baseline-shift="0%" cb-classname="GraphicTextEntity" class="algorithm" font-size="36" id="1aOa" text-anchor="middle" x="3490" y="2400"/>
</g>
</g>
<g cb-classname="GraphicShape" id="1aOC">
<g cb-classname="DynamicText" cb-labeled="false" cb-source="cL-l19-2btJ" id="1aO9">
<text cb-classname="GraphicTextEntity" class="algorithm" id="1aO1" text-anchor="start" x="3610" y="2505"/>
</g>
<text baseline-shift="0%" cb-classname="GraphicTextEntity" class="annotation" fill="#000000" font-family="MS Shell Dlg 2" id="1aOF" x="3500" y="2505">
TIME =
</text>
</g>
<g cb-classname="ControlPin" cb-pin-name="hu-bxv-PfE3" id="1a3d">
<line cb-classname="GraphicLineEntity" class="signalline" id="1a3K" x1="3100" x2="3120" y1="2500" y2="2500"/>
<polygon cb-classname="GraphicPolygonEntity" class="signal" id="1a3y" points="3120,2500 3109,2494 3109,2505"/>
<g cb-classname="DynamicText" cb-source="aB-oqT-taJR" id="1a3p">
<text cb-classname="GraphicTextEntity" class="signal" id="1a3t" text-anchor="end" x="3105" y="2497"/>
</g>
</g>
<g cb-classname="ControlPin" cb-pin-name="fr-nVg-gRPG" id="1a3a">
<line cb-classname="GraphicLineEntity" class="signalline" id="1a3C" x1="3100" x2="3120" y1="2260" y2="2260"/>
<polygon cb-classname="GraphicPolygonEntity" class="signal" id="1a39" points="3120,2260 3109,2254 3109,2265"/>
<g cb-classname="DynamicText" cb-source="XG-G1d-cjtw" id="1a31">
<text cb-classname="GraphicTextEntity" class="signal" id="1a3F" text-anchor="end" x="3105" y="2257"/>
</g>
</g>
<g cb-classname="ControlPin" cb-pin-name="cL-l19-RNnc" id="1aSd">
<line cb-classname="GraphicLineEntity" class="signalline" id="1aSK" x1="3100" x2="3120" y1="2340" y2="2340"/>
<polygon cb-classname="GraphicPolygonEntity" class="signal" id="1aSy" points="3120,2340 3109,2334 3109,2345"/>
<g cb-classname="DynamicText" cb-source="hu-I4u-SniQ" id="1aSp">
<text cb-classname="GraphicTextEntity" class="signal" id="1aSt" text-anchor="end" x="3105" y="2337"/>
</g>
</g>
<g cb-classname="ControlPin" cb-pin-name="wO-eCR-f8kg" id="1aSa">
<line cb-classname="GraphicLineEntity" class="signalline" id="1aSC" x1="3270" x2="3270" y1="2560" y2="2540"/>
<polygon cb-classname="GraphicPolygonEntity" class="signal" id="1aS9" points="3270,2540 3264,2550 3275,2550"/>
<g cb-classname="DynamicText" cb-source="fr-ARt-8ve8" id="1aS1">
<text cb-classname="GraphicTextEntity" class="signal" id="1aSF" text-anchor="end" transform="translate(3267,2554)rotate(-90)"/>
</g>
</g>
<g cb-classname="ControlPin" cb-pin-name="JN-qYo-0tVZ" id="1aUd">
<line cb-classname="GraphicLineEntity" class="signalline" id="1aUK" x1="3210" x2="3210" y1="2560" y2="2540"/>
<polygon cb-classname="GraphicPolygonEntity" class="signal" id="1aUy" points="3210,2540 3204,2550 3215,2550"/>
<g cb-classname="DynamicText" cb-source="cL-JgN-oe6x" id="1aUp">
<text cb-classname="GraphicTextEntity" class="signal" id="1aUt" text-anchor="end" transform="translate(3207,2554)rotate(-90)"/>
</g>
</g>
<g cb-classname="ControlPin" cb-pin-name="AQ-62a-oxfm" id="1aUa">
<line cb-classname="GraphicLineEntity" class="signalline" id="1aUC" x1="3750" x2="3750" y1="2210" y2="2230"/>
<polygon cb-classname="GraphicPolygonEntity" class="signal" id="1aU9" points="3750,2230 3755,2219 3744,2219"/>
<g cb-classname="DynamicText" cb-source="wO-hqS-gqf2" id="1aU1">
<text cb-classname="GraphicTextEntity" class="signal" id="1aUF" text-anchor="start" transform="translate(3747,2215)rotate(-90)"/>
</g>
</g>
<g cb-classname="ControlPin" cb-pin-name="l0-ydy-G2xI" id="1aDd">
<line cb-classname="GraphicLineEntity" class="signalline" id="1aDK" x1="3510" x2="3510" y1="2210" y2="2230"/>
<polygon cb-classname="GraphicPolygonEntity" class="signal" id="1aDy" points="3510,2230 3515,2219 3504,2219"/>
<g cb-classname="DynamicText" cb-source="JN-1P8-bGub" id="1aDp">
<text cb-classname="GraphicTextEntity" class="signal" id="1aDt" text-anchor="start" transform="translate(3507,2215)rotate(-90)"/>
</g>
</g>
<g cb-classname="ControlPin" cb-pin-name="C8-V09-jArP" id="1aDa">
<line cb-classname="GraphicLineEntity" class="signalline" id="1aDC" x1="3690" x2="3690" y1="2210" y2="2230"/>
<polygon cb-classname="GraphicPolygonEntity" class="signal" id="1aD9" points="3690,2230 3695,2219 3684,2219"/>
<g cb-classname="DynamicText" cb-source="AQ-PHo-7yLI" id="1aD1">
<text cb-classname="GraphicTextEntity" class="signal" id="1aDF" text-anchor="start" transform="translate(3687,2215)rotate(-90)"/>
</g>
</g>
<g cb-classname="ControlPin" cb-pin-name="fU-vMX-nwjF" id="1a5d">
<line cb-classname="GraphicLineEntity" class="signalline" id="1a5K" x1="3450" x2="3450" y1="2210" y2="2230"/>
<polygon cb-classname="GraphicPolygonEntity" class="signal" id="1a5y" points="3450,2230 3455,2219 3444,2219"/>
<g cb-classname="DynamicText" cb-source="l0-zRg-MVSL" id="1a5p">
<text cb-classname="GraphicTextEntity" class="signal" id="1a5t" text-anchor="start" transform="translate(3447,2215)rotate(-90)"/>
</g>
</g>
<g cb-classname="ControlPin" cb-pin-name="2U-xJ1-RelZ" id="1a5a">
<line cb-classname="GraphicLineEntity" class="signalline" id="1a5C" x1="3810" x2="3810" y1="2210" y2="2230"/>
<polygon cb-classname="GraphicPolygonEntity" class="signal" id="1a59" points="3810,2230 3815,2219 3804,2219"/>
<g cb-classname="DynamicText" cb-source="C8-lyb-KIar" id="1a51">
<text cb-classname="GraphicTextEntity" class="signal" id="1a5F" text-anchor="start" transform="translate(3807,2215)rotate(-90)"/>
</g>
</g>
<g cb-classname="ControlPin" cb-pin-name="Hq-jS6-N6Hv" id="1sjd">
<line cb-classname="GraphicLineEntity" class="signalline" id="1sjK" x1="3570" x2="3570" y1="2210" y2="2230"/>
<polygon cb-classname="GraphicPolygonEntity" class="signal" id="1sjy" points="3570,2230 3575,2219 3564,2219"/>
<g cb-classname="DynamicText" cb-source="fU-Nq7-Txzx" id="1sjp">
<text cb-classname="GraphicTextEntity" class="signal" id="1sjt" text-anchor="start" transform="translate(3567,2215)rotate(-90)"/>
</g>
</g>
<g cb-classname="ControlPin" cb-pin-name="aB-mgW-jfy9" id="1sja">
<line cb-classname="GraphicLineEntity" class="signalline" id="1sjC" x1="3100" x2="3120" y1="2420" y2="2420"/>
<polygon cb-classname="GraphicPolygonEntity" class="signal" id="1sj9" points="3120,2420 3109,2414 3109,2425"/>
<g cb-classname="DynamicText" cb-source="2U-pyM-daD9" id="1sj1">
<text cb-classname="GraphicTextEntity" class="signal" id="1sjF" text-anchor="end" x="3105" y="2417"/>
</g>
</g>
<g cb-classname="ControlPin" cb-pin-name="XG-aLj-QugF" id="1skd">
<line cb-classname="GraphicLineEntity" class="signalline" id="1skK" x1="3570" x2="3570" y1="2540" y2="2560"/>
<g cb-classname="DynamicText" cb-source="cL-JgN-oe6x" id="1sky">
<text cb-classname="GraphicTextEntity" class="signal" id="1skp" text-anchor="end" transform="translate(3567,2554)rotate(-90)"/>
</g>
<g cb-classname="SignalSegment" id="1skt">
<line cb-classname="GraphicLineEntity" class="signalline" id="1ska" stroke="#1e12bf" stroke-dasharray="5,4" x1="3570" x2="3570" y1="2560" y2="3220"/>
<g cb-classname="SignalSegment" id="1skC">
<line cb-classname="GraphicLineEntity" class="signalline" id="1sk9" stroke="#1e12bf" stroke-dasharray="5,4" x1="3570" x2="4340" y1="3220" y2="3220"/>
<g cb-classname="SignalConnection" cb-graphic-line="$1617$" cb-input-pin="$DVJd$" id="1sk1"/>
</g>
</g>
</g>
<g cb-classname="ControlPin" cb-pin-name="l0-ydy-pgM4" id="1skF">
<line cb-classname="GraphicLineEntity" class="signalline" id="1sid" x1="3630" x2="3630" y1="2540" y2="2560"/>
<g cb-classname="DynamicText" cb-source="2U-pyM-daD9" id="1siK">
<text cb-classname="GraphicTextEntity" class="signal" id="1siy" text-anchor="end" transform="translate(3627,2554)rotate(-90)"/>
</g>
<g cb-classname="SignalSegment" id="1sip">
<line cb-classname="GraphicLineEntity" class="signalline" id="1sit" stroke="#1e12bf" stroke-dasharray="5,4" x1="3630" x2="3630" y1="2560" y2="3140"/>
<g cb-classname="SignalSegment" id="1sia">
<line cb-classname="GraphicLineEntity" class="signalline" id="1siC" stroke="#1e12bf" stroke-dasharray="5,4" x1="3630" x2="4340" y1="3140" y2="3140"/>
<g cb-classname="SignalConnection" cb-graphic-line="$1626$" cb-input-pin="$KCJU$" id="1si9"/>
</g>
</g>
</g>
<g cb-classname="ControlPin" cb-pin-name="hu-bxv-JLE6" id="1si1">
<line cb-classname="GraphicLineEntity" class="signalline" id="1siF" x1="3690" x2="3690" y1="2540" y2="2560"/>
<g cb-classname="DynamicText" cb-source="wO-hqS-gqf2" id="1szd">
<text cb-classname="GraphicTextEntity" class="signal" id="1szK" text-anchor="end" transform="translate(3687,2554)rotate(-90)"/>
</g>
<g cb-classname="SignalSegment" id="1szy">
<line cb-classname="GraphicLineEntity" class="signalline" id="1szp" stroke="#1e12bf" stroke-dasharray="5,4" x1="3690" x2="3690" y1="2560" y2="2980"/>
<g cb-classname="SignalSegment" id="1szt">
<line cb-classname="GraphicLineEntity" class="signalline" id="1sza" stroke="#1e12bf" stroke-dasharray="5,4" x1="3690" x2="4340" y1="2980" y2="2980"/>
<g cb-classname="SignalConnection" cb-graphic-line="$1635$" cb-input-pin="$0eQE$" id="1szC"/>
</g>
</g>
</g>
<g cb-classname="ControlPin" cb-pin-name="C8-V09-VteN" id="1sz9">
<line cb-classname="GraphicLineEntity" class="signalline" id="1sz1" x1="3750" x2="3750" y1="2540" y2="2560"/>
<g cb-classname="DynamicText" cb-source="Hq-Tz0-umcD" id="1szF">
<text cb-classname="GraphicTextEntity" class="signal" id="1sOd" text-anchor="end" transform="translate(3747,2554)rotate(-90)"/>
</g>
<g cb-classname="SignalSegment" id="1sOK">
<line cb-classname="GraphicLineEntity" class="signalline" id="1sOy" stroke="#1e12bf" stroke-dasharray="5,4" x1="3750" x2="3750" y1="2560" y2="2900"/>
<g cb-classname="SignalSegment" id="1sOp">
<line cb-classname="GraphicLineEntity" class="signalline" id="1sOt" stroke="#1e12bf" stroke-dasharray="5,4" x1="3750" x2="4340" y1="2900" y2="2900"/>
<g cb-classname="SignalConnection" cb-graphic-line="$1644$" cb-input-pin="$ZwGl$" id="1sOa"/>
</g>
</g>
</g>
</g>
<g cb-alg-q7="$1500$cb-alg-cmdr$" cb-algorithm-id="002" cb-classname="ExternalPointInterface" cb-function-name="OUTPUT" id="1sOC">
<ellipse cb-classname="GraphicEllipseEntity" class="algorithm" cx="4750" cy="2980" id="1sO9" rx="40" ry="40"/>
<rect cb-classname="GraphicRectangleEntity" class="algorithm" height="80" id="1sO1" width="30" x="4790" y="2940"/>
<line cb-classname="GraphicLineEntity" class="algorithm" id="1sOF" x1="4790" x2="4820" y1="2980" y2="2980"/>
<g cb-classname="ControlPin" cb-pin-name="C8-V09-Fw" id="1s3d">
<line cb-classname="GraphicLineEntity" class="signalline" id="1s3K" x1="4340" x2="4710" y1="2980" y2="2980"/>
<polygon cb-classname="GraphicPolygonEntity" class="signal" id="1s3y" points="4710,2980 4699,2974 4699,2985"/>
</g>
<g cb-classname="PointStatusIndicator" cb-indicator-type="highway" cb-source="AQ-62a-qS" id="1s3p" visibility="hidden">
<line cb-classname="GraphicLineEntity" class="algorithmline" id="1s3t" x1="4710" x2="4750" y1="2980" y2="2940"/>
<line cb-classname="GraphicLineEntity" class="algorithmline" id="1s3a" x1="4750" x2="4790" y1="2940" y2="2980"/>
<line cb-classname="GraphicLineEntity" class="algorithmline" id="1s3C" x1="4790" x2="4750" y1="2980" y2="3020"/>
<line cb-classname="GraphicLineEntity" class="algorithmline" id="1s39" x1="4750" x2="4710" y1="3020" y2="2980"/>
</g>
<g cb-classname="PointStatusIndicator" cb-indicator-type="hardware" cb-source="l0-ydy-P8" id="1s31" visibility="hidden">
<text cb-classname="GraphicTextEntity" class="algorithm" fill="#000000" font-family="Arial" font-size="20" id="1s3F" x="4740" y="2990">
H
</text>
</g>
<g cb-classname="PointStatusIndicator" cb-indicator-type="alarm" cb-source="2U-xJ1-yb" id="1sSd" visibility="hidden">
<text cb-classname="GraphicTextEntity" class="algorithm" fill="#000000" font-family="Arial" font-size="20" id="1sSK" x="4797" y="3008">
A
</text>
</g>
<g cb-classname="PointStatusIndicator" cb-indicator-type="ingraphic" cb-source="XG-aLj-PK" id="1sSy" visibility="hidden">
<text cb-classname="GraphicTextEntity" class="algorithm" fill="#000000" font-family="Arial" font-size="20" id="1sSp" x="4796" y="2969">
G
</text>
</g>
<g cb-classname="DynamicText" cb-labeled="false" cb-pin-name="IA" cb-source="cL-l19-4u" class="algorithm" id="1sSt" text-anchor="end">
<text baseline-shift="-100%" cb-classname="GraphicTextEntity" class="algorithm" fill="black" font-family="MS Shell Dlg" font-size="20" font-style="normal" font-weight="normal" id="1sSa" text-anchor="end" text-decoration="normal" x="4690" y="2940"/>
</g>
<g baseline-shift="-100%" cb-anchor-x="4690" cb-anchor-y="2980" cb-classname="PointReferences" cb-max-width="400" cb-originator="false" cb-source="AQ-62a-qS" class="signal" id="1sSC" text-anchor="end">
<text baseline-shift="-100%" cb-classname="GraphicTextEntity" class="algorithm" id="1sS9" text-anchor="end" x="4690" y="2980">
99/S11085
</text>
</g>
<g baseline-shift="-100%" cb-anchor-x="4840" cb-anchor-y="2940" cb-classname="PointDescription" cb-content="extended" cb-labeled="false" cb-max-width="460" cb-source="fU-vMX-Rg" class="algorithm" id="1sS1" text-anchor="start">
<text baseline-shift="-100%" cb-classname="GraphicTextEntity" class="algorithm" id="1sSF" text-anchor="start" x="4840" y="2940">
@ Ovation Control Builder @
</text>
</g>
</g>
<g cb-alg-Ho="$1500$cb-alg-xr01$" cb-algorithm-id="00A" cb-classname="ExternalPointInterface" cb-function-name="OUTPUT" id="1sUd">
<ellipse cb-classname="GraphicEllipseEntity" class="algorithm" cx="4750" cy="3140" id="1sUK" rx="40" ry="40"/>
<rect cb-classname="GraphicRectangleEntity" class="algorithm" height="80" id="1sUy" width="30" x="4790" y="3100"/>
<line cb-classname="GraphicLineEntity" class="algorithm" id="1sUp" x1="4790" x2="4820" y1="3140" y2="3140"/>
<g cb-classname="ControlPin" cb-pin-name="JN-qYo-2c" id="1sUt">
<line cb-classname="GraphicLineEntity" class="signalline" id="1sUa" x1="4340" x2="4710" y1="3140" y2="3140"/>
<polygon cb-classname="GraphicPolygonEntity" class="signal" id="1sUC" points="4710,3140 4699,3134 4699,3145"/>
</g>
<g cb-classname="PointStatusIndicator" cb-indicator-type="highway" cb-source="cL-l19-4u" id="1sU9" visibility="hidden">
<line cb-classname="GraphicLineEntity" class="algorithmline" id="1sU1" x1="4710" x2="4750" y1="3140" y2="3100"/>
<line cb-classname="GraphicLineEntity" class="algorithmline" id="1sUF" x1="4750" x2="4790" y1="3100" y2="3140"/>
<line cb-classname="GraphicLineEntity" class="algorithmline" id="1sDd" x1="4790" x2="4750" y1="3140" y2="3180"/>
<line cb-classname="GraphicLineEntity" class="algorithmline" id="1sDK" x1="4750" x2="4710" y1="3180" y2="3140"/>
</g>
<g cb-classname="PointStatusIndicator" cb-indicator-type="hardware" cb-source="wO-eCR-Rt" id="1sDy" visibility="hidden">
<text cb-classname="GraphicTextEntity" class="algorithm" fill="#000000" font-family="Arial" font-size="20" id="1sDp" x="4740" y="3150">
H
</text>
</g>
<g cb-classname="PointStatusIndicator" cb-indicator-type="alarm" cb-source="l0-ydy-P8" id="1sDt" visibility="hidden">
<text cb-classname="GraphicTextEntity" class="algorithm" fill="#000000" font-family="Arial" font-size="20" id="1sDa" x="4797" y="3168">
A
</text>
</g>
<g cb-classname="PointStatusIndicator" cb-indicator-type="ingraphic" cb-source="2U-xJ1-yb" id="1sDC" visibility="hidden">
<text cb-classname="GraphicTextEntity" class="algorithm" fill="#000000" font-family="Arial" font-size="20" id="1sD9" x="4796" y="3129">
G
</text>
</g>
<g cb-classname="DynamicText" cb-labeled="false" cb-pin-name="Ub" cb-source="XG-aLj-PK" class="algorithm" id="1sD1" text-anchor="end">
<text baseline-shift="-100%" cb-classname="GraphicTextEntity" class="algorithm" fill="black" font-family="MS Shell Dlg" font-size="20" font-style="normal" font-weight="normal" id="1sDF" text-anchor="end" text-decoration="normal" x="4690" y="3100"/>
</g>
<g baseline-shift="-100%" cb-anchor-x="4690" cb-anchor-y="3140" cb-classname="PointReferences" cb-max-width="400" cb-originator="false" cb-source="cL-l19-4u" class="signal" id="1s5d" text-anchor="end">
<text baseline-shift="-100%" cb-classname="GraphicTextEntity" class="algorithm" id="1s5K" text-anchor="end" x="4690" y="3140">
-
</text>
</g>
<g baseline-shift="-100%" cb-anchor-x="4840" cb-anchor-y="3100" cb-classname="PointDescription" cb-content="extended" cb-labeled="false" cb-max-width="460" cb-source="AQ-62a-qS" class="algorithm" id="1s5y" text-anchor="start">
<text baseline-shift="-100%" cb-classname="GraphicTextEntity" class="algorithm" id="1s5p" text-anchor="start" x="4840" y="3100">
@ Ovation Control Builder @
</text>
</g>
</g>
<g cb-alg-gN="$1500$cb-alg-xm92$" cb-algorithm-id="00F" cb-classname="ExternalPointInterface" cb-function-name="OUTPUT" id="1s5t">
<ellipse cb-classname="GraphicEllipseEntity" class="algorithm" cx="4750" cy="3220" id="1s5a" rx="40" ry="40"/>
<rect cb-classname="GraphicRectangleEntity" class="algorithm" height="80" id="1s5C" width="30" x="4790" y="3180"/>
<line cb-classname="GraphicLineEntity" class="algorithm" id="1s59" x1="4790" x2="4820" y1="3220" y2="3220"/>
<g cb-classname="ControlPin" cb-pin-name="fr-nVg-1d" id="1s51">
<line cb-classname="GraphicLineEntity" class="signalline" id="1s5F" x1="4340" x2="4710" y1="3220" y2="3220"/>
<polygon cb-classname="GraphicPolygonEntity" class="signal" id="14jd" points="4710,3220 4699,3214 4699,3225"/>
</g>
<g cb-classname="PointStatusIndicator" cb-indicator-type="highway" cb-source="XG-aLj-PK" id="14jK" visibility="hidden">
<line cb-classname="GraphicLineEntity" class="algorithmline" id="14jy" x1="4710" x2="4750" y1="3220" y2="3180"/>
<line cb-classname="GraphicLineEntity" class="algorithmline" id="14jp" x1="4750" x2="4790" y1="3180" y2="3220"/>
<line cb-classname="GraphicLineEntity" class="algorithmline" id="14jt" x1="4790" x2="4750" y1="3220" y2="3260"/>
<line cb-classname="GraphicLineEntity" class="algorithmline" id="14ja" x1="4750" x2="4710" y1="3260" y2="3220"/>
</g>
<g cb-classname="PointStatusIndicator" cb-indicator-type="hardware" cb-source="hu-bxv-qT" id="14jC" visibility="hidden">
<text cb-classname="GraphicTextEntity" class="algorithm" fill="#000000" font-family="Arial" font-size="20" id="14j9" x="4740" y="3230">
H
</text>
</g>
<g cb-classname="PointStatusIndicator" cb-indicator-type="alarm" cb-source="wO-eCR-Rt" id="14j1" visibility="hidden">
<text cb-classname="GraphicTextEntity" class="algorithm" fill="#000000" font-family="Arial" font-size="20" id="14jF" x="4797" y="3248">
A
</text>
</g>
<g cb-classname="PointStatusIndicator" cb-indicator-type="ingraphic" cb-source="l0-ydy-P8" id="14kd" visibility="hidden">
<text cb-classname="GraphicTextEntity" class="algorithm" fill="#000000" font-family="Arial" font-size="20" id="14kK" x="4796" y="3209">
G
</text>
</g>
<g cb-classname="DynamicText" cb-labeled="false" cb-pin-name="04" cb-source="2U-xJ1-yb" class="algorithm" id="14ky" text-anchor="end">
<text baseline-shift="-100%" cb-classname="GraphicTextEntity" class="algorithm" fill="black" font-family="MS Shell Dlg" font-size="20" font-style="normal" font-weight="normal" id="14kp" text-anchor="end" text-decoration="normal" x="4690" y="3180"/>
</g>
<g baseline-shift="-100%" cb-anchor-x="4690" cb-anchor-y="3220" cb-classname="PointReferences" cb-max-width="400" cb-originator="false" cb-source="XG-aLj-PK" class="signal" id="14kt" text-anchor="end">
<text baseline-shift="-100%" cb-classname="GraphicTextEntity" class="algorithm" id="14ka" text-anchor="end" x="4690" y="3220">
-
</text>
</g>
<g baseline-shift="-100%" cb-anchor-x="4840" cb-anchor-y="3180" cb-classname="PointDescription" cb-content="extended" cb-labeled="false" cb-max-width="460" cb-source="cL-l19-4u" class="algorithm" id="14kC" text-anchor="start">
<text baseline-shift="-100%" cb-classname="GraphicTextEntity" class="algorithm" id="14k9" text-anchor="start" x="4840" y="3180">
@ Ovation Control Builder @
</text>
</g>
</g>
<g cb-alg-HL="$1500$cb-alg-cmds$" cb-algorithm-id="004" cb-classname="ExternalPointInterface" cb-function-name="OUTPUT" id="14k1">
<ellipse cb-classname="GraphicEllipseEntity" class="algorithm" cx="4750" cy="2900" id="14kF" rx="40" ry="40"/>
<rect cb-classname="GraphicRectangleEntity" class="algorithm" height="80" id="14id" width="30" x="4790" y="2860"/>
<line cb-classname="GraphicLineEntity" class="algorithm" id="14iK" x1="4790" x2="4820" y1="2900" y2="2900"/>
<g cb-classname="ControlPin" cb-pin-name="aB-mgW-yM" id="14iy">
<line cb-classname="GraphicLineEntity" class="signalline" id="14ip" x1="4340" x2="4710" y1="2900" y2="2900"/>
<polygon cb-classname="GraphicPolygonEntity" class="signal" id="14it" points="4710,2900 4699,2894 4699,2905"/>
</g>
<g cb-classname="PointStatusIndicator" cb-indicator-type="highway" cb-source="2U-xJ1-yb" id="14ia" visibility="hidden">
<line cb-classname="GraphicLineEntity" class="algorithmline" id="14iC" x1="4710" x2="4750" y1="2900" y2="2860"/>
<line cb-classname="GraphicLineEntity" class="algorithmline" id="14i9" x1="4750" x2="4790" y1="2860" y2="2900"/>
<line cb-classname="GraphicLineEntity" class="algorithmline" id="14i1" x1="4790" x2="4750" y1="2900" y2="2940"/>
<line cb-classname="GraphicLineEntity" class="algorithmline" id="14iF" x1="4750" x2="4710" y1="2940" y2="2900"/>
</g>
<g cb-classname="PointStatusIndicator" cb-indicator-type="hardware" cb-source="Hq-jS6-q7" id="14zd" visibility="hidden">
<text cb-classname="GraphicTextEntity" class="algorithm" fill="#000000" font-family="Arial" font-size="20" id="14zK" x="4740" y="2910">
H
</text>
</g>
<g cb-classname="PointStatusIndicator" cb-indicator-type="alarm" cb-source="hu-bxv-qT" id="14zy" visibility="hidden">
<text cb-classname="GraphicTextEntity" class="algorithm" fill="#000000" font-family="Arial" font-size="20" id="14zp" x="4797" y="2928">
A
</text>
</g>
<g cb-classname="PointStatusIndicator" cb-indicator-type="ingraphic" cb-source="wO-eCR-Rt" id="14zt" visibility="hidden">
<text cb-classname="GraphicTextEntity" class="algorithm" fill="#000000" font-family="Arial" font-size="20" id="14za" x="4796" y="2889">
G
</text>
</g>
<g cb-classname="DynamicText" cb-labeled="false" cb-pin-name="Oc" cb-source="l0-ydy-P8" class="algorithm" id="14zC" text-anchor="end">
<text baseline-shift="-100%" cb-classname="GraphicTextEntity" class="algorithm" fill="black" font-family="MS Shell Dlg" font-size="20" font-style="normal" font-weight="normal" id="14z9" text-anchor="end" text-decoration="normal" x="4690" y="2860"/>
</g>
<g baseline-shift="-100%" cb-anchor-x="4690" cb-anchor-y="2900" cb-classname="PointReferences" cb-max-width="400" cb-originator="false" cb-source="2U-xJ1-yb" class="signal" id="14z1" text-anchor="end">
<text baseline-shift="-100%" cb-classname="GraphicTextEntity" class="algorithm" id="14zF" text-anchor="end" x="4690" y="2900">
99/S11085
</text>
</g>
<g baseline-shift="-100%" cb-anchor-x="4840" cb-anchor-y="2860" cb-classname="PointDescription" cb-content="extended" cb-labeled="false" cb-max-width="460" cb-source="XG-aLj-PK" class="algorithm" id="14Od" text-anchor="start">
<text baseline-shift="-100%" cb-classname="GraphicTextEntity" class="algorithm" id="14OK" text-anchor="start" x="4840" y="2860">
@ Ovation Control Builder @
</text>
</g>
</g>
</g>
<g cb-classname="IncludeDocument" cb-modify-time="09/25/2018 01:40:30" cb-objectname="frame" id="5">
<text cb-classname="GraphicTextEntity" class="frame" font-size="50" id="2zzy" x="3660" y="3146">
Project Title &lt;Edit in FRAME.SVG&gt;
</text>
<g baseline-shift="-50%" cb-classname="DynamicText" cb-source="aB-sHOp-PX" class="frame" id="2zzp">
<text cb-classname="GraphicTextEntity" class="frame" fill="black" font-family="arial" font-size="25" font-style="normal" font-weight="normal" id="2zzt" text-decoration="normal" x="4715" y="3325">
99
</text>
</g>
<g baseline-shift="-50%" cb-classname="DynamicText" cb-source="fr-wmTG-yg" class="frame" id="2zza" text-anchor="middle">
<text cb-classname="GraphicTextEntity" class="frame" fill="black" font-family="arial" font-size="48" font-style="normal" font-weight="normal" id="2zzC" text-anchor="middle" text-decoration="normal" x="4900" y="3320">
99
</text>
</g>
<g baseline-shift="-50%" cb-classname="DynamicText" cb-source="JN-jaIA-Ps" class="frame" id="2zz9" text-anchor="middle">
<text cb-classname="GraphicTextEntity" class="frame" fill="black" font-family="arial" font-size="48" font-style="normal" font-weight="normal" id="2zz1" text-anchor="middle" text-decoration="normal" x="5067" y="3324">
1
</text>
</g>
<g cb-classname="DynamicText" cb-source="C8-INL85-rBTSn" class="frame" id="2zzF">
<text cb-classname="GraphicTextEntity" class="frame" fill="black" font-family="arial" font-size="48" font-style="normal" font-weight="normal" id="2zOd" text-decoration="normal" x="3660" y="3224">
STNBY MOTR2-TEST-DEV
</text>
</g>
<g baseline-shift="-50%" cb-classname="DynamicText" cb-source="Hq-mgL9x-Soi8xg" class="frame" id="2zOK" text-anchor="middle">
<text cb-classname="GraphicTextEntity" class="frame" fill="black" font-family="arial" font-size="48" font-style="normal" font-weight="normal" id="2zOy" text-anchor="middle" text-decoration="normal" x="5270" y="3324">
S11089
</text>
</g>
<g baseline-shift="0%" cb-classname="DynamicText" cb-source="hu-J94qhRKt" class="frame" id="2zOp" text-anchor="middle">
<text cb-classname="GraphicTextEntity" class="frame" fill="black" font-family="arial" font-size="36" font-style="normal" font-weight="normal" id="2zOt" text-anchor="middle" text-decoration="normal" x="5270" y="3150">
A
</text>
</g>
<g baseline-shift="0%" cb-classname="DynamicText" cb-source="wO-buuReyw8-8Pub" class="frame" id="2zOa" text-anchor="middle">
<text cb-classname="GraphicTextEntity" class="frame" fill="black" font-family="arial" font-size="20" font-style="normal" font-weight="normal" id="2zOC" text-anchor="middle" text-decoration="normal" x="5270" y="3230">

</text>
</g>
<g baseline-shift="-50%" cb-classname="DynamicText" cb-source="l0-xTyyM2R1" class="frame" id="2zO9" text-anchor="end">
<text cb-classname="GraphicTextEntity" class="frame" fill="black" font-family="arial" font-size="26" font-style="normal" font-weight="normal" id="2zO1" text-anchor="end" text-decoration="normal" x="4500" y="3420">

</text>
</g>
<g baseline-shift="-50%" cb-classname="DynamicText" cb-source="2U-mQq1Ri8Z" class="frame" id="2zOF" text-anchor="end">
<text cb-classname="GraphicTextEntity" class="frame" fill="black" font-family="arial" font-size="26" font-style="normal" font-weight="normal" id="2z3d" text-anchor="end" text-decoration="normal" x="5353" y="3420">

</text>
</g>
<g cb-classname="GraphicShape" cb-tag="BORDER" id="2z3K">
<line cb-classname="GraphicLineEntity" class="frameline" id="2z3y" x1="40" x2="40" y1="40" y2="3460"/>
<line cb-classname="GraphicLineEntity" class="frameline" id="2z3p" x1="40" x2="5380" y1="3460" y2="3460"/>
<line cb-classname="GraphicLineEntity" class="frameline" id="2z3t" x1="5380" x2="5380" y1="3460" y2="40"/>
<line cb-classname="GraphicLineEntity" class="frameline" id="2z3a" x1="5380" x2="40" y1="40" y2="40"/>
<line cb-classname="GraphicLineEntity" class="frame" id="2z3C" x1="5430" x2="5440" y1="3510" y2="3510"/>
</g>
<g cb-classname="GraphicShape" cb-tag="TITLE BOX" id="2z39">
<line cb-classname="GraphicLineEntity" class="frameline" id="2z31" x1="2340" x2="2340" y1="3080" y2="3460"/>
<line cb-classname="GraphicLineEntity" class="frameline" id="2z3F" x1="2340" x2="5380" y1="3080" y2="3080"/>
<line cb-classname="GraphicLineEntity" class="frameline" id="2zSd" x1="3650" x2="3650" y1="3460" y2="3080"/>
<line cb-classname="GraphicLineEntity" class="frameline" id="2zSK" x1="3650" x2="5380" y1="3240" y2="3240"/>
<line cb-classname="GraphicLineEntity" class="frameline" id="2zSy" x1="3650" x2="5380" y1="3390" y2="3390"/>
<line cb-classname="GraphicLineEntity" class="frameline" id="2zSp" x1="3650" x2="5380" y1="3160" y2="3160"/>
<line cb-classname="GraphicLineEntity" class="frameline" id="2zSt" x1="3650" x2="4520" y1="3320" y2="3320"/>
<line cb-classname="GraphicLineEntity" class="frameline" id="2zSa" x1="4520" x2="5380" y1="3290" y2="3290"/>
<line cb-classname="GraphicLineEntity" class="frameline" id="2zSC" x1="4520" x2="5380" y1="3240" y2="3240"/>
<line cb-classname="GraphicLineEntity" class="frameline" id="2zS9" x1="4520" x2="4520" y1="3240" y2="3460"/>
<line cb-classname="GraphicLineEntity" class="frameline" id="2zS1" x1="4810" x2="4810" y1="3240" y2="3390"/>
<line cb-classname="GraphicLineEntity" class="frameline" id="2zSF" x1="4990" x2="4990" y1="3240" y2="3390"/>
<line cb-classname="GraphicLineEntity" class="frameline" id="2zUd" x1="5150" x2="5150" y1="3080" y2="3390"/>
</g>
<g cb-classname="GraphicShape" cb-tag="TEXT LABELS" id="2zUK">
<text baseline-shift="-50%" cb-classname="GraphicTextEntity" class="frame" font-size="25" id="2zUy" text-anchor="middle" x="4890" y="3252">
Drop
</text>
<text baseline-shift="-50%" cb-classname="GraphicTextEntity" class="frame" font-size="25" id="2zUp" text-anchor="middle" x="5075" y="3252">
Task
</text>
<text baseline-shift="-50%" cb-classname="GraphicTextEntity" class="frame" font-size="25" id="2zUt" text-anchor="middle" x="5265" y="3252">
Sheet
</text>
<text cb-classname="GraphicTextEntity" class="frame" font-size="25" id="2zUa" x="5152" y="3107">
Rev.
</text>
<text cb-classname="GraphicTextEntity" class="frame" font-size="25" id="2zUC" x="3653" y="3418">
Engineer
</text>
<text cb-classname="GraphicTextEntity" class="frame" font-size="25" id="2zU9" x="4528" y="3419">
Approved
</text>
<text cb-classname="GraphicTextEntity" class="frame" font-size="25" id="2zU1" x="5152" y="3187">
Date
</text>
<text baseline-shift="-50%" cb-classname="GraphicTextEntity" class="frame" font-size="25" id="2zUF" text-anchor="middle" x="4660" y="3252">
Drawing Number
</text>
<text baseline-shift="-50%" cb-classname="GraphicTextEntity" class="frame" font-size="25" id="2zDd" text-anchor="middle" x="4680" y="3325">
CTL
</text>
</g>
<text baseline-shift="-50%" cb-classname="GraphicTextEntity" class="frame" font-size="48" id="2zDK" text-anchor="middle" x="3000" y="3100">
EMERSON PROCESS MANAGEMENT
</text>
<g baseline-shift="-100%" cb-anchor-x="2360" cb-anchor-y="3140" cb-classname="GroupText" cb-max-width="1260" fill="black" id="2zDy">
<text baseline-shift="-100%" cb-classname="GraphicTextEntity" class="frame" fill="black" font-family="arial" font-size="22" font-weight="normal" id="2zDp" text-anchor="start" text-decoration="normal" x="2360" y="3140">
THIS DOCUMENT CONTAINS INFORMATION PROPRIETARY TO EMERSON PROCESS
</text>
<text baseline-shift="-100%" cb-classname="GraphicTextEntity" class="frame" fill="black" font-family="arial" font-size="22" font-weight="normal" id="2zDt" text-anchor="start" text-decoration="normal" x="2360" y="3176">
MANAGEMENT POWER &amp; WATER SOLUTIONS, INC. IT IS SUBMITTED IN CONFIDENCE AND
</text>
<text baseline-shift="-100%" cb-classname="GraphicTextEntity" class="frame" fill="black" font-family="arial" font-size="22" font-weight="normal" id="2zDa" text-anchor="start" text-decoration="normal" x="2360" y="3212">
TRUST, IS TO BE USED BY YOU SOLELY FOR THE PURPOSES FOR WHICH IT IS
</text>
<text baseline-shift="-100%" cb-classname="GraphicTextEntity" class="frame" fill="black" font-family="arial" font-size="22" font-weight="normal" id="2zDC" text-anchor="start" text-decoration="normal" x="2360" y="3248">
FURNISHED AND IS TO BE RETURNED UPON REQUEST. THIS DOCUMENT AND ANY
</text>
<text baseline-shift="-100%" cb-classname="GraphicTextEntity" class="frame" fill="black" font-family="arial" font-size="22" font-weight="normal" id="2zD9" text-anchor="start" text-decoration="normal" x="2360" y="3284">
OTHER INFORMATION PROVIDED TO YOU IS NOT TO BE REPRODUCED, TRANSMITTED,
</text>
<text baseline-shift="-100%" cb-classname="GraphicTextEntity" class="frame" fill="black" font-family="arial" font-size="22" font-weight="normal" id="2zD1" text-anchor="start" text-decoration="normal" x="2360" y="3320">
DISCLOSED, OR USED OTHERWISE IN WHOLE OR IN PART WITHOUT THE PRIOR
</text>
<text baseline-shift="-100%" cb-classname="GraphicTextEntity" class="frame" fill="black" font-family="arial" font-size="22" font-weight="normal" id="2zDF" text-anchor="start" text-decoration="normal" x="2360" y="3356">
WRITTEN AUTHORIZATION OF EMERSON PROCESS MANAGEMENT POWER &amp; WATER
</text>
<text baseline-shift="-100%" cb-classname="GraphicTextEntity" class="frame" fill="black" font-family="arial" font-size="22" font-weight="normal" id="2z5d" text-anchor="start" text-decoration="normal" x="2360" y="3392">
SOLUTIONS,INC.
</text>
</g>
</g>
</svg>