<?xml version="1.0" ?><svg cb-auto-time="01/27/2020 15:09:00" cb-classname="ControlFunction" cb-create-time="01/13/2020" cb-drop-id="99" cb-filename="Y:\OVATION\NET0\UNIT0\CONTROLFUNCTIONS\0042.svg" cb-function-id="0042" cb-key="244332152551" cb-modified-timestamp="1582708867" cb-modify-id="00000002" cb-path="Y:/OVATION/NET0/UNIT0/CONTROLFUNCTIONS" cb-revision="A" cb-sheet-number="S11201" cb-sheet-title="SIS_VTR-TEST_KBRD" cb-snap-grid="10" cb-task-id="1" height="3522" id="1" width="5450" xmlns="http://www.w3.org/2000/svg">
<style cb-classname="EntityStyle" id="2" type="text/css">
	.algorithm { fill: white; stroke: black; stroke-width: 3 }
	.algorithm-function { fill: black; stroke: none }
	.algorithm-functionline { fill: none; stroke: black; stroke-linecap: round; stroke-width: 3 }
	.algorithm-name { fill: black; stroke: none }
	.algorithm-nameline { fill: none; stroke: black; stroke-linecap: round; stroke-width: 3 }
	.algorithm-sequence { fill: black; stroke: none; visibility: hidden }
	.algorithm-sequenceline { fill: none; stroke: black; stroke-linecap: round; stroke-width: 3; visibility: hidden }
	.algorithmline { fill: none; stroke: black; stroke-linecap: round; stroke-width: 3 }
	.annotation { fill: black; stroke: none }
	.annotationline { fill: none; stroke: black; stroke-linecap: round; stroke-width: 3 }
	.frame { fill: black; stroke: none }
	.frameline { fill: none; stroke: black; stroke-linecap: round; stroke-width: 3 }
	.signal { fill: black; stroke: none }
	.signalline { fill: none; stroke: black; stroke-linecap: round; stroke-width: 3 }
	text.algorithm { fill: black; font-family: Arial; font-size: 22; stroke: none }
	text.algorithm-function { fill: black; font-family: Arial; font-size: 22; stroke: none }
	text.algorithm-name { fill: black; font-family: Arial; font-size: 22; stroke: none }
	text.algorithm-sequence { fill: black; font-family: Arial; font-size: 22; stroke: none; visibility: hidden }
	text.annotation { fill: black; font-family: Arial; font-size: 22; stroke: none }
	text.frame { fill: black; font-family: Arial; font-size: 18; stroke: none }
	text.signal { fill: black; font-family: Arial; font-size: 12; stroke: none }
</style>
<g cb-classname="NamedObject" cb-objectname="Comments" id="3"/>
<g cb-classname="AlgorithmContainer" cb-objectname="Algorithms" id="4">
<g cb-alg-a8y="SIM-DVTR-KB-RST" cb-alg-dmA9="128" cb-alg-lvo9="5" cb-alg-p26="SIM-DVTR-RST" cb-algorithm-id="001" cb-classname="ControlAlgorithm" cb-function-name="KEYBOARD" id="6g">
<rect cb-classname="GraphicRectangleEntity" class="algorithm" height="100" id="60" width="100" x="1200" y="240"/>
<text cb-classname="GraphicTextEntity" class="algorithm" font-size="18" id="6M" text-anchor="middle" x="1250" y="278">
KEY
</text>
<text cb-classname="GraphicTextEntity" class="algorithm" font-size="18" id="6Q" text-anchor="middle" x="1250" y="304">
BOARD
</text>
<g cb-classname="DynamicText" cb-source="Rh-K7Y-oWF" class="algorithm" id="6X">
<text baseline-shift="5%" cb-classname="GraphicTextEntity" class="algorithm" fill="black" font-family="Arial" font-size="12" font-style="normal" font-weight="normal" id="7V" text-decoration="normal" x="1200" y="367"/>
</g>
<g cb-classname="ControlPin" cb-pin-name="5E-41M-iyq" id="1V3">
<line cb-classname="GraphicLineEntity" class="signalline" id="1V6" x1="1300" x2="1330" y1="270" y2="270"/>
<g cb-classname="DynamicText" cb-source="BK-VOQ-Zcw7" id="1Vt">
<text cb-classname="GraphicTextEntity" class="signal" id="1Vq" text-anchor="start" x="1314" y="267"/>
</g>
<g cb-classname="SignalSegment" id="1V8">
<g cb-classname="SignalConnection" cb-graphic-line="$107$" cb-input-pin="$uY$" id="1VY"/>
<line cb-classname="GraphicLineEntity" class="signalline" id="1V7" stroke="#1e12bf" stroke-dasharray="5,4" x1="1330" x2="1880" y1="270" y2="270"/>
</g>
</g>
</g>
<g cb-alg-J6="$65$cb-alg-pk1$" cb-algorithm-id="002" cb-classname="ExternalPointInterface" cb-function-name="OUTPUT" id="7F">
<ellipse cb-classname="GraphicEllipseEntity" class="algorithm" cx="1940" cy="270" id="75" rx="40" ry="40"/>
<rect cb-classname="GraphicRectangleEntity" class="algorithm" height="80" id="7z" width="30" x="1980" y="230"/>
<line cb-classname="GraphicLineEntity" class="algorithm" id="7d" x1="1980" x2="2010" y1="270" y2="270"/>
<g cb-classname="PointStatusIndicator" cb-indicator-type="highway" cb-source="LP-0kb-bZ" id="7g" visibility="hidden">
<line cb-classname="GraphicLineEntity" class="algorithmline" id="70" x1="1900" x2="1940" y1="270" y2="230"/>
<line cb-classname="GraphicLineEntity" class="algorithmline" id="7M" x1="1940" x2="1980" y1="230" y2="270"/>
<line cb-classname="GraphicLineEntity" class="algorithmline" id="7Q" x1="1980" x2="1940" y1="270" y2="310"/>
<line cb-classname="GraphicLineEntity" class="algorithmline" id="7X" x1="1940" x2="1900" y1="310" y2="270"/>
</g>
<g cb-classname="PointStatusIndicator" cb-indicator-type="hardware" cb-source="jX-BXC-pA" id="8V" visibility="hidden">
<line cb-classname="GraphicLineEntity" class="algorithmline" id="8F" x1="1980" x2="1900" y1="230" y2="230"/>
<line cb-classname="GraphicLineEntity" class="algorithmline" id="85" x1="1900" x2="1900" y1="230" y2="310"/>
<line cb-classname="GraphicLineEntity" class="algorithmline" id="8z" x1="1900" x2="1980" y1="310" y2="310"/>
</g>
<g cb-classname="PointStatusIndicator" cb-indicator-type="alarm" cb-source="Tj-Jqq-6Y" id="8d" visibility="hidden">
<text cb-classname="GraphicTextEntity" class="algorithm" fill="#000000" font-family="Arial" font-size="20" id="8g" x="1987" y="259">
A
</text>
</g>
<g cb-classname="PointStatusIndicator" cb-indicator-type="ingraphic" cb-source="Do-oWF-OQ" id="80" visibility="hidden">
<text cb-classname="GraphicTextEntity" class="algorithm" fill="#000000" font-family="Arial" font-size="20" id="8M" x="1985" y="300">
G
</text>
</g>
<g cb-classname="DynamicText" cb-labeled="false" cb-pin-name="37" cb-source="LP-0kb-bZ" class="algorithm" id="8Q" text-anchor="end">
<text baseline-shift="0%" cb-classname="GraphicTextEntity" class="algorithm" fill="black" font-family="Arial" font-size="20" font-style="normal" font-weight="normal" id="8X" text-anchor="end" text-decoration="normal" x="1877" y="249"/>
</g>
<g baseline-shift="-100%" cb-anchor-x="1878" cb-anchor-y="286" cb-classname="PointReferences" cb-max-width="240" cb-originator="false" cb-source="9X-R9R-fN" class="signal" id="9V" text-anchor="end">
<text baseline-shift="-100%" cb-classname="GraphicTextEntity" class="algorithm" id="9F" text-anchor="end" x="1878" y="286">
2/H-SIS-DVTR
</text>
</g>
<g baseline-shift="-50%" cb-anchor-x="2031" cb-anchor-y="268" cb-classname="PointDescription" cb-content="extended" cb-labeled="false" cb-max-width="240" cb-source="jX-BXC-pA" class="algorithm" id="9z" text-anchor="start">
<text baseline-shift="-50%" cb-classname="GraphicTextEntity" class="algorithm" id="9d" text-anchor="start" x="2031" y="251">
@ Ovation Control
</text>
<text baseline-shift="-50%" cb-classname="GraphicTextEntity" class="algorithm" id="9g" text-anchor="start" x="2031" y="287">
Builder @
</text>
</g>
<g cb-classname="ControlPin" cb-pin-name="5C-2h0-qp" id="90">
<line cb-classname="GraphicLineEntity" class="signalline" id="9M" x1="1880" x2="1900" y1="270" y2="270"/>
<polygon cb-classname="GraphicPolygonEntity" class="signal" id="9Q" points="1900,270 1889,264 1889,275"/>
</g>
</g>
<g cb-alg-K7Y="SIM-AVTR-KB-RST" cb-alg-RFt="SIM-AVTR-RST" cb-alg-kgJ0="128" cb-alg-yre0="5" cb-algorithm-id="003" cb-classname="ControlAlgorithm" cb-function-name="KEYBOARD" id="1F6">
<rect cb-classname="GraphicRectangleEntity" class="algorithm" height="100" id="1Ft" width="100" x="1200" y="480"/>
<text cb-classname="GraphicTextEntity" class="algorithm" font-size="18" id="1Fq" text-anchor="middle" x="1250" y="518">
KEY
</text>
<text cb-classname="GraphicTextEntity" class="algorithm" font-size="18" id="1F8" text-anchor="middle" x="1250" y="544">
BOARD
</text>
<g cb-classname="DynamicText" cb-source="BK-2ne-FMy" class="algorithm" id="1Fm">
<text baseline-shift="5%" cb-classname="GraphicTextEntity" class="algorithm" fill="black" font-family="Arial" font-size="12" font-style="normal" font-weight="normal" id="1Fd" text-decoration="normal" x="1200" y="607"/>
</g>
<g cb-classname="ControlPin" cb-pin-name="cH-scs-RFt" id="1F7">
<line cb-classname="GraphicLineEntity" class="signalline" id="1FY" x1="1300" x2="1330" y1="510" y2="510"/>
<g cb-classname="DynamicText" cb-source="jX-EJ6-eVkV" id="1FW">
<text cb-classname="GraphicTextEntity" class="signal" id="153" text-anchor="start" x="1314" y="507"/>
</g>
<g cb-classname="SignalSegment" id="156">
<g cb-classname="SignalConnection" cb-graphic-line="$123$" cb-input-pin="$iw3$" id="15t"/>
<line cb-classname="GraphicLineEntity" class="signalline" id="15q" stroke="#1e12bf" stroke-dasharray="5,4" x1="1330" x2="1880" y1="510" y2="510"/>
</g>
</g>
</g>
<g cb-alg-WB="$111$cb-alg-pk1$" cb-algorithm-id="004" cb-classname="ExternalPointInterface" cb-function-name="OUTPUT" id="158">
<ellipse cb-classname="GraphicEllipseEntity" class="algorithm" cx="1940" cy="510" id="15m" rx="40" ry="40"/>
<rect cb-classname="GraphicRectangleEntity" class="algorithm" height="80" id="15d" width="30" x="1980" y="470"/>
<line cb-classname="GraphicLineEntity" class="algorithm" id="157" x1="1980" x2="2010" y1="510" y2="510"/>
<g cb-classname="PointStatusIndicator" cb-indicator-type="highway" cb-source="BK-2ne-a5" id="15Y" visibility="hidden">
<line cb-classname="GraphicLineEntity" class="algorithmline" id="15W" x1="1900" x2="1940" y1="510" y2="470"/>
<line cb-classname="GraphicLineEntity" class="algorithmline" id="1z3" x1="1940" x2="1980" y1="470" y2="510"/>
<line cb-classname="GraphicLineEntity" class="algorithmline" id="1z6" x1="1980" x2="1940" y1="510" y2="550"/>
<line cb-classname="GraphicLineEntity" class="algorithmline" id="1zt" x1="1940" x2="1900" y1="550" y2="510"/>
</g>
<g cb-classname="PointStatusIndicator" cb-indicator-type="hardware" cb-source="bd-fyk-13" id="1zq" visibility="hidden">
<line cb-classname="GraphicLineEntity" class="algorithmline" id="1z8" x1="1980" x2="1900" y1="470" y2="470"/>
<line cb-classname="GraphicLineEntity" class="algorithmline" id="1zm" x1="1900" x2="1900" y1="470" y2="550"/>
<line cb-classname="GraphicLineEntity" class="algorithmline" id="1zd" x1="1900" x2="1980" y1="550" y2="550"/>
</g>
<g cb-classname="PointStatusIndicator" cb-indicator-type="alarm" cb-source="eY-VQQ-Og" id="1z7" visibility="hidden">
<text cb-classname="GraphicTextEntity" class="algorithm" fill="#000000" font-family="Arial" font-size="20" id="1zY" x="1987" y="499">
A
</text>
</g>
<g cb-classname="PointStatusIndicator" cb-indicator-type="ingraphic" cb-source="5E-41M-bp" id="1zW" visibility="hidden">
<text cb-classname="GraphicTextEntity" class="algorithm" fill="#000000" font-family="Arial" font-size="20" id="1d3" x="1985" y="540">
G
</text>
</g>
<g cb-classname="DynamicText" cb-labeled="false" cb-pin-name="0g" cb-source="BK-2ne-a5" class="algorithm" id="1d6" text-anchor="end">
<text baseline-shift="0%" cb-classname="GraphicTextEntity" class="algorithm" fill="black" font-family="Arial" font-size="20" font-style="normal" font-weight="normal" id="1dt" text-anchor="end" text-decoration="normal" x="1877" y="489"/>
</g>
<g baseline-shift="-100%" cb-anchor-x="1878" cb-anchor-y="526" cb-classname="PointReferences" cb-max-width="240" cb-originator="false" cb-source="cH-scs-WB" class="signal" id="1dq" text-anchor="end">
<text baseline-shift="-100%" cb-classname="GraphicTextEntity" class="algorithm" id="1d8" text-anchor="end" x="1878" y="526">
2/H-SIS-AVTR
</text>
</g>
<g baseline-shift="-50%" cb-anchor-x="2031" cb-anchor-y="508" cb-classname="PointDescription" cb-content="extended" cb-labeled="false" cb-max-width="240" cb-source="Rh-K7Y-rh" class="algorithm" id="1d7" text-anchor="start">
<text baseline-shift="-50%" cb-classname="GraphicTextEntity" class="algorithm" id="1dY" text-anchor="start" x="2031" y="491">
@ Ovation Control
</text>
<text baseline-shift="-50%" cb-classname="GraphicTextEntity" class="algorithm" id="1dW" text-anchor="start" x="2031" y="527">
Builder @
</text>
</g>
<g cb-classname="ControlPin" cb-pin-name="Do-oWF-OQ" id="1g6">
<line cb-classname="GraphicLineEntity" class="signalline" id="1gt" x1="1880" x2="1900" y1="510" y2="510"/>
<polygon cb-classname="GraphicPolygonEntity" class="signal" id="1gq" points="1900,510 1889,504 1889,515"/>
</g>
</g>
<g cb-alg-QVpM="5" cb-alg-dq0M="128" cb-alg-oWF="SIM-DVTR-BYPASS-KB-RST" cb-algorithm-id="005" cb-classname="ControlAlgorithm" cb-function-name="KEYBOARD" cb-modify-id="00000001" id="1g8">
<rect cb-classname="GraphicRectangleEntity" class="algorithm" height="100" id="1gm" width="100" x="1200" y="720"/>
<text cb-classname="GraphicTextEntity" class="algorithm" font-size="18" id="1gd" text-anchor="middle" x="1250" y="758">
KEY
</text>
<text cb-classname="GraphicTextEntity" class="algorithm" font-size="18" id="1g7" text-anchor="middle" x="1250" y="784">
BOARD
</text>
<g cb-classname="DynamicText" cb-source="jX-BXC-Jqq" class="algorithm" id="1gY">
<text baseline-shift="5%" cb-classname="GraphicTextEntity" class="algorithm" fill="black" font-family="Arial" font-size="12" font-style="normal" font-weight="normal" id="1gW" text-decoration="normal" x="1200" y="847"/>
</g>
<g cb-classname="ControlPin" cb-pin-name="Rh-K7Y-Fyl" id="103">
<line cb-classname="GraphicLineEntity" class="signalline" id="106" x1="1300" x2="1330" y1="750" y2="750"/>
<g cb-classname="DynamicText" cb-source="Tj-T13-p2WI" id="10t">
<text cb-classname="GraphicTextEntity" class="signal" id="10q" text-anchor="start" x="1314" y="747"/>
</g>
<g cb-classname="SignalSegment" id="108">
<line cb-classname="GraphicLineEntity" class="signalline" id="2gm" stroke="#1e12bf" stroke-dasharray="5,4" x1="1330" x2="1520" y1="750" y2="750"/>
<g cb-classname="SignalConnection" cb-graphic-line="$255$" cb-input-pin="$f3Q$" id="2g7"/>
</g>
</g>
<g cb-classname="ControlPin" cb-pin-name="bd-fyk-KnE" id="20q">
<line cb-classname="GraphicLineEntity" class="signalline" id="208" x1="1300" x2="1330" y1="790" y2="790"/>
<g cb-classname="DynamicText" cb-source="5C-apA-h0yj" id="20m">
<text cb-classname="GraphicTextEntity" class="signal" id="20d" text-anchor="start" x="1314" y="787"/>
</g>
<g cb-classname="SignalSegment" id="207">
<g cb-classname="SignalConnection" cb-graphic-line="$270$" cb-input-pin="$EQs$" id="2M6"/>
<line cb-classname="GraphicLineEntity" class="signalline" id="2M3" stroke="#1e12bf" stroke-dasharray="5,4" x1="1330" x2="1520" y1="790" y2="790"/>
</g>
</g>
</g>
<g cb-alg-DzTN="$154$cb-alg-pk2$" cb-alg-ZRQ="SIM-DVTR-BYPASS-RST" cb-alg-nCvL="RESET" cb-alg-xFQ="$154$cb-alg-pk1$" cb-algorithm-id="007" cb-classname="FastBooleanAlgorithm" cb-function-name="FLIPFLOP" id="2zm">
<rect cb-classname="GraphicRectangleEntity" class="algorithm" height="80" id="2zd" width="80" x="1540" y="730"/>
<text baseline-shift="-50%" cb-classname="GraphicTextEntity" class="algorithm" id="2z7" text-anchor="middle" x="1557" y="745">
S
</text>
<text baseline-shift="-50%" cb-classname="GraphicTextEntity" class="algorithm" id="2zY" text-anchor="middle" x="1559" y="786">
R
</text>
<text baseline-shift="-50%" cb-classname="GraphicTextEntity" class="algorithm" id="2zW" text-anchor="middle" x="1601" y="747">
1
</text>
<text baseline-shift="-50%" cb-classname="GraphicTextEntity" class="algorithm" id="2d3" text-anchor="middle" x="1600" y="787">
0
</text>
<g cb-classname="ControlPin" cb-pin-name="eY-VQQ-wxg" id="2d6">
<line cb-classname="GraphicLineEntity" class="signalline" id="2dt" x1="1620" x2="1640" y1="750" y2="750"/>
<g cb-classname="DynamicText" cb-source="5E-w6Y-QNrC" class="signal" id="2dq">
<text baseline-shift="5%" cb-classname="GraphicTextEntity" class="signal" fill="black" font-style="normal" font-weight="normal" id="2d8" text-decoration="normal" x="1635" y="741"/>
</g>
<g cb-classname="SignalSegment" cb-start-x="820" cb-start-y="720" id="2gd">
<line cb-classname="GraphicLineEntity" class="signalline" id="10d" stroke="#1e12bf" stroke-dasharray="5,4" x1="1640" x2="1880" y1="750" y2="750"/>
<g cb-classname="SignalConnection" cb-graphic-line="$166$" cb-input-pin="$6K7$" id="206"/>
</g>
</g>
<g cb-classname="ControlPin" cb-pin-name="BK-2ne-8C7" id="2dm">
<line cb-classname="GraphicLineEntity" class="signalline" id="2dd" x1="1520" x2="1540" y1="750" y2="750"/>
<polygon cb-classname="GraphicPolygonEntity" class="signal" id="2d7" points="1540,750 1529,746 1529,754"/>
<g cb-classname="DynamicText" cb-source="9O-I9z-BJwS" class="signal" id="2dY" text-anchor="end">
<text baseline-shift="5%" cb-classname="GraphicTextEntity" class="signal" fill="black" font-style="normal" font-weight="normal" id="2dW" text-anchor="end" text-decoration="normal" x="1524" y="740"/>
</g>
</g>
<g cb-classname="ControlPin" cb-pin-name="bd-fyk-iGVh" id="2g3">
<line cb-classname="GraphicLineEntity" class="signalline" id="2g6" x1="1520" x2="1540" y1="790" y2="790"/>
<polygon cb-classname="GraphicPolygonEntity" class="signal" id="2gt" points="1540,790 1529,786 1529,794"/>
<g cb-classname="DynamicText" cb-source="Tj-T13-p2WI" class="signal" id="2gq" text-anchor="end">
<text baseline-shift="5%" cb-classname="GraphicTextEntity" class="signal" fill="black" font-style="normal" font-weight="normal" id="2g8" text-anchor="end" text-decoration="normal" x="1521" y="781"/>
</g>
</g>
</g>
<g cb-alg-rh="$235$cb-alg-out$" cb-algorithm-id="006" cb-classname="ExternalPointInterface" cb-function-name="OUTPUT" id="107">
<ellipse cb-classname="GraphicEllipseEntity" class="algorithm" cx="1940" cy="750" id="10Y" rx="40" ry="40"/>
<rect cb-classname="GraphicRectangleEntity" class="algorithm" height="80" id="10W" width="30" x="1980" y="710"/>
<line cb-classname="GraphicLineEntity" class="algorithm" id="1M3" x1="1980" x2="2010" y1="750" y2="750"/>
<g cb-classname="PointStatusIndicator" cb-indicator-type="highway" cb-source="jX-BXC-pA" id="1M6" visibility="hidden">
<line cb-classname="GraphicLineEntity" class="algorithmline" id="1Mt" x1="1900" x2="1940" y1="750" y2="710"/>
<line cb-classname="GraphicLineEntity" class="algorithmline" id="1Mq" x1="1940" x2="1980" y1="710" y2="750"/>
<line cb-classname="GraphicLineEntity" class="algorithmline" id="1M8" x1="1980" x2="1940" y1="750" y2="790"/>
<line cb-classname="GraphicLineEntity" class="algorithmline" id="1Mm" x1="1940" x2="1900" y1="790" y2="750"/>
</g>
<g cb-classname="PointStatusIndicator" cb-indicator-type="hardware" cb-source="eY-VQQ-Og" id="1Md" visibility="hidden">
<line cb-classname="GraphicLineEntity" class="algorithmline" id="1M7" x1="1980" x2="1900" y1="710" y2="710"/>
<line cb-classname="GraphicLineEntity" class="algorithmline" id="1MY" x1="1900" x2="1900" y1="710" y2="790"/>
<line cb-classname="GraphicLineEntity" class="algorithmline" id="1MW" x1="1900" x2="1980" y1="790" y2="790"/>
</g>
<g cb-classname="PointStatusIndicator" cb-indicator-type="alarm" cb-source="BK-2ne-a5" id="1Q3" visibility="hidden">
<text cb-classname="GraphicTextEntity" class="algorithm" fill="#000000" font-family="Arial" font-size="20" id="1Q6" x="1987" y="739">
A
</text>
</g>
<g cb-classname="PointStatusIndicator" cb-indicator-type="ingraphic" cb-source="cH-scs-WB" id="1Qt" visibility="visible">
<text cb-classname="GraphicTextEntity" class="algorithm" fill="#000000" font-family="Arial" font-size="20" id="1Qq" x="1985" y="780">
G
</text>
</g>
<g cb-classname="DynamicText" cb-labeled="false" cb-pin-name="cd" cb-source="jX-BXC-pA" class="algorithm" id="1Q8" text-anchor="end">
<text baseline-shift="0%" cb-classname="GraphicTextEntity" class="algorithm" fill="black" font-family="Arial" font-size="20" font-style="normal" font-weight="normal" id="1Qm" text-anchor="end" text-decoration="normal" x="1877" y="729"/>
</g>
<g baseline-shift="-100%" cb-anchor-x="1878" cb-anchor-y="766" cb-classname="PointReferences" cb-max-width="240" cb-originator="false" cb-source="Rh-K7Y-rh" class="signal" id="1Qd" text-anchor="end">
<text baseline-shift="-100%" cb-classname="GraphicTextEntity" class="algorithm" id="1Q7" text-anchor="end" x="1878" y="766">
2/H-SIS-DVTR
</text>
</g>
<g baseline-shift="-50%" cb-anchor-x="2031" cb-anchor-y="748" cb-classname="PointDescription" cb-content="extended" cb-labeled="false" cb-max-width="240" cb-source="Tj-Jqq-6Y" class="algorithm" id="1QY" text-anchor="start">
<text baseline-shift="-50%" cb-classname="GraphicTextEntity" class="algorithm" id="1QW" text-anchor="start" x="2031" y="731">
@ Ovation Control
</text>
<text baseline-shift="-50%" cb-classname="GraphicTextEntity" class="algorithm" id="1X3" text-anchor="start" x="2031" y="767">
Builder @
</text>
</g>
<g cb-classname="ControlPin" cb-pin-name="5E-41M-bp" id="1X6">
<line cb-classname="GraphicLineEntity" class="signalline" id="1Xt" x1="1880" x2="1900" y1="750" y2="750"/>
<polygon cb-classname="GraphicPolygonEntity" class="signal" id="1Xq" points="1900,750 1889,744 1889,755"/>
</g>
</g>
<g cb-alg-41M="SIM-AVTR-BYPASS-KB-RST" cb-alg-T62b="128" cb-alg-WrYb="5" cb-algorithm-id="008" cb-classname="ControlAlgorithm" cb-function-name="KEYBOARD" cb-modify-id="00000001" id="2Mt">
<rect cb-classname="GraphicRectangleEntity" class="algorithm" height="100" id="2Mq" width="100" x="1200" y="960"/>
<text cb-classname="GraphicTextEntity" class="algorithm" font-size="18" id="2M8" text-anchor="middle" x="1250" y="998">
KEY
</text>
<text cb-classname="GraphicTextEntity" class="algorithm" font-size="18" id="2Mm" text-anchor="middle" x="1250" y="1024">
BOARD
</text>
<g cb-classname="DynamicText" cb-source="bd-fyk-VQQ" class="algorithm" id="2Md">
<text baseline-shift="5%" cb-classname="GraphicTextEntity" class="algorithm" fill="black" font-family="Arial" font-size="12" font-style="normal" font-weight="normal" id="2M7" text-decoration="normal" x="1200" y="1087"/>
</g>
<g cb-classname="ControlPin" cb-pin-name="5C-2h0-wE5" id="2MY">
<line cb-classname="GraphicLineEntity" class="signalline" id="2MW" x1="1300" x2="1330" y1="990" y2="990"/>
<g cb-classname="DynamicText" cb-source="eY-Krh-YRqY" id="2Q3">
<text cb-classname="GraphicTextEntity" class="signal" id="2Q6" text-anchor="start" x="1314" y="987"/>
</g>
<g cb-classname="SignalSegment" id="2Qt">
<line cb-classname="GraphicLineEntity" class="signalline" id="2Qq" stroke="#1e12bf" stroke-dasharray="5,4" x1="1330" x2="1520" y1="990" y2="990"/>
<g cb-classname="SignalConnection" cb-graphic-line="$283$" cb-input-pin="$sP6$" id="2Q8"/>
</g>
</g>
<g cb-classname="ControlPin" cb-pin-name="9X-R9R-0lA" id="2Qm">
<line cb-classname="GraphicLineEntity" class="signalline" id="2Qd" x1="1300" x2="1330" y1="1030" y2="1030"/>
<g cb-classname="DynamicText" cb-source="9O-I9z-BJwS" id="2Q7">
<text cb-classname="GraphicTextEntity" class="signal" id="2QY" text-anchor="start" x="1314" y="1027"/>
</g>
<g cb-classname="SignalSegment" id="2QW">
<g cb-classname="SignalConnection" cb-graphic-line="$291$" cb-input-pin="$IiL$" id="2X3"/>
<line cb-classname="GraphicLineEntity" class="signalline" id="2X6" stroke="#1e12bf" stroke-dasharray="5,4" x1="1330" x2="1520" y1="1030" y2="1030"/>
</g>
</g>
</g>
<g cb-alg-0oa1="RESET" cb-alg-G0rG="$272$cb-alg-pk2$" cb-alg-PA1="SIM-AVTR-BYPASS-RST" cb-alg-wG1="$272$cb-alg-pk1$" cb-algorithm-id="009" cb-classname="FastBooleanAlgorithm" cb-function-name="FLIPFLOP" id="2Xt">
<rect cb-classname="GraphicRectangleEntity" class="algorithm" height="80" id="2Xq" width="80" x="1540" y="970"/>
<text baseline-shift="-50%" cb-classname="GraphicTextEntity" class="algorithm" id="2X8" text-anchor="middle" x="1557" y="985">
S
</text>
<text baseline-shift="-50%" cb-classname="GraphicTextEntity" class="algorithm" id="2Xm" text-anchor="middle" x="1559" y="1026">
R
</text>
<text baseline-shift="-50%" cb-classname="GraphicTextEntity" class="algorithm" id="2Xd" text-anchor="middle" x="1601" y="987">
1
</text>
<text baseline-shift="-50%" cb-classname="GraphicTextEntity" class="algorithm" id="2X7" text-anchor="middle" x="1600" y="1027">
0
</text>
<g cb-classname="ControlPin" cb-pin-name="9X-R9R-dcC" id="2XY">
<line cb-classname="GraphicLineEntity" class="signalline" id="2XW" x1="1620" x2="1640" y1="990" y2="990"/>
<g cb-classname="DynamicText" cb-source="9O-I9z-BJwS" class="signal" id="3V3">
<text baseline-shift="5%" cb-classname="GraphicTextEntity" class="signal" fill="black" font-style="normal" font-weight="normal" id="3V6" text-decoration="normal" x="1635" y="981"/>
</g>
<g cb-classname="SignalSegment" cb-start-x="820" cb-start-y="720" id="3Vt">
<line cb-classname="GraphicLineEntity" class="signalline" id="3Vq" stroke="#1e12bf" stroke-dasharray="5,4" x1="1640" x2="1880" y1="990" y2="990"/>
<g cb-classname="SignalConnection" cb-graphic-line="$303$" cb-input-pin="$2N5$" id="3V8"/>
</g>
</g>
<g cb-classname="ControlPin" cb-pin-name="Tj-Jqq-mlk" id="3Vm">
<line cb-classname="GraphicLineEntity" class="signalline" id="3Vd" x1="1520" x2="1540" y1="990" y2="990"/>
<polygon cb-classname="GraphicPolygonEntity" class="signal" id="3V7" points="1540,990 1529,986 1529,994"/>
<g cb-classname="DynamicText" cb-source="5E-w6Y-QNrC" class="signal" id="3VY" text-anchor="end">
<text baseline-shift="5%" cb-classname="GraphicTextEntity" class="signal" fill="black" font-style="normal" font-weight="normal" id="3VW" text-anchor="end" text-decoration="normal" x="1524" y="980"/>
</g>
</g>
<g cb-classname="ControlPin" cb-pin-name="BK-2ne-CzuC" id="3F3">
<line cb-classname="GraphicLineEntity" class="signalline" id="3F6" x1="1520" x2="1540" y1="1030" y2="1030"/>
<polygon cb-classname="GraphicPolygonEntity" class="signal" id="3Ft" points="1540,1030 1529,1026 1529,1034"/>
<g cb-classname="DynamicText" cb-source="9O-I9z-BJwS" class="signal" id="3Fq" text-anchor="end">
<text baseline-shift="5%" cb-classname="GraphicTextEntity" class="signal" fill="black" font-style="normal" font-weight="normal" id="3F8" text-anchor="end" text-decoration="normal" x="1521" y="1021"/>
</g>
</g>
</g>
<g cb-alg-Zg="$292$cb-alg-out$" cb-algorithm-id="00A" cb-classname="ExternalPointInterface" cb-function-name="OUTPUT" id="3Fm">
<ellipse cb-classname="GraphicEllipseEntity" class="algorithm" cx="1940" cy="990" id="3Fd" rx="40" ry="40"/>
<rect cb-classname="GraphicRectangleEntity" class="algorithm" height="80" id="3F7" width="30" x="1980" y="950"/>
<line cb-classname="GraphicLineEntity" class="algorithm" id="3FY" x1="1980" x2="2010" y1="990" y2="990"/>
<g cb-classname="PointStatusIndicator" cb-indicator-type="highway" cb-source="eY-VQQ-Og" id="3FW" visibility="hidden">
<line cb-classname="GraphicLineEntity" class="algorithmline" id="353" x1="1900" x2="1940" y1="990" y2="950"/>
<line cb-classname="GraphicLineEntity" class="algorithmline" id="356" x1="1940" x2="1980" y1="950" y2="990"/>
<line cb-classname="GraphicLineEntity" class="algorithmline" id="35t" x1="1980" x2="1940" y1="990" y2="1030"/>
<line cb-classname="GraphicLineEntity" class="algorithmline" id="35q" x1="1940" x2="1900" y1="1030" y2="990"/>
</g>
<g cb-classname="PointStatusIndicator" cb-indicator-type="hardware" cb-source="9X-R9R-fN" id="358" visibility="hidden">
<line cb-classname="GraphicLineEntity" class="algorithmline" id="35m" x1="1980" x2="1900" y1="950" y2="950"/>
<line cb-classname="GraphicLineEntity" class="algorithmline" id="35d" x1="1900" x2="1900" y1="950" y2="1030"/>
<line cb-classname="GraphicLineEntity" class="algorithmline" id="357" x1="1900" x2="1980" y1="1030" y2="1030"/>
</g>
<g cb-classname="PointStatusIndicator" cb-indicator-type="alarm" cb-source="bd-fyk-13" id="35Y" visibility="hidden">
<text cb-classname="GraphicTextEntity" class="algorithm" fill="#000000" font-family="Arial" font-size="20" id="35W" x="1987" y="979">
A
</text>
</g>
<g cb-classname="PointStatusIndicator" cb-indicator-type="ingraphic" cb-source="5C-2h0-qp" id="3z3" visibility="visible">
<text cb-classname="GraphicTextEntity" class="algorithm" fill="#000000" font-family="Arial" font-size="20" id="3z6" x="1985" y="1020">
G
</text>
</g>
<g cb-classname="DynamicText" cb-labeled="false" cb-pin-name="tt" cb-source="eY-VQQ-Og" class="algorithm" id="3zt" text-anchor="end">
<text baseline-shift="0%" cb-classname="GraphicTextEntity" class="algorithm" fill="black" font-family="Arial" font-size="20" font-style="normal" font-weight="normal" id="3zq" text-anchor="end" text-decoration="normal" x="1877" y="969"/>
</g>
<g baseline-shift="-100%" cb-anchor-x="1878" cb-anchor-y="1006" cb-classname="PointReferences" cb-max-width="240" cb-originator="false" cb-source="5E-41M-bp" class="signal" id="3z8" text-anchor="end">
<text baseline-shift="-100%" cb-classname="GraphicTextEntity" class="algorithm" id="3zm" text-anchor="end" x="1878" y="1006">
-
</text>
</g>
<g baseline-shift="-50%" cb-anchor-x="2031" cb-anchor-y="988" cb-classname="PointDescription" cb-content="extended" cb-labeled="false" cb-max-width="240" cb-source="BK-2ne-a5" class="algorithm" id="3zd" text-anchor="start">
<text baseline-shift="-50%" cb-classname="GraphicTextEntity" class="algorithm" id="3z7" text-anchor="start" x="2031" y="971">
@ Ovation Control
</text>
<text baseline-shift="-50%" cb-classname="GraphicTextEntity" class="algorithm" id="3zY" text-anchor="start" x="2031" y="1007">
Builder @
</text>
</g>
<g cb-classname="ControlPin" cb-pin-name="9O-q0d-ge" id="3zW">
<line cb-classname="GraphicLineEntity" class="signalline" id="3d3" x1="1880" x2="1900" y1="990" y2="990"/>
<polygon cb-classname="GraphicPolygonEntity" class="signal" id="3d6" points="1900,990 1889,984 1889,995"/>
</g>
</g>
<g cb-alg-fsc3="0" cb-alg-gZqs="65" cb-alg-pPN="DUMY" cb-algorithm-id="00B" cb-classname="ControlAlgorithm" cb-function-name="DVALGEN" cb-modify-id="00000002" id="6Fq">
<rect cb-classname="GraphicRectangleEntity" class="algorithm" height="40" id="6F8" width="40" x="1200" y="1190"/>
<line cb-classname="GraphicLineEntity" class="algorithm" id="6Fm" x1="1220" x2="1190" y1="1180" y2="1210"/>
<line cb-classname="GraphicLineEntity" class="algorithm" id="6Fd" x1="1215" x2="1225" y1="1175" y2="1185"/>
<text baseline-shift="-50%" cb-classname="GraphicTextEntity" class="algorithm" font-size="22" id="6F7" text-anchor="middle" x="1220" y="1205">
D
</text>
<g cb-classname="ControlPin" cb-pin-name="eY-VQQ-wxg" id="6FY">
<line cb-classname="GraphicLineEntity" class="signalline" id="6FW" x1="1240" x2="1260" y1="1210" y2="1210"/>
<g cb-classname="DynamicText" cb-source="5E-w6Y-QNrC" id="653">
<text cb-classname="GraphicTextEntity" class="signal" id="656" text-anchor="start" x="1254" y="1207"/>
</g>
<g cb-classname="SignalSegment" id="6Mm">
<line cb-classname="GraphicLineEntity" class="signalline" id="6Md" stroke="#1e12bf" stroke-dasharray="5,4" x1="1260" x2="1550" y1="1210" y2="1210"/>
<g cb-classname="SignalConnection" cb-graphic-line="$676$" cb-input-pin="$zC4$" id="6MY"/>
</g>
</g>
<g cb-classname="GraphicShape" id="65t">
<g cb-classname="DynamicText" cb-labeled="false" cb-source="9X-R9R-xEoJ" id="65q">
<text cb-classname="GraphicTextEntity" class="algorithm" id="658" text-anchor="start" x="1180" y="1190"/>
</g>
</g>
</g>
<g cb-alg-iS="$613$cb-alg-out$" cb-algorithm-id="00C" cb-classname="ExternalPointInterface" cb-function-name="OUTPUT" id="6g3">
<ellipse cb-classname="GraphicEllipseEntity" class="algorithm" cx="1960" cy="1210" id="6g6" rx="40" ry="40"/>
<rect cb-classname="GraphicRectangleEntity" class="algorithm" height="80" id="6gt" width="30" x="2000" y="1170"/>
<line cb-classname="GraphicLineEntity" class="algorithm" id="6gq" x1="2000" x2="2030" y1="1210" y2="1210"/>
<g cb-classname="ControlPin" cb-pin-name="Rh-K7Y-rh" id="6g8">
<line cb-classname="GraphicLineEntity" class="signalline" id="6gm" x1="1550" x2="1920" y1="1210" y2="1210"/>
<polygon cb-classname="GraphicPolygonEntity" class="signal" id="6gd" points="1920,1210 1909,1204 1909,1215"/>
</g>
<g cb-classname="PointStatusIndicator" cb-indicator-type="highway" cb-source="eY-VQQ-Og" id="6g7" visibility="hidden">
<line cb-classname="GraphicLineEntity" class="algorithmline" id="6gY" x1="1920" x2="1960" y1="1210" y2="1170"/>
<line cb-classname="GraphicLineEntity" class="algorithmline" id="6gW" x1="1960" x2="2000" y1="1170" y2="1210"/>
<line cb-classname="GraphicLineEntity" class="algorithmline" id="603" x1="2000" x2="1960" y1="1210" y2="1250"/>
<line cb-classname="GraphicLineEntity" class="algorithmline" id="606" x1="1960" x2="1920" y1="1250" y2="1210"/>
</g>
<g cb-classname="PointStatusIndicator" cb-indicator-type="hardware" cb-source="9X-R9R-fN" id="60t" visibility="hidden">
<text cb-classname="GraphicTextEntity" class="algorithm" fill="#000000" font-family="Arial" font-size="20" id="60q" x="1950" y="1220">
H
</text>
</g>
<g cb-classname="PointStatusIndicator" cb-indicator-type="alarm" cb-source="9O-q0d-ge" id="608" visibility="hidden">
<text cb-classname="GraphicTextEntity" class="algorithm" fill="#000000" font-family="Arial" font-size="20" id="60m" x="2007" y="1238">
A
</text>
</g>
<g cb-classname="PointStatusIndicator" cb-indicator-type="ingraphic" cb-source="bd-fyk-13" id="60d" visibility="visible">
<text cb-classname="GraphicTextEntity" class="algorithm" fill="#000000" font-family="Arial" font-size="20" id="607" x="2006" y="1199">
G
</text>
</g>
<g cb-classname="DynamicText" cb-labeled="false" cb-pin-name="L9" cb-source="5C-2h0-qp" class="algorithm" id="60Y" text-anchor="end">
<text baseline-shift="-100%" cb-classname="GraphicTextEntity" class="algorithm" fill="black" font-family="MS Shell Dlg" font-size="20" font-style="normal" font-weight="normal" id="60W" text-anchor="end" text-decoration="normal" x="1900" y="1170"/>
</g>
<g baseline-shift="-100%" cb-anchor-x="1900" cb-anchor-y="1210" cb-classname="PointReferences" cb-max-width="400" cb-originator="false" cb-source="eY-VQQ-Og" class="signal" id="6M3" text-anchor="end">
<text baseline-shift="-100%" cb-classname="GraphicTextEntity" class="algorithm" id="6M6" text-anchor="end" x="1900" y="1210">
-
</text>
</g>
<g baseline-shift="-100%" cb-anchor-x="2050" cb-anchor-y="1170" cb-classname="PointDescription" cb-content="extended" cb-labeled="false" cb-max-width="460" cb-source="5E-41M-bp" class="algorithm" id="6Mt" text-anchor="start">
<text baseline-shift="-100%" cb-classname="GraphicTextEntity" class="algorithm" id="6Mq" text-anchor="start" x="2050" y="1170">
@ Ovation Control Builder @
</text>
</g>
</g>
<g cb-alg-K7Y="SIM-CEM-KBD" cb-alg-RFt="SIM-CEM-RESET" cb-alg-kgJ0="128" cb-alg-yre0="1" cb-algorithm-id="00D" cb-classname="ControlAlgorithm" cb-function-name="KEYBOARD" id="6Qq">
<rect cb-classname="GraphicRectangleEntity" class="algorithm" height="100" id="6Q8" width="100" x="1200" y="1320"/>
<text cb-classname="GraphicTextEntity" class="algorithm" font-size="18" id="6Qm" text-anchor="middle" x="1250" y="1358">
KEY
</text>
<text cb-classname="GraphicTextEntity" class="algorithm" font-size="18" id="6Qd" text-anchor="middle" x="1250" y="1384">
BOARD
</text>
<g cb-classname="DynamicText" cb-source="BK-2ne-FMy" class="algorithm" id="6Q7">
<text baseline-shift="5%" cb-classname="GraphicTextEntity" class="algorithm" fill="black" font-family="Arial" font-size="12" font-style="normal" font-weight="normal" id="6QY" text-decoration="normal" x="1200" y="1447"/>
</g>
<g cb-classname="ControlPin" cb-pin-name="cH-scs-RFt" id="6QW">
<line cb-classname="GraphicLineEntity" class="signalline" id="6X3" x1="1300" x2="1330" y1="1350" y2="1350"/>
<g cb-classname="DynamicText" cb-source="jX-EJ6-eVkV" id="6X6">
<text cb-classname="GraphicTextEntity" class="signal" id="6Xt" text-anchor="start" x="1314" y="1347"/>
</g>
<g cb-classname="SignalSegment" id="6Xq">
<g cb-classname="SignalConnection" cb-graphic-line="$695$" cb-input-pin="$ei4$" id="6X8"/>
<line cb-classname="GraphicLineEntity" class="signalline" id="6Xm" stroke="#1e12bf" stroke-dasharray="5,4" x1="1330" x2="1850" y1="1350" y2="1350"/>
</g>
</g>
</g>
<g cb-alg-WB="$683$cb-alg-pk1$" cb-algorithm-id="00E" cb-classname="ExternalPointInterface" cb-function-name="OUTPUT" id="6Xd">
<ellipse cb-classname="GraphicEllipseEntity" class="algorithm" cx="1910" cy="1350" id="6X7" rx="40" ry="40"/>
<rect cb-classname="GraphicRectangleEntity" class="algorithm" height="80" id="6XY" width="30" x="1950" y="1310"/>
<line cb-classname="GraphicLineEntity" class="algorithm" id="6XW" x1="1950" x2="1980" y1="1350" y2="1350"/>
<g cb-classname="PointStatusIndicator" cb-indicator-type="highway" cb-source="BK-2ne-a5" id="7V3" visibility="hidden">
<line cb-classname="GraphicLineEntity" class="algorithmline" id="7V6" x1="1870" x2="1910" y1="1350" y2="1310"/>
<line cb-classname="GraphicLineEntity" class="algorithmline" id="7Vt" x1="1910" x2="1950" y1="1310" y2="1350"/>
<line cb-classname="GraphicLineEntity" class="algorithmline" id="7Vq" x1="1950" x2="1910" y1="1350" y2="1390"/>
<line cb-classname="GraphicLineEntity" class="algorithmline" id="7V8" x1="1910" x2="1870" y1="1390" y2="1350"/>
</g>
<g cb-classname="PointStatusIndicator" cb-indicator-type="hardware" cb-source="bd-fyk-13" id="7Vm" visibility="hidden">
<line cb-classname="GraphicLineEntity" class="algorithmline" id="7Vd" x1="1950" x2="1870" y1="1310" y2="1310"/>
<line cb-classname="GraphicLineEntity" class="algorithmline" id="7V7" x1="1870" x2="1870" y1="1310" y2="1390"/>
<line cb-classname="GraphicLineEntity" class="algorithmline" id="7VY" x1="1870" x2="1950" y1="1390" y2="1390"/>
</g>
<g cb-classname="PointStatusIndicator" cb-indicator-type="alarm" cb-source="eY-VQQ-Og" id="7VW" visibility="hidden">
<text cb-classname="GraphicTextEntity" class="algorithm" fill="#000000" font-family="Arial" font-size="20" id="7F3" x="1957" y="1339">
A
</text>
</g>
<g cb-classname="PointStatusIndicator" cb-indicator-type="ingraphic" cb-source="5E-41M-bp" id="7F6" visibility="hidden">
<text cb-classname="GraphicTextEntity" class="algorithm" fill="#000000" font-family="Arial" font-size="20" id="7Ft" x="1955" y="1380">
G
</text>
</g>
<g cb-classname="DynamicText" cb-labeled="false" cb-pin-name="0g" cb-source="BK-2ne-a5" class="algorithm" id="7Fq" text-anchor="end">
<text baseline-shift="0%" cb-classname="GraphicTextEntity" class="algorithm" fill="black" font-family="Arial" font-size="20" font-style="normal" font-weight="normal" id="7F8" text-anchor="end" text-decoration="normal" x="1847" y="1329"/>
</g>
<g baseline-shift="-100%" cb-anchor-x="1848" cb-anchor-y="1366" cb-classname="PointReferences" cb-max-width="240" cb-originator="false" cb-source="cH-scs-WB" class="signal" id="7Fm" text-anchor="end">
<text baseline-shift="-100%" cb-classname="GraphicTextEntity" class="algorithm" id="7Fd" text-anchor="end" x="1848" y="1366">
-
</text>
</g>
<g baseline-shift="-50%" cb-anchor-x="2001" cb-anchor-y="1348" cb-classname="PointDescription" cb-content="extended" cb-labeled="false" cb-max-width="240" cb-source="5C-2h0-qp" class="algorithm" id="753" text-anchor="start">
<text baseline-shift="-50%" cb-classname="GraphicTextEntity" class="algorithm" id="756" text-anchor="start" x="2001" y="1331">
@ Ovation Control
</text>
<text baseline-shift="-50%" cb-classname="GraphicTextEntity" class="algorithm" id="75m" text-anchor="start" x="2001" y="1367">
Builder @
</text>
</g>
<g cb-classname="ControlPin" cb-pin-name="eY-VQQ-Og" id="75t">
<line cb-classname="GraphicLineEntity" class="signalline" id="75q" x1="1850" x2="1870" y1="1350" y2="1350"/>
<polygon cb-classname="GraphicPolygonEntity" class="signal" id="758" points="1870,1350 1859,1344 1859,1355"/>
</g>
</g>
</g>
<g cb-classname="IncludeDocument" cb-modify-time="09/25/2018 01:40:30" cb-objectname="frame" id="5">
<text cb-classname="GraphicTextEntity" class="frame" font-size="50" id="7Qm" x="3660" y="3146">
Project Title &lt;Edit in FRAME.SVG&gt;
</text>
<g baseline-shift="-50%" cb-classname="DynamicText" cb-source="Tj-si5w-Oe" class="frame" id="7Qd">
<text cb-classname="GraphicTextEntity" class="frame" fill="black" font-family="arial" font-size="25" font-style="normal" font-weight="normal" id="7Q7" text-decoration="normal" x="4715" y="3325">
99
</text>
</g>
<g baseline-shift="-50%" cb-classname="DynamicText" cb-source="Do-duOV-bU" class="frame" id="7QY" text-anchor="middle">
<text cb-classname="GraphicTextEntity" class="frame" fill="black" font-family="arial" font-size="48" font-style="normal" font-weight="normal" id="7QW" text-anchor="middle" text-decoration="normal" x="4900" y="3320">
99
</text>
</g>
<g baseline-shift="-50%" cb-classname="DynamicText" cb-source="LP-h25E-ay" class="frame" id="7X3" text-anchor="middle">
<text cb-classname="GraphicTextEntity" class="frame" fill="black" font-family="arial" font-size="48" font-style="normal" font-weight="normal" id="7X6" text-anchor="middle" text-decoration="normal" x="5067" y="3324">
1
</text>
</g>
<g cb-classname="DynamicText" cb-source="9X-5RY2p-C7gfu" class="frame" id="7Xt">
<text cb-classname="GraphicTextEntity" class="frame" fill="black" font-family="arial" font-size="48" font-style="normal" font-weight="normal" id="7Xq" text-decoration="normal" x="3660" y="3224">
SIS_VTR-TEST_KBRD
</text>
</g>
<g baseline-shift="-50%" cb-classname="DynamicText" cb-source="9O-QdAG1-Ae6Xlh" class="frame" id="7X8" text-anchor="middle">
<text cb-classname="GraphicTextEntity" class="frame" fill="black" font-family="arial" font-size="48" font-style="normal" font-weight="normal" id="7Xm" text-anchor="middle" text-decoration="normal" x="5270" y="3324">
S11201
</text>
</g>
<g baseline-shift="0%" cb-classname="DynamicText" cb-source="bd-GGWpjrYp" class="frame" id="7Xd" text-anchor="middle">
<text cb-classname="GraphicTextEntity" class="frame" fill="black" font-family="arial" font-size="36" font-style="normal" font-weight="normal" id="7X7" text-anchor="middle" text-decoration="normal" x="5270" y="3150">
A
</text>
</g>
<g baseline-shift="0%" cb-classname="DynamicText" cb-source="5C-m1prR6wg-caQu" class="frame" id="7XY" text-anchor="middle">
<text cb-classname="GraphicTextEntity" class="frame" fill="black" font-family="arial" font-size="20" font-style="normal" font-weight="normal" id="7XW" text-anchor="middle" text-decoration="normal" x="5270" y="3230">

</text>
</g>
<g baseline-shift="-50%" cb-classname="DynamicText" cb-source="eY-r3Q6YjI2" class="frame" id="8V3" text-anchor="end">
<text cb-classname="GraphicTextEntity" class="frame" fill="black" font-family="arial" font-size="26" font-style="normal" font-weight="normal" id="8V6" text-anchor="end" text-decoration="normal" x="4500" y="3420">

</text>
</g>
<g baseline-shift="-50%" cb-classname="DynamicText" cb-source="5E-urFOIl2R" class="frame" id="8Vt" text-anchor="end">
<text cb-classname="GraphicTextEntity" class="frame" fill="black" font-family="arial" font-size="26" font-style="normal" font-weight="normal" id="8Vq" text-anchor="end" text-decoration="normal" x="5353" y="3420">

</text>
</g>
<g cb-classname="GraphicShape" cb-tag="BORDER" id="8V8">
<line cb-classname="GraphicLineEntity" class="frameline" id="8Vm" x1="40" x2="40" y1="40" y2="3460"/>
<line cb-classname="GraphicLineEntity" class="frameline" id="8Vd" x1="40" x2="5380" y1="3460" y2="3460"/>
<line cb-classname="GraphicLineEntity" class="frameline" id="8V7" x1="5380" x2="5380" y1="3460" y2="40"/>
<line cb-classname="GraphicLineEntity" class="frameline" id="8VY" x1="5380" x2="40" y1="40" y2="40"/>
<line cb-classname="GraphicLineEntity" class="frame" id="8VW" x1="5430" x2="5440" y1="3510" y2="3510"/>
</g>
<g cb-classname="GraphicShape" cb-tag="TITLE BOX" id="8F3">
<line cb-classname="GraphicLineEntity" class="frameline" id="8F6" x1="2340" x2="2340" y1="3080" y2="3460"/>
<line cb-classname="GraphicLineEntity" class="frameline" id="8Ft" x1="2340" x2="5380" y1="3080" y2="3080"/>
<line cb-classname="GraphicLineEntity" class="frameline" id="8Fq" x1="3650" x2="3650" y1="3460" y2="3080"/>
<line cb-classname="GraphicLineEntity" class="frameline" id="8F8" x1="3650" x2="5380" y1="3240" y2="3240"/>
<line cb-classname="GraphicLineEntity" class="frameline" id="8Fm" x1="3650" x2="5380" y1="3390" y2="3390"/>
<line cb-classname="GraphicLineEntity" class="frameline" id="8Fd" x1="3650" x2="5380" y1="3160" y2="3160"/>
<line cb-classname="GraphicLineEntity" class="frameline" id="8F7" x1="3650" x2="4520" y1="3320" y2="3320"/>
<line cb-classname="GraphicLineEntity" class="frameline" id="8FY" x1="4520" x2="5380" y1="3290" y2="3290"/>
<line cb-classname="GraphicLineEntity" class="frameline" id="8FW" x1="4520" x2="5380" y1="3240" y2="3240"/>
<line cb-classname="GraphicLineEntity" class="frameline" id="853" x1="4520" x2="4520" y1="3240" y2="3460"/>
<line cb-classname="GraphicLineEntity" class="frameline" id="856" x1="4810" x2="4810" y1="3240" y2="3390"/>
<line cb-classname="GraphicLineEntity" class="frameline" id="85t" x1="4990" x2="4990" y1="3240" y2="3390"/>
<line cb-classname="GraphicLineEntity" class="frameline" id="85q" x1="5150" x2="5150" y1="3080" y2="3390"/>
</g>
<g cb-classname="GraphicShape" cb-tag="TEXT LABELS" id="858">
<text baseline-shift="-50%" cb-classname="GraphicTextEntity" class="frame" font-size="25" id="85m" text-anchor="middle" x="4890" y="3252">
Drop
</text>
<text baseline-shift="-50%" cb-classname="GraphicTextEntity" class="frame" font-size="25" id="85d" text-anchor="middle" x="5075" y="3252">
Task
</text>
<text baseline-shift="-50%" cb-classname="GraphicTextEntity" class="frame" font-size="25" id="857" text-anchor="middle" x="5265" y="3252">
Sheet
</text>
<text cb-classname="GraphicTextEntity" class="frame" font-size="25" id="85Y" x="5152" y="3107">
Rev.
</text>
<text cb-classname="GraphicTextEntity" class="frame" font-size="25" id="85W" x="3653" y="3418">
Engineer
</text>
<text cb-classname="GraphicTextEntity" class="frame" font-size="25" id="8z3" x="4528" y="3419">
Approved
</text>
<text cb-classname="GraphicTextEntity" class="frame" font-size="25" id="8z6" x="5152" y="3187">
Date
</text>
<text baseline-shift="-50%" cb-classname="GraphicTextEntity" class="frame" font-size="25" id="8zt" text-anchor="middle" x="4660" y="3252">
Drawing Number
</text>
<text baseline-shift="-50%" cb-classname="GraphicTextEntity" class="frame" font-size="25" id="8zq" text-anchor="middle" x="4680" y="3325">
CTL
</text>
</g>
<text baseline-shift="-50%" cb-classname="GraphicTextEntity" class="frame" font-size="48" id="8z8" text-anchor="middle" x="3000" y="3100">
EMERSON PROCESS MANAGEMENT
</text>
<g baseline-shift="-100%" cb-anchor-x="2360" cb-anchor-y="3140" cb-classname="GroupText" cb-max-width="1260" fill="black" id="8zm">
<text baseline-shift="-100%" cb-classname="GraphicTextEntity" class="frame" fill="black" font-family="arial" font-size="22" font-weight="normal" id="8zd" text-anchor="start" text-decoration="normal" x="2360" y="3140">
THIS DOCUMENT CONTAINS INFORMATION PROPRIETARY TO EMERSON PROCESS
</text>
<text baseline-shift="-100%" cb-classname="GraphicTextEntity" class="frame" fill="black" font-family="arial" font-size="22" font-weight="normal" id="8z7" text-anchor="start" text-decoration="normal" x="2360" y="3176">
MANAGEMENT POWER &amp; WATER SOLUTIONS, INC. IT IS SUBMITTED IN CONFIDENCE AND
</text>
<text baseline-shift="-100%" cb-classname="GraphicTextEntity" class="frame" fill="black" font-family="arial" font-size="22" font-weight="normal" id="8zY" text-anchor="start" text-decoration="normal" x="2360" y="3212">
TRUST, IS TO BE USED BY YOU SOLELY FOR THE PURPOSES FOR WHICH IT IS
</text>
<text baseline-shift="-100%" cb-classname="GraphicTextEntity" class="frame" fill="black" font-family="arial" font-size="22" font-weight="normal" id="8zW" text-anchor="start" text-decoration="normal" x="2360" y="3248">
FURNISHED AND IS TO BE RETURNED UPON REQUEST. THIS DOCUMENT AND ANY
</text>
<text baseline-shift="-100%" cb-classname="GraphicTextEntity" class="frame" fill="black" font-family="arial" font-size="22" font-weight="normal" id="8d3" text-anchor="start" text-decoration="normal" x="2360" y="3284">
OTHER INFORMATION PROVIDED TO YOU IS NOT TO BE REPRODUCED, TRANSMITTED,
</text>
<text baseline-shift="-100%" cb-classname="GraphicTextEntity" class="frame" fill="black" font-family="arial" font-size="22" font-weight="normal" id="8d6" text-anchor="start" text-decoration="normal" x="2360" y="3320">
DISCLOSED, OR USED OTHERWISE IN WHOLE OR IN PART WITHOUT THE PRIOR
</text>
<text baseline-shift="-100%" cb-classname="GraphicTextEntity" class="frame" fill="black" font-family="arial" font-size="22" font-weight="normal" id="8dt" text-anchor="start" text-decoration="normal" x="2360" y="3356">
WRITTEN AUTHORIZATION OF EMERSON PROCESS MANAGEMENT POWER &amp; WATER
</text>
<text baseline-shift="-100%" cb-classname="GraphicTextEntity" class="frame" fill="black" font-family="arial" font-size="22" font-weight="normal" id="8dq" text-anchor="start" text-decoration="normal" x="2360" y="3392">
SOLUTIONS,INC.
</text>
</g>
</g>
</svg>