<?xml version="1.0" ?><svg cb-auto-time="04/24/2020 16:44:58" cb-classname="ControlFunction" cb-create-time="04/02/2020" cb-drop-id="1" cb-filename="Y:/OVATION/NET0/UNIT0/ControlFunctions/0067.svg" cb-function-id="0067" cb-key="123424433215" cb-modified-timestamp="1587735832" cb-modify-id="00000001" cb-path="Y:/OVATION/NET0/UNIT0/ControlFunctions" cb-revision="A" cb-revision-time="04/16/2020" cb-sheet-number="0004" cb-sheet-title="DCS setpoints - load min max SP" cb-snap-grid="10" cb-task-id="2" height="3522" id="1" width="5450" xmlns="http://www.w3.org/2000/svg">
<style cb-classname="EntityStyle" id="2" type="text/css">
	.algorithm { fill: white; stroke: black; stroke-width: 3 }
	.algorithm-function { fill: black; stroke: none }
	.algorithm-functionline { fill: none; stroke: black; stroke-linecap: round; stroke-width: 3 }
	.algorithm-name { fill: black; stroke: none }
	.algorithm-nameline { fill: none; stroke: black; stroke-linecap: round; stroke-width: 3 }
	.algorithm-sequence { fill: black; stroke: none; visibility: hidden }
	.algorithm-sequenceline { fill: none; stroke: black; stroke-linecap: round; stroke-width: 3; visibility: hidden }
	.algorithmline { fill: none; stroke: black; stroke-linecap: round; stroke-width: 3 }
	.annotation { fill: black; stroke: none }
	.annotationline { fill: none; stroke: black; stroke-linecap: round; stroke-width: 3 }
	.description { fill: black; stroke: none }
	.descriptionline { fill: none; stroke: black; stroke-linecap: round; stroke-width: 3 }
	.frame { fill: black; stroke: none }
	.frameline { fill: none; stroke: black; stroke-linecap: round; stroke-width: 3 }
	.signal { fill: black; stroke: none }
	.signalline { fill: none; stroke: black; stroke-linecap: round; stroke-width: 3 }
	text.algorithm { fill: black; font-family: Arial; font-size: 22; stroke: none }
	text.algorithm-function { fill: black; font-family: Arial; font-size: 22; stroke: none }
	text.algorithm-name { fill: black; font-family: Arial; font-size: 22; stroke: none }
	text.algorithm-sequence { fill: black; font-family: Arial; font-size: 22; stroke: none; visibility: hidden }
	text.annotation { fill: black; font-family: Arial; font-size: 22; stroke: none }
	text.description { fill: black; font-family: Arial; font-size: 28; stroke: none }
	text.frame { fill: black; font-family: Arial; font-size: 18; stroke: none }
	text.signal { fill: black; font-family: Arial; font-size: 12; stroke: none }
</style>
<g cb-classname="NamedObject" cb-objectname="Comments" id="3">
<text baseline-shift="0%" cb-classname="GraphicTextEntity" class="annotation" fill="#000000" font-family="MS Shell Dlg 2" font-size="28" id="1P5V" x="3110" y="815">
Tracking bit
</text>
<text baseline-shift="0%" cb-classname="GraphicTextEntity" class="annotation" fill="#000000" font-family="MS Shell Dlg 2" font-size="28" id="1P5K" x="2010" y="815">
Accept SP
</text>
<text baseline-shift="0%" cb-classname="GraphicTextEntity" class="annotation" fill="#000000" font-family="MS Shell Dlg 2" font-size="28" id="1P5f" x="2510" y="495">
Tracked SP
</text>
<text baseline-shift="0%" cb-classname="GraphicTextEntity" class="annotation" fill="#000000" font-family="MS Shell Dlg 2" font-size="28" id="1P5U" x="2260" y="495">
DCS SP
</text>
<text baseline-shift="0%" cb-classname="GraphicTextEntity" class="annotation" fill="#000000" font-family="MS Shell Dlg 2" font-size="28" id="1vvF" x="3120" y="2145">
Tracking bit
</text>
<text baseline-shift="0%" cb-classname="GraphicTextEntity" class="annotation" fill="#000000" font-family="MS Shell Dlg 2" font-size="28" id="1vvN" x="2020" y="2145">
Accept SP
</text>
<text baseline-shift="0%" cb-classname="GraphicTextEntity" class="annotation" fill="#000000" font-family="MS Shell Dlg 2" font-size="28" id="1vvl" x="2520" y="1825">
Tracked SP
</text>
<text baseline-shift="0%" cb-classname="GraphicTextEntity" class="annotation" fill="#000000" font-family="MS Shell Dlg 2" font-size="28" id="1vvV" x="2270" y="1825">
DCS SP
</text>
<text baseline-shift="0%" cb-classname="GraphicTextEntity" class="annotation" fill="#0000ff" font-family="MS Shell Dlg 2" font-size="28" id="1ovF" x="4700" y="3075">
H1RECIEVE
</text>
</g>
<g cb-classname="AlgorithmContainer" cb-objectname="Algorithms" id="4">
<g cb-alg-n4Dn="NO" cb-alg-ndF="H0MAY10DE221YQ32" cb-algorithm-id="007" cb-classname="ExternalPointInterface" cb-function-name="INPUT" id="190V">
<ellipse cb-classname="GraphicEllipseEntity" class="algorithm" cx="2410" cy="310" id="190K" rx="40" ry="40"/>
<rect cb-classname="GraphicRectangleEntity" class="algorithm" height="30" id="190f" width="80" x="2370" y="240"/>
<line cb-classname="GraphicLineEntity" class="algorithm" id="190U" x1="2410" x2="2410" y1="270" y2="240"/>
<g cb-classname="PointStatusIndicator" cb-indicator-type="Highway" cb-source="re-6gb-UJM" id="190O" visibility="hidden">
<line cb-classname="GraphicLineEntity" class="algorithmline" id="190Z" x1="2410" x2="2370" y1="270" y2="310"/>
<line cb-classname="GraphicLineEntity" class="algorithmline" id="19Ic" x1="2370" x2="2410" y1="310" y2="350"/>
<line cb-classname="GraphicLineEntity" class="algorithmline" id="19IF" x1="2410" x2="2450" y1="350" y2="310"/>
<line cb-classname="GraphicLineEntity" class="algorithmline" id="19IN" x1="2450" x2="2410" y1="310" y2="270"/>
</g>
<g cb-classname="PointStatusIndicator" cb-indicator-type="hardware" cb-source="U3-2ao-uJe" id="19Il" visibility="visible">
<line cb-classname="GraphicLineEntity" class="algorithmline" id="19IV" x1="2370" x2="2370" y1="270" y2="350"/>
<line cb-classname="GraphicLineEntity" class="algorithmline" id="19IK" x1="2370" x2="2450" y1="350" y2="350"/>
<line cb-classname="GraphicLineEntity" class="algorithmline" id="19If" x1="2450" x2="2450" y1="350" y2="270"/>
</g>
<g cb-classname="PointStatusIndicator" cb-indicator-type="alarm" cb-source="bq-755-pFz" id="19IU" visibility="hidden">
<text baseline-shift="-50%" cb-classname="GraphicTextEntity" class="algorithm" fill="#000000" font-family="Arial" font-size="20" id="19IO" text-anchor="middle" x="2390" y="251">
A
</text>
</g>
<g cb-classname="PointStatusIndicator" cb-indicator-type="ingraphic" cb-source="cN-wNR-uIl" id="19IZ" visibility="hidden">
<text baseline-shift="-50%" cb-classname="GraphicTextEntity" class="algorithm" fill="#000000" font-family="Arial" font-size="20" id="19qc" text-anchor="middle" x="2430" y="249">
G
</text>
</g>
<g cb-classname="DynamicText" cb-labeled="false" cb-pin-name="cye" cb-source="re-6gb-UJM" class="algorithm" id="19qF" text-anchor="middle">
<text cb-classname="GraphicTextEntity" class="algorithm" fill="black" font-family="Arial" font-size="20" font-style="normal" font-weight="normal" id="19qN" text-anchor="middle" text-decoration="normal" x="2410" y="230"/>
</g>
<g baseline-shift="-100%" cb-anchor-x="2423" cb-anchor-y="363" cb-classname="PointReferences" cb-max-width="240" cb-originator="true" cb-source="xv-47V-ndF" class="signal" id="19ql" text-anchor="start">
<text baseline-shift="-100%" cb-classname="GraphicTextEntity" class="algorithm" id="19qV" text-anchor="start" x="2423" y="363">
-
</text>
</g>
<g baseline-shift="0%" cb-anchor-x="2410" cb-anchor-y="200" cb-classname="PointDescription" cb-content="extended" cb-labeled="false" cb-max-width="240" cb-source="Pj-LhD-Nho" class="algorithm" id="19qK" text-anchor="middle">
<text baseline-shift="0%" cb-classname="GraphicTextEntity" class="algorithm" id="19qf" text-anchor="middle" x="2410" y="130">
Minimum load
</text>
<text baseline-shift="0%" cb-classname="GraphicTextEntity" class="algorithm" id="1vlZ" text-anchor="middle" x="2410" y="166">
setpoint
</text>
<text baseline-shift="0%" cb-classname="GraphicTextEntity" class="algorithm" id="1olU" text-anchor="middle" x="2410" y="202">
0 - 250 MW
</text>
</g>
<g cb-classname="ControlPin" cb-pin-name="mi-sXM-Q1j" id="19qU">
<line cb-classname="GraphicLineEntity" class="signalline" id="19qO" x1="2410" x2="2410" y1="350" y2="370"/>
<g cb-classname="SignalSegment" id="19qZ">
<line cb-classname="GraphicLineEntity" class="signalline" id="19mc" x1="2410" x2="2410" y1="370" y2="790"/>
<g cb-classname="SignalConnection" cb-graphic-line="$1350$" cb-input-pin="$ljI9$" id="19mF"/>
</g>
</g>
</g>
<g cb-alg-oFf2="NO" cb-alg-olh="H0MAY10DE221XQ31" cb-algorithm-id="008" cb-classname="ExternalPointInterface" cb-function-name="INPUT" id="19mN">
<ellipse cb-classname="GraphicEllipseEntity" class="algorithm" cx="2770" cy="310" id="19ml" rx="40" ry="40"/>
<rect cb-classname="GraphicRectangleEntity" class="algorithm" height="30" id="19mV" width="80" x="2730" y="240"/>
<line cb-classname="GraphicLineEntity" class="algorithm" id="19mK" x1="2770" x2="2770" y1="270" y2="240"/>
<g cb-classname="PointStatusIndicator" cb-indicator-type="Highway" cb-source="xv-47V-ndF" id="19mf" visibility="hidden">
<line cb-classname="GraphicLineEntity" class="algorithmline" id="19mU" x1="2770" x2="2730" y1="270" y2="310"/>
<line cb-classname="GraphicLineEntity" class="algorithmline" id="19mO" x1="2730" x2="2770" y1="310" y2="350"/>
<line cb-classname="GraphicLineEntity" class="algorithmline" id="19mZ" x1="2770" x2="2810" y1="350" y2="310"/>
<line cb-classname="GraphicLineEntity" class="algorithmline" id="19nc" x1="2810" x2="2770" y1="310" y2="270"/>
</g>
<g cb-classname="PointStatusIndicator" cb-indicator-type="hardware" cb-source="PZ-7pn-0d0" id="19nF" visibility="hidden">
<line cb-classname="GraphicLineEntity" class="algorithmline" id="19nN" x1="2730" x2="2730" y1="270" y2="350"/>
<line cb-classname="GraphicLineEntity" class="algorithmline" id="19nl" x1="2730" x2="2810" y1="350" y2="350"/>
<line cb-classname="GraphicLineEntity" class="algorithmline" id="19nV" x1="2810" x2="2810" y1="350" y2="270"/>
</g>
<g cb-classname="PointStatusIndicator" cb-indicator-type="alarm" cb-source="cN-wNR-uIl" id="19nK" visibility="hidden">
<text baseline-shift="-50%" cb-classname="GraphicTextEntity" class="algorithm" fill="#000000" font-family="Arial" font-size="20" id="19nf" text-anchor="middle" x="2750" y="251">
A
</text>
</g>
<g cb-classname="PointStatusIndicator" cb-indicator-type="ingraphic" cb-source="re-6gb-UJM" id="19nU" visibility="hidden">
<text baseline-shift="-50%" cb-classname="GraphicTextEntity" class="algorithm" fill="#000000" font-family="Arial" font-size="20" id="19nO" text-anchor="middle" x="2790" y="249">
G
</text>
</g>
<g cb-classname="DynamicText" cb-labeled="false" cb-pin-name="c04" cb-source="xv-47V-ndF" class="algorithm" id="19nZ" text-anchor="middle">
<text cb-classname="GraphicTextEntity" class="algorithm" fill="black" font-family="Arial" font-size="20" font-style="normal" font-weight="normal" id="19lc" text-anchor="middle" text-decoration="normal" x="2770" y="230"/>
</g>
<g baseline-shift="-100%" cb-anchor-x="2783" cb-anchor-y="363" cb-classname="PointReferences" cb-max-width="240" cb-originator="true" cb-source="Pj-LhD-Nho" class="signal" id="19lF" text-anchor="start">
<text baseline-shift="-100%" cb-classname="GraphicTextEntity" class="algorithm" id="19lN" text-anchor="start" x="2783" y="363">
1/1700
</text>
</g>
<g baseline-shift="0%" cb-anchor-x="2770" cb-anchor-y="200" cb-classname="PointDescription" cb-content="extended" cb-labeled="false" cb-max-width="240" cb-source="mi-sXM-Q1j" class="algorithm" id="19ll" text-anchor="middle">
<text baseline-shift="0%" cb-classname="GraphicTextEntity" class="algorithm" id="19lV" text-anchor="middle" x="2770" y="165">
Minimum load
</text>
<text baseline-shift="0%" cb-classname="GraphicTextEntity" class="algorithm" id="1olO" text-anchor="middle" x="2770" y="201">
0 - 250 MW
</text>
</g>
<g cb-classname="ControlPin" cb-pin-name="bq-755-pFz" id="19lf">
<line cb-classname="GraphicLineEntity" class="signalline" id="19lU" x1="2770" x2="2770" y1="350" y2="370"/>
<g cb-classname="SignalSegment" id="19lO">
<line cb-classname="GraphicLineEntity" class="signalline" id="19lZ" x1="2770" x2="2470" y1="370" y2="370"/>
<g cb-classname="SignalSegment" id="19vc">
<line cb-classname="GraphicLineEntity" class="signalline" id="19vF" x1="2470" x2="2470" y1="370" y2="790"/>
<g cb-classname="SignalConnection" cb-graphic-line="$1381$" cb-input-pin="$LxpY$" id="19vN"/>
</g>
</g>
</g>
</g>
<g cb-alg-4GI="H0MAY10DE231YQ32" cb-alg-4o9M="NO" cb-algorithm-id="003" cb-classname="ExternalPointInterface" cb-function-name="INPUT" id="1djF">
<ellipse cb-classname="GraphicEllipseEntity" class="algorithm" cx="2420" cy="1640" id="1djN" rx="40" ry="40"/>
<rect cb-classname="GraphicRectangleEntity" class="algorithm" height="30" id="1djl" width="80" x="2380" y="1570"/>
<line cb-classname="GraphicLineEntity" class="algorithm" id="1djV" x1="2420" x2="2420" y1="1600" y2="1570"/>
<g cb-classname="PointStatusIndicator" cb-indicator-type="Highway" cb-source="U3-2ao-uJe" id="1djK" visibility="hidden">
<line cb-classname="GraphicLineEntity" class="algorithmline" id="1djf" x1="2420" x2="2380" y1="1600" y2="1640"/>
<line cb-classname="GraphicLineEntity" class="algorithmline" id="1djU" x1="2380" x2="2420" y1="1640" y2="1680"/>
<line cb-classname="GraphicLineEntity" class="algorithmline" id="1djO" x1="2420" x2="2460" y1="1680" y2="1640"/>
<line cb-classname="GraphicLineEntity" class="algorithmline" id="1djZ" x1="2460" x2="2420" y1="1640" y2="1600"/>
</g>
<g cb-classname="PointStatusIndicator" cb-indicator-type="hardware" cb-source="ZY-sYk-djX" id="1d0c" visibility="visible">
<line cb-classname="GraphicLineEntity" class="algorithmline" id="1d0F" x1="2380" x2="2380" y1="1600" y2="1680"/>
<line cb-classname="GraphicLineEntity" class="algorithmline" id="1d0N" x1="2380" x2="2460" y1="1680" y2="1680"/>
<line cb-classname="GraphicLineEntity" class="algorithmline" id="1d0l" x1="2460" x2="2460" y1="1680" y2="1600"/>
</g>
<g cb-classname="PointStatusIndicator" cb-indicator-type="alarm" cb-source="sn-5Tc-FUF" id="1d0V" visibility="hidden">
<text baseline-shift="-50%" cb-classname="GraphicTextEntity" class="algorithm" fill="#000000" font-family="Arial" font-size="20" id="1d0K" text-anchor="middle" x="2400" y="1581">
A
</text>
</g>
<g cb-classname="PointStatusIndicator" cb-indicator-type="ingraphic" cb-source="i8-aJr-fXt" id="1d0f" visibility="hidden">
<text baseline-shift="-50%" cb-classname="GraphicTextEntity" class="algorithm" fill="#000000" font-family="Arial" font-size="20" id="1d0U" text-anchor="middle" x="2440" y="1579">
G
</text>
</g>
<g cb-classname="DynamicText" cb-labeled="false" cb-pin-name="wxY" cb-source="U3-2ao-uJe" class="algorithm" id="1d0O" text-anchor="middle">
<text cb-classname="GraphicTextEntity" class="algorithm" fill="black" font-family="Arial" font-size="20" font-style="normal" font-weight="normal" id="1d0Z" text-anchor="middle" text-decoration="normal" x="2420" y="1560"/>
</g>
<g baseline-shift="-100%" cb-anchor-x="2433" cb-anchor-y="1693" cb-classname="PointReferences" cb-max-width="240" cb-originator="true" cb-source="PZ-7pn-0d0" class="signal" id="1dIc" text-anchor="start">
<text baseline-shift="-100%" cb-classname="GraphicTextEntity" class="algorithm" id="1dIF" text-anchor="start" x="2433" y="1693">
-
</text>
</g>
<g baseline-shift="0%" cb-anchor-x="2420" cb-anchor-y="1530" cb-classname="PointDescription" cb-content="extended" cb-labeled="false" cb-max-width="240" cb-source="bq-755-pFz" class="algorithm" id="1dIN" text-anchor="middle">
<text baseline-shift="0%" cb-classname="GraphicTextEntity" class="algorithm" id="1dIl" text-anchor="middle" x="2420" y="1460">
Maximum load
</text>
<text baseline-shift="0%" cb-classname="GraphicTextEntity" class="algorithm" id="1dIV" text-anchor="middle" x="2420" y="1496">
setpoint
</text>
<text baseline-shift="0%" cb-classname="GraphicTextEntity" class="algorithm" id="1olZ" text-anchor="middle" x="2420" y="1532">
0 - 250 MW
</text>
</g>
<g cb-classname="ControlPin" cb-pin-name="Dz-pMM-dkM" id="1dIK">
<line cb-classname="GraphicLineEntity" class="signalline" id="1dIf" x1="2420" x2="2420" y1="1680" y2="1700"/>
<g cb-classname="SignalSegment" id="1dIU">
<line cb-classname="GraphicLineEntity" class="signalline" id="1dIO" x1="2420" x2="2420" y1="1700" y2="2120"/>
<g cb-classname="SignalConnection" cb-graphic-line="$1538$" cb-input-pin="$0Elw$" id="1dIZ"/>
</g>
</g>
</g>
<g cb-alg-2S4V="NO" cb-alg-2tk="H0MAY10DE231XQ31" cb-algorithm-id="004" cb-classname="ExternalPointInterface" cb-function-name="INPUT" id="1dqc">
<ellipse cb-classname="GraphicEllipseEntity" class="algorithm" cx="2780" cy="1640" id="1dqF" rx="40" ry="40"/>
<rect cb-classname="GraphicRectangleEntity" class="algorithm" height="30" id="1dqN" width="80" x="2740" y="1570"/>
<line cb-classname="GraphicLineEntity" class="algorithm" id="1dql" x1="2780" x2="2780" y1="1600" y2="1570"/>
<g cb-classname="PointStatusIndicator" cb-indicator-type="Highway" cb-source="et-ROp-4sj" id="1dqV" visibility="hidden">
<line cb-classname="GraphicLineEntity" class="algorithmline" id="1dqK" x1="2780" x2="2740" y1="1600" y2="1640"/>
<line cb-classname="GraphicLineEntity" class="algorithmline" id="1dqf" x1="2740" x2="2780" y1="1640" y2="1680"/>
<line cb-classname="GraphicLineEntity" class="algorithmline" id="1dqU" x1="2780" x2="2820" y1="1680" y2="1640"/>
<line cb-classname="GraphicLineEntity" class="algorithmline" id="1dqO" x1="2820" x2="2780" y1="1640" y2="1600"/>
</g>
<g cb-classname="PointStatusIndicator" cb-indicator-type="hardware" cb-source="re-6gb-UJM" id="1dqZ" visibility="hidden">
<line cb-classname="GraphicLineEntity" class="algorithmline" id="1dmc" x1="2740" x2="2740" y1="1600" y2="1680"/>
<line cb-classname="GraphicLineEntity" class="algorithmline" id="1dmF" x1="2740" x2="2820" y1="1680" y2="1680"/>
<line cb-classname="GraphicLineEntity" class="algorithmline" id="1dmN" x1="2820" x2="2820" y1="1680" y2="1600"/>
</g>
<g cb-classname="PointStatusIndicator" cb-indicator-type="alarm" cb-source="Pj-LhD-Nho" id="1dml" visibility="hidden">
<text baseline-shift="-50%" cb-classname="GraphicTextEntity" class="algorithm" fill="#000000" font-family="Arial" font-size="20" id="1dmV" text-anchor="middle" x="2760" y="1581">
A
</text>
</g>
<g cb-classname="PointStatusIndicator" cb-indicator-type="ingraphic" cb-source="mi-sXM-Q1j" id="1dmK" visibility="hidden">
<text baseline-shift="-50%" cb-classname="GraphicTextEntity" class="algorithm" fill="#000000" font-family="Arial" font-size="20" id="1dmf" text-anchor="middle" x="2800" y="1579">
G
</text>
</g>
<g cb-classname="DynamicText" cb-labeled="false" cb-pin-name="nSU" cb-source="et-ROp-4sj" class="algorithm" id="1dmU" text-anchor="middle">
<text cb-classname="GraphicTextEntity" class="algorithm" fill="black" font-family="Arial" font-size="20" font-style="normal" font-weight="normal" id="1dmO" text-anchor="middle" text-decoration="normal" x="2780" y="1560"/>
</g>
<g baseline-shift="-100%" cb-anchor-x="2793" cb-anchor-y="1693" cb-classname="PointReferences" cb-max-width="240" cb-originator="true" cb-source="ZY-sYk-djX" class="signal" id="1dmZ" text-anchor="start">
<text baseline-shift="-100%" cb-classname="GraphicTextEntity" class="algorithm" id="1dnc" text-anchor="start" x="2793" y="1693">
1/1700
</text>
</g>
<g baseline-shift="0%" cb-anchor-x="2780" cb-anchor-y="1530" cb-classname="PointDescription" cb-content="extended" cb-labeled="false" cb-max-width="240" cb-source="Dz-pMM-dkM" class="algorithm" id="1dnF" text-anchor="middle">
<text baseline-shift="0%" cb-classname="GraphicTextEntity" class="algorithm" id="1dnN" text-anchor="middle" x="2780" y="1495">
Maximum load
</text>
<text baseline-shift="0%" cb-classname="GraphicTextEntity" class="algorithm" id="1ovc" text-anchor="middle" x="2780" y="1531">
0 - 250 MW
</text>
</g>
<g cb-classname="ControlPin" cb-pin-name="sn-5Tc-FUF" id="1dnl">
<line cb-classname="GraphicLineEntity" class="signalline" id="1dnV" x1="2780" x2="2780" y1="1680" y2="1700"/>
<g cb-classname="SignalSegment" id="1dnK">
<line cb-classname="GraphicLineEntity" class="signalline" id="1dnf" x1="2780" x2="2480" y1="1700" y2="1700"/>
<g cb-classname="SignalSegment" id="1dnU">
<line cb-classname="GraphicLineEntity" class="signalline" id="1dnO" x1="2480" x2="2480" y1="1700" y2="2120"/>
<g cb-classname="SignalConnection" cb-graphic-line="$1568$" cb-input-pin="$ulnx$" id="1dnZ"/>
</g>
</g>
</g>
</g>
<g cb-alg-9pMw="0" cb-alg-jh6M="69" cb-algorithm-id="00B" cb-classname="ControlAlgorithm" cb-function-name="DVALGEN" cb-modify-id="00000001" id="1enU">
<rect cb-classname="GraphicRectangleEntity" class="algorithm" height="60" id="1enO" width="100" x="1330" y="810"/>
<text baseline-shift="-50%" cb-classname="GraphicTextEntity" class="algorithm" font-size="18" id="1enZ" text-anchor="middle" x="1380" y="827">
DVAL
</text>
<text baseline-shift="-50%" cb-classname="GraphicTextEntity" class="algorithm" font-size="18" id="1elc" text-anchor="middle" x="1380" y="853">
GEN
</text>
<g cb-classname="ControlPin" cb-pin-name="U3-2ao-uJe" id="1elF">
<line cb-classname="GraphicLineEntity" class="signalline" id="1elN" x1="1430" x2="1450" y1="840" y2="840"/>
<g cb-classname="DynamicText" cb-source="PZ-SDd-aEgx" class="signal" id="1ell">
<text baseline-shift="5%" cb-classname="GraphicTextEntity" class="signal" fill="black" font-style="normal" font-weight="normal" id="1elV" text-decoration="normal" x="1444" y="830"/>
</g>
<g cb-classname="SignalSegment" id="1elK">
<line cb-classname="GraphicLineEntity" class="signalline" id="1elf" stroke="#1e12bf" stroke-dasharray="5,4" x1="1450" x2="1520" y1="840" y2="840"/>
<g cb-classname="SignalSegment" id="1elU">
<line cb-classname="GraphicLineEntity" class="signalline" id="1elO" stroke="#1e12bf" stroke-dasharray="5,4" x1="1520" x2="1520" y1="840" y2="800"/>
<g cb-classname="SignalSegment" id="1elZ">
<line cb-classname="GraphicLineEntity" class="signalline" id="1evc" stroke="#1e12bf" stroke-dasharray="5,4" x1="1520" x2="1880" y1="800" y2="800"/>
<g cb-classname="SignalConnection" cb-graphic-line="$1680$" cb-input-pin="$LDpp$" id="1evF"/>
</g>
<line cb-classname="GraphicLineEntity" class="signalline" id="1evN" stroke="#1e12bf" stroke-dasharray="5,4" x1="1520" x2="1520" y1="840" y2="880"/>
<g cb-classname="SignalSegment" id="1evl">
<line cb-classname="GraphicLineEntity" class="signalline" id="1evV" stroke="#1e12bf" stroke-dasharray="5,4" x1="1520" x2="1880" y1="880" y2="880"/>
<g cb-classname="SignalConnection" cb-graphic-line="$1684$" cb-input-pin="$O0WJ$" id="1evK"/>
</g>
<ellipse cb-classname="GraphicEllipseEntity" class="signal" cx="1520" cy="840" fill="#1e12bf" id="1evf" rx="5" ry="5" stroke="#1e12bf" stroke-dasharray="5,4"/>
</g>
</g>
</g>
<g cb-classname="GraphicShape" id="1evU">
<g cb-classname="DynamicText" cb-labeled="true" cb-source="bq-755-6Qnz" id="1evO">
<text cb-classname="GraphicTextEntity" class="algorithm" id="1evZ" text-anchor="start" x="1320" y="760"/>
</g>
</g>
</g>
<g cb-alg-iG0="$1667$cb-alg-out$" cb-alg-iGj="$1667$cb-alg-out$" cb-algorithm-id="00C" cb-classname="FastBooleanAlgorithm" cb-function-name="AND" cb-modify-id="00000001" id="1e5c">
<rect cb-classname="GraphicRectangleEntity" class="algorithm" height="60" id="1e5F" width="80" x="1900" y="810"/>
<text baseline-shift="-50%" cb-classname="GraphicTextEntity" class="algorithm" id="1e5N" text-anchor="middle" x="1940" y="839">
AND
</text>
<line cb-classname="GraphicLineEntity" class="algorithmline" id="1e5l" x1="1900" x2="1900" y1="780" y2="900"/>
<g cb-classname="ControlPin" cb-pin-name="xv-47V-A6l" id="1e5V">
<line cb-classname="GraphicLineEntity" class="signalline" id="1e5K" x1="1880" x2="1900" y1="800" y2="800"/>
<polygon cb-classname="GraphicPolygonEntity" class="signal" id="1e5f" points="1900,800 1889,796 1889,804"/>
<g cb-classname="DynamicText" cb-source="U3-xA6-dsIv" class="signal" id="1e5U" text-anchor="end">
<text baseline-shift="5%" cb-classname="GraphicTextEntity" class="signal" fill="black" font-style="normal" font-weight="normal" id="1e5O" text-anchor="end" text-decoration="normal" x="1893" y="792"/>
</g>
</g>
<g cb-classname="ControlPin" cb-pin-name="PZ-7pn-0d0" id="1e5Z">
<line cb-classname="GraphicLineEntity" class="signalline" id="1oOc" x1="1980" x2="2000" y1="840" y2="840"/>
<g cb-classname="DynamicText" cb-source="bq-Aza-rQvb" class="signal" id="1oOF">
<text baseline-shift="5%" cb-classname="GraphicTextEntity" class="signal" fill="black" font-style="normal" font-weight="normal" id="1oON" text-decoration="normal" x="1992" y="832"/>
</g>
<g cb-classname="SignalSegment" id="1omZ">
<g cb-classname="SignalConnection" cb-graphic-line="$1762$" cb-input-pin="$OcgE$" id="1onl"/>
<line cb-classname="GraphicLineEntity" class="signalline" id="1onN" stroke="#1e12bf" stroke-dasharray="5,4" x1="2000" x2="2380" y1="840" y2="840"/>
</g>
</g>
<g cb-classname="ControlPin" cb-pin-name="cN-wNR-PVh" id="1oOl">
<line cb-classname="GraphicLineEntity" class="signalline" id="1oOV" x1="1880" x2="1900" y1="880" y2="880"/>
<polygon cb-classname="GraphicPolygonEntity" class="signal" id="1oOK" points="1900,880 1889,876 1889,884"/>
<g cb-classname="DynamicText" cb-source="sn-bPV-Ssr8" class="signal" id="1oOf" text-anchor="end">
<text baseline-shift="5%" cb-classname="GraphicTextEntity" class="signal" fill="black" font-style="normal" font-weight="normal" id="1oOU" text-anchor="end" text-decoration="normal" x="1890" y="870"/>
</g>
</g>
<g cb-classname="ControlPin" cb-pin-name="i8-aJr-D1j" id="1oOO">
<line cb-classname="GraphicLineEntity" class="signalline" id="1oOZ" x1="1880" x2="1900" y1="840" y2="840"/>
<polygon cb-classname="GraphicPolygonEntity" class="signal" id="1ojc" points="1900,840 1889,836 1889,844"/>
<g cb-classname="DynamicText" cb-source="mi-ID1-iSWi" class="signal" id="1ojF" text-anchor="end">
<text baseline-shift="5%" cb-classname="GraphicTextEntity" class="signal" fill="black" font-style="normal" font-weight="normal" id="1ojN" text-anchor="end" text-decoration="normal" x="1890" y="830"/>
</g>
</g>
</g>
<g cb-alg-A09="H0MAY10DE121XC03" cb-alg-A5XcX="250" cb-alg-H6="$1352$cb-alg-out$" cb-alg-H6G="$1324$cb-alg-out$" cb-alg-Mil4l="0.01" cb-alg-Y3b="$1690$cb-alg-out$" cb-alg-Ymn="H0MAY10DE121XC33" cb-alg-YqL="LOAD_CNTR_SP_MIN" cb-alg-i07fO-0DRn="60" cb-alg-i07fO-afJA="0.01" cb-alg-i07fO-afnv="0.001" cb-alg-i07fO-s6="LOWMON" cb-alg-i0RJ4u-6XCG="0.000000" cb-alg-i0RJ4u-6XCp="1.000000" cb-alg-i0RJ4u-71="DIVIDE" cb-alg-i0RJ4u-FW7o="2.500000" cb-alg-i0RJ4u-FYOh="ON" cb-alg-i0RJ4u-Fhlm="999999999" cb-alg-i0RJ4u-g8dG="0.000000" cb-alg-i0RJ4u-g8dp="1.000000" cb-alg-i0RJ4u-gD7p="81" cb-alg-i0RJ4u-qFlm="-999999999" cb-alg-i0RM4u-6XCG="0.000000" cb-alg-i0RM4u-6XCp="1.000000" cb-alg-i0RM4u-71="DIVIDE" cb-alg-i0RM4u-FW7o="2.500000" cb-alg-i0RM4u-FYOh="ON" cb-alg-i0RM4u-Fhlm="999999999" cb-alg-i0RM4u-g8dG="0.000000" cb-alg-i0RM4u-g8dp="1.000000" cb-alg-i0RM4u-gD7p="81" cb-alg-i0RM4u-qFlm="-999999999" cb-alg-i0RfBu-71="AVALGEN" cb-alg-i0RfBu-gD7p="65" cb-alg-i0RsRu-71="MULTIPLY" cb-alg-i0RsRu-D15G="0.000000" cb-alg-i0RsRu-D15p="1.000000" cb-alg-i0RsRu-D19G="0.000000" cb-alg-i0RsRu-D19p="1.000000" cb-alg-i0RsRu-FW7o="2.500000" cb-alg-i0RsRu-FYOh="ON" cb-alg-i0RsRu-Fhlm="999999999" cb-alg-i0RsRu-gD7p="82" cb-alg-i0RsRu-qFlm="-999999999" cb-alg-i0pYO-0DRn="84" cb-alg-i0pYO-A6Hn="1.000000" cb-alg-i0pYO-A6Hv="0.000000" cb-alg-i0pYO-A6On="1" cb-alg-i0pYO-A6Ov="0" cb-alg-i0pYO-A6Tn="1.000000" cb-alg-i0pYO-A6Tv="0.000000" cb-alg-i0pYO-A6ln="1" cb-alg-i0pYO-A6lv="0" cb-alg-i0pYO-M4Rt="2.500000" cb-alg-i0pYO-MSJ4="999999999" cb-alg-i0pYO-Mqpz="ON" cb-alg-i0pYO-s6="SUM" cb-alg-i0pYO-tFJ4="-999999999" cb-alg-iD7YO-0DRn="42" cb-alg-iD7YO-8X8D="OFF" cb-alg-iD7YO-M4W5="2.500000" cb-alg-iD7YO-M4W9="2.500000" cb-alg-iD7YO-MSJ4="999999999" cb-alg-iD7YO-PGJn="1.000000" cb-alg-iD7YO-PGJv="0.000000" cb-alg-iD7YO-df_n="1.000000" cb-alg-iD7YO-df_v="0.000000" cb-alg-iD7YO-nFWz="ON" cb-alg-iD7YO-ng6="ON" cb-alg-iD7YO-s6="TRANSFER" cb-alg-iD7YO-tFJ4="-999999999" cb-alg-iDHsO-0DRn="65" cb-alg-iDHsO-27ph="0.01" cb-alg-iDHsO-s6="AVALGEN" cb-alg-iDpMO-0DRn="65" cb-alg-iDpMO-27ph="0" cb-alg-iDpMO-s6="AVALGEN" cb-alg-iT7XO-0DRn="84" cb-alg-iT7XO-A6Hn="1.000000" cb-alg-iT7XO-A6Hv="0.000000" cb-alg-iT7XO-A6On="1" cb-alg-iT7XO-A6Ov="0" cb-alg-iT7XO-A6Tn="1.000000" cb-alg-iT7XO-A6Tv="0.000000" cb-alg-iT7XO-A6ln="-1" cb-alg-iT7XO-A6lv="0" cb-alg-iT7XO-M4Rt="2.500000" cb-alg-iT7XO-MSJ4="999999999" cb-alg-iT7XO-Mqpz="ON" cb-alg-iT7XO-s6="SUM" cb-alg-iT7XO-tFJ4="-999999999" cb-alg-iVkJO-0DRn="74" cb-alg-iVkJO-afnv="0.005" cb-alg-iVkJO-eDnv="0.005" cb-alg-iVkJO-s6="HIGHLOWMON" cb-alg-ia8sO-0DRn="76" cb-alg-ia8sO-D7Dd="1.000000" cb-alg-ia8sO-I4Ne="OFF" cb-alg-ia8sO-M4Rt="2.500000" cb-alg-ia8sO-MSJ4="999999999" cb-alg-ia8sO-Mqpz="ON" cb-alg-ia8sO-s6="GAINBIAS" cb-alg-ia8sO-tDRl="0.000000" cb-alg-ia8sO-tFJ4="-999999999" cb-alg-iaKfO-0DRn="76" cb-alg-iaKfO-I4Ne="ON" cb-alg-iaKfO-M4Rt="2.500000" cb-alg-iaKfO-MSJ4="999999999" cb-alg-iaKfO-Mqpz="ON" cb-alg-iaKfO-s6="GAINBIAS" cb-alg-iaKfO-tDRl="0.000000" cb-alg-iaKfO-tFJ4="-999999999" cb-alg-ixKMO-0DRn="42" cb-alg-ixKMO-8X8D="OFF" cb-alg-ixKMO-M4W5="2.500000" cb-alg-ixKMO-M4W9="2.500000" cb-alg-ixKMO-MSJ4="999999999" cb-alg-ixKMO-PGJn="1.000000" cb-alg-ixKMO-PGJv="0.000000" cb-alg-ixKMO-df_n="1.000000" cb-alg-ixKMO-df_v="0.000000" cb-alg-ixKMO-nFWz="ON" cb-alg-ixKMO-ng6="ON" cb-alg-ixKMO-s6="TRANSFER" cb-alg-ixKMO-tFJ4="-999999999" cb-alg-nK_7="0.005" cb-alg-nK_n="0.005" cb-algorithm-id="017" cb-classname="ControlMacroReference" cb-function-name="SP_DCS" cb-macro-crc="49798" cb-modify-id="00000001" id="19vl">
<rect cb-classname="GraphicRectangleEntity" class="algorithm" height="70" id="19vV" width="90" x="2400" y="810"/>
<text baseline-shift="0%" cb-classname="GraphicTextEntity" class="annotation" fill="#000000" font-family="MS Shell Dlg 2" font-size="16" id="19vK" x="2410" y="850">
DCS_SP
</text>
<g cb-classname="GraphicShape" id="1vjK">
<g cb-classname="DynamicText" cb-labeled="true" cb-source="ZY-sYk-fk_L" id="1vjf">
<text cb-classname="GraphicTextEntity" class="algorithm" id="1vjU" text-anchor="start" x="2490" y="710"/>
</g>
<g cb-classname="DynamicText" cb-labeled="true" cb-source="Dz-pMM-nb_a" id="1vjO">
<text cb-classname="GraphicTextEntity" class="algorithm" id="1vjZ" text-anchor="start" x="2490" y="740"/>
</g>
<g cb-classname="DynamicText" cb-labeled="true" cb-source="sn-5Tc-hArDt" id="1v0c">
<text cb-classname="GraphicTextEntity" class="algorithm" id="1v0F" text-anchor="start" x="2490" y="770"/>
</g>
</g>
<g cb-classname="GraphicShape" id="1ovN">
<g cb-classname="DynamicText" cb-labeled="true" cb-source="re-6gb-C2do8" id="1ovl">
<text cb-classname="GraphicTextEntity" class="algorithm" id="1ovV" text-anchor="start" x="2500" y="810"/>
</g>
</g>
<g cb-classname="ControlPin" cb-pin-name="i8-aJr-86n" id="195f">
<line cb-classname="GraphicLineEntity" class="signalline" id="195U" x1="2380" x2="2400" y1="840" y2="840"/>
<polygon cb-classname="GraphicPolygonEntity" class="signal" id="195O" points="2400,840 2388,834 2388,845"/>
<g cb-classname="DynamicText" cb-source="mi-ID1-iSWi" id="195Z">
<text cb-classname="GraphicTextEntity" class="signal" id="1vOc" text-anchor="end" x="2376" y="837"/>
</g>
</g>
<g cb-classname="ControlPin" cb-pin-name="cN-wNR-eb" id="195F">
<line cb-classname="GraphicLineEntity" class="signalline" id="195N" x1="2470" x2="2470" y1="790" y2="810"/>
<polygon cb-classname="GraphicPolygonEntity" class="signal" id="195l" points="2470,810 2475,799 2464,799"/>
<g cb-classname="DynamicText" cb-source="sn-bPV-Ssr8" id="195V">
<text cb-classname="GraphicTextEntity" class="signal" id="195K" text-anchor="start" transform="translate(2467,795)rotate(-90)"/>
</g>
</g>
<g cb-classname="ControlPin" cb-pin-name="mi-sXM-rm2" id="19vf">
<line cb-classname="GraphicLineEntity" class="signalline" id="19vU" x1="2410" x2="2410" y1="790" y2="810"/>
<polygon cb-classname="GraphicPolygonEntity" class="signal" id="19vO" points="2410,810 2415,799 2404,799"/>
<g cb-classname="DynamicText" cb-source="bq-Aza-rQvb" id="19vZ">
<text cb-classname="GraphicTextEntity" class="signal" id="195c" text-anchor="start" transform="translate(2407,795)rotate(-90)"/>
</g>
</g>
<g cb-classname="ControlPin" cb-pin-name="mi-sXM-1Ln" id="1ovZ">
<line cb-classname="GraphicLineEntity" class="signalline" id="1o5c" x1="2490" x2="2510" y1="880" y2="880"/>
<g cb-classname="DynamicText" cb-source="et-hMi-VaXc" id="1o5F">
<text cb-classname="GraphicTextEntity" class="signal" id="1o5N" text-anchor="start" x="2504" y="877"/>
</g>
<g cb-classname="SignalSegment" id="1CmO">
<line cb-classname="GraphicLineEntity" class="signalline" id="1CmZ" stroke="#1e12bf" stroke-dasharray="5,4" x1="2510" x2="2990" y1="880" y2="880"/>
<g cb-classname="SignalSegment" id="1Cnc">
<line cb-classname="GraphicLineEntity" class="signalline" id="1CnF" stroke="#1e12bf" stroke-dasharray="5,4" x1="2990" x2="2990" y1="880" y2="980"/>
<g cb-classname="SignalSegment" id="1CnN">
<line cb-classname="GraphicLineEntity" class="signalline" id="1Cnl" stroke="#1e12bf" stroke-dasharray="5,4" x1="2990" x2="3640" y1="980" y2="980"/>
<g cb-classname="SignalConnection" cb-graphic-line="$1863$" cb-input-pin="$0KJw$" id="1CnV"/>
</g>
</g>
</g>
</g>
<g cb-classname="ControlPin" cb-pin-name="et-ROp-2r6" id="1vOF">
<line cb-classname="GraphicLineEntity" class="signalline" id="1vON" x1="2490" x2="2510" y1="840" y2="840"/>
<g cb-classname="DynamicText" cb-source="ZY-ktV-b7ms" id="1vOl">
<text cb-classname="GraphicTextEntity" class="signal" id="1vOV" text-anchor="start" x="2504" y="837"/>
</g>
<g cb-classname="SignalSegment" id="1vOK">
<g cb-classname="SignalConnection" cb-graphic-line="$1407$" cb-input-pin="$FUJD$" id="1vOf"/>
<line cb-classname="GraphicLineEntity" class="signalline" id="1vOU" stroke="#1e12bf" stroke-dasharray="5,4" x1="2510" x2="3640" y1="840" y2="840"/>
</g>
</g>
<g cb-classname="ControlPin" cb-pin-name="xv-47V-Fmz" id="1vOO">
<line cb-classname="GraphicLineEntity" class="signalline" id="1vOZ" x1="2440" x2="2440" y1="880" y2="900"/>
<g cb-classname="DynamicText" cb-source="Pj-8Vd-17EH" id="1vjc">
<text cb-classname="GraphicTextEntity" class="signal" id="1vjF" text-anchor="end" transform="translate(2437,894)rotate(-90)"/>
</g>
<g cb-classname="SignalSegment" id="1vjN">
<g cb-classname="SignalConnection" cb-graphic-line="$1414$" cb-input-pin="$uvnG$" id="1vjl"/>
<line cb-classname="GraphicLineEntity" class="signalline" id="1vjV" x1="2440" x2="2440" y1="900" y2="1090"/>
</g>
</g>
</g>
<g cb-alg-9m="$1383$cb-alg-xnf$" cb-algorithm-id="00E" cb-classname="ExternalPointInterface" cb-function-name="OUTPUT" id="1v0N">
<ellipse cb-classname="GraphicEllipseEntity" class="algorithm" cx="3700" cy="840" id="1v0l" rx="40" ry="40"/>
<rect cb-classname="GraphicRectangleEntity" class="algorithm" height="80" id="1v0V" width="30" x="3740" y="800"/>
<line cb-classname="GraphicLineEntity" class="algorithm" id="1v0K" x1="3740" x2="3770" y1="840" y2="840"/>
<g cb-classname="PointStatusIndicator" cb-indicator-type="highway" cb-source="PZ-7pn-tV" id="1v0f" visibility="hidden">
<line cb-classname="GraphicLineEntity" class="algorithmline" id="1v0U" x1="3660" x2="3700" y1="840" y2="800"/>
<line cb-classname="GraphicLineEntity" class="algorithmline" id="1v0O" x1="3700" x2="3740" y1="800" y2="840"/>
<line cb-classname="GraphicLineEntity" class="algorithmline" id="1v0Z" x1="3740" x2="3700" y1="840" y2="880"/>
<line cb-classname="GraphicLineEntity" class="algorithmline" id="1vIc" x1="3700" x2="3660" y1="880" y2="840"/>
</g>
<g cb-classname="PointStatusIndicator" cb-indicator-type="hardware" cb-source="Dz-pMM-4r" id="1vIF" visibility="hidden">
<line cb-classname="GraphicLineEntity" class="algorithmline" id="1vIN" x1="3740" x2="3660" y1="800" y2="800"/>
<line cb-classname="GraphicLineEntity" class="algorithmline" id="1vIl" x1="3660" x2="3660" y1="800" y2="880"/>
<line cb-classname="GraphicLineEntity" class="algorithmline" id="1vIV" x1="3660" x2="3740" y1="880" y2="880"/>
</g>
<g cb-classname="PointStatusIndicator" cb-indicator-type="alarm" cb-source="i8-aJr-D1" id="1vIK" visibility="hidden">
<text cb-classname="GraphicTextEntity" class="algorithm" fill="#000000" font-family="Arial" font-size="20" id="1vIf" x="3747" y="829">
A
</text>
</g>
<g cb-classname="PointStatusIndicator" cb-indicator-type="ingraphic" cb-source="U3-2ao-Mi" id="1vIU" visibility="hidden">
<text cb-classname="GraphicTextEntity" class="algorithm" fill="#000000" font-family="Arial" font-size="20" id="1vIO" x="3745" y="870">
G
</text>
</g>
<g cb-classname="DynamicText" cb-labeled="false" cb-pin-name="SC" cb-source="PZ-7pn-tV" class="algorithm" id="1vIZ" text-anchor="end">
<text baseline-shift="0%" cb-classname="GraphicTextEntity" class="algorithm" fill="black" font-family="Arial" font-size="20" font-style="normal" font-weight="normal" id="1vqc" text-anchor="end" text-decoration="normal" x="3637" y="819"/>
</g>
<g baseline-shift="-100%" cb-anchor-x="3638" cb-anchor-y="856" cb-classname="PointReferences" cb-max-width="240" cb-originator="false" cb-source="bq-755-Db" class="signal" id="1vqF" text-anchor="end">
<text baseline-shift="-100%" cb-classname="GraphicTextEntity" class="algorithm" id="1vqN" text-anchor="end" x="3638" y="856">
1/0012 99/905
</text>
</g>
<g baseline-shift="-50%" cb-anchor-x="3791" cb-anchor-y="838" cb-classname="PointDescription" cb-content="extended" cb-labeled="false" cb-max-width="240" cb-source="cN-wNR-PV" class="algorithm" id="1vql" text-anchor="start">
<text baseline-shift="-50%" cb-classname="GraphicTextEntity" class="algorithm" id="1vqV" text-anchor="start" x="3791" y="803">
Tracking bit of
</text>
<text baseline-shift="-50%" cb-classname="GraphicTextEntity" class="algorithm" id="1vqK" text-anchor="start" x="3791" y="839">
minimum load
</text>
<text baseline-shift="-50%" cb-classname="GraphicTextEntity" class="algorithm" id="1oll" text-anchor="start" x="3791" y="875">
setpoint ON
</text>
</g>
<g cb-classname="ControlPin" cb-pin-name="sn-5Tc-Vd" id="1vqf">
<line cb-classname="GraphicLineEntity" class="signalline" id="1vqU" x1="3640" x2="3660" y1="840" y2="840"/>
<polygon cb-classname="GraphicPolygonEntity" class="signal" id="1vqO" points="3660,840 3649,834 3649,845"/>
</g>
</g>
<g cb-alg-iX="$1383$cb-alg-xsw$" cb-algorithm-id="001" cb-classname="ExternalPointInterface" cb-function-name="OUTPUT" id="1vqZ">
<ellipse cb-classname="GraphicEllipseEntity" class="algorithm" cx="2440" cy="1150" id="1vmc" rx="40" ry="40"/>
<rect cb-classname="GraphicRectangleEntity" class="algorithm" height="30" id="1vmF" rx="0" width="80" x="2400" y="1190"/>
<line cb-classname="GraphicLineEntity" class="algorithm" id="1vmN" x1="2440" x2="2440" y1="1190" y2="1220"/>
<g cb-classname="PointStatusIndicator" cb-indicator-type="hardware" cb-source="et-ROp-Hr" id="1vml" visibility="hidden">
<line cb-classname="GraphicLineEntity" class="algorithmline" id="1vmV" x1="2400" x2="2400" y1="1190" y2="1110"/>
<line cb-classname="GraphicLineEntity" class="algorithmline" id="1vmK" x1="2400" x2="2480" y1="1110" y2="1110"/>
<line cb-classname="GraphicLineEntity" class="algorithmline" id="1vmf" x1="2480" x2="2480" y1="1110" y2="1190"/>
</g>
<g cb-classname="PointStatusIndicator" cb-indicator-type="Highway" cb-source="Dz-pMM-4r" id="1vmU" visibility="hidden">
<line cb-classname="GraphicLineEntity" class="algorithmline" id="1vmO" x1="2400" x2="2440" y1="1150" y2="1110"/>
<line cb-classname="GraphicLineEntity" class="algorithmline" id="1vmZ" x1="2440" x2="2480" y1="1110" y2="1150"/>
<line cb-classname="GraphicLineEntity" class="algorithmline" id="1vnc" x1="2480" x2="2440" y1="1150" y2="1190"/>
<line cb-classname="GraphicLineEntity" class="algorithmline" id="1vnF" x1="2440" x2="2400" y1="1190" y2="1150"/>
</g>
<g cb-classname="PointStatusIndicator" cb-indicator-type="alarm" cb-source="Pj-LhD-Dd" id="1vnN" visibility="hidden">
<text cb-classname="GraphicTextEntity" class="algorithm" fill="#000000" font-family="Arial" font-size="20" id="1vnl" x="2413" y="1214">
A
</text>
</g>
<g cb-classname="PointStatusIndicator" cb-indicator-type="ingraphic" cb-source="mi-sXM-za" id="1vnV" visibility="hidden">
<text cb-classname="GraphicTextEntity" class="algorithm" fill="#000000" font-family="Arial" font-size="20" id="1vnK" x="2450" y="1215">
G
</text>
</g>
<g baseline-shift="-100%" cb-anchor-x="2440" cb-anchor-y="1270" cb-classname="PointDescription" cb-content="extended" cb-labeled="false" cb-max-width="240" cb-source="et-ROp-Hr" class="algorithm" id="1vnf" text-anchor="middle">
<text baseline-shift="-100%" cb-classname="GraphicTextEntity" class="algorithm" id="1vnU" text-anchor="middle" x="2440" y="1270">
Minimum load
</text>
<text baseline-shift="-100%" cb-classname="GraphicTextEntity" class="algorithm" id="1vnO" text-anchor="middle" x="2440" y="1306">
0.00 - 250 MW
</text>
</g>
<g cb-classname="DynamicText" cb-labeled="false" cb-pin-name="Bd" cb-source="Dz-pMM-4r" class="algorithm" id="1vlc" text-anchor="middle">
<text baseline-shift="-50%" cb-classname="GraphicTextEntity" class="algorithm" fill="black" font-family="Arial" font-size="20" font-style="normal" font-weight="normal" id="1vlF" text-anchor="middle" text-decoration="normal" x="2440" y="1240"/>
</g>
<g baseline-shift="0%" cb-anchor-x="2460" cb-anchor-y="1090" cb-classname="PointReferences" cb-max-width="240" cb-originator="false" cb-source="sn-5Tc-Vd" class="signal" id="1vlN" text-anchor="start">
<text baseline-shift="0%" cb-classname="GraphicTextEntity" class="algorithm" id="1vll" text-anchor="start" x="2460" y="1090">
1/1700
</text>
</g>
<g cb-classname="ControlPin" cb-pin-name="U3-2ao-Mi" id="1vlf">
<line cb-classname="GraphicLineEntity" class="signalline" id="1vlU" x1="2440" x2="2440" y1="1090" y2="1110"/>
<polygon cb-classname="GraphicPolygonEntity" class="signal" id="1vlO" points="2440,1110 2444,1099 2436,1099"/>
</g>
</g>
<g cb-alg-hy="$1383$cb-alg-r1q$" cb-algorithm-id="002" cb-classname="ExternalPointInterface" cb-function-name="OUTPUT" id="1o5O">
<ellipse cb-classname="GraphicEllipseEntity" class="algorithm" cx="3700" cy="980" id="1o5Z" rx="40" ry="40"/>
<rect cb-classname="GraphicRectangleEntity" class="algorithm" height="80" id="1COc" width="30" x="3740" y="940"/>
<line cb-classname="GraphicLineEntity" class="algorithm" id="1COF" x1="3740" x2="3770" y1="980" y2="980"/>
<g cb-classname="PointStatusIndicator" cb-indicator-type="highway" cb-source="mi-sXM-za" id="1CON" visibility="hidden">
<line cb-classname="GraphicLineEntity" class="algorithmline" id="1COl" x1="3660" x2="3700" y1="980" y2="940"/>
<line cb-classname="GraphicLineEntity" class="algorithmline" id="1COV" x1="3700" x2="3740" y1="940" y2="980"/>
<line cb-classname="GraphicLineEntity" class="algorithmline" id="1COK" x1="3740" x2="3700" y1="980" y2="1020"/>
<line cb-classname="GraphicLineEntity" class="algorithmline" id="1COf" x1="3700" x2="3660" y1="1020" y2="980"/>
</g>
<g cb-classname="PointStatusIndicator" cb-indicator-type="hardware" cb-source="cN-wNR-PV" id="1COU" visibility="hidden">
<line cb-classname="GraphicLineEntity" class="algorithmline" id="1COO" x1="3740" x2="3660" y1="940" y2="940"/>
<line cb-classname="GraphicLineEntity" class="algorithmline" id="1COZ" x1="3660" x2="3660" y1="940" y2="1020"/>
<line cb-classname="GraphicLineEntity" class="algorithmline" id="1Cjc" x1="3660" x2="3740" y1="1020" y2="1020"/>
</g>
<g cb-classname="PointStatusIndicator" cb-indicator-type="alarm" cb-source="xv-47V-A6" id="1CjF" visibility="hidden">
<text cb-classname="GraphicTextEntity" class="algorithm" fill="#000000" font-family="Arial" font-size="20" id="1CjN" x="3747" y="969">
A
</text>
</g>
<g cb-classname="PointStatusIndicator" cb-indicator-type="ingraphic" cb-source="Pj-LhD-Dd" id="1Cjl" visibility="hidden">
<text cb-classname="GraphicTextEntity" class="algorithm" fill="#000000" font-family="Arial" font-size="20" id="1CjV" x="3745" y="1010">
G
</text>
</g>
<g cb-classname="DynamicText" cb-labeled="false" cb-pin-name="WT" cb-source="mi-sXM-za" class="algorithm" id="1CjK" text-anchor="end">
<text baseline-shift="0%" cb-classname="GraphicTextEntity" class="algorithm" fill="black" font-family="Arial" font-size="20" font-style="normal" font-weight="normal" id="1Cjf" text-anchor="end" text-decoration="normal" x="3637" y="959"/>
</g>
<g baseline-shift="-100%" cb-anchor-x="3638" cb-anchor-y="996" cb-classname="PointReferences" cb-max-width="240" cb-originator="false" cb-source="et-ROp-Hr" class="signal" id="1CjU" text-anchor="end">
<text baseline-shift="-100%" cb-classname="GraphicTextEntity" class="algorithm" id="1CjO" text-anchor="end" x="3638" y="996">
1/0014
</text>
</g>
<g baseline-shift="-50%" cb-anchor-x="3791" cb-anchor-y="978" cb-classname="PointDescription" cb-content="extended" cb-labeled="false" cb-max-width="240" cb-source="cN-wNR-PV" class="algorithm" id="1C0c" text-anchor="start">
<text baseline-shift="-50%" cb-classname="GraphicTextEntity" class="algorithm" id="1C0F" text-anchor="start" x="3791" y="943">
Release for
</text>
<text baseline-shift="-50%" cb-classname="GraphicTextEntity" class="algorithm" id="1C0N" text-anchor="start" x="3791" y="979">
minimum load
</text>
<text baseline-shift="-50%" cb-classname="GraphicTextEntity" class="algorithm" id="1Cll" text-anchor="start" x="3791" y="1015">
setpoint ON
</text>
</g>
<g cb-classname="ControlPin" cb-pin-name="sn-5Tc-Vd" id="1C0l">
<line cb-classname="GraphicLineEntity" class="signalline" id="1C0V" x1="3640" x2="3660" y1="980" y2="980"/>
<polygon cb-classname="GraphicPolygonEntity" class="signal" id="1C0K" points="3660,980 3649,974 3649,985"/>
</g>
</g>
<g cb-alg-1A7M="69" cb-alg-isXX="0" cb-algorithm-id="00D" cb-classname="ControlAlgorithm" cb-function-name="DVALGEN" cb-modify-id="00000001" id="1ojl">
<rect cb-classname="GraphicRectangleEntity" class="algorithm" height="60" id="1ojV" width="100" x="1350" y="2140"/>
<text baseline-shift="-50%" cb-classname="GraphicTextEntity" class="algorithm" font-size="18" id="1ojK" text-anchor="middle" x="1400" y="2157">
DVAL
</text>
<text baseline-shift="-50%" cb-classname="GraphicTextEntity" class="algorithm" font-size="18" id="1ojf" text-anchor="middle" x="1400" y="2183">
GEN
</text>
<g cb-classname="ControlPin" cb-pin-name="Dz-pMM-dkM" id="1ojU">
<line cb-classname="GraphicLineEntity" class="signalline" id="1ojO" x1="1450" x2="1470" y1="2170" y2="2170"/>
<g cb-classname="DynamicText" cb-source="sn-bPV-Ssr8" class="signal" id="1ojZ">
<text baseline-shift="5%" cb-classname="GraphicTextEntity" class="signal" fill="black" font-style="normal" font-weight="normal" id="1o0c" text-decoration="normal" x="1464" y="2160"/>
</g>
<g cb-classname="SignalSegment" id="1o0F">
<line cb-classname="GraphicLineEntity" class="signalline" id="1o0N" stroke="#1e12bf" stroke-dasharray="5,4" x1="1470" x2="1540" y1="2170" y2="2170"/>
<g cb-classname="SignalSegment" id="1o0l">
<line cb-classname="GraphicLineEntity" class="signalline" id="1o0V" stroke="#1e12bf" stroke-dasharray="5,4" x1="1540" x2="1540" y1="2170" y2="2130"/>
<g cb-classname="SignalSegment" id="1o0K">
<line cb-classname="GraphicLineEntity" class="signalline" id="1o0f" stroke="#1e12bf" stroke-dasharray="5,4" x1="1540" x2="1900" y1="2130" y2="2130"/>
<g cb-classname="SignalConnection" cb-graphic-line="$1726$" cb-input-pin="$BfyZ$" id="1o0U"/>
</g>
<line cb-classname="GraphicLineEntity" class="signalline" id="1o0O" stroke="#1e12bf" stroke-dasharray="5,4" x1="1540" x2="1540" y1="2170" y2="2210"/>
<g cb-classname="SignalSegment" id="1o0Z">
<line cb-classname="GraphicLineEntity" class="signalline" id="1oIc" stroke="#1e12bf" stroke-dasharray="5,4" x1="1540" x2="1900" y1="2210" y2="2210"/>
<g cb-classname="SignalConnection" cb-graphic-line="$1730$" cb-input-pin="$FkJa$" id="1oIF"/>
</g>
<ellipse cb-classname="GraphicEllipseEntity" class="signal" cx="1540" cy="2170" fill="#1e12bf" id="1oIN" rx="5" ry="5" stroke="#1e12bf" stroke-dasharray="5,4"/>
</g>
</g>
</g>
<g cb-classname="GraphicShape" id="1oIl">
<g cb-classname="DynamicText" cb-labeled="true" cb-source="i8-aJr-TROJ" id="1oIV">
<text cb-classname="GraphicTextEntity" class="algorithm" id="1oIK" text-anchor="start" x="1340" y="2090"/>
</g>
</g>
</g>
<g cb-alg-PVO="$1713$cb-alg-out$" cb-alg-PVh="$1713$cb-alg-out$" cb-algorithm-id="00F" cb-classname="FastBooleanAlgorithm" cb-function-name="AND" cb-modify-id="00000001" id="1oIf">
<rect cb-classname="GraphicRectangleEntity" class="algorithm" height="60" id="1oIU" width="80" x="1920" y="2140"/>
<text baseline-shift="-50%" cb-classname="GraphicTextEntity" class="algorithm" id="1oIO" text-anchor="middle" x="1960" y="2169">
AND
</text>
<line cb-classname="GraphicLineEntity" class="algorithmline" id="1oIZ" x1="1920" x2="1920" y1="2110" y2="2230"/>
<g cb-classname="ControlPin" cb-pin-name="bq-755-Db2" id="1oqc">
<line cb-classname="GraphicLineEntity" class="signalline" id="1oqF" x1="1900" x2="1920" y1="2130" y2="2130"/>
<polygon cb-classname="GraphicPolygonEntity" class="signal" id="1oqN" points="1920,2130 1909,2126 1909,2134"/>
<g cb-classname="DynamicText" cb-source="Dz-u9m-VLqE" class="signal" id="1oql" text-anchor="end">
<text baseline-shift="5%" cb-classname="GraphicTextEntity" class="signal" fill="black" font-style="normal" font-weight="normal" id="1oqV" text-anchor="end" text-decoration="normal" x="1913" y="2122"/>
</g>
</g>
<g cb-classname="ControlPin" cb-pin-name="sn-5Tc-FUF" id="1oqK">
<line cb-classname="GraphicLineEntity" class="signalline" id="1oqf" x1="2000" x2="2020" y1="2170" y2="2170"/>
<g cb-classname="DynamicText" cb-source="i8-5mS-6RCt" class="signal" id="1oqU">
<text baseline-shift="5%" cb-classname="GraphicTextEntity" class="signal" fill="black" font-style="normal" font-weight="normal" id="1oqO" text-decoration="normal" x="2012" y="2162"/>
</g>
<g cb-classname="SignalSegment" id="1onV">
<g cb-classname="SignalConnection" cb-graphic-line="$1767$" cb-input-pin="$UmO8$" id="1onO"/>
<line cb-classname="GraphicLineEntity" class="signalline" id="1onU" stroke="#1e12bf" stroke-dasharray="5,4" x1="2020" x2="2390" y1="2170" y2="2170"/>
</g>
</g>
<g cb-classname="ControlPin" cb-pin-name="U3-2ao-Mi3" id="1oqZ">
<line cb-classname="GraphicLineEntity" class="signalline" id="1omc" x1="1900" x2="1920" y1="2210" y2="2210"/>
<polygon cb-classname="GraphicPolygonEntity" class="signal" id="1omF" points="1920,2210 1909,2206 1909,2214"/>
<g cb-classname="DynamicText" cb-source="et-hMi-VaXc" class="signal" id="1omN" text-anchor="end">
<text baseline-shift="5%" cb-classname="GraphicTextEntity" class="signal" fill="black" font-style="normal" font-weight="normal" id="1oml" text-anchor="end" text-decoration="normal" x="1910" y="2200"/>
</g>
</g>
<g cb-classname="ControlPin" cb-pin-name="ZY-sYk-ORs" id="1omV">
<line cb-classname="GraphicLineEntity" class="signalline" id="1omK" x1="1900" x2="1920" y1="2170" y2="2170"/>
<polygon cb-classname="GraphicPolygonEntity" class="signal" id="1omf" points="1920,2170 1909,2166 1909,2174"/>
<g cb-classname="DynamicText" cb-source="re-3iX-r29G" class="signal" id="1omU" text-anchor="end">
<text baseline-shift="5%" cb-classname="GraphicTextEntity" class="signal" fill="black" font-style="normal" font-weight="normal" id="1omO" text-anchor="end" text-decoration="normal" x="1910" y="2160"/>
</g>
</g>
</g>
<g cb-alg-DP_Z="0.005" cb-alg-DP_p="0.005" cb-alg-E8s="LOAD_CNTR_SP_MAX" cb-alg-ETo="$1736$cb-alg-out$" cb-alg-EdM="H0MAY10DE131XC33" cb-alg-Tjy="H0MAY10DE131XC03" cb-alg-Ts6MF="250" cb-alg-eGP39-0LJ="ON" cb-alg-eGP39-0jFy="ON" cb-alg-eGP39-6jyl="-999999999" cb-alg-eGP39-73ii="OFF" cb-alg-eGP39-SV="TRANSFER" cb-alg-eGP39-XHaq="42" cb-alg-eGP39-a4_9="0.000000" cb-alg-eGP39-a4_q="1.000000" cb-alg-eGP39-eJyl="999999999" cb-alg-eGP39-ecFn="2.500000" cb-alg-eGP39-ecFz="2.500000" cb-alg-eGP39-yvy9="0.000000" cb-alg-eGP39-yvyq="1.000000" cb-alg-eXpg9-6jyl="-999999999" cb-alg-eXpg9-SV="SUM" cb-alg-eXpg9-XHaq="84" cb-alg-eXpg9-eJyl="999999999" cb-alg-eXpg9-eToy="ON" cb-alg-eXpg9-ecaj="2.500000" cb-alg-eXpg9-tV59="0" cb-alg-eXpg9-tV5q="-1" cb-alg-eXpg9-tV89="0.000000" cb-alg-eXpg9-tV8q="1.000000" cb-alg-eXpg9-tVR9="0.000000" cb-alg-eXpg9-tVRq="1.000000" cb-alg-eXpg9-tVU9="0" cb-alg-eXpg9-tVUq="1" cb-alg-egEx9-5EDb="1.000000" cb-alg-egEx9-6HaG="0.000000" cb-alg-egEx9-6jyl="-999999999" cb-alg-egEx9-SV="GAINBIAS" cb-alg-egEx9-XHaq="76" cb-alg-egEx9-dcpH="OFF" cb-alg-egEx9-eJyl="999999999" cb-alg-egEx9-eToy="ON" cb-alg-egEx9-ecaj="2.500000" cb-alg-egPG9-6HaG="0.000000" cb-alg-egPG9-6jyl="-999999999" cb-alg-egPG9-SV="GAINBIAS" cb-alg-egPG9-XHaq="76" cb-alg-egPG9-dcpH="ON" cb-alg-egPG9-eJyl="999999999" cb-alg-egPG9-eToy="ON" cb-alg-egPG9-ecaj="2.500000" cb-alg-ej53XW-Er="DIVIDE" cb-alg-ej53XW-LDQZ="81" cb-alg-ej53XW-LibJ="0.000000" cb-alg-ej53XW-LibZ="1.000000" cb-alg-ej53XW-T0Gr="-999999999" cb-alg-ej53XW-VsXJ="0.000000" cb-alg-ej53XW-VsXZ="1.000000" cb-alg-ej53XW-jFQz="2.500000" cb-alg-ej53XW-jPUF="ON" cb-alg-ej53XW-jqGr="999999999" cb-alg-ej5GyW-Er="AVALGEN" cb-alg-ej5GyW-LDQZ="65" cb-alg-ej5OXW-Er="DIVIDE" cb-alg-ej5OXW-LDQZ="81" cb-alg-ej5OXW-LibJ="0.000000" cb-alg-ej5OXW-LibZ="1.000000" cb-alg-ej5OXW-T0Gr="-999999999" cb-alg-ej5OXW-VsXJ="0.000000" cb-alg-ej5OXW-VsXZ="1.000000" cb-alg-ej5OXW-jFQz="2.500000" cb-alg-ej5OXW-jPUF="ON" cb-alg-ej5OXW-jqGr="999999999" cb-alg-ej5xTW-Er="MULTIPLY" cb-alg-ej5xTW-HrnJ="0.000000" cb-alg-ej5xTW-HrnZ="1.000000" cb-alg-ej5xTW-HrzJ="0.000000" cb-alg-ej5xTW-HrzZ="1.000000" cb-alg-ej5xTW-LDQZ="82" cb-alg-ej5xTW-T0Gr="-999999999" cb-alg-ej5xTW-jFQz="2.500000" cb-alg-ej5xTW-jPUF="ON" cb-alg-ej5xTW-jqGr="999999999" cb-alg-ejHl9-6jyl="-999999999" cb-alg-ejHl9-SV="SUM" cb-alg-ejHl9-XHaq="84" cb-alg-ejHl9-eJyl="999999999" cb-alg-ejHl9-eToy="ON" cb-alg-ejHl9-ecaj="2.500000" cb-alg-ejHl9-tV59="0" cb-alg-ejHl9-tV5q="1" cb-alg-ejHl9-tV89="0.000000" cb-alg-ejHl9-tV8q="1.000000" cb-alg-ejHl9-tVR9="0.000000" cb-alg-ejHl9-tVRq="1.000000" cb-alg-ejHl9-tVU9="0" cb-alg-ejHl9-tVUq="1" cb-alg-ejpG9-SV="LOWMON" cb-alg-ejpG9-XHaq="60" cb-alg-ejpG9-Y4Y9="0.001" cb-alg-ejpG9-Y4yZ="0.01" cb-alg-erH39-SV="AVALGEN" cb-alg-erH39-XHaq="65" cb-alg-erH39-vEoF="0" cb-alg-ernx9-SV="AVALGEN" cb-alg-ernx9-XHaq="65" cb-alg-ernx9-vEoF="0.01" cb-alg-erpl9-0LJ="ON" cb-alg-erpl9-0jFy="ON" cb-alg-erpl9-6jyl="-999999999" cb-alg-erpl9-73ii="OFF" cb-alg-erpl9-SV="TRANSFER" cb-alg-erpl9-XHaq="42" cb-alg-erpl9-a4_9="0.000000" cb-alg-erpl9-a4_q="1.000000" cb-alg-erpl9-eJyl="999999999" cb-alg-erpl9-ecFn="2.500000" cb-alg-erpl9-ecFz="2.500000" cb-alg-erpl9-yvy9="0.000000" cb-alg-erpl9-yvyq="1.000000" cb-alg-evBO9-SV="HIGHLOWMON" cb-alg-evBO9-XHaq="74" cb-alg-evBO9-Y4Y9="0.005" cb-alg-evBO9-sHY9="0.005" cb-alg-hArDt="0.01" cb-alg-oV="$1540$cb-alg-out$" cb-alg-oV8="$1511$cb-alg-out$" cb-algorithm-id="005" cb-classname="ControlMacroReference" cb-function-name="SP_DCS" cb-macro-crc="49798" cb-modify-id="00000001" id="1dlc">
<rect cb-classname="GraphicRectangleEntity" class="algorithm" height="70" id="1dlF" width="90" x="2410" y="2140"/>
<text baseline-shift="0%" cb-classname="GraphicTextEntity" class="annotation" fill="#000000" font-family="MS Shell Dlg 2" font-size="16" id="1dlN" x="2420" y="2180">
DCS_SP
</text>
<g cb-classname="GraphicShape" id="1eON">
<g cb-classname="DynamicText" cb-labeled="true" cb-source="xv-47V-eV_L" id="1eOl">
<text cb-classname="GraphicTextEntity" class="algorithm" id="1eOV" text-anchor="start" x="2500" y="2040"/>
</g>
<g cb-classname="DynamicText" cb-labeled="true" cb-source="Pj-LhD-Z3_Y" id="1eOK">
<text cb-classname="GraphicTextEntity" class="algorithm" id="1eOf" text-anchor="start" x="2500" y="2070"/>
</g>
<g cb-classname="DynamicText" cb-labeled="true" cb-source="mi-sXM-5tWDj" id="1eOU">
<text cb-classname="GraphicTextEntity" class="algorithm" id="1eOO" text-anchor="start" x="2500" y="2100"/>
</g>
</g>
<g cb-classname="GraphicShape" id="1ovK">
<g cb-classname="DynamicText" cb-labeled="true" cb-source="i8-aJr-4RdpH" id="1ovf">
<text cb-classname="GraphicTextEntity" class="algorithm" id="1ovU" text-anchor="start" x="2510" y="2120"/>
</g>
</g>
<g cb-classname="ControlPin" cb-pin-name="et-ROp-2Jq" id="1dvl">
<line cb-classname="GraphicLineEntity" class="signalline" id="1dvV" x1="2390" x2="2410" y1="2170" y2="2170"/>
<polygon cb-classname="GraphicPolygonEntity" class="signal" id="1dvK" points="2410,2170 2398,2164 2398,2175"/>
<g cb-classname="DynamicText" cb-source="cN-Rhy-Xasw" id="1dvf">
<text cb-classname="GraphicTextEntity" class="signal" id="1dvU" text-anchor="end" x="2386" y="2167"/>
</g>
</g>
<g cb-classname="ControlPin" cb-pin-name="i8-aJr-mz" id="1dlO">
<line cb-classname="GraphicLineEntity" class="signalline" id="1dlZ" x1="2480" x2="2480" y1="2120" y2="2140"/>
<polygon cb-classname="GraphicPolygonEntity" class="signal" id="1dvc" points="2480,2140 2485,2129 2474,2129"/>
<g cb-classname="DynamicText" cb-source="mi-ID1-iSWi" id="1dvF">
<text cb-classname="GraphicTextEntity" class="signal" id="1dvN" text-anchor="start" transform="translate(2477,2125)rotate(-90)"/>
</g>
</g>
<g cb-classname="ControlPin" cb-pin-name="cN-wNR-ebd" id="1dll">
<line cb-classname="GraphicLineEntity" class="signalline" id="1dlV" x1="2420" x2="2420" y1="2120" y2="2140"/>
<polygon cb-classname="GraphicPolygonEntity" class="signal" id="1dlK" points="2420,2140 2425,2129 2414,2129"/>
<g cb-classname="DynamicText" cb-source="sn-bPV-Ssr8" id="1dlf">
<text cb-classname="GraphicTextEntity" class="signal" id="1dlU" text-anchor="start" transform="translate(2417,2125)rotate(-90)"/>
</g>
</g>
<g cb-classname="ControlPin" cb-pin-name="cN-wNR-SYE" id="1o5V">
<line cb-classname="GraphicLineEntity" class="signalline" id="1o5K" x1="2500" x2="2520" y1="2210" y2="2210"/>
<g cb-classname="DynamicText" cb-source="re-3iX-r29G" id="1o5f">
<text cb-classname="GraphicTextEntity" class="signal" id="1o5U" text-anchor="start" x="2514" y="2207"/>
</g>
<g cb-classname="SignalSegment" id="1CnK">
<line cb-classname="GraphicLineEntity" class="signalline" id="1Cnf" stroke="#1e12bf" stroke-dasharray="5,4" x1="2520" x2="2990" y1="2210" y2="2210"/>
<g cb-classname="SignalSegment" id="1CnU">
<line cb-classname="GraphicLineEntity" class="signalline" id="1CnO" stroke="#1e12bf" stroke-dasharray="5,4" x1="2990" x2="2990" y1="2210" y2="2310"/>
<g cb-classname="SignalSegment" id="1CnZ">
<line cb-classname="GraphicLineEntity" class="signalline" id="1Clc" stroke="#1e12bf" stroke-dasharray="5,4" x1="2990" x2="3650" y1="2310" y2="2310"/>
<g cb-classname="SignalConnection" cb-graphic-line="$1870$" cb-input-pin="$lTAL$" id="1ClF"/>
</g>
</g>
</g>
</g>
<g cb-classname="ControlPin" cb-pin-name="re-6gb-dST" id="1dvO">
<line cb-classname="GraphicLineEntity" class="signalline" id="1dvZ" x1="2500" x2="2520" y1="2170" y2="2170"/>
<g cb-classname="DynamicText" cb-source="xv-c4r-d7PF" id="1d5c">
<text cb-classname="GraphicTextEntity" class="signal" id="1d5F" text-anchor="start" x="2514" y="2167"/>
</g>
<g cb-classname="SignalSegment" id="1d5N">
<g cb-classname="SignalConnection" cb-graphic-line="$1594$" cb-input-pin="$Yqcv$" id="1d5l"/>
<line cb-classname="GraphicLineEntity" class="signalline" id="1d5V" stroke="#1e12bf" stroke-dasharray="5,4" x1="2520" x2="3650" y1="2170" y2="2170"/>
</g>
</g>
<g cb-classname="ControlPin" cb-pin-name="PZ-7pn-guE" id="1d5K">
<line cb-classname="GraphicLineEntity" class="signalline" id="1d5f" x1="2450" x2="2450" y1="2210" y2="2230"/>
<g cb-classname="DynamicText" cb-source="bq-Aza-rQvb" id="1d5U">
<text cb-classname="GraphicTextEntity" class="signal" id="1d5O" text-anchor="end" transform="translate(2447,2224)rotate(-90)"/>
</g>
<g cb-classname="SignalSegment" id="1d5Z">
<g cb-classname="SignalConnection" cb-graphic-line="$1601$" cb-input-pin="$jfjJ$" id="1eOc"/>
<line cb-classname="GraphicLineEntity" class="signalline" id="1eOF" x1="2450" x2="2450" y1="2230" y2="2420"/>
</g>
</g>
</g>
<g cb-alg-Vd="$1570$cb-alg-xnf$" cb-algorithm-id="006" cb-classname="ExternalPointInterface" cb-function-name="OUTPUT" id="1eOZ">
<ellipse cb-classname="GraphicEllipseEntity" class="algorithm" cx="3710" cy="2170" id="1ejc" rx="40" ry="40"/>
<rect cb-classname="GraphicRectangleEntity" class="algorithm" height="80" id="1ejF" width="30" x="3750" y="2130"/>
<line cb-classname="GraphicLineEntity" class="algorithm" id="1ejN" x1="3750" x2="3780" y1="2170" y2="2170"/>
<g cb-classname="PointStatusIndicator" cb-indicator-type="highway" cb-source="Dz-pMM-4r" id="1ejl" visibility="hidden">
<line cb-classname="GraphicLineEntity" class="algorithmline" id="1ejV" x1="3670" x2="3710" y1="2170" y2="2130"/>
<line cb-classname="GraphicLineEntity" class="algorithmline" id="1ejK" x1="3710" x2="3750" y1="2130" y2="2170"/>
<line cb-classname="GraphicLineEntity" class="algorithmline" id="1ejf" x1="3750" x2="3710" y1="2170" y2="2210"/>
<line cb-classname="GraphicLineEntity" class="algorithmline" id="1ejU" x1="3710" x2="3670" y1="2210" y2="2170"/>
</g>
<g cb-classname="PointStatusIndicator" cb-indicator-type="hardware" cb-source="Pj-LhD-Dd" id="1ejO" visibility="hidden">
<line cb-classname="GraphicLineEntity" class="algorithmline" id="1ejZ" x1="3750" x2="3670" y1="2130" y2="2130"/>
<line cb-classname="GraphicLineEntity" class="algorithmline" id="1e0c" x1="3670" x2="3670" y1="2130" y2="2210"/>
<line cb-classname="GraphicLineEntity" class="algorithmline" id="1e0F" x1="3670" x2="3750" y1="2210" y2="2210"/>
</g>
<g cb-classname="PointStatusIndicator" cb-indicator-type="alarm" cb-source="et-ROp-Hr" id="1e0N" visibility="hidden">
<text cb-classname="GraphicTextEntity" class="algorithm" fill="#000000" font-family="Arial" font-size="20" id="1e0l" x="3757" y="2159">
A
</text>
</g>
<g cb-classname="PointStatusIndicator" cb-indicator-type="ingraphic" cb-source="ZY-sYk-OR" id="1e0V" visibility="hidden">
<text cb-classname="GraphicTextEntity" class="algorithm" fill="#000000" font-family="Arial" font-size="20" id="1e0K" x="3755" y="2200">
G
</text>
</g>
<g cb-classname="DynamicText" cb-labeled="false" cb-pin-name="Bd" cb-source="Dz-pMM-4r" class="algorithm" id="1e0f" text-anchor="end">
<text baseline-shift="0%" cb-classname="GraphicTextEntity" class="algorithm" fill="black" font-family="Arial" font-size="20" font-style="normal" font-weight="normal" id="1e0U" text-anchor="end" text-decoration="normal" x="3647" y="2149"/>
</g>
<g baseline-shift="-100%" cb-anchor-x="3648" cb-anchor-y="2186" cb-classname="PointReferences" cb-max-width="240" cb-originator="false" cb-source="sn-5Tc-Vd" class="signal" id="1e0O" text-anchor="end">
<text baseline-shift="-100%" cb-classname="GraphicTextEntity" class="algorithm" id="1e0Z" text-anchor="end" x="3648" y="2186">
1/0012 99/905
</text>
</g>
<g baseline-shift="-50%" cb-anchor-x="3801" cb-anchor-y="2168" cb-classname="PointDescription" cb-content="extended" cb-labeled="false" cb-max-width="240" cb-source="i8-aJr-D1" class="algorithm" id="1eIc" text-anchor="start">
<text baseline-shift="-50%" cb-classname="GraphicTextEntity" class="algorithm" id="1eIF" text-anchor="start" x="3801" y="2133">
Tracking bit of
</text>
<text baseline-shift="-50%" cb-classname="GraphicTextEntity" class="algorithm" id="1eIN" text-anchor="start" x="3801" y="2169">
maximum load
</text>
<text baseline-shift="-50%" cb-classname="GraphicTextEntity" class="algorithm" id="1olK" text-anchor="start" x="3801" y="2205">
setpoint ON
</text>
</g>
<g cb-classname="ControlPin" cb-pin-name="PZ-7pn-tV" id="1eIV">
<line cb-classname="GraphicLineEntity" class="signalline" id="1eIK" x1="3650" x2="3670" y1="2170" y2="2170"/>
<polygon cb-classname="GraphicPolygonEntity" class="signal" id="1eIf" points="3670,2170 3659,2164 3659,2175"/>
</g>
</g>
<g cb-alg-D1="$1570$cb-alg-xsw$" cb-algorithm-id="00A" cb-classname="ExternalPointInterface" cb-function-name="OUTPUT" id="1eIU">
<ellipse cb-classname="GraphicEllipseEntity" class="algorithm" cx="2450" cy="2480" id="1eIO" rx="40" ry="40"/>
<rect cb-classname="GraphicRectangleEntity" class="algorithm" height="30" id="1eIZ" rx="0" width="80" x="2410" y="2520"/>
<line cb-classname="GraphicLineEntity" class="algorithm" id="1eqc" x1="2450" x2="2450" y1="2520" y2="2550"/>
<g cb-classname="PointStatusIndicator" cb-indicator-type="hardware" cb-source="sn-5Tc-Vd" id="1eqF" visibility="hidden">
<line cb-classname="GraphicLineEntity" class="algorithmline" id="1eqN" x1="2410" x2="2410" y1="2520" y2="2440"/>
<line cb-classname="GraphicLineEntity" class="algorithmline" id="1eql" x1="2410" x2="2490" y1="2440" y2="2440"/>
<line cb-classname="GraphicLineEntity" class="algorithmline" id="1eqV" x1="2490" x2="2490" y1="2440" y2="2520"/>
</g>
<g cb-classname="PointStatusIndicator" cb-indicator-type="Highway" cb-source="U3-2ao-Mi" id="1eqK" visibility="hidden">
<line cb-classname="GraphicLineEntity" class="algorithmline" id="1eqf" x1="2410" x2="2450" y1="2480" y2="2440"/>
<line cb-classname="GraphicLineEntity" class="algorithmline" id="1eqU" x1="2450" x2="2490" y1="2440" y2="2480"/>
<line cb-classname="GraphicLineEntity" class="algorithmline" id="1eqO" x1="2490" x2="2450" y1="2480" y2="2520"/>
<line cb-classname="GraphicLineEntity" class="algorithmline" id="1eqZ" x1="2450" x2="2410" y1="2520" y2="2480"/>
</g>
<g cb-classname="PointStatusIndicator" cb-indicator-type="alarm" cb-source="ZY-sYk-OR" id="1emc" visibility="hidden">
<text cb-classname="GraphicTextEntity" class="algorithm" fill="#000000" font-family="Arial" font-size="20" id="1emF" x="2423" y="2544">
A
</text>
</g>
<g cb-classname="PointStatusIndicator" cb-indicator-type="ingraphic" cb-source="Dz-pMM-4r" id="1emN" visibility="hidden">
<text cb-classname="GraphicTextEntity" class="algorithm" fill="#000000" font-family="Arial" font-size="20" id="1eml" x="2460" y="2545">
G
</text>
</g>
<g baseline-shift="-100%" cb-anchor-x="2450" cb-anchor-y="2600" cb-classname="PointDescription" cb-content="extended" cb-labeled="false" cb-max-width="240" cb-source="sn-5Tc-Vd" class="algorithm" id="1emV" text-anchor="middle">
<text baseline-shift="-100%" cb-classname="GraphicTextEntity" class="algorithm" id="1emK" text-anchor="middle" x="2450" y="2600">
Maximum load
</text>
<text baseline-shift="-100%" cb-classname="GraphicTextEntity" class="algorithm" id="1emf" text-anchor="middle" x="2450" y="2636">
0.00 - 250 MW
</text>
</g>
<g cb-classname="DynamicText" cb-labeled="false" cb-pin-name="yF" cb-source="U3-2ao-Mi" class="algorithm" id="1emO" text-anchor="middle">
<text baseline-shift="-50%" cb-classname="GraphicTextEntity" class="algorithm" fill="black" font-family="Arial" font-size="20" font-style="normal" font-weight="normal" id="1emZ" text-anchor="middle" text-decoration="normal" x="2450" y="2570"/>
</g>
<g baseline-shift="0%" cb-anchor-x="2470" cb-anchor-y="2420" cb-classname="PointReferences" cb-max-width="240" cb-originator="false" cb-source="PZ-7pn-tV" class="signal" id="1enc" text-anchor="start">
<text baseline-shift="0%" cb-classname="GraphicTextEntity" class="algorithm" id="1enF" text-anchor="start" x="2470" y="2420">
1/1700
</text>
</g>
<g cb-classname="ControlPin" cb-pin-name="cN-wNR-PV" id="1enV">
<line cb-classname="GraphicLineEntity" class="signalline" id="1enK" x1="2450" x2="2450" y1="2420" y2="2440"/>
<polygon cb-classname="GraphicPolygonEntity" class="signal" id="1enf" points="2450,2440 2454,2429 2446,2429"/>
</g>
</g>
<g cb-alg-iX="$1570$cb-alg-r1q$" cb-algorithm-id="009" cb-classname="ExternalPointInterface" cb-function-name="OUTPUT" id="1C0f">
<ellipse cb-classname="GraphicEllipseEntity" class="algorithm" cx="3710" cy="2310" id="1C0U" rx="40" ry="40"/>
<rect cb-classname="GraphicRectangleEntity" class="algorithm" height="80" id="1C0O" width="30" x="3750" y="2270"/>
<line cb-classname="GraphicLineEntity" class="algorithm" id="1C0Z" x1="3750" x2="3780" y1="2310" y2="2310"/>
<g cb-classname="PointStatusIndicator" cb-indicator-type="highway" cb-source="et-ROp-Hr" id="1CIc" visibility="hidden">
<line cb-classname="GraphicLineEntity" class="algorithmline" id="1CIF" x1="3670" x2="3710" y1="2310" y2="2270"/>
<line cb-classname="GraphicLineEntity" class="algorithmline" id="1CIN" x1="3710" x2="3750" y1="2270" y2="2310"/>
<line cb-classname="GraphicLineEntity" class="algorithmline" id="1CIl" x1="3750" x2="3710" y1="2310" y2="2350"/>
<line cb-classname="GraphicLineEntity" class="algorithmline" id="1CIV" x1="3710" x2="3670" y1="2350" y2="2310"/>
</g>
<g cb-classname="PointStatusIndicator" cb-indicator-type="hardware" cb-source="re-6gb-mS" id="1CIK" visibility="hidden">
<line cb-classname="GraphicLineEntity" class="algorithmline" id="1CIf" x1="3750" x2="3670" y1="2270" y2="2270"/>
<line cb-classname="GraphicLineEntity" class="algorithmline" id="1CIU" x1="3670" x2="3670" y1="2270" y2="2350"/>
<line cb-classname="GraphicLineEntity" class="algorithmline" id="1CIO" x1="3670" x2="3750" y1="2350" y2="2350"/>
</g>
<g cb-classname="PointStatusIndicator" cb-indicator-type="alarm" cb-source="Pj-LhD-Dd" id="1CIZ" visibility="hidden">
<text cb-classname="GraphicTextEntity" class="algorithm" fill="#000000" font-family="Arial" font-size="20" id="1Cqc" x="3757" y="2299">
A
</text>
</g>
<g cb-classname="PointStatusIndicator" cb-indicator-type="ingraphic" cb-source="mi-sXM-za" id="1CqF" visibility="hidden">
<text cb-classname="GraphicTextEntity" class="algorithm" fill="#000000" font-family="Arial" font-size="20" id="1CqN" x="3755" y="2340">
G
</text>
</g>
<g cb-classname="DynamicText" cb-labeled="false" cb-pin-name="du" cb-source="et-ROp-Hr" class="algorithm" id="1Cql" text-anchor="end">
<text baseline-shift="0%" cb-classname="GraphicTextEntity" class="algorithm" fill="black" font-family="Arial" font-size="20" font-style="normal" font-weight="normal" id="1CqV" text-anchor="end" text-decoration="normal" x="3647" y="2289"/>
</g>
<g baseline-shift="-100%" cb-anchor-x="3648" cb-anchor-y="2326" cb-classname="PointReferences" cb-max-width="240" cb-originator="false" cb-source="ZY-sYk-OR" class="signal" id="1CqK" text-anchor="end">
<text baseline-shift="-100%" cb-classname="GraphicTextEntity" class="algorithm" id="1Cqf" text-anchor="end" x="3648" y="2326">
1/0014
</text>
</g>
<g baseline-shift="-50%" cb-anchor-x="3801" cb-anchor-y="2308" cb-classname="PointDescription" cb-content="extended" cb-labeled="false" cb-max-width="240" cb-source="re-6gb-mS" class="algorithm" id="1CqO" text-anchor="start">
<text baseline-shift="-50%" cb-classname="GraphicTextEntity" class="algorithm" id="1CqZ" text-anchor="start" x="3801" y="2273">
Release for
</text>
<text baseline-shift="-50%" cb-classname="GraphicTextEntity" class="algorithm" id="1Cmc" text-anchor="start" x="3801" y="2309">
maximum load
</text>
<text baseline-shift="-50%" cb-classname="GraphicTextEntity" class="algorithm" id="1ClK" text-anchor="start" x="3801" y="2345">
setpoint ON
</text>
</g>
<g cb-classname="ControlPin" cb-pin-name="i8-aJr-D1" id="1CmF">
<line cb-classname="GraphicLineEntity" class="signalline" id="1CmN" x1="3650" x2="3670" y1="2310" y2="2310"/>
<polygon cb-classname="GraphicPolygonEntity" class="signal" id="1Cml" points="3670,2310 3659,2304 3659,2315"/>
</g>
</g>
</g>
<g cb-classname="IncludeDocument" cb-modify-time="09/25/2018 01:40:30" cb-objectname="frame" id="5">
<text cb-classname="GraphicTextEntity" class="frame" font-size="50" id="6" x="3660" y="3146">
Project Title &lt;Edit in FRAME.SVG&gt;
</text>
<g baseline-shift="-50%" cb-classname="DynamicText" cb-source="U3-1Lfh-zX" class="frame" id="7">
<text cb-classname="GraphicTextEntity" class="frame" fill="black" font-family="arial" font-size="25" font-style="normal" font-weight="normal" id="8" text-decoration="normal" x="4715" y="3325">
1
</text>
</g>
<g baseline-shift="-50%" cb-classname="DynamicText" cb-source="PZ-gWuk-HY" class="frame" id="9" text-anchor="middle">
<text cb-classname="GraphicTextEntity" class="frame" fill="black" font-family="arial" font-size="48" font-style="normal" font-weight="normal" id="1M" text-anchor="middle" text-decoration="normal" x="4900" y="3320">
1
</text>
</g>
<g baseline-shift="-50%" cb-classname="DynamicText" cb-source="bq-ts7m-Ou" class="frame" id="1U" text-anchor="middle">
<text cb-classname="GraphicTextEntity" class="frame" fill="black" font-family="arial" font-size="48" font-style="normal" font-weight="normal" id="1P" text-anchor="middle" text-decoration="normal" x="5067" y="3324">
2
</text>
</g>
<g cb-classname="DynamicText" cb-source="cN-mwzLI-lVMX8" class="frame" id="19">
<text cb-classname="GraphicTextEntity" class="frame" fill="black" font-family="arial" font-size="48" font-style="normal" font-weight="normal" id="1v" text-decoration="normal" x="3660" y="3224">
DCS setpoints - load min max SP
</text>
</g>
<g baseline-shift="-50%" cb-classname="DynamicText" cb-source="re-HoCAl-ddPvtf" class="frame" id="1d" text-anchor="middle">
<text cb-classname="GraphicTextEntity" class="frame" fill="black" font-family="arial" font-size="48" font-style="normal" font-weight="normal" id="1e" text-anchor="middle" text-decoration="normal" x="5270" y="3324">
0004
</text>
</g>
<g baseline-shift="0%" cb-classname="DynamicText" cb-source="xv-SAGV8DNd" class="frame" id="1o" text-anchor="middle">
<text cb-classname="GraphicTextEntity" class="frame" fill="black" font-family="arial" font-size="36" font-style="normal" font-weight="normal" id="1C" text-anchor="middle" text-decoration="normal" x="5270" y="3150">
A
</text>
</g>
<g baseline-shift="0%" cb-classname="DynamicText" cb-source="Pj-Cw2DJMQa-0Ovb" class="frame" id="1I" text-anchor="middle">
<text cb-classname="GraphicTextEntity" class="frame" fill="black" font-family="arial" font-size="20" font-style="normal" font-weight="normal" id="2M" text-anchor="middle" text-decoration="normal" x="5270" y="3230">
04/16/2020
</text>
</g>
<g baseline-shift="-50%" cb-classname="DynamicText" cb-source="mi-E6MMiHvF" class="frame" id="2U" text-anchor="end">
<text cb-classname="GraphicTextEntity" class="frame" fill="black" font-family="arial" font-size="26" font-style="normal" font-weight="normal" id="2P" text-anchor="end" text-decoration="normal" x="4500" y="3420">

</text>
</g>
<g baseline-shift="-50%" cb-classname="DynamicText" cb-source="et-WFHtvExY" class="frame" id="29" text-anchor="end">
<text cb-classname="GraphicTextEntity" class="frame" fill="black" font-family="arial" font-size="26" font-style="normal" font-weight="normal" id="2v" text-anchor="end" text-decoration="normal" x="5353" y="3420">

</text>
</g>
<g cb-classname="GraphicShape" cb-tag="BORDER" id="2d">
<line cb-classname="GraphicLineEntity" class="frameline" id="2e" x1="40" x2="40" y1="40" y2="3460"/>
<line cb-classname="GraphicLineEntity" class="frameline" id="2o" x1="40" x2="5380" y1="3460" y2="3460"/>
<line cb-classname="GraphicLineEntity" class="frameline" id="2C" x1="5380" x2="5380" y1="3460" y2="40"/>
<line cb-classname="GraphicLineEntity" class="frameline" id="2I" x1="5380" x2="40" y1="40" y2="40"/>
<line cb-classname="GraphicLineEntity" class="frame" id="3M" x1="5430" x2="5440" y1="3510" y2="3510"/>
</g>
<g cb-classname="GraphicShape" cb-tag="TITLE BOX" id="3U">
<line cb-classname="GraphicLineEntity" class="frameline" id="3P" x1="2340" x2="2340" y1="3080" y2="3460"/>
<line cb-classname="GraphicLineEntity" class="frameline" id="39" x1="2340" x2="5380" y1="3080" y2="3080"/>
<line cb-classname="GraphicLineEntity" class="frameline" id="3v" x1="3650" x2="3650" y1="3460" y2="3080"/>
<line cb-classname="GraphicLineEntity" class="frameline" id="3d" x1="3650" x2="5380" y1="3240" y2="3240"/>
<line cb-classname="GraphicLineEntity" class="frameline" id="3e" x1="3650" x2="5380" y1="3390" y2="3390"/>
<line cb-classname="GraphicLineEntity" class="frameline" id="3o" x1="3650" x2="5380" y1="3160" y2="3160"/>
<line cb-classname="GraphicLineEntity" class="frameline" id="3C" x1="3650" x2="4520" y1="3320" y2="3320"/>
<line cb-classname="GraphicLineEntity" class="frameline" id="3I" x1="4520" x2="5380" y1="3290" y2="3290"/>
<line cb-classname="GraphicLineEntity" class="frameline" id="4M" x1="4520" x2="5380" y1="3240" y2="3240"/>
<line cb-classname="GraphicLineEntity" class="frameline" id="4U" x1="4520" x2="4520" y1="3240" y2="3460"/>
<line cb-classname="GraphicLineEntity" class="frameline" id="4P" x1="4810" x2="4810" y1="3240" y2="3390"/>
<line cb-classname="GraphicLineEntity" class="frameline" id="49" x1="4990" x2="4990" y1="3240" y2="3390"/>
<line cb-classname="GraphicLineEntity" class="frameline" id="4v" x1="5150" x2="5150" y1="3080" y2="3390"/>
</g>
<g cb-classname="GraphicShape" cb-tag="TEXT LABELS" id="4d">
<text baseline-shift="-50%" cb-classname="GraphicTextEntity" class="frame" font-size="25" id="4e" text-anchor="middle" x="4890" y="3252">
Drop
</text>
<text baseline-shift="-50%" cb-classname="GraphicTextEntity" class="frame" font-size="25" id="4o" text-anchor="middle" x="5075" y="3252">
Task
</text>
<text baseline-shift="-50%" cb-classname="GraphicTextEntity" class="frame" font-size="25" id="4C" text-anchor="middle" x="5265" y="3252">
Sheet
</text>
<text cb-classname="GraphicTextEntity" class="frame" font-size="25" id="4I" x="5152" y="3107">
Rev.
</text>
<text cb-classname="GraphicTextEntity" class="frame" font-size="25" id="5M" x="3653" y="3418">
Engineer
</text>
<text cb-classname="GraphicTextEntity" class="frame" font-size="25" id="5U" x="4528" y="3419">
Approved
</text>
<text cb-classname="GraphicTextEntity" class="frame" font-size="25" id="5P" x="5152" y="3187">
Date
</text>
<text baseline-shift="-50%" cb-classname="GraphicTextEntity" class="frame" font-size="25" id="59" text-anchor="middle" x="4660" y="3252">
Drawing Number
</text>
<text baseline-shift="-50%" cb-classname="GraphicTextEntity" class="frame" font-size="25" id="5v" text-anchor="middle" x="4680" y="3325">
CTL
</text>
</g>
<text baseline-shift="-50%" cb-classname="GraphicTextEntity" class="frame" font-size="48" id="5d" text-anchor="middle" x="3000" y="3100">
EMERSON PROCESS MANAGEMENT
</text>
<g baseline-shift="-100%" cb-anchor-x="2360" cb-anchor-y="3140" cb-classname="GroupText" cb-max-width="1260" fill="black" id="5e">
<text baseline-shift="-100%" cb-classname="GraphicTextEntity" class="frame" fill="black" font-family="arial" font-size="22" font-weight="normal" id="5o" text-anchor="start" text-decoration="normal" x="2360" y="3140">
THIS DOCUMENT CONTAINS INFORMATION PROPRIETARY TO EMERSON PROCESS
</text>
<text baseline-shift="-100%" cb-classname="GraphicTextEntity" class="frame" fill="black" font-family="arial" font-size="22" font-weight="normal" id="5C" text-anchor="start" text-decoration="normal" x="2360" y="3176">
MANAGEMENT POWER &amp; WATER SOLUTIONS, INC. IT IS SUBMITTED IN CONFIDENCE AND
</text>
<text baseline-shift="-100%" cb-classname="GraphicTextEntity" class="frame" fill="black" font-family="arial" font-size="22" font-weight="normal" id="5I" text-anchor="start" text-decoration="normal" x="2360" y="3212">
TRUST, IS TO BE USED BY YOU SOLELY FOR THE PURPOSES FOR WHICH IT IS
</text>
<text baseline-shift="-100%" cb-classname="GraphicTextEntity" class="frame" fill="black" font-family="arial" font-size="22" font-weight="normal" id="6M" text-anchor="start" text-decoration="normal" x="2360" y="3248">
FURNISHED AND IS TO BE RETURNED UPON REQUEST. THIS DOCUMENT AND ANY
</text>
<text baseline-shift="-100%" cb-classname="GraphicTextEntity" class="frame" fill="black" font-family="arial" font-size="22" font-weight="normal" id="6U" text-anchor="start" text-decoration="normal" x="2360" y="3284">
OTHER INFORMATION PROVIDED TO YOU IS NOT TO BE REPRODUCED, TRANSMITTED,
</text>
<text baseline-shift="-100%" cb-classname="GraphicTextEntity" class="frame" fill="black" font-family="arial" font-size="22" font-weight="normal" id="6P" text-anchor="start" text-decoration="normal" x="2360" y="3320">
DISCLOSED, OR USED OTHERWISE IN WHOLE OR IN PART WITHOUT THE PRIOR
</text>
<text baseline-shift="-100%" cb-classname="GraphicTextEntity" class="frame" fill="black" font-family="arial" font-size="22" font-weight="normal" id="69" text-anchor="start" text-decoration="normal" x="2360" y="3356">
WRITTEN AUTHORIZATION OF EMERSON PROCESS MANAGEMENT POWER &amp; WATER
</text>
<text baseline-shift="-100%" cb-classname="GraphicTextEntity" class="frame" fill="black" font-family="arial" font-size="22" font-weight="normal" id="6v" text-anchor="start" text-decoration="normal" x="2360" y="3392">
SOLUTIONS,INC.
</text>
</g>
</g>
</svg>