<?xml version="1.0" ?><svg cb-auto-time="11/21/2009 13:29:03" cb-classname="ControlFunction" cb-create-time="05/14/2008" cb-drop-id="11" cb-engineer="Heczko" cb-filename="Z:\OVATION\NET0\UNIT0\CONTROLFUNCTIONS\0086.svg" cb-function-id="0086" cb-key="511234244332" cb-modified-timestamp="1489319773" cb-modify-id="00000004" cb-ortho-mode="enabled" cb-path="Z:/OVATION/NET0/UNIT0/CONTROLFUNCTIONS" cb-reviewer="Nemec" cb-revision="A" cb-revision-time="12/27/2010" cb-sheet-number="133" cb-sheet-title="TURNG GEAR LUB OIL SUPL VLV-T0700D04" cb-snap-grid="10" cb-task-id="4" height="3707" id="1" width="5450" xmlns="http://www.w3.org/2000/svg">
<style cb-classname="EntityStyle" id="2" type="text/css">
	.algorithm { fill: white; stroke: black; stroke-linecap: round; stroke-width: 2 }
	.algorithm-function { fill: none; stroke: black; stroke-linecap: round; stroke-width: 2 }
	.algorithm-functionline { fill: none; stroke: black; stroke-linecap: round; stroke-width: 2 }
	.algorithm-name { fill: none; stroke: black; stroke-linecap: round; stroke-width: 2 }
	.algorithm-nameline { fill: none; stroke: black; stroke-linecap: round; stroke-width: 2 }
	.algorithm-sequence { fill: none; stroke: black; stroke-linecap: round; stroke-width: 2 }
	.algorithm-sequenceline { fill: none; stroke: black; stroke-linecap: round; stroke-width: 2 }
	.algorithmline { fill: none; stroke: black; stroke-linecap: round; stroke-width: 2 }
	.annotation { fill: none; stroke: black; stroke-linecap: round; stroke-width: 2 }
	.annotationline { fill: none; stroke: black; stroke-linecap: round; stroke-width: 2 }
	.frame { fill: none; stroke: black; stroke-linecap: round; stroke-width: 2 }
	.frameline { fill: none; stroke: black; stroke-linecap: round; stroke-width: 2 }
	.signal { fill: black; stroke: black; stroke-linecap: round; stroke-width: 2 }
	.signalline { fill: none; stroke: black; stroke-linecap: round; stroke-width: 2 }
	text.algorithm { fill: black; font-family: MS Shell Dlg 2; font-size: 14; stroke: none }
	text.algorithm-function { fill: black; font-family: MS Shell Dlg 2; font-size: 16; stroke: none }
	text.algorithm-name { fill: black; font-family: MS Shell Dlg 2; font-size: 16; stroke: none }
	text.algorithm-sequence { fill: black; font-family: MS Shell Dlg 2; font-size: 16; stroke: none }
	text.annotation { fill: black; font-family: MS Shell Dlg 2; font-size: 16; stroke: none }
	text.frame { fill: black; font-family: MS Shell Dlg 2; font-size: 16; stroke: none }
	text.signal { fill: black; font-family: MS Shell Dlg 2; font-size: 12; stroke: none }
</style>
<g cb-classname="NamedObject" cb-objectname="Comments" id="3">
<text cb-classname="GraphicTextEntity" class="annotation" fill="#000000" font-family="MS Shell Dlg 2" font-size="72" id="6v" x="3210" y="1430">
PCMS1-2
</text>
</g>
<g cb-classname="AlgorithmContainer" cb-objectname="Algorithms" id="4">
<g cb-alg-2R7G="5" cb-alg-FpHG="128" cb-alg-XW3="01T0700D04-KB" cb-algorithm-id="002" cb-classname="ControlAlgorithm" cb-function-name="KEYBOARD" cb-modify-id="00000001" id="6h">
<rect cb-classname="GraphicRectangleEntity" class="annotation" height="200" id="6g" stroke-width="1" width="140" x="1920" y="380"/>
<g cb-classname="ControlPin" cb-pin-name="VD-rtt-XK3x" id="6s">
<line cb-classname="GraphicLineEntity" class="signalline" id="6I" x1="2060" x2="2070" y1="390" y2="390"/>
<g cb-classname="DynamicText" cb-source="hz-LIp-TQ07" class="signal" id="78" text-anchor="start">
<text cb-classname="GraphicTextEntity" class="signal" fill="black" font-style="normal" font-weight="normal" id="7K" text-anchor="start" text-decoration="normal" x="2074" y="387"/>
</g>
<g cb-classname="SignalSegment" id="7W">
<line cb-classname="GraphicLineEntity" class="signalline" id="7R" stroke="#1e12bf" stroke-dasharray="5,4" x1="2070" x2="2790" y1="390" y2="390"/>
<g cb-classname="SignalSegment" id="7B">
<line cb-classname="GraphicLineEntity" class="signalline" id="7v" stroke="#1e12bf" stroke-dasharray="5,4" x1="2790" x2="2790" y1="390" y2="610"/>
<g cb-classname="SignalSegment" id="7h">
<line cb-classname="GraphicLineEntity" class="signalline" id="7g" stroke="#1e12bf" stroke-dasharray="5,4" x1="2790" x2="2950" y1="610" y2="610"/>
<g cb-classname="SignalConnection" cb-graphic-line="$77$" cb-input-pin="$RGy$" id="7s"/>
</g>
</g>
</g>
</g>
<g cb-classname="ControlPin" cb-pin-name="ND-IgF-IxXM" id="7I">
<line cb-classname="GraphicLineEntity" class="signalline" id="88" x1="2060" x2="2070" y1="410" y2="410"/>
<g cb-classname="DynamicText" cb-source="VD-mM7-p9nK" class="signal" id="8K" text-anchor="start">
<text cb-classname="GraphicTextEntity" class="signal" fill="black" font-style="normal" font-weight="normal" id="8W" text-anchor="start" text-decoration="normal" x="2074" y="407"/>
</g>
<g cb-classname="SignalSegment" id="8R">
<line cb-classname="GraphicLineEntity" class="signalline" id="8B" stroke="#1e12bf" stroke-dasharray="5,4" x1="2070" x2="2760" y1="410" y2="410"/>
<g cb-classname="SignalSegment" id="8v">
<line cb-classname="GraphicLineEntity" class="signalline" id="8h" stroke="#1e12bf" stroke-dasharray="5,4" x1="2760" x2="2760" y1="410" y2="650"/>
<g cb-classname="SignalSegment" id="8g">
<line cb-classname="GraphicLineEntity" class="signalline" id="8s" stroke="#1e12bf" stroke-dasharray="5,4" x1="2760" x2="2950" y1="650" y2="650"/>
<g cb-classname="SignalConnection" cb-graphic-line="$88$" cb-input-pin="$FP5$" id="8I"/>
</g>
</g>
</g>
</g>
<g cb-classname="ControlPin" cb-pin-name="EX-iH5-Bz0Q" id="98">
<line cb-classname="GraphicLineEntity" class="signalline" id="9K" x1="2060" x2="2070" y1="430" y2="430"/>
<g cb-classname="DynamicText" cb-source="ND-Buk-7aAQ" class="signal" id="9W" text-anchor="start">
<text cb-classname="GraphicTextEntity" class="signal" fill="black" font-style="normal" font-weight="normal" id="9R" text-anchor="start" text-decoration="normal" x="2074" y="427"/>
</g>
</g>
<g cb-classname="ControlPin" cb-pin-name="Ud-QhF-Bji" id="18m">
<line cb-classname="GraphicLineEntity" class="signalline" id="18l" x1="2060" x2="2070" y1="450" y2="450"/>
<g cb-classname="DynamicText" cb-source="EX-r38-ian9" class="signal" id="18a" text-anchor="start">
<text cb-classname="GraphicTextEntity" class="signal" fill="black" font-style="normal" font-weight="normal" id="18y" text-anchor="start" text-decoration="normal" x="2074" y="447"/>
</g>
</g>
<g cb-classname="ControlPin" cb-pin-name="I8-95q-rRK" id="1Kl">
<line cb-classname="GraphicLineEntity" class="signalline" id="1Ka" x1="2060" x2="2070" y1="480" y2="480"/>
<g cb-classname="DynamicText" cb-source="Ud-9qM-8jdG" class="signal" id="1Ky" text-anchor="start">
<text cb-classname="GraphicTextEntity" class="signal" fill="black" font-style="normal" font-weight="normal" id="1K2" text-anchor="start" text-decoration="normal" x="2074" y="477"/>
</g>
<g cb-classname="SignalSegment" id="1KN">
<line cb-classname="GraphicLineEntity" class="signalline" id="1KG" stroke="#1e12bf" stroke-dasharray="5,4" x1="2070" x2="2670" y1="480" y2="480"/>
<g cb-classname="SignalSegment" id="1Kn">
<line cb-classname="GraphicLineEntity" class="signalline" id="1KM" stroke="#1e12bf" stroke-dasharray="5,4" x1="2670" x2="2670" y1="480" y2="770"/>
<g cb-classname="SignalSegment" id="1W0">
<line cb-classname="GraphicLineEntity" class="signalline" id="1Wm" stroke="#1e12bf" stroke-dasharray="5,4" x1="2670" x2="2950" y1="770" y2="770"/>
<g cb-classname="SignalConnection" cb-graphic-line="$121$" cb-input-pin="$p0h$" id="1Wl"/>
</g>
</g>
</g>
</g>
<g cb-classname="ControlPin" cb-pin-name="SY-anp-9RH" id="1Wa">
<line cb-classname="GraphicLineEntity" class="signalline" id="1Wy" x1="2060" x2="2070" y1="500" y2="500"/>
<g cb-classname="DynamicText" cb-source="I8-Kpx-MlBC" class="signal" id="1W2" text-anchor="start">
<text cb-classname="GraphicTextEntity" class="signal" fill="black" font-style="normal" font-weight="normal" id="1WN" text-anchor="start" text-decoration="normal" x="2074" y="497"/>
</g>
<g cb-classname="SignalSegment" id="1WG">
<line cb-classname="GraphicLineEntity" class="signalline" id="1Wn" stroke="#1e12bf" stroke-dasharray="5,4" x1="2070" x2="2640" y1="500" y2="500"/>
<g cb-classname="SignalSegment" id="1WM">
<line cb-classname="GraphicLineEntity" class="signalline" id="1R0" stroke="#1e12bf" stroke-dasharray="5,4" x1="2640" x2="2640" y1="500" y2="810"/>
<g cb-classname="SignalSegment" id="1Rm">
<line cb-classname="GraphicLineEntity" class="signalline" id="1Rl" stroke="#1e12bf" stroke-dasharray="5,4" x1="2640" x2="2950" y1="810" y2="810"/>
<g cb-classname="SignalConnection" cb-graphic-line="$132$" cb-input-pin="$dAt$" id="1Ra"/>
</g>
</g>
</g>
</g>
<g cb-classname="ControlPin" cb-pin-name="Cw-NjL-KOA" id="1Ry">
<line cb-classname="GraphicLineEntity" class="signalline" id="1R2" x1="2060" x2="2070" y1="520" y2="520"/>
<g cb-classname="DynamicText" cb-source="SY-Faw-xUTo" class="signal" id="1RN" text-anchor="start">
<text cb-classname="GraphicTextEntity" class="signal" fill="black" font-style="normal" font-weight="normal" id="1RG" text-anchor="start" text-decoration="normal" x="2074" y="517"/>
</g>
</g>
<g cb-classname="ControlPin" cb-pin-name="I8-95q-rRT" id="1Rn">
<line cb-classname="GraphicLineEntity" class="signalline" id="1RM" x1="2060" x2="2070" y1="540" y2="540"/>
<g cb-classname="DynamicText" cb-source="Ud-9qM-8jdG" class="signal" id="1B0" text-anchor="start">
<text cb-classname="GraphicTextEntity" class="signal" fill="black" font-style="normal" font-weight="normal" id="1Bm" text-anchor="start" text-decoration="normal" x="2074" y="537"/>
</g>
</g>
<text cb-classname="GraphicTextEntity" class="annotation" fill="#000000" font-family="MS Shell Dlg 2" font-size="8" id="1Bl" x="1960" y="470">
KEYBOARD
</text>
<g cb-classname="ControlPin" cb-pin-name="EX-iH5-8w3" id="1hGw">
<line cb-classname="GraphicLineEntity" class="signalline" id="1hGy" x1="2060" x2="2070" y1="560" y2="560"/>
<g cb-classname="DynamicText" cb-source="ND-Buk-7aAQ" class="signal" id="1hG9" text-anchor="start">
<text cb-classname="GraphicTextEntity" class="signal" fill="black" font-style="normal" font-weight="normal" id="1hGK" text-anchor="start" text-decoration="normal" x="2074" y="557"/>
</g>
<g cb-classname="SignalSegment" id="1gm8">
<line cb-classname="GraphicLineEntity" class="signalline" id="1gmM" stroke="#1e12bf" stroke-dasharray="5,4" x1="2070" x2="2610" y1="560" y2="560"/>
<g cb-classname="SignalSegment" id="1gmz">
<line cb-classname="GraphicLineEntity" class="signalline" id="1gmT" stroke="#1e12bf" stroke-dasharray="5,4" x1="2610" x2="2610" y1="560" y2="850"/>
<g cb-classname="SignalSegment" id="1gmw">
<line cb-classname="GraphicLineEntity" class="signalline" id="1gmy" stroke="#1e12bf" stroke-dasharray="5,4" x1="2610" x2="2960" y1="850" y2="850"/>
<g cb-classname="SignalConnection" cb-graphic-line="$1717$" cb-input-pin="$vtOi$" id="1gm9"/>
</g>
</g>
</g>
</g>
<g cb-classname="DynamicText" cb-labeled="false" cb-source="VD-rtt-fRw" class="algorithm" id="1gmK" text-anchor="start">
<text cb-classname="GraphicTextEntity" class="algorithm" fill="black" font-style="normal" font-weight="normal" id="1gl1" text-anchor="start" text-decoration="normal" x="1920" y="370"/>
</g>
</g>
<g cb-alg-oVp3="NO" cb-alg-oto="01WS-L04" cb-algorithm-id="003" cb-classname="ExternalPointInterface" cb-function-name="INPUT" id="1Ba">
<ellipse cb-classname="GraphicEllipseEntity" class="algorithm" cx="560" cy="1140" id="1By" rx="50" ry="50"/>
<rect cb-classname="GraphicRectangleEntity" class="algorithm" height="100" id="1B2" width="40" x="470" y="1090"/>
<line cb-classname="GraphicLineEntity" class="algorithm" id="1BN" x1="470" x2="510" y1="1140" y2="1140"/>
<g cb-classname="ControlPin" cb-pin-name="Cw-NjL-kRF" id="1BG">
<line cb-classname="GraphicLineEntity" class="signalline" id="1Bn" x1="610" x2="640" y1="1140" y2="1140"/>
<g cb-classname="DynamicText" cb-source="SY-Faw-xUTo" class="signal" id="1BM" text-anchor="start">
<text cb-classname="GraphicTextEntity" class="signal" fill="black" font-style="normal" font-weight="normal" id="1v0" text-anchor="start" text-decoration="normal" x="624" y="1137"/>
</g>
<g cb-classname="SignalSegment" id="1IyK">
<line cb-classname="GraphicLineEntity" class="signalline" id="1I2z" stroke="#1e12bf" stroke-dasharray="5,4" x1="640" x2="920" y1="1140" y2="1140"/>
<g cb-classname="SignalSegment" id="1I2T">
<line cb-classname="GraphicLineEntity" class="signalline" id="1I2w" stroke="#1e12bf" stroke-dasharray="5,4" x1="920" x2="920" y1="1140" y2="1200"/>
<g cb-classname="SignalSegment" id="1I2y">
<line cb-classname="GraphicLineEntity" class="signalline" id="1I29" stroke="#1e12bf" stroke-dasharray="5,4" x1="920" x2="1000" y1="1200" y2="1200"/>
<g cb-classname="SignalConnection" cb-graphic-line="$1958$" cb-input-pin="$iZIw$" id="1I2K"/>
</g>
<line cb-classname="GraphicLineEntity" class="signalline" id="1I28" stroke="#1e12bf" stroke-dasharray="5,4" x1="920" x2="2950" y1="1140" y2="1140"/>
<g cb-classname="SignalConnection" cb-graphic-line="$1952$" cb-input-pin="$dAu$" id="1I2M"/>
<ellipse cb-classname="GraphicEllipseEntity" class="signal" cx="920" cy="1140" fill="#1e12bf" id="1IN1" rx="5" ry="5" stroke="#1e12bf" stroke-dasharray="5,4"/>
</g>
</g>
</g>
<g cb-classname="PointStatusIndicator" cb-indicator-type="Highway" cb-source="I8-U5Z-6Y6" id="1vy" visibility="hidden">
<line cb-classname="GraphicLineEntity" class="algorithmline" id="1v2" x1="510" x2="560" y1="1140" y2="1090"/>
<line cb-classname="GraphicLineEntity" class="algorithmline" id="1vN" x1="560" x2="610" y1="1090" y2="1140"/>
<line cb-classname="GraphicLineEntity" class="algorithmline" id="1vG" x1="610" x2="560" y1="1140" y2="1190"/>
<line cb-classname="GraphicLineEntity" class="algorithmline" id="1vn" x1="560" x2="510" y1="1190" y2="1140"/>
</g>
<g cb-classname="PointStatusIndicator" cb-indicator-type="hardware" cb-source="VD-rtt-X4v" id="1vM" visibility="hidden">
<line cb-classname="GraphicLineEntity" class="algorithmline" id="1h0" x1="510" x2="610" y1="1090" y2="1090"/>
<line cb-classname="GraphicLineEntity" class="algorithmline" id="1hm" x1="610" x2="610" y1="1090" y2="1190"/>
<line cb-classname="GraphicLineEntity" class="algorithmline" id="1hl" x1="610" x2="510" y1="1190" y2="1190"/>
</g>
<g cb-classname="PointStatusIndicator" cb-indicator-type="alarm" cb-source="3u-fRw-ghA" id="1ha" visibility="hidden">
<text cb-classname="GraphicTextEntity" class="algorithm" fill="#000000" font-family="arial" font-size="20" id="1hy" text-anchor="end" x="480" y="1125">
A
</text>
</g>
<g cb-classname="PointStatusIndicator" cb-indicator-type="ingraphic" cb-source="Bj-JsO-SJm" id="1h2" visibility="hidden">
<text cb-classname="GraphicTextEntity" class="algorithm" fill="#000000" font-family="Arial" font-size="20" id="1hN" text-anchor="end" x="480" y="1175">
G
</text>
</g>
<g baseline-shift="-50%" cb-anchor-x="460" cb-anchor-y="1154" cb-classname="PointDescription" cb-content="extended" cb-labeled="false" cb-max-width="220" cb-source="I8-U5Z-6Y6" class="algorithm" id="1hG" text-anchor="end">
<text baseline-shift="-50%" cb-classname="GraphicTextEntity" class="algorithm" id="1hn" text-anchor="end" x="460" y="1142">
DESC: Point not found in
</text>
<text baseline-shift="-50%" cb-classname="GraphicTextEntity" class="algorithm" id="1snK" text-anchor="end" x="460" y="1167">
database (01WS-L04)
</text>
</g>
<g cb-classname="DynamicText" cb-labeled="false" cb-pin-name="O4c" cb-source="cT-H8l-eJh" class="algorithm" id="1hM" text-anchor="start">
<text baseline-shift="0%" cb-classname="GraphicTextEntity" class="algorithm" fill="black" font-family="arial" font-size="20" font-style="normal" font-weight="normal" id="1g0" text-anchor="start" text-decoration="normal" x="630" y="1110"/>
</g>
<g baseline-shift="-100%" cb-anchor-x="630" cb-anchor-y="1150" cb-classname="PointReferences" cb-max-width="230" cb-originator="true" cb-source="xS-qx6-9hm" class="signal" id="1gm" text-anchor="end">
<text baseline-shift="-100%" cb-classname="GraphicTextEntity" class="algorithm" id="1gl" text-anchor="end" x="630" y="1150">
REF: Point not found in
</text>
<text baseline-shift="-100%" cb-classname="GraphicTextEntity" class="algorithm" id="2sGy" text-anchor="end" x="630" y="1175">
database (01WS-L04)
</text>
</g>
</g>
<g cb-alg-RHW="$143$cb-alg-out$" cb-algorithm-id="010" cb-classname="FastBooleanAlgorithm" cb-function-name="NOT" cb-modify-id="00000003" id="1sNT">
<rect cb-classname="GraphicRectangleEntity" class="algorithm" height="40" id="1sNw" width="40" x="1020" y="1180"/>
<g cb-classname="ControlPin" cb-pin-name="I8-95q-qpK" id="1sNy">
<line cb-classname="GraphicLineEntity" class="signalline" id="1sN9" x1="1000" x2="1020" y1="1200" y2="1200"/>
<polygon cb-classname="GraphicPolygonEntity" class="signal" id="1sNK" points="1020,1200 1009,1194 1009,1205"/>
<g cb-classname="DynamicText" cb-source="I8-Nqp-OBco" class="signal" id="1sG1" text-anchor="end">
<text cb-classname="GraphicTextEntity" class="signal" fill="black" font-style="normal" font-weight="normal" id="1sGv" text-anchor="end" text-decoration="normal" x="1005" y="1197"/>
</g>
</g>
<g cb-classname="ControlPin" cb-pin-name="cT-H8l-eJh" id="1sG8">
<line cb-classname="GraphicLineEntity" class="signalline" id="1sGM" x1="1060" x2="1080" y1="1200" y2="1200"/>
<g cb-classname="DynamicText" cb-source="xS-6RH-QfG3" class="signal" id="1sGz" text-anchor="start">
<text cb-classname="GraphicTextEntity" class="signal" fill="black" font-style="normal" font-weight="normal" id="1sGT" text-anchor="start" text-decoration="normal" x="1074" y="1197"/>
</g>
<g cb-classname="SignalSegment" id="1INv">
<g cb-classname="SignalConnection" cb-graphic-line="$1964$" cb-input-pin="$wgv$" id="1INT"/>
<line cb-classname="GraphicLineEntity" class="signalline" id="1INz" stroke="#1e12bf" stroke-dasharray="5,4" x1="1080" x2="1470" y1="1200" y2="1200"/>
</g>
</g>
<line cb-classname="GraphicLineEntity" class="algorithm" id="1sGw" x1="1030" x2="1030" y1="1190" y2="1210"/>
<line cb-classname="GraphicLineEntity" class="algorithm" id="1sGy" x1="1030" x2="1050" y1="1190" y2="1210"/>
<line cb-classname="GraphicLineEntity" class="algorithm" id="1sG9" x1="1050" x2="1050" y1="1210" y2="1190"/>
</g>
<g cb-alg-ZLR6="NO" cb-alg-Zaf="01T0700D01-EPZ" cb-algorithm-id="004" cb-classname="ExternalPointInterface" cb-function-name="INPUT" id="1ga">
<ellipse cb-classname="GraphicEllipseEntity" class="algorithm" cx="560" cy="1290" id="1gy" rx="50" ry="50"/>
<rect cb-classname="GraphicRectangleEntity" class="algorithm" height="100" id="1g2" width="40" x="470" y="1240"/>
<line cb-classname="GraphicLineEntity" class="algorithm" id="1gN" x1="470" x2="510" y1="1290" y2="1290"/>
<g cb-classname="ControlPin" cb-pin-name="I8-95q-3Lt" id="1gG">
<line cb-classname="GraphicLineEntity" class="signalline" id="1gn" x1="610" x2="640" y1="1290" y2="1290"/>
<g cb-classname="DynamicText" cb-source="Ud-9qM-8jdG" class="signal" id="1gM" text-anchor="start">
<text cb-classname="GraphicTextEntity" class="signal" fill="black" font-style="normal" font-weight="normal" id="1s0" text-anchor="start" text-decoration="normal" x="624" y="1287"/>
</g>
<g cb-classname="SignalSegment" id="7Km">
<g cb-classname="SignalSegment" id="1s2v">
<line cb-classname="GraphicLineEntity" class="signalline" id="1s28" stroke="#1e12bf" stroke-dasharray="5,4" x1="1160" x2="1160" y1="1290" y2="1220"/>
<g cb-classname="SignalSegment" id="1s2M">
<line cb-classname="GraphicLineEntity" class="signalline" id="1s2z" stroke="#1e12bf" stroke-dasharray="5,4" x1="1160" x2="1470" y1="1220" y2="1220"/>
<g cb-classname="SignalConnection" cb-graphic-line="$1854$" cb-input-pin="$S3s$" id="1s2T"/>
</g>
</g>
<line cb-classname="GraphicLineEntity" class="signalline" id="1s21" stroke="#1e12bf" stroke-dasharray="5,4" x1="640" x2="1160" y1="1290" y2="1290"/>
</g>
</g>
<g cb-classname="PointStatusIndicator" cb-indicator-type="Highway" cb-source="SY-anp-Zxo" id="1sn" visibility="hidden">
<line cb-classname="GraphicLineEntity" class="algorithmline" id="1sM" x1="510" x2="560" y1="1290" y2="1240"/>
<line cb-classname="GraphicLineEntity" class="algorithmline" id="1I0" x1="560" x2="610" y1="1240" y2="1290"/>
<line cb-classname="GraphicLineEntity" class="algorithmline" id="1Im" x1="610" x2="560" y1="1290" y2="1340"/>
<line cb-classname="GraphicLineEntity" class="algorithmline" id="1Il" x1="560" x2="510" y1="1340" y2="1290"/>
</g>
<g cb-classname="PointStatusIndicator" cb-indicator-type="hardware" cb-source="I8-U5Z-6Y6" id="1Ia" visibility="visible">
<line cb-classname="GraphicLineEntity" class="algorithmline" id="1Iy" x1="510" x2="610" y1="1240" y2="1240"/>
<line cb-classname="GraphicLineEntity" class="algorithmline" id="1I2" x1="610" x2="610" y1="1240" y2="1340"/>
<line cb-classname="GraphicLineEntity" class="algorithmline" id="1IN" x1="610" x2="510" y1="1340" y2="1340"/>
</g>
<g cb-classname="PointStatusIndicator" cb-indicator-type="alarm" cb-source="xS-qx6-9hm" id="1IG" visibility="hidden">
<text cb-classname="GraphicTextEntity" class="algorithm" fill="#000000" font-family="arial" font-size="20" id="1In" text-anchor="end" x="480" y="1275">
A
</text>
</g>
<g cb-classname="PointStatusIndicator" cb-indicator-type="ingraphic" cb-source="Cw-NjL-kRF" id="1IM" visibility="visible">
<text cb-classname="GraphicTextEntity" class="algorithm" fill="#000000" font-family="Arial" font-size="20" id="280" text-anchor="end" x="480" y="1325">
G
</text>
</g>
<g baseline-shift="-50%" cb-anchor-x="460" cb-anchor-y="1304" cb-classname="PointDescription" cb-content="extended" cb-labeled="false" cb-max-width="220" cb-source="SY-anp-Zxo" class="algorithm" id="28m" text-anchor="end">
<text baseline-shift="-50%" cb-classname="GraphicTextEntity" class="algorithm" id="28l" text-anchor="end" x="460" y="1279">
DESC: Point not found in
</text>
<text baseline-shift="-50%" cb-classname="GraphicTextEntity" class="algorithm" id="1hG1" text-anchor="end" x="460" y="1304">
database
</text>
<text baseline-shift="-50%" cb-classname="GraphicTextEntity" class="algorithm" id="2sGK" text-anchor="end" x="460" y="1329">
(01T0700D01-EPZ)
</text>
</g>
<g cb-classname="DynamicText" cb-labeled="false" cb-pin-name="9iB" cb-source="I8-95q-3Lt" class="algorithm" id="28a" text-anchor="start">
<text baseline-shift="0%" cb-classname="GraphicTextEntity" class="algorithm" fill="black" font-family="arial" font-size="20" font-style="normal" font-weight="normal" id="28y" text-anchor="start" text-decoration="normal" x="630" y="1260"/>
</g>
<g baseline-shift="-100%" cb-anchor-x="630" cb-anchor-y="1300" cb-classname="PointReferences" cb-max-width="230" cb-originator="true" cb-source="Ud-QhF-DrG" class="signal" id="282" text-anchor="end">
<text baseline-shift="-100%" cb-classname="GraphicTextEntity" class="algorithm" id="28N" text-anchor="end" x="630" y="1300">
REF: Point not found in
</text>
<text baseline-shift="-100%" cb-classname="GraphicTextEntity" class="algorithm" id="2sn1" text-anchor="end" x="630" y="1325">
database
</text>
<text baseline-shift="-100%" cb-classname="GraphicTextEntity" class="algorithm" id="2snv" text-anchor="end" x="630" y="1350">
(01T0700D01-EPZ)
</text>
</g>
</g>
<g cb-alg-o1qF="NO" cb-alg-ovo="01ZS325-NO" cb-algorithm-id="005" cb-classname="ExternalPointInterface" cb-function-name="INPUT" id="28G">
<ellipse cb-classname="GraphicEllipseEntity" class="algorithm" cx="560" cy="1450" id="28n" rx="50" ry="50"/>
<rect cb-classname="GraphicRectangleEntity" class="algorithm" height="100" id="28M" width="40" x="470" y="1400"/>
<line cb-classname="GraphicLineEntity" class="algorithm" id="2K0" x1="470" x2="510" y1="1450" y2="1450"/>
<g cb-classname="ControlPin" cb-pin-name="VD-rtt-X4v" id="2Km">
<line cb-classname="GraphicLineEntity" class="signalline" id="2Kl" x1="610" x2="640" y1="1450" y2="1450"/>
<g cb-classname="DynamicText" cb-source="hz-LIp-TQ07" class="signal" id="2Ka" text-anchor="start">
<text cb-classname="GraphicTextEntity" class="signal" fill="black" font-style="normal" font-weight="normal" id="2Ky" text-anchor="start" text-decoration="normal" x="624" y="1447"/>
</g>
<g cb-classname="SignalSegment" id="6vy">
<line cb-classname="GraphicLineEntity" class="signalline" id="6v2" stroke="#1e12bf" stroke-dasharray="5,4" x1="640" x2="1200" y1="1450" y2="1450"/>
<g cb-classname="SignalSegment" id="6vN">
<line cb-classname="GraphicLineEntity" class="signalline" id="6vG" stroke="#1e12bf" stroke-dasharray="5,4" x1="1200" x2="1200" y1="1450" y2="1240"/>
<g cb-classname="SignalSegment" id="6vn">
<line cb-classname="GraphicLineEntity" class="signalline" id="6vM" stroke="#1e12bf" stroke-dasharray="5,4" x1="1200" x2="1470" y1="1240" y2="1240"/>
<g cb-classname="SignalConnection" cb-graphic-line="$659$" cb-input-pin="$cFw$" id="6h0"/>
</g>
</g>
</g>
</g>
<g cb-classname="PointStatusIndicator" cb-indicator-type="Highway" cb-source="Ud-QhF-DrG" id="2Kn" visibility="hidden">
<line cb-classname="GraphicLineEntity" class="algorithmline" id="2KM" x1="510" x2="560" y1="1450" y2="1400"/>
<line cb-classname="GraphicLineEntity" class="algorithmline" id="2W0" x1="560" x2="610" y1="1400" y2="1450"/>
<line cb-classname="GraphicLineEntity" class="algorithmline" id="2Wm" x1="610" x2="560" y1="1450" y2="1500"/>
<line cb-classname="GraphicLineEntity" class="algorithmline" id="2Wl" x1="560" x2="510" y1="1500" y2="1450"/>
</g>
<g cb-classname="PointStatusIndicator" cb-indicator-type="hardware" cb-source="xS-qx6-9hm" id="2Wa" visibility="visible">
<line cb-classname="GraphicLineEntity" class="algorithmline" id="2Wy" x1="510" x2="610" y1="1400" y2="1400"/>
<line cb-classname="GraphicLineEntity" class="algorithmline" id="2W2" x1="610" x2="610" y1="1400" y2="1500"/>
<line cb-classname="GraphicLineEntity" class="algorithmline" id="2WN" x1="610" x2="510" y1="1500" y2="1500"/>
</g>
<g cb-classname="PointStatusIndicator" cb-indicator-type="alarm" cb-source="SY-anp-Zxo" id="2WG" visibility="visible">
<text cb-classname="GraphicTextEntity" class="algorithm" fill="#000000" font-family="arial" font-size="20" id="2Wn" text-anchor="end" x="480" y="1435">
A
</text>
</g>
<g cb-classname="PointStatusIndicator" cb-indicator-type="ingraphic" cb-source="I8-95q-3Lt" id="2WM" visibility="visible">
<text cb-classname="GraphicTextEntity" class="algorithm" fill="#000000" font-family="Arial" font-size="20" id="2R0" text-anchor="end" x="480" y="1485">
G
</text>
</g>
<g baseline-shift="-50%" cb-anchor-x="460" cb-anchor-y="1464" cb-classname="PointDescription" cb-content="extended" cb-labeled="false" cb-max-width="220" cb-source="Ud-QhF-DrG" class="algorithm" id="2Rm" text-anchor="end">
<text baseline-shift="-50%" cb-classname="GraphicTextEntity" class="algorithm" id="2Rl" text-anchor="end" x="460" y="1452">
DESC: Point not found in
</text>
<text baseline-shift="-50%" cb-classname="GraphicTextEntity" class="algorithm" id="1INy" text-anchor="end" x="460" y="1477">
database (01ZS325-NO)
</text>
</g>
<g cb-classname="DynamicText" cb-labeled="false" cb-pin-name="9NE" cb-source="EX-iH5-3z0" class="algorithm" id="2Ra" text-anchor="start">
<text baseline-shift="0%" cb-classname="GraphicTextEntity" class="algorithm" fill="black" font-family="arial" font-size="20" font-style="normal" font-weight="normal" id="2Ry" text-anchor="start" text-decoration="normal" x="630" y="1420"/>
</g>
<g baseline-shift="-100%" cb-anchor-x="630" cb-anchor-y="1460" cb-classname="PointReferences" cb-max-width="230" cb-originator="true" cb-source="ND-IgF-l14" class="signal" id="2R2" text-anchor="end">
<text baseline-shift="-100%" cb-classname="GraphicTextEntity" class="algorithm" id="2RN" text-anchor="end" x="630" y="1460">
REF: Point not found in
</text>
<text baseline-shift="-100%" cb-classname="GraphicTextEntity" class="algorithm" id="2sn8" text-anchor="end" x="630" y="1485">
database (01ZS325-NO)
</text>
</g>
</g>
<g cb-alg-3QR="$173$cb-alg-out$" cb-alg-3Qi="$1865$cb-alg-out$" cb-alg-3Qr="$207$cb-alg-out$" cb-algorithm-id="00f" cb-classname="FastBooleanAlgorithm" cb-function-name="AND" cb-modify-id="00000001" id="6KM">
<rect cb-classname="GraphicRectangleEntity" class="algorithm" height="60" id="6W0" width="60" x="1490" y="1200"/>
<line cb-classname="GraphicLineEntity" class="algorithm" id="6Wm" x1="1490" x2="1490" y1="1190" y2="1270"/>
<g cb-classname="ControlPin" cb-pin-name="I8-U5Z-6Y6" id="6Wl">
<line cb-classname="GraphicLineEntity" class="signalline" id="6Wa" x1="1550" x2="1570" y1="1230" y2="1230"/>
<g cb-classname="DynamicText" cb-source="cT-Leb-HCmO" class="signal" id="6Wy" text-anchor="start">
<text cb-classname="GraphicTextEntity" class="signal" fill="black" font-style="normal" font-weight="normal" id="6W2" text-anchor="start" text-decoration="normal" x="1564" y="1227"/>
</g>
<g cb-classname="SignalSegment" id="6s2">
<line cb-classname="GraphicLineEntity" class="signalline" id="6sN" stroke="#1e12bf" stroke-dasharray="5,4" x1="1570" x2="2950" y1="1230" y2="1230"/>
<g cb-classname="SignalConnection" cb-graphic-line="$686$" cb-input-pin="$NGZ$" id="6sG"/>
</g>
</g>
<text baseline-shift="-50%" cb-classname="GraphicTextEntity" class="algorithm" fill="#000000" font-family="MS Shell Dlg" id="6WN" text-anchor="middle" x="1520" y="1225">
AND
</text>
<g cb-classname="ControlPin" cb-pin-name="VD-rtt-awe" id="6WG">
<line cb-classname="GraphicLineEntity" class="signalline" id="6Wn" x1="1470" x2="1490" y1="1200" y2="1200"/>
<polygon cb-classname="GraphicPolygonEntity" class="signal" id="6WM" points="1490,1200 1479,1194 1479,1205"/>
<g cb-classname="DynamicText" cb-source="SY-Faw-xUTo" class="signal" id="6R0" text-anchor="end">
<text cb-classname="GraphicTextEntity" class="signal" fill="black" font-style="normal" font-weight="normal" id="6Rm" text-anchor="end" text-decoration="normal" x="1475" y="1197"/>
</g>
</g>
<g cb-classname="ControlPin" cb-pin-name="I8-95q-qpu" id="6Rl">
<line cb-classname="GraphicLineEntity" class="signalline" id="6Ra" x1="1470" x2="1490" y1="1220" y2="1220"/>
<polygon cb-classname="GraphicPolygonEntity" class="signal" id="6Ry" points="1490,1220 1479,1214 1479,1225"/>
<g cb-classname="DynamicText" cb-source="I8-Nqp-OBco" class="signal" id="6R2" text-anchor="end">
<text cb-classname="GraphicTextEntity" class="signal" fill="black" font-style="normal" font-weight="normal" id="6RN" text-anchor="end" text-decoration="normal" x="1475" y="1217"/>
</g>
</g>
<g cb-classname="ControlPin" cb-pin-name="cT-H8l-M7O" id="6RG">
<line cb-classname="GraphicLineEntity" class="signalline" id="6Rn" x1="1470" x2="1490" y1="1240" y2="1240"/>
<polygon cb-classname="GraphicPolygonEntity" class="signal" id="6RM" points="1490,1240 1479,1234 1479,1245"/>
<g cb-classname="DynamicText" cb-source="VD-mM7-p9nK" class="signal" id="6B0" text-anchor="end">
<text cb-classname="GraphicTextEntity" class="signal" fill="black" font-style="normal" font-weight="normal" id="6Bm" text-anchor="end" text-decoration="normal" x="1475" y="1237"/>
</g>
</g>
<g cb-classname="ControlPin" cb-pin-name="hz-CxF-pxc" id="6Bl">
<line cb-classname="GraphicLineEntity" class="signalline" id="6Ba" x1="1470" x2="1490" y1="1260" y2="1260"/>
<polygon cb-classname="GraphicPolygonEntity" class="signal" id="6By" points="1490,1260 1479,1254 1479,1265"/>
<g cb-classname="DynamicText" cb-source="I8-Kpx-MlBC" class="signal" id="6B2" text-anchor="end">
<text cb-classname="GraphicTextEntity" class="signal" fill="black" font-style="normal" font-weight="normal" id="6BN" text-anchor="end" text-decoration="normal" x="1475" y="1257"/>
</g>
</g>
</g>
<g cb-alg-e1IF="NO" cb-alg-eJh="01PS334-NO" cb-algorithm-id="007" cb-classname="ExternalPointInterface" cb-function-name="INPUT" id="2hG">
<ellipse cb-classname="GraphicEllipseEntity" class="algorithm" cx="560" cy="2110" id="2hn" rx="50" ry="50"/>
<rect cb-classname="GraphicRectangleEntity" class="algorithm" height="100" id="2hM" width="40" x="470" y="2060"/>
<line cb-classname="GraphicLineEntity" class="algorithm" id="2g0" x1="470" x2="510" y1="2110" y2="2110"/>
<g cb-classname="ControlPin" cb-pin-name="I8-U5Z-6Y6" id="2gm">
<line cb-classname="GraphicLineEntity" class="signalline" id="2gl" x1="610" x2="640" y1="2110" y2="2110"/>
<g cb-classname="DynamicText" cb-source="cT-Leb-HCmO" class="signal" id="2ga" text-anchor="start">
<text cb-classname="GraphicTextEntity" class="signal" fill="black" font-style="normal" font-weight="normal" id="2gy" text-anchor="start" text-decoration="normal" x="624" y="2107"/>
</g>
<g cb-classname="SignalSegment" id="2g2">
<line cb-classname="GraphicLineEntity" class="signalline" id="2gN" stroke="#1e12bf" stroke-dasharray="5,4" x1="640" x2="2520" y1="2110" y2="2110"/>
<g cb-classname="SignalSegment" id="2gG">
<line cb-classname="GraphicLineEntity" class="signalline" id="2gn" stroke="#1e12bf" stroke-dasharray="5,4" x1="2520" x2="2520" y1="2110" y2="1990"/>
<g cb-classname="SignalSegment" id="2gM">
<line cb-classname="GraphicLineEntity" class="signalline" id="2s0" stroke="#1e12bf" stroke-dasharray="5,4" x1="2520" x2="2960" y1="1990" y2="1990"/>
<g cb-classname="SignalConnection" cb-graphic-line="$280$" cb-input-pin="$GDa$" id="2sm"/>
</g>
</g>
</g>
</g>
<g cb-classname="PointStatusIndicator" cb-indicator-type="Highway" cb-source="Bj-JsO-SJm" id="2sl" visibility="hidden">
<line cb-classname="GraphicLineEntity" class="algorithmline" id="2sa" x1="510" x2="560" y1="2110" y2="2060"/>
<line cb-classname="GraphicLineEntity" class="algorithmline" id="2sy" x1="560" x2="610" y1="2060" y2="2110"/>
<line cb-classname="GraphicLineEntity" class="algorithmline" id="2s2" x1="610" x2="560" y1="2110" y2="2160"/>
<line cb-classname="GraphicLineEntity" class="algorithmline" id="2sN" x1="560" x2="510" y1="2160" y2="2110"/>
</g>
<g cb-classname="PointStatusIndicator" cb-indicator-type="hardware" cb-source="ND-IgF-l14" id="2sG" visibility="visible">
<line cb-classname="GraphicLineEntity" class="algorithmline" id="2sn" x1="510" x2="610" y1="2060" y2="2060"/>
<line cb-classname="GraphicLineEntity" class="algorithmline" id="2sM" x1="610" x2="610" y1="2060" y2="2160"/>
<line cb-classname="GraphicLineEntity" class="algorithmline" id="2I0" x1="610" x2="510" y1="2160" y2="2160"/>
</g>
<g cb-classname="PointStatusIndicator" cb-indicator-type="alarm" cb-source="hz-CxF-ovo" id="2Im" visibility="hidden">
<text cb-classname="GraphicTextEntity" class="algorithm" fill="#000000" font-family="arial" font-size="20" id="2Il" text-anchor="end" x="480" y="2095">
A
</text>
</g>
<g cb-classname="PointStatusIndicator" cb-indicator-type="ingraphic" cb-source="3u-fRw-ghA" id="2Ia" visibility="visible">
<text cb-classname="GraphicTextEntity" class="algorithm" fill="#000000" font-family="Arial" font-size="20" id="2Iy" text-anchor="end" x="480" y="2145">
G
</text>
</g>
<g baseline-shift="-50%" cb-anchor-x="460" cb-anchor-y="2124" cb-classname="PointDescription" cb-content="extended" cb-labeled="false" cb-max-width="220" cb-source="Bj-JsO-SJm" class="algorithm" id="2I2" text-anchor="end">
<text baseline-shift="-50%" cb-classname="GraphicTextEntity" class="algorithm" id="2IN" text-anchor="end" x="460" y="2112">
DESC: Point not found in
</text>
<text baseline-shift="-50%" cb-classname="GraphicTextEntity" class="algorithm" id="1hGv" text-anchor="end" x="460" y="2137">
database (01PS334-NO)
</text>
</g>
<g cb-classname="DynamicText" cb-labeled="false" cb-pin-name="1fj" cb-source="I8-U5Z-6Y6" class="algorithm" id="2IG" text-anchor="start">
<text baseline-shift="0%" cb-classname="GraphicTextEntity" class="algorithm" fill="black" font-family="arial" font-size="20" font-style="normal" font-weight="normal" id="2In" text-anchor="start" text-decoration="normal" x="630" y="2080"/>
</g>
<g baseline-shift="-100%" cb-anchor-x="630" cb-anchor-y="2120" cb-classname="PointReferences" cb-max-width="230" cb-originator="true" cb-source="cT-H8l-eJh" class="signal" id="2IM" text-anchor="end">
<text baseline-shift="-100%" cb-classname="GraphicTextEntity" class="algorithm" id="380" text-anchor="end" x="630" y="2120">
REF: Point not found in
</text>
<text baseline-shift="-100%" cb-classname="GraphicTextEntity" class="algorithm" id="2snz" text-anchor="end" x="630" y="2145">
database (01PS334-NO)
</text>
</g>
</g>
<g cb-alg-dWR="01PS334-NC" cb-alg-dbel="NO" cb-algorithm-id="008" cb-classname="ExternalPointInterface" cb-function-name="INPUT" id="38m">
<ellipse cb-classname="GraphicEllipseEntity" class="algorithm" cx="560" cy="2260" id="38l" rx="50" ry="50"/>
<rect cb-classname="GraphicRectangleEntity" class="algorithm" height="100" id="38a" width="40" x="470" y="2210"/>
<line cb-classname="GraphicLineEntity" class="algorithm" id="38y" x1="470" x2="510" y1="2260" y2="2260"/>
<g cb-classname="ControlPin" cb-pin-name="SY-anp-Zxo" id="382">
<line cb-classname="GraphicLineEntity" class="signalline" id="38N" x1="610" x2="640" y1="2260" y2="2260"/>
<g cb-classname="DynamicText" cb-source="I8-Kpx-MlBC" class="signal" id="38G" text-anchor="start">
<text cb-classname="GraphicTextEntity" class="signal" fill="black" font-style="normal" font-weight="normal" id="38n" text-anchor="start" text-decoration="normal" x="624" y="2257"/>
</g>
<g cb-classname="SignalSegment" id="38M">
<line cb-classname="GraphicLineEntity" class="signalline" id="3K0" stroke="#1e12bf" stroke-dasharray="5,4" x1="640" x2="2580" y1="2260" y2="2260"/>
<g cb-classname="SignalSegment" id="3Km">
<line cb-classname="GraphicLineEntity" class="signalline" id="3Kl" stroke="#1e12bf" stroke-dasharray="5,4" x1="2580" x2="2580" y1="2260" y2="2030"/>
<g cb-classname="SignalSegment" id="3Ka">
<line cb-classname="GraphicLineEntity" class="signalline" id="3Ky" stroke="#1e12bf" stroke-dasharray="5,4" x1="2580" x2="2940" y1="2030" y2="2030"/>
<g cb-classname="SignalConnection" cb-graphic-line="$314$" cb-input-pin="$dIt$" id="3K2"/>
</g>
</g>
</g>
</g>
<g cb-classname="PointStatusIndicator" cb-indicator-type="Highway" cb-source="Cw-NjL-kRF" id="3KN" visibility="hidden">
<line cb-classname="GraphicLineEntity" class="algorithmline" id="3KG" x1="510" x2="560" y1="2260" y2="2210"/>
<line cb-classname="GraphicLineEntity" class="algorithmline" id="3Kn" x1="560" x2="610" y1="2210" y2="2260"/>
<line cb-classname="GraphicLineEntity" class="algorithmline" id="3KM" x1="610" x2="560" y1="2260" y2="2310"/>
<line cb-classname="GraphicLineEntity" class="algorithmline" id="3W0" x1="560" x2="510" y1="2310" y2="2260"/>
</g>
<g cb-classname="PointStatusIndicator" cb-indicator-type="hardware" cb-source="Bj-JsO-SJm" id="3Wm" visibility="visible">
<line cb-classname="GraphicLineEntity" class="algorithmline" id="3Wl" x1="510" x2="610" y1="2210" y2="2210"/>
<line cb-classname="GraphicLineEntity" class="algorithmline" id="3Wa" x1="610" x2="610" y1="2210" y2="2310"/>
<line cb-classname="GraphicLineEntity" class="algorithmline" id="3Wy" x1="610" x2="510" y1="2310" y2="2310"/>
</g>
<g cb-classname="PointStatusIndicator" cb-indicator-type="alarm" cb-source="cT-H8l-eJh" id="3W2" visibility="visible">
<text cb-classname="GraphicTextEntity" class="algorithm" fill="#000000" font-family="arial" font-size="20" id="3WN" text-anchor="end" x="480" y="2245">
A
</text>
</g>
<g cb-classname="PointStatusIndicator" cb-indicator-type="ingraphic" cb-source="xS-qx6-9hm" id="3WG" visibility="visible">
<text cb-classname="GraphicTextEntity" class="algorithm" fill="#000000" font-family="Arial" font-size="20" id="3Wn" text-anchor="end" x="480" y="2295">
G
</text>
</g>
<g baseline-shift="-50%" cb-anchor-x="460" cb-anchor-y="2274" cb-classname="PointDescription" cb-content="extended" cb-labeled="false" cb-max-width="220" cb-source="Cw-NjL-kRF" class="algorithm" id="3WM" text-anchor="end">
<text baseline-shift="-50%" cb-classname="GraphicTextEntity" class="algorithm" id="3R0" text-anchor="end" x="460" y="2262">
DESC: Point not found in
</text>
<text baseline-shift="-50%" cb-classname="GraphicTextEntity" class="algorithm" id="1hG8" text-anchor="end" x="460" y="2287">
database (01PS334-NC)
</text>
</g>
<g cb-classname="DynamicText" cb-labeled="false" cb-pin-name="AWa" cb-source="SY-anp-Zxo" class="algorithm" id="3Rm" text-anchor="start">
<text baseline-shift="0%" cb-classname="GraphicTextEntity" class="algorithm" fill="black" font-family="arial" font-size="20" font-style="normal" font-weight="normal" id="3Rl" text-anchor="start" text-decoration="normal" x="630" y="2230"/>
</g>
<g baseline-shift="-100%" cb-anchor-x="630" cb-anchor-y="2270" cb-classname="PointReferences" cb-max-width="230" cb-originator="true" cb-source="I8-95q-3Lt" class="signal" id="3Ra" text-anchor="end">
<text baseline-shift="-100%" cb-classname="GraphicTextEntity" class="algorithm" id="3Ry" text-anchor="end" x="630" y="2270">
REF: Point not found in
</text>
<text baseline-shift="-100%" cb-classname="GraphicTextEntity" class="algorithm" id="2snw" text-anchor="end" x="630" y="2295">
database (01PS334-NC)
</text>
</g>
</g>
<g cb-alg-P95v="0" cb-alg-tUJq="69" cb-algorithm-id="009" cb-classname="ControlAlgorithm" cb-function-name="DVALGEN" cb-modify-id="00000001" id="3R2">
<rect cb-classname="GraphicRectangleEntity" class="algorithm" height="100" id="3RN" width="140" x="2350" y="1320"/>
<text baseline-shift="-50%" cb-classname="GraphicTextEntity" class="algorithm" fill="#000000" font-family="MS Shell Dlg" font-size="18" id="3RG" text-anchor="middle" x="2420" y="1370">
DVALGEN
</text>
<g cb-classname="ControlPin" cb-pin-name="cT-H8l-eJh" id="3Rn">
<line cb-classname="GraphicLineEntity" class="signalline" id="3RM" x1="2490" x2="2510" y1="1370" y2="1370"/>
<g cb-classname="DynamicText" cb-source="xS-6RH-QfG3" class="signal" id="3B0" text-anchor="start">
<text cb-classname="GraphicTextEntity" class="signal" fill="black" font-style="normal" font-weight="normal" id="3Bm" text-anchor="start" text-decoration="normal" x="2504" y="1367"/>
</g>
<g cb-classname="SignalSegment" id="3Bl">
<line cb-classname="GraphicLineEntity" class="signalline" id="3Ba" stroke="#1e12bf" stroke-dasharray="5,4" x1="2510" x2="2800" y1="1370" y2="1370"/>
<g cb-classname="SignalSegment" id="3By">
<line cb-classname="GraphicLineEntity" class="signalline" id="3B2" stroke="#1e12bf" stroke-dasharray="5,4" x1="2800" x2="2800" y1="1370" y2="1400"/>
<g cb-classname="SignalSegment" id="3BN">
<line cb-classname="GraphicLineEntity" class="signalline" id="6Im" stroke="#1e12bf" stroke-dasharray="5,4" x1="2800" x2="2800" y1="1400" y2="1450"/>
<g cb-classname="SignalSegment" id="6Il">
<line cb-classname="GraphicLineEntity" class="signalline" id="6Ia" stroke="#1e12bf" stroke-dasharray="5,4" x1="2800" x2="2950" y1="1450" y2="1450"/>
<g cb-classname="SignalConnection" cb-graphic-line="$693$" cb-input-pin="$fxt$" id="6I2"/>
</g>
<g cb-classname="SignalConnection" cb-graphic-line="$347$" cb-input-pin="$Hsh$" id="3Bn"/>
<line cb-classname="GraphicLineEntity" class="signalline" id="3BG" stroke="#1e12bf" stroke-dasharray="5,4" x1="2800" x2="2950" y1="1400" y2="1400"/>
<ellipse cb-classname="GraphicEllipseEntity" class="signal" cx="2800" cy="1400" fill="#1e12bf" id="6IN" rx="5" ry="5" stroke="#1e12bf" stroke-dasharray="5,4"/>
</g>
<line cb-classname="GraphicLineEntity" class="signalline" id="3BM" stroke="#1e12bf" stroke-dasharray="5,4" x1="2800" x2="2800" y1="1370" y2="1180"/>
<g cb-classname="SignalSegment" id="3v0">
<line cb-classname="GraphicLineEntity" class="signalline" id="3vm" stroke="#1e12bf" stroke-dasharray="5,4" x1="2800" x2="2950" y1="1180" y2="1180"/>
<g cb-classname="SignalConnection" cb-graphic-line="$351$" cb-input-pin="$yvg$" id="3vl"/>
</g>
<ellipse cb-classname="GraphicEllipseEntity" class="signal" cx="2800" cy="1370" fill="#1e12bf" id="3va" rx="5" ry="5" stroke="#1e12bf" stroke-dasharray="5,4"/>
</g>
</g>
</g>
<g cb-classname="DynamicText" cb-labeled="true" cb-source="I8-U5Z-SBke" class="algorithm" id="18Gy" text-anchor="start">
<text cb-classname="GraphicTextEntity" class="algorithm" fill="black" font-style="normal" font-weight="normal" id="18G9" text-anchor="start" text-decoration="normal" x="2380" y="1310"/>
</g>
</g>
<g cb-alg-FRNt="69" cb-alg-MrtJ="1" cb-algorithm-id="00a" cb-classname="ControlAlgorithm" cb-function-name="DVALGEN" cb-modify-id="00000001" id="3vN">
<rect cb-classname="GraphicRectangleEntity" class="algorithm" height="100" id="3vG" width="140" x="2350" y="1560"/>
<text baseline-shift="-50%" cb-classname="GraphicTextEntity" class="algorithm" fill="#000000" font-family="MS Shell Dlg" font-size="18" id="3vn" text-anchor="middle" x="2420" y="1610">
DVALGEN
</text>
<g cb-classname="ControlPin" cb-pin-name="I8-95q-3Lt" id="3vM">
<line cb-classname="GraphicLineEntity" class="signalline" id="3h0" x1="2490" x2="2510" y1="1610" y2="1610"/>
<g cb-classname="DynamicText" cb-source="Ud-9qM-8jdG" class="signal" id="3hm" text-anchor="start">
<text cb-classname="GraphicTextEntity" class="signal" fill="black" font-style="normal" font-weight="normal" id="3hl" text-anchor="start" text-decoration="normal" x="2504" y="1607"/>
</g>
<g cb-classname="SignalSegment" id="3ha">
<line cb-classname="GraphicLineEntity" class="signalline" id="3hy" stroke="#1e12bf" stroke-dasharray="5,4" x1="2510" x2="2860" y1="1610" y2="1610"/>
<g cb-classname="SignalSegment" id="3h2">
<line cb-classname="GraphicLineEntity" class="signalline" id="3hN" stroke="#1e12bf" stroke-dasharray="5,4" x1="2860" x2="2860" y1="1610" y2="1660"/>
<g cb-classname="SignalSegment" id="3hG">
<line cb-classname="GraphicLineEntity" class="signalline" id="3hn" stroke="#1e12bf" stroke-dasharray="5,4" x1="2860" x2="2950" y1="1660" y2="1660"/>
<g cb-classname="SignalConnection" cb-graphic-line="$368$" cb-input-pin="$Bph$" id="3hM"/>
</g>
<line cb-classname="GraphicLineEntity" class="signalline" id="3g0" stroke="#1e12bf" stroke-dasharray="5,4" x1="2860" x2="2950" y1="1610" y2="1610"/>
<g cb-classname="SignalConnection" cb-graphic-line="$370$" cb-input-pin="$pOR$" id="3gm"/>
<ellipse cb-classname="GraphicEllipseEntity" class="signal" cx="2860" cy="1610" fill="#1e12bf" id="3gl" rx="5" ry="5" stroke="#1e12bf" stroke-dasharray="5,4"/>
</g>
</g>
</g>
<g cb-classname="DynamicText" cb-labeled="true" cb-source="cT-H8l-qCxh" class="algorithm" id="18GK" text-anchor="start">
<text cb-classname="GraphicTextEntity" class="algorithm" fill="black" font-style="normal" font-weight="normal" id="18n1" text-anchor="start" text-decoration="normal" x="2380" y="1550"/>
</g>
</g>
<g cb-alg-Sa9w="65" cb-alg-vfRR="60" cb-algorithm-id="006" cb-classname="ControlAlgorithm" cb-function-name="AVALGEN" cb-modify-id="00000002" id="1BaK">
<g cb-classname="ControlPin" cb-pin-name="Ud-QhF-DrG" id="1By1">
<line cb-classname="GraphicLineEntity" class="signalline" id="1Byv" x1="2490" x2="2510" y1="2340" y2="2340"/>
<g cb-classname="DynamicText" cb-source="EX-r38-ian9" class="signal" id="1By8">
<text baseline-shift="5%" cb-classname="GraphicTextEntity" class="signal" fill="black" font-style="normal" font-weight="normal" id="1ByM" text-decoration="normal" x="2501" y="2330"/>
</g>
<g cb-classname="SignalSegment" id="1hM9">
<line cb-classname="GraphicLineEntity" class="signalline" id="1hMK" x1="2510" x2="2640" y1="2340" y2="2340"/>
<g cb-classname="SignalSegment" id="1g01">
<line cb-classname="GraphicLineEntity" class="signalline" id="1g0v" x1="2640" x2="2640" y1="2340" y2="2300"/>
<g cb-classname="SignalSegment" id="1g08">
<line cb-classname="GraphicLineEntity" class="signalline" id="1g0M" x1="2640" x2="2950" y1="2300" y2="2300"/>
<g cb-classname="SignalConnection" cb-graphic-line="$1703$" cb-input-pin="$mwzv$" id="1g0z"/>
</g>
</g>
</g>
</g>
<polygon cb-classname="GraphicPolygonEntity" class="algorithm" id="1Byz" points="2450,2380 2490,2340 2450,2300 2410,2340"/>
<text baseline-shift="-50%" cb-classname="GraphicTextEntity" class="algorithm" font-size="44" id="1ByT" text-anchor="middle" x="2450" y="2323">
A
</text>
<g cb-classname="DynamicText" cb-labeled="true" cb-source="hz-CxF-dQhh" class="algorithm" id="1glv" text-anchor="start">
<text cb-classname="GraphicTextEntity" class="algorithm" fill="black" font-style="normal" font-weight="normal" id="1gl8" text-anchor="start" text-decoration="normal" x="2400" y="2300"/>
</g>
</g>
<g cb-alg-GeqF="65" cb-alg-RIgL="60" cb-algorithm-id="012" cb-classname="ControlAlgorithm" cb-function-name="AVALGEN" cb-modify-id="00000002" id="1Byw">
<g cb-classname="ControlPin" cb-pin-name="Cw-NjL-kRF" id="1Byy">
<line cb-classname="GraphicLineEntity" class="signalline" id="1By9" x1="2490" x2="2510" y1="2470" y2="2470"/>
<g cb-classname="DynamicText" cb-source="SY-Faw-xUTo" class="signal" id="1ByK">
<text baseline-shift="5%" cb-classname="GraphicTextEntity" class="signal" fill="black" font-style="normal" font-weight="normal" id="1B21" text-decoration="normal" x="2501" y="2460"/>
</g>
<g cb-classname="SignalSegment" id="1g0T">
<line cb-classname="GraphicLineEntity" class="signalline" id="1g0w" x1="2510" x2="2690" y1="2470" y2="2470"/>
<g cb-classname="SignalSegment" id="1g0y">
<line cb-classname="GraphicLineEntity" class="signalline" id="1g09" x1="2690" x2="2690" y1="2470" y2="2350"/>
<g cb-classname="SignalSegment" id="1g0K">
<line cb-classname="GraphicLineEntity" class="signalline" id="1gm1" x1="2690" x2="2940" y1="2350" y2="2350"/>
<g cb-classname="SignalConnection" cb-graphic-line="$1710$" cb-input-pin="$4SCF$" id="1gmv"/>
</g>
</g>
</g>
</g>
<polygon cb-classname="GraphicPolygonEntity" class="algorithm" id="1B2v" points="2450,2510 2490,2470 2450,2430 2410,2470"/>
<text baseline-shift="-50%" cb-classname="GraphicTextEntity" class="algorithm" font-size="44" id="1B28" text-anchor="middle" x="2450" y="2453">
A
</text>
<g cb-classname="DynamicText" cb-labeled="true" cb-source="3u-fRw-WiHJ" class="algorithm" id="1glM" text-anchor="start">
<text cb-classname="GraphicTextEntity" class="algorithm" fill="black" font-style="normal" font-weight="normal" id="1glz" text-anchor="start" text-decoration="normal" x="2400" y="2430"/>
</g>
</g>
<g cb-alg-09Mt="NO" cb-alg-0LK="01T07G01-LLK" cb-algorithm-id="011" cb-classname="ExternalPointInterface" cb-function-name="INPUT" id="1sM1">
<ellipse cb-classname="GraphicEllipseEntity" class="algorithm" cx="560" cy="990" id="1sMv" rx="50" ry="50"/>
<rect cb-classname="GraphicRectangleEntity" class="algorithm" height="100" id="1sM8" width="40" x="470" y="940"/>
<line cb-classname="GraphicLineEntity" class="algorithm" id="1sMM" x1="470" x2="510" y1="990" y2="990"/>
<g cb-classname="ControlPin" cb-pin-name="Bj-JsO-SJm" id="1sMz">
<line cb-classname="GraphicLineEntity" class="signalline" id="1sMT" x1="610" x2="640" y1="990" y2="990"/>
<g cb-classname="DynamicText" cb-source="I8-Nqp-OBco" class="signal" id="1sMw" text-anchor="start">
<text cb-classname="GraphicTextEntity" class="signal" fill="black" font-style="normal" font-weight="normal" id="1sMy" text-anchor="start" text-decoration="normal" x="624" y="987"/>
</g>
<g cb-classname="SignalSegment" id="1Imy">
<line cb-classname="GraphicLineEntity" class="signalline" id="1Iaw" stroke="#1e12bf" stroke-dasharray="5,4" x1="640" x2="2220" y1="990" y2="990"/>
<g cb-classname="SignalSegment" id="1Iay">
<line cb-classname="GraphicLineEntity" class="signalline" id="1Ia9" stroke="#1e12bf" stroke-dasharray="5,4" x1="2220" x2="2220" y1="990" y2="950"/>
<g cb-classname="SignalSegment" id="1IaK">
<line cb-classname="GraphicLineEntity" class="signalline" id="1Iy1" stroke="#1e12bf" stroke-dasharray="5,4" x1="2220" x2="2370" y1="950" y2="950"/>
<g cb-classname="SignalConnection" cb-graphic-line="$1940$" cb-input-pin="$53jp$" id="1Iyv"/>
</g>
<line cb-classname="GraphicLineEntity" class="signalline" id="1Il1" stroke="#1e12bf" stroke-dasharray="5,4" x1="2220" x2="2950" y1="990" y2="990"/>
<g cb-classname="SignalConnection" cb-graphic-line="$1920$" cb-input-pin="$3Yh$" id="1Ilv"/>
<ellipse cb-classname="GraphicEllipseEntity" class="signal" cx="2220" cy="990" fill="#1e12bf" id="1Iy8" rx="5" ry="5" stroke="#1e12bf" stroke-dasharray="5,4"/>
</g>
</g>
</g>
<g cb-classname="PointStatusIndicator" cb-indicator-type="Highway" cb-source="cT-H8l-eJh" id="1sM9" visibility="hidden">
<line cb-classname="GraphicLineEntity" class="algorithmline" id="1sMK" x1="510" x2="560" y1="990" y2="940"/>
<line cb-classname="GraphicLineEntity" class="algorithmline" id="1I01" x1="560" x2="610" y1="940" y2="990"/>
<line cb-classname="GraphicLineEntity" class="algorithmline" id="1I0v" x1="610" x2="560" y1="990" y2="1040"/>
<line cb-classname="GraphicLineEntity" class="algorithmline" id="1I08" x1="560" x2="510" y1="1040" y2="990"/>
</g>
<g cb-classname="PointStatusIndicator" cb-indicator-type="hardware" cb-source="hz-CxF-ovo" id="1I0M" visibility="hidden">
<line cb-classname="GraphicLineEntity" class="algorithmline" id="1I0z" x1="510" x2="610" y1="940" y2="940"/>
<line cb-classname="GraphicLineEntity" class="algorithmline" id="1I0T" x1="610" x2="610" y1="940" y2="1040"/>
<line cb-classname="GraphicLineEntity" class="algorithmline" id="1I0w" x1="610" x2="510" y1="1040" y2="1040"/>
</g>
<g cb-classname="PointStatusIndicator" cb-indicator-type="alarm" cb-source="Bj-JsO-SJm" id="1I0y" visibility="hidden">
<text cb-classname="GraphicTextEntity" class="algorithm" fill="#000000" font-family="arial" font-size="20" id="1I09" x="480" y="975">
A
</text>
</g>
<g cb-classname="PointStatusIndicator" cb-indicator-type="ingraphic" cb-source="I8-U5Z-6Y6" id="1I0K" visibility="visible">
<text cb-classname="GraphicTextEntity" class="algorithm" fill="#000000" font-family="Arial" font-size="20" id="1Im1" x="480" y="1025">
G
</text>
</g>
<g baseline-shift="-50%" cb-anchor-x="460" cb-anchor-y="1004" cb-classname="PointDescription" cb-content="extended" cb-labeled="false" cb-max-width="220" cb-source="cT-H8l-eJh" class="algorithm" id="1Imv" text-anchor="end">
<text baseline-shift="-50%" cb-classname="GraphicTextEntity" class="algorithm" id="1Im8" text-anchor="end" x="460" y="992">
DESC: Point not found in
</text>
<text baseline-shift="-50%" cb-classname="GraphicTextEntity" class="algorithm" id="2sn9" text-anchor="end" x="460" y="1017">
database (01T07G01-LLK)
</text>
</g>
<g cb-classname="DynamicText" cb-labeled="false" cb-pin-name="OXS" cb-source="xS-qx6-9hm" class="algorithm" id="1ImM" text-anchor="start">
<text baseline-shift="0%" cb-classname="GraphicTextEntity" class="algorithm" fill="black" font-family="arial" font-size="20" font-style="normal" font-weight="normal" id="1Imz" text-anchor="start" text-decoration="normal" x="630" y="960"/>
</g>
<g baseline-shift="-100%" cb-anchor-x="630" cb-anchor-y="1000" cb-classname="PointReferences" cb-max-width="230" cb-originator="true" cb-source="Cw-NjL-kRF" class="signal" id="1ImT" text-anchor="start">
<text baseline-shift="-100%" cb-classname="GraphicTextEntity" class="algorithm" id="1Imw" text-anchor="start" x="630" y="1000">
REF: Point not found in
</text>
<text baseline-shift="-100%" cb-classname="GraphicTextEntity" class="algorithm" id="2sM1" text-anchor="start" x="630" y="1025">
database (01T07G01-LLK)
</text>
</g>
</g>
<g cb-alg-UTG="$1890$cb-alg-out$" cb-algorithm-id="013" cb-classname="FastBooleanAlgorithm" cb-function-name="NOT" cb-modify-id="00000004" id="1Il8">
<rect cb-classname="GraphicRectangleEntity" class="algorithm" height="40" id="1IlM" width="40" x="2390" y="930"/>
<g cb-classname="ControlPin" cb-pin-name="cT-H8l-M74" id="1Ilz">
<line cb-classname="GraphicLineEntity" class="signalline" id="1IlT" x1="2370" x2="2390" y1="950" y2="950"/>
<polygon cb-classname="GraphicPolygonEntity" class="signal" id="1Ilw" points="2390,950 2379,944 2379,955"/>
<g cb-classname="DynamicText" cb-source="VD-mM7-p9nK" class="signal" id="1Ily" text-anchor="end">
<text cb-classname="GraphicTextEntity" class="signal" fill="black" font-style="normal" font-weight="normal" id="1Il9" text-anchor="end" text-decoration="normal" x="2375" y="947"/>
</g>
</g>
<g cb-classname="ControlPin" cb-pin-name="hz-CxF-ovo" id="1IlK">
<line cb-classname="GraphicLineEntity" class="signalline" id="1Ia1" x1="2430" x2="2450" y1="950" y2="950"/>
<g cb-classname="DynamicText" cb-source="3u-bUT-LifA" class="signal" id="1Iav" text-anchor="start">
<text cb-classname="GraphicTextEntity" class="signal" fill="black" font-style="normal" font-weight="normal" id="1Ia8" text-anchor="start" text-decoration="normal" x="2444" y="947"/>
</g>
<g cb-classname="SignalSegment" id="1IyM">
<g cb-classname="SignalConnection" cb-graphic-line="$1946$" cb-input-pin="$3Hw$" id="1Iyy"/>
<line cb-classname="GraphicLineEntity" class="signalline" id="1Iyw" stroke="#1e12bf" stroke-dasharray="5,4" x1="2450" x2="2950" y1="950" y2="950"/>
</g>
</g>
<line cb-classname="GraphicLineEntity" class="algorithm" id="1IaM" x1="2400" x2="2400" y1="940" y2="960"/>
<line cb-classname="GraphicLineEntity" class="algorithm" id="1Iaz" x1="2400" x2="2420" y1="940" y2="960"/>
<line cb-classname="GraphicLineEntity" class="algorithm" id="1IaT" x1="2420" x2="2420" y1="960" y2="940"/>
</g>
<g cb-alg-95I="01T0700D04-ALM" cb-alg-95y="$335$cb-alg-out$" cb-alg-9W="$619$cb-alg-out$" cb-alg-9o="$143$cb-alg-out$" cb-alg-BEZ="$335$cb-alg-out$" cb-alg-BEc="$335$cb-alg-out$" cb-alg-I5F08="$1446$cb-alg-out$" cb-alg-KEZ="$356$cb-alg-out$" cb-alg-KEc="$356$cb-alg-out$" cb-alg-Mvi="01T0700D04-STS" cb-alg-QqZ="$267$cb-alg-out$" cb-alg-Qqc="$301$cb-alg-out$" cb-alg-R8="01T0700D04-LB" cb-alg-kqF08="$1439$cb-alg-out$" cb-alg-mj="01T0700D04-TR" cb-alg-z51="$66$cb-alg-pk2$" cb-alg-z5y="$66$cb-alg-pk1$" cb-alg-zJ="$1922$cb-alg-out$" cb-alg-zJy="$66$cb-alg-pk5$" cb-alg-zTQ="$1890$cb-alg-out$" cb-alg-zW="$66$cb-alg-clos$" cb-alg-zo="$66$cb-alg-open$" cb-algorithm-id="001" cb-classname="ControlMacroReference" cb-function-name="PCMS1" cb-macro-crc="30660" cb-modify-id="00000001" id="3g2">
<rect cb-classname="GraphicRectangleEntity" class="annotation" height="1850" id="3gN" width="750" x="2980" y="570"/>
<g cb-classname="ControlPin" cb-pin-name="cT-H8l-zl" id="3gG">
<line cb-classname="GraphicLineEntity" class="signalline" id="3gn" x1="2950" x2="2980" y1="610" y2="610"/>
<polygon cb-classname="GraphicPolygonEntity" class="signal" id="3gM" points="2980,610 2969,604 2969,615"/>
<g cb-classname="DynamicText" cb-source="VD-mM7-p9nK" class="signal" id="3s0" text-anchor="end">
<text cb-classname="GraphicTextEntity" class="signal" fill="black" font-style="normal" font-weight="normal" id="3sm" text-anchor="end" text-decoration="normal" x="2965" y="607"/>
</g>
</g>
<g cb-classname="ControlPin" cb-pin-name="hz-CxF-0c" id="3sl">
<line cb-classname="GraphicLineEntity" class="signalline" id="3sa" x1="2950" x2="2980" y1="650" y2="650"/>
<polygon cb-classname="GraphicPolygonEntity" class="signal" id="3sy" points="2980,650 2969,644 2969,655"/>
<g cb-classname="DynamicText" cb-source="I8-Kpx-MlBC" class="signal" id="3s2" text-anchor="end">
<text cb-classname="GraphicTextEntity" class="signal" fill="black" font-style="normal" font-weight="normal" id="3sN" text-anchor="end" text-decoration="normal" x="2965" y="647"/>
</g>
</g>
<g cb-classname="ControlPin" cb-pin-name="Ud-QhF-Zj" id="3sG">
<line cb-classname="GraphicLineEntity" class="signalline" id="3sn" x1="2950" x2="2980" y1="950" y2="950"/>
<polygon cb-classname="GraphicPolygonEntity" class="signal" id="3sM" points="2980,950 2969,944 2969,955"/>
<g cb-classname="DynamicText" cb-source="cT-Leb-HCmO" class="signal" id="3I0" text-anchor="end">
<text cb-classname="GraphicTextEntity" class="signal" fill="black" font-style="normal" font-weight="normal" id="3Im" text-anchor="end" text-decoration="normal" x="2965" y="947"/>
</g>
</g>
<g cb-classname="ControlPin" cb-pin-name="xS-qx6-Pp9" id="3Il">
<line cb-classname="GraphicLineEntity" class="signalline" id="3Ia" x1="2950" x2="2980" y1="990" y2="990"/>
<polygon cb-classname="GraphicPolygonEntity" class="signal" id="3Iy" points="2980,990 2969,984 2969,995"/>
<g cb-classname="DynamicText" cb-source="hz-LIp-TQ07" class="signal" id="3I2" text-anchor="end">
<text cb-classname="GraphicTextEntity" class="signal" fill="black" font-style="normal" font-weight="normal" id="3IN" text-anchor="end" text-decoration="normal" x="2965" y="987"/>
</g>
</g>
<g cb-classname="ControlPin" cb-pin-name="3u-fRw-X5R" id="3IG">
<line cb-classname="GraphicLineEntity" class="signalline" id="3In" x1="2950" x2="2980" y1="770" y2="770"/>
<polygon cb-classname="GraphicPolygonEntity" class="signal" id="3IM" points="2980,770 2969,764 2969,775"/>
<g cb-classname="DynamicText" cb-source="Ud-9qM-8jdG" class="signal" id="480" text-anchor="end">
<text cb-classname="GraphicTextEntity" class="signal" fill="black" font-style="normal" font-weight="normal" id="48m" text-anchor="end" text-decoration="normal" x="2965" y="767"/>
</g>
</g>
<g cb-classname="ControlPin" cb-pin-name="EX-iH5-Wkg" id="48l">
<line cb-classname="GraphicLineEntity" class="signalline" id="48a" x1="2950" x2="2980" y1="810" y2="810"/>
<polygon cb-classname="GraphicPolygonEntity" class="signal" id="48y" points="2980,810 2969,804 2969,815"/>
<g cb-classname="DynamicText" cb-source="xS-6RH-QfG3" class="signal" id="482" text-anchor="end">
<text cb-classname="GraphicTextEntity" class="signal" fill="black" font-style="normal" font-weight="normal" id="48N" text-anchor="end" text-decoration="normal" x="2965" y="807"/>
</g>
</g>
<g cb-classname="ControlPin" cb-pin-name="Cw-NjL-9o" id="48G">
<line cb-classname="GraphicLineEntity" class="signalline" id="48n" x1="2950" x2="2980" y1="1140" y2="1140"/>
<polygon cb-classname="GraphicPolygonEntity" class="signal" id="48M" points="2980,1140 2969,1134 2969,1145"/>
<g cb-classname="DynamicText" cb-source="3u-bUT-LifA" class="signal" id="4K0" text-anchor="end">
<text cb-classname="GraphicTextEntity" class="signal" fill="black" font-style="normal" font-weight="normal" id="4Km" text-anchor="end" text-decoration="normal" x="2965" y="1137"/>
</g>
</g>
<g cb-classname="ControlPin" cb-pin-name="Bj-JsO-lwM" id="4Kl">
<line cb-classname="GraphicLineEntity" class="signalline" id="4Ka" x1="2950" x2="2980" y1="1180" y2="1180"/>
<polygon cb-classname="GraphicPolygonEntity" class="signal" id="4Ky" points="2980,1180 2969,1174 2969,1185"/>
<g cb-classname="DynamicText" cb-source="EX-r38-ian9" class="signal" id="4K2" text-anchor="end">
<text cb-classname="GraphicTextEntity" class="signal" fill="black" font-style="normal" font-weight="normal" id="4KN" text-anchor="end" text-decoration="normal" x="2965" y="1177"/>
</g>
</g>
<g cb-classname="ControlPin" cb-pin-name="ND-IgF-CT" id="4KG">
<line cb-classname="GraphicLineEntity" class="signalline" id="4Kn" x1="2950" x2="2980" y1="1230" y2="1230"/>
<polygon cb-classname="GraphicPolygonEntity" class="signal" id="4KM" points="2980,1230 2969,1224 2969,1235"/>
<g cb-classname="DynamicText" cb-source="Cw-b3Q-wJIA" class="signal" id="4W0" text-anchor="end">
<text cb-classname="GraphicTextEntity" class="signal" fill="black" font-style="normal" font-weight="normal" id="4Wm" text-anchor="end" text-decoration="normal" x="2965" y="1227"/>
</g>
</g>
<g cb-classname="ControlPin" cb-pin-name="SY-anp-1u3" id="4Wl">
<line cb-classname="GraphicLineEntity" class="signalline" id="4Wa" x1="2950" x2="2980" y1="1400" y2="1400"/>
<polygon cb-classname="GraphicPolygonEntity" class="signal" id="4Wy" points="2980,1400 2969,1394 2969,1405"/>
<g cb-classname="DynamicText" cb-source="Bj-qEL-py9S" class="signal" id="4W2" text-anchor="end">
<text cb-classname="GraphicTextEntity" class="signal" fill="black" font-style="normal" font-weight="normal" id="4WN" text-anchor="end" text-decoration="normal" x="2965" y="1397"/>
</g>
</g>
<g cb-classname="ControlPin" cb-pin-name="I8-U5Z-YFo" id="4WG">
<line cb-classname="GraphicLineEntity" class="signalline" id="4Wn" x1="2950" x2="2980" y1="1450" y2="1450"/>
<polygon cb-classname="GraphicPolygonEntity" class="signal" id="4WM" points="2980,1450 2969,1444 2969,1455"/>
<g cb-classname="DynamicText" cb-source="ND-Buk-7aAQ" class="signal" id="4R0" text-anchor="end">
<text cb-classname="GraphicTextEntity" class="signal" fill="black" font-style="normal" font-weight="normal" id="4Rm" text-anchor="end" text-decoration="normal" x="2965" y="1447"/>
</g>
</g>
<g cb-classname="ControlPin" cb-pin-name="VD-rtt-bIo" id="4Rl">
<line cb-classname="GraphicLineEntity" class="signalline" id="4Ra" x1="2950" x2="2980" y1="1610" y2="1610"/>
<polygon cb-classname="GraphicPolygonEntity" class="signal" id="4Ry" points="2980,1610 2969,1604 2969,1615"/>
<g cb-classname="DynamicText" cb-source="SY-Faw-xUTo" class="signal" id="4R2" text-anchor="end">
<text cb-classname="GraphicTextEntity" class="signal" fill="black" font-style="normal" font-weight="normal" id="4RN" text-anchor="end" text-decoration="normal" x="2965" y="1607"/>
</g>
</g>
<g cb-classname="ControlPin" cb-pin-name="I8-95q-rak" id="4RG">
<line cb-classname="GraphicLineEntity" class="signalline" id="4Rn" x1="2950" x2="2980" y1="1660" y2="1660"/>
<polygon cb-classname="GraphicPolygonEntity" class="signal" id="4RM" points="2980,1660 2969,1654 2969,1665"/>
<g cb-classname="DynamicText" cb-source="I8-Nqp-OBco" class="signal" id="4B0" text-anchor="end">
<text cb-classname="GraphicTextEntity" class="signal" fill="black" font-style="normal" font-weight="normal" id="4Bm" text-anchor="end" text-decoration="normal" x="2965" y="1657"/>
</g>
</g>
<g cb-classname="ControlPin" cb-pin-name="hz-CxF-39g" id="4BG">
<line cb-classname="GraphicLineEntity" class="signalline" id="4Bn" x1="2960" x2="2980" y1="1990" y2="1990"/>
<polygon cb-classname="GraphicPolygonEntity" class="signal" id="4BM" points="2980,1990 2969,1984 2969,1995"/>
<g cb-classname="DynamicText" cb-source="I8-Kpx-MlBC" class="signal" id="4v0" text-anchor="end">
<text cb-classname="GraphicTextEntity" class="signal" fill="black" font-style="normal" font-weight="normal" id="4vm" text-anchor="end" text-decoration="normal" x="2965" y="1987"/>
</g>
</g>
<g cb-classname="ControlPin" cb-pin-name="Ud-QhF-AnN" id="4vl">
<line cb-classname="GraphicLineEntity" class="signalline" id="4va" x1="2940" x2="2980" y1="2030" y2="2030"/>
<polygon cb-classname="GraphicPolygonEntity" class="signal" id="4vy" points="2980,2030 2969,2024 2969,2035"/>
<g cb-classname="DynamicText" cb-source="cT-Leb-HCmO" class="signal" id="4v2" text-anchor="end">
<text cb-classname="GraphicTextEntity" class="signal" fill="black" font-style="normal" font-weight="normal" id="4vN" text-anchor="end" text-decoration="normal" x="2965" y="2027"/>
</g>
</g>
<g cb-classname="ControlPin" cb-pin-name="xS-qx6-w4M" id="4vG">
<line cb-classname="GraphicLineEntity" class="signalline" id="4vn" x1="3730" x2="3770" y1="1290" y2="1290"/>
<g cb-classname="DynamicText" cb-source="Cw-b3Q-wJIA" class="signal" id="4vM" text-anchor="start">
<text cb-classname="GraphicTextEntity" class="signal" fill="black" font-style="normal" font-weight="normal" id="4h0" text-anchor="start" text-decoration="normal" x="3744" y="1287"/>
</g>
<g cb-classname="SignalSegment" id="4hm">
<line cb-classname="GraphicLineEntity" class="signalline" id="4hl" x1="3770" x2="4770" y1="1290" y2="1290"/>
<g cb-classname="SignalConnection" cb-graphic-line="$462$" cb-input-pin="$GH3$" id="4ha"/>
</g>
</g>
<g cb-classname="ControlPin" cb-pin-name="Bj-JsO-lw9" id="4hy">
<line cb-classname="GraphicLineEntity" class="signalline" id="4h2" x1="3730" x2="3760" y1="1560" y2="1560"/>
<g cb-classname="DynamicText" cb-source="I8-Nqp-OBco" class="signal" id="4hN" text-anchor="start">
<text cb-classname="GraphicTextEntity" class="signal" fill="black" font-style="normal" font-weight="normal" id="4hG" text-anchor="start" text-decoration="normal" x="3744" y="1557"/>
</g>
<g cb-classname="SignalSegment" id="4hn">
<line cb-classname="GraphicLineEntity" class="signalline" id="4hM" x1="3760" x2="4770" y1="1560" y2="1560"/>
<g cb-classname="SignalConnection" cb-graphic-line="$469$" cb-input-pin="$Tgx$" id="4g0"/>
</g>
</g>
<g cb-classname="ControlPin" cb-pin-name="VD-rtt-nd" id="4gm">
<line cb-classname="GraphicLineEntity" class="signalline" id="4gl" x1="3730" x2="3750" y1="1880" y2="1880"/>
<g cb-classname="DynamicText" cb-source="hz-LIp-TQ07" class="signal" id="4ga" text-anchor="start">
<text cb-classname="GraphicTextEntity" class="signal" fill="black" font-style="normal" font-weight="normal" id="4gy" text-anchor="start" text-decoration="normal" x="3744" y="1877"/>
</g>
<g cb-classname="SignalSegment" id="4g2">
<line cb-classname="GraphicLineEntity" class="signalline" id="4gN" stroke="#1e12bf" stroke-dasharray="5,4" x1="3750" x2="4770" y1="1880" y2="1880"/>
<g cb-classname="SignalConnection" cb-graphic-line="$476$" cb-input-pin="$QNe$" id="4gG"/>
</g>
</g>
<g cb-classname="ControlPin" cb-pin-name="Ud-QhF-tY" id="4gn">
<line cb-classname="GraphicLineEntity" class="signalline" id="4gM" x1="3730" x2="3750" y1="1940" y2="1940"/>
<g cb-classname="DynamicText" cb-source="EX-r38-ian9" class="signal" id="4s0" text-anchor="start">
<text cb-classname="GraphicTextEntity" class="signal" fill="black" font-style="normal" font-weight="normal" id="4sm" text-anchor="start" text-decoration="normal" x="3744" y="1937"/>
</g>
<g cb-classname="SignalSegment" id="4sl">
<line cb-classname="GraphicLineEntity" class="signalline" id="4sa" stroke="#1e12bf" stroke-dasharray="5,4" x1="3750" x2="4420" y1="1940" y2="1940"/>
<g cb-classname="SignalSegment" id="4sy">
<line cb-classname="GraphicLineEntity" class="signalline" id="4s2" stroke="#1e12bf" stroke-dasharray="5,4" x1="4420" x2="4420" y1="1940" y2="2070"/>
<g cb-classname="SignalSegment" id="4sN">
<line cb-classname="GraphicLineEntity" class="signalline" id="4sG" stroke="#1e12bf" stroke-dasharray="5,4" x1="4420" x2="4770" y1="2070" y2="2070"/>
<g cb-classname="SignalConnection" cb-graphic-line="$487$" cb-input-pin="$qNJ$" id="4sn"/>
</g>
</g>
</g>
</g>
<g cb-classname="ControlPin" cb-pin-name="Cw-NjL-zJy" id="1hnv">
<line cb-classname="GraphicLineEntity" class="signalline" id="1hn8" x1="2960" x2="2980" y1="850" y2="850"/>
<polygon cb-classname="GraphicPolygonEntity" class="signal" id="1hnM" points="2980,850 2969,844 2969,855"/>
<g cb-classname="DynamicText" cb-source="3u-bUT-LifA" class="signal" id="1hnz" text-anchor="end">
<text cb-classname="GraphicTextEntity" class="signal" fill="black" font-style="normal" font-weight="normal" id="1hnT" text-anchor="end" text-decoration="normal" x="2965" y="847"/>
</g>
</g>
<g cb-classname="ControlPin" cb-pin-name="Ud-QhF-DnGcg" id="1hny">
<line cb-classname="GraphicLineEntity" class="signalline" id="1hn9" x1="2950" x2="2980" y1="2300" y2="2300"/>
<polygon cb-classname="GraphicPolygonEntity" class="signal" id="1hnK" points="2980,2300 2969,2294 2969,2305"/>
<g cb-classname="DynamicText" cb-source="cT-Leb-HCmO" class="signal" id="1hM1" text-anchor="end">
<text cb-classname="GraphicTextEntity" class="signal" fill="black" font-style="normal" font-weight="normal" id="1hMv" text-anchor="end" text-decoration="normal" x="2965" y="2297"/>
</g>
</g>
<g cb-classname="ControlPin" cb-pin-name="VD-rtt-URvIa" id="1hMM">
<line cb-classname="GraphicLineEntity" class="signalline" id="1hMz" x1="2940" x2="2980" y1="2350" y2="2350"/>
<polygon cb-classname="GraphicPolygonEntity" class="signal" id="1hMT" points="2980,2350 2969,2344 2969,2355"/>
<g cb-classname="DynamicText" cb-source="SY-Faw-xUTo" class="signal" id="1hMw" text-anchor="end">
<text cb-classname="GraphicTextEntity" class="signal" fill="black" font-style="normal" font-weight="normal" id="1hMy" text-anchor="end" text-decoration="normal" x="2965" y="2347"/>
</g>
</g>
</g>
<g cb-alg-3Q="$375$cb-alg-sts$" cb-algorithm-id="00b" cb-classname="ExternalPointInterface" cb-function-name="OUTPUT" id="4sM">
<ellipse cb-classname="GraphicEllipseEntity" class="algorithm" cx="4850" cy="1290" id="4I0" rx="50" ry="50"/>
<rect cb-classname="GraphicRectangleEntity" class="algorithm" height="100" id="4Im" width="40" x="4900" y="1240"/>
<line cb-classname="GraphicLineEntity" class="algorithm" id="4Il" x1="4900" x2="4940" y1="1290" y2="1290"/>
<g cb-classname="ControlPin" cb-pin-name="EX-iH5-CM" id="4Ia">
<line cb-classname="GraphicLineEntity" class="signalline" id="4Iy" x1="4770" x2="4800" y1="1290" y2="1290"/>
<polygon cb-classname="GraphicPolygonEntity" class="signal" id="4I2" points="4800,1290 4789,1284 4789,1295"/>
<g cb-classname="DynamicText" cb-source="xS-6RH-QfG3" class="signal" id="4IN" text-anchor="end">
<text cb-classname="GraphicTextEntity" class="signal" fill="black" font-style="normal" font-weight="normal" id="4IG" text-anchor="end" text-decoration="normal" x="4785" y="1287"/>
</g>
</g>
<g cb-classname="PointStatusIndicator" cb-indicator-type="highway" cb-source="Cw-NjL-UT" id="4In" visibility="hidden">
<line cb-classname="GraphicLineEntity" class="algorithmline" id="4IM" x1="4800" x2="4850" y1="1290" y2="1240"/>
<line cb-classname="GraphicLineEntity" class="algorithmline" id="580" x1="4850" x2="4900" y1="1240" y2="1290"/>
<line cb-classname="GraphicLineEntity" class="algorithmline" id="58m" x1="4900" x2="4850" y1="1290" y2="1340"/>
<line cb-classname="GraphicLineEntity" class="algorithmline" id="58l" x1="4850" x2="4800" y1="1340" y2="1290"/>
</g>
<g cb-classname="PointStatusIndicator" cb-indicator-type="hardware" cb-source="Bj-JsO-38" id="58a" visibility="hidden">
<line cb-classname="GraphicLineEntity" class="algorithmline" id="58y" x1="4900" x2="4800" y1="1240" y2="1240"/>
<line cb-classname="GraphicLineEntity" class="algorithmline" id="582" x1="4800" x2="4800" y1="1240" y2="1340"/>
<line cb-classname="GraphicLineEntity" class="algorithmline" id="58N" x1="4800" x2="4900" y1="1340" y2="1340"/>
</g>
<g cb-classname="PointStatusIndicator" cb-indicator-type="alarm" cb-source="cT-H8l-M7" id="58G" visibility="hidden">
<text cb-classname="GraphicTextEntity" class="algorithm" fill="#000000" font-family="Arial" font-size="20" id="58n" x="4910" y="1325">
A
</text>
</g>
<g cb-classname="PointStatusIndicator" cb-indicator-type="ingraphic" cb-source="xS-qx6-Ip" id="58M" visibility="visible">
<text cb-classname="GraphicTextEntity" class="algorithm" fill="#000000" font-family="Arial" font-size="20" id="5K0" x="4910" y="1275">
G
</text>
</g>
<g cb-classname="DynamicText" cb-labeled="false" cb-pin-name="b2" cb-source="Cw-NjL-UT" class="algorithm" id="5Km" text-anchor="end">
<text baseline-shift="0%" cb-classname="GraphicTextEntity" class="algorithm" fill="black" font-family="arial" font-size="20" font-style="normal" font-weight="normal" id="5Kl" text-anchor="end" text-decoration="normal" x="4775" y="1265"/>
</g>
<g baseline-shift="-100%" cb-anchor-x="4775" cb-anchor-y="1300" cb-classname="PointReferences" cb-max-width="130" cb-originator="false" cb-source="SY-anp-EL" class="signal" id="5Ka" text-anchor="end">
<text baseline-shift="-100%" cb-classname="GraphicTextEntity" class="algorithm" id="5Ky" text-anchor="end" x="4775" y="1300">
REF: Point not
</text>
<text baseline-shift="-100%" cb-classname="GraphicTextEntity" class="algorithm" id="2sM8" text-anchor="end" x="4775" y="1325">
found in
</text>
<text baseline-shift="-100%" cb-classname="GraphicTextEntity" class="algorithm" id="2sMM" text-anchor="end" x="4775" y="1350">
database
</text>
<text baseline-shift="-100%" cb-classname="GraphicTextEntity" class="algorithm" id="2sMz" text-anchor="end" x="4775" y="1375">
(01T0700D04-STS)
</text>
</g>
<g baseline-shift="-50%" cb-anchor-x="4955" cb-anchor-y="1305" cb-classname="PointDescription" cb-content="extended" cb-labeled="false" cb-max-width="240" cb-source="Bj-JsO-38" class="algorithm" id="5KN" text-anchor="start">
<text baseline-shift="-50%" cb-classname="GraphicTextEntity" class="algorithm" id="5KG" text-anchor="start" x="4955" y="1293">
DESC: Point not found in
</text>
<text baseline-shift="-50%" cb-classname="GraphicTextEntity" class="algorithm" id="1IG8" text-anchor="start" x="4955" y="1318">
database (01T0700D04-STS)
</text>
</g>
</g>
<g cb-alg-UT="$375$cb-alg-alm$" cb-algorithm-id="00c" cb-classname="ExternalPointInterface" cb-function-name="OUTPUT" id="5Kn">
<ellipse cb-classname="GraphicEllipseEntity" class="algorithm" cx="4850" cy="1560" id="5KM" rx="50" ry="50"/>
<rect cb-classname="GraphicRectangleEntity" class="algorithm" height="100" id="5W0" width="40" x="4900" y="1510"/>
<line cb-classname="GraphicLineEntity" class="algorithm" id="5Wm" x1="4900" x2="4940" y1="1560" y2="1560"/>
<g cb-classname="ControlPin" cb-pin-name="xS-qx6-Ip" id="5Wl">
<line cb-classname="GraphicLineEntity" class="signalline" id="5Wa" x1="4770" x2="4800" y1="1560" y2="1560"/>
<polygon cb-classname="GraphicPolygonEntity" class="signal" id="5Wy" points="4800,1560 4789,1554 4789,1565"/>
<g cb-classname="DynamicText" cb-source="hz-LIp-TQ07" class="signal" id="5W2" text-anchor="end">
<text cb-classname="GraphicTextEntity" class="signal" fill="black" font-style="normal" font-weight="normal" id="5WN" text-anchor="end" text-decoration="normal" x="4785" y="1557"/>
</g>
</g>
<g cb-classname="PointStatusIndicator" cb-indicator-type="highway" cb-source="3u-fRw-qM" id="5WG" visibility="hidden">
<line cb-classname="GraphicLineEntity" class="algorithmline" id="5Wn" x1="4800" x2="4850" y1="1560" y2="1510"/>
<line cb-classname="GraphicLineEntity" class="algorithmline" id="5WM" x1="4850" x2="4900" y1="1510" y2="1560"/>
<line cb-classname="GraphicLineEntity" class="algorithmline" id="5R0" x1="4900" x2="4850" y1="1560" y2="1610"/>
<line cb-classname="GraphicLineEntity" class="algorithmline" id="5Rm" x1="4850" x2="4800" y1="1610" y2="1560"/>
</g>
<g cb-classname="PointStatusIndicator" cb-indicator-type="hardware" cb-source="EX-iH5-CM" id="5Rl" visibility="hidden">
<line cb-classname="GraphicLineEntity" class="algorithmline" id="5Ra" x1="4900" x2="4800" y1="1510" y2="1510"/>
<line cb-classname="GraphicLineEntity" class="algorithmline" id="5Ry" x1="4800" x2="4800" y1="1510" y2="1610"/>
<line cb-classname="GraphicLineEntity" class="algorithmline" id="5R2" x1="4800" x2="4900" y1="1610" y2="1610"/>
</g>
<g cb-classname="PointStatusIndicator" cb-indicator-type="alarm" cb-source="VD-rtt-aw" id="5RN" visibility="hidden">
<text cb-classname="GraphicTextEntity" class="algorithm" fill="#000000" font-family="Arial" font-size="20" id="5RG" x="4910" y="1595">
A
</text>
</g>
<g cb-classname="PointStatusIndicator" cb-indicator-type="ingraphic" cb-source="hz-CxF-px" id="5Rn" visibility="visible">
<text cb-classname="GraphicTextEntity" class="algorithm" fill="#000000" font-family="Arial" font-size="20" id="5RM" x="4910" y="1545">
G
</text>
</g>
<g cb-classname="DynamicText" cb-labeled="false" cb-pin-name="wO" cb-source="3u-fRw-qM" class="algorithm" id="5B0" text-anchor="end">
<text baseline-shift="0%" cb-classname="GraphicTextEntity" class="algorithm" fill="black" font-family="arial" font-size="20" font-style="normal" font-weight="normal" id="5Bm" text-anchor="end" text-decoration="normal" x="4775" y="1535"/>
</g>
<g baseline-shift="-100%" cb-anchor-x="4775" cb-anchor-y="1570" cb-classname="PointReferences" cb-max-width="130" cb-originator="false" cb-source="Bj-JsO-38" class="signal" id="5Bl" text-anchor="end">
<text baseline-shift="-100%" cb-classname="GraphicTextEntity" class="algorithm" id="5Ba" text-anchor="end" x="4775" y="1570">
REF: Point not
</text>
<text baseline-shift="-100%" cb-classname="GraphicTextEntity" class="algorithm" id="2sMw" text-anchor="end" x="4775" y="1595">
found in
</text>
<text baseline-shift="-100%" cb-classname="GraphicTextEntity" class="algorithm" id="2sMy" text-anchor="end" x="4775" y="1620">
database
</text>
<text baseline-shift="-100%" cb-classname="GraphicTextEntity" class="algorithm" id="2sM9" text-anchor="end" x="4775" y="1645">
(01T0700D04-ALM)
</text>
</g>
<g baseline-shift="-50%" cb-anchor-x="4955" cb-anchor-y="1575" cb-classname="PointDescription" cb-content="extended" cb-labeled="false" cb-max-width="240" cb-source="EX-iH5-CM" class="algorithm" id="5B2" text-anchor="start">
<text baseline-shift="-50%" cb-classname="GraphicTextEntity" class="algorithm" id="5BN" text-anchor="start" x="4955" y="1563">
DESC: Point not found in
</text>
<text baseline-shift="-50%" cb-classname="GraphicTextEntity" class="algorithm" id="2sMK" text-anchor="start" x="4955" y="1588">
database (01T0700D04-ALM)
</text>
</g>
</g>
<g cb-alg-cP="$375$cb-alg-lb$" cb-algorithm-id="00d" cb-classname="ExternalPointInterface" cb-function-name="OUTPUT" id="5BG">
<ellipse cb-classname="GraphicEllipseEntity" class="algorithm" cx="4850" cy="1880" id="5Bn" rx="50" ry="50"/>
<rect cb-classname="GraphicRectangleEntity" class="algorithm" height="100" id="5BM" width="40" x="4900" y="1830"/>
<line cb-classname="GraphicLineEntity" class="algorithm" id="5v0" x1="4900" x2="4940" y1="1880" y2="1880"/>
<g cb-classname="ControlPin" cb-pin-name="hz-CxF-px" id="5vm">
<line cb-classname="GraphicLineEntity" class="signalline" id="5vl" x1="4770" x2="4800" y1="1880" y2="1880"/>
<polygon cb-classname="GraphicPolygonEntity" class="signal" id="5va" points="4800,1880 4789,1874 4789,1885"/>
<g cb-classname="DynamicText" cb-source="I8-Kpx-MlBC" class="signal" id="5vy" text-anchor="end">
<text cb-classname="GraphicTextEntity" class="signal" fill="black" font-style="normal" font-weight="normal" id="5v2" text-anchor="end" text-decoration="normal" x="4785" y="1877"/>
</g>
</g>
<g cb-classname="PointStatusIndicator" cb-indicator-type="highway" cb-source="Ud-QhF-RO" id="5vN" visibility="hidden">
<line cb-classname="GraphicLineEntity" class="algorithmline" id="5vG" x1="4800" x2="4850" y1="1880" y2="1830"/>
<line cb-classname="GraphicLineEntity" class="algorithmline" id="5vn" x1="4850" x2="4900" y1="1830" y2="1880"/>
<line cb-classname="GraphicLineEntity" class="algorithmline" id="5vM" x1="4900" x2="4850" y1="1880" y2="1930"/>
<line cb-classname="GraphicLineEntity" class="algorithmline" id="5h0" x1="4850" x2="4800" y1="1930" y2="1880"/>
</g>
<g cb-classname="PointStatusIndicator" cb-indicator-type="hardware" cb-source="xS-qx6-Ip" id="5hm" visibility="hidden">
<line cb-classname="GraphicLineEntity" class="algorithmline" id="5hl" x1="4900" x2="4800" y1="1830" y2="1830"/>
<line cb-classname="GraphicLineEntity" class="algorithmline" id="5ha" x1="4800" x2="4800" y1="1830" y2="1930"/>
<line cb-classname="GraphicLineEntity" class="algorithmline" id="5hy" x1="4800" x2="4900" y1="1930" y2="1930"/>
</g>
<g cb-classname="PointStatusIndicator" cb-indicator-type="alarm" cb-source="SY-anp-EL" id="5h2" visibility="hidden">
<text cb-classname="GraphicTextEntity" class="algorithm" fill="#000000" font-family="Arial" font-size="20" id="5hN" x="4910" y="1915">
A
</text>
</g>
<g cb-classname="PointStatusIndicator" cb-indicator-type="ingraphic" cb-source="I8-95q-qp" id="5hG" visibility="hidden">
<text cb-classname="GraphicTextEntity" class="algorithm" fill="#000000" font-family="Arial" font-size="20" id="5hn" x="4910" y="1865">
G
</text>
</g>
<g cb-classname="DynamicText" cb-labeled="false" cb-pin-name="Ej" cb-source="Ud-QhF-RO" class="algorithm" id="5hM" text-anchor="end">
<text baseline-shift="0%" cb-classname="GraphicTextEntity" class="algorithm" fill="black" font-family="arial" font-size="20" font-style="normal" font-weight="normal" id="5g0" text-anchor="end" text-decoration="normal" x="4775" y="1855"/>
</g>
<g baseline-shift="-100%" cb-anchor-x="4775" cb-anchor-y="1890" cb-classname="PointReferences" cb-max-width="130" cb-originator="false" cb-source="EX-iH5-CM" class="signal" id="5gm" text-anchor="end">
<text baseline-shift="-100%" cb-classname="GraphicTextEntity" class="algorithm" id="5gl" text-anchor="end" x="4775" y="1890">
REF: Point not
</text>
<text baseline-shift="-100%" cb-classname="GraphicTextEntity" class="algorithm" id="2I0v" text-anchor="end" x="4775" y="1915">
found in
</text>
<text baseline-shift="-100%" cb-classname="GraphicTextEntity" class="algorithm" id="2I08" text-anchor="end" x="4775" y="1940">
database
</text>
<text baseline-shift="-100%" cb-classname="GraphicTextEntity" class="algorithm" id="2I0M" text-anchor="end" x="4775" y="1965">
(01T0700D04-LB)
</text>
</g>
<g baseline-shift="-50%" cb-anchor-x="4955" cb-anchor-y="1895" cb-classname="PointDescription" cb-content="extended" cb-labeled="false" cb-max-width="240" cb-source="xS-qx6-Ip" class="algorithm" id="5gy" text-anchor="start">
<text baseline-shift="-50%" cb-classname="GraphicTextEntity" class="algorithm" id="5g2" text-anchor="start" x="4955" y="1883">
DESC: Point not found in
</text>
<text baseline-shift="-50%" cb-classname="GraphicTextEntity" class="algorithm" id="1hGM" text-anchor="start" x="4955" y="1908">
database (01T0700D04-LB)
</text>
</g>
</g>
<g cb-alg-eb="$375$cb-alg-tr$" cb-algorithm-id="00e" cb-classname="ExternalPointInterface" cb-function-name="OUTPUT" id="5gN">
<ellipse cb-classname="GraphicEllipseEntity" class="algorithm" cx="4850" cy="2070" id="5gG" rx="50" ry="50"/>
<rect cb-classname="GraphicRectangleEntity" class="algorithm" height="100" id="5gn" width="40" x="4900" y="2020"/>
<line cb-classname="GraphicLineEntity" class="algorithm" id="5gM" x1="4900" x2="4940" y1="2070" y2="2070"/>
<g cb-classname="ControlPin" cb-pin-name="I8-95q-qp" id="5s0">
<line cb-classname="GraphicLineEntity" class="signalline" id="5sm" x1="4770" x2="4800" y1="2070" y2="2070"/>
<polygon cb-classname="GraphicPolygonEntity" class="signal" id="5sl" points="4800,2070 4789,2064 4789,2075"/>
<g cb-classname="DynamicText" cb-source="I8-Nqp-OBco" class="signal" id="5sa" text-anchor="end">
<text cb-classname="GraphicTextEntity" class="signal" fill="black" font-style="normal" font-weight="normal" id="5sy" text-anchor="end" text-decoration="normal" x="4785" y="2067"/>
</g>
</g>
<g cb-classname="PointStatusIndicator" cb-indicator-type="highway" cb-source="cT-H8l-M7" id="5s2" visibility="hidden">
<line cb-classname="GraphicLineEntity" class="algorithmline" id="5sN" x1="4800" x2="4850" y1="2070" y2="2020"/>
<line cb-classname="GraphicLineEntity" class="algorithmline" id="5sG" x1="4850" x2="4900" y1="2020" y2="2070"/>
<line cb-classname="GraphicLineEntity" class="algorithmline" id="5sn" x1="4900" x2="4850" y1="2070" y2="2120"/>
<line cb-classname="GraphicLineEntity" class="algorithmline" id="5sM" x1="4850" x2="4800" y1="2120" y2="2070"/>
</g>
<g cb-classname="PointStatusIndicator" cb-indicator-type="hardware" cb-source="hz-CxF-px" id="5I0" visibility="hidden">
<line cb-classname="GraphicLineEntity" class="algorithmline" id="5Im" x1="4900" x2="4800" y1="2020" y2="2020"/>
<line cb-classname="GraphicLineEntity" class="algorithmline" id="5Il" x1="4800" x2="4800" y1="2020" y2="2120"/>
<line cb-classname="GraphicLineEntity" class="algorithmline" id="5Ia" x1="4800" x2="4900" y1="2120" y2="2120"/>
</g>
<g cb-classname="PointStatusIndicator" cb-indicator-type="alarm" cb-source="Bj-JsO-38" id="5Iy" visibility="visible">
<text cb-classname="GraphicTextEntity" class="algorithm" fill="#000000" font-family="Arial" font-size="20" id="5I2" x="4910" y="2105">
A
</text>
</g>
<g cb-classname="PointStatusIndicator" cb-indicator-type="ingraphic" cb-source="I8-U5Z-Ai" id="5IN" visibility="hidden">
<text cb-classname="GraphicTextEntity" class="algorithm" fill="#000000" font-family="Arial" font-size="20" id="5IG" x="4910" y="2055">
G
</text>
</g>
<g cb-classname="DynamicText" cb-labeled="false" cb-pin-name="IZ" cb-source="cT-H8l-M7" class="algorithm" id="5In" text-anchor="end">
<text baseline-shift="0%" cb-classname="GraphicTextEntity" class="algorithm" fill="black" font-family="arial" font-size="20" font-style="normal" font-weight="normal" id="5IM" text-anchor="end" text-decoration="normal" x="4775" y="2045"/>
</g>
<g baseline-shift="-100%" cb-anchor-x="4775" cb-anchor-y="2080" cb-classname="PointReferences" cb-max-width="130" cb-originator="false" cb-source="xS-qx6-Ip" class="signal" id="680" text-anchor="end">
<text baseline-shift="-100%" cb-classname="GraphicTextEntity" class="algorithm" id="68m" text-anchor="end" x="4775" y="2080">
REF: Point not
</text>
<text baseline-shift="-100%" cb-classname="GraphicTextEntity" class="algorithm" id="2I0T" text-anchor="end" x="4775" y="2105">
found in
</text>
<text baseline-shift="-100%" cb-classname="GraphicTextEntity" class="algorithm" id="2I0w" text-anchor="end" x="4775" y="2130">
database
</text>
<text baseline-shift="-100%" cb-classname="GraphicTextEntity" class="algorithm" id="2I0y" text-anchor="end" x="4775" y="2155">
(01T0700D04-TR)
</text>
</g>
<g baseline-shift="-50%" cb-anchor-x="4955" cb-anchor-y="2085" cb-classname="PointDescription" cb-content="extended" cb-labeled="false" cb-max-width="240" cb-source="hz-CxF-px" class="algorithm" id="68a" text-anchor="start">
<text baseline-shift="-50%" cb-classname="GraphicTextEntity" class="algorithm" id="68y" text-anchor="start" x="4955" y="2073">
DESC: Point not found in
</text>
<text baseline-shift="-50%" cb-classname="GraphicTextEntity" class="algorithm" id="1hGz" text-anchor="start" x="4955" y="2098">
database (01T0700D04-TR)
</text>
</g>
</g>
</g>
<g cb-classname="IncludeDocument" cb-modify-time="09/25/2018 01:40:30" cb-objectname="Frame" id="5">
<text cb-classname="GraphicTextEntity" class="frame" font-size="50" id="2INK" x="3660" y="3146">
Project Title &lt;Edit in FRAME.SVG&gt;
</text>
<g baseline-shift="-50%" cb-classname="DynamicText" cb-source="SY-S7kq-qZ" class="frame" id="2IG1">
<text cb-classname="GraphicTextEntity" class="frame" fill="black" font-family="arial" font-size="25" font-style="normal" font-weight="normal" id="2IGv" text-decoration="normal" x="4715" y="3325">
11
</text>
</g>
<g baseline-shift="-50%" cb-classname="DynamicText" cb-source="I8-0jZN-34" class="frame" id="2IG8" text-anchor="middle">
<text cb-classname="GraphicTextEntity" class="frame" fill="black" font-family="arial" font-size="48" font-style="normal" font-weight="normal" id="2IGM" text-anchor="middle" text-decoration="normal" x="4900" y="3320">
11
</text>
</g>
<g baseline-shift="-50%" cb-classname="DynamicText" cb-source="Ud-FUJR-Ap" class="frame" id="2IGz" text-anchor="middle">
<text cb-classname="GraphicTextEntity" class="frame" fill="black" font-family="arial" font-size="48" font-style="normal" font-weight="normal" id="2IGT" text-anchor="middle" text-decoration="normal" x="5067" y="3324">
4
</text>
</g>
<g cb-classname="DynamicText" cb-source="EX-J1ACG-0JnKG" class="frame" id="2IGw">
<text cb-classname="GraphicTextEntity" class="frame" fill="black" font-family="arial" font-size="48" font-style="normal" font-weight="normal" id="2IGy" text-decoration="normal" x="3660" y="3224">
TURNG GEAR LUB OIL SUPL VLV-T0700D04
</text>
</g>
<g baseline-shift="-50%" cb-classname="DynamicText" cb-source="ND-vGMZE-p4nXA8" class="frame" id="2IG9" text-anchor="middle">
<text cb-classname="GraphicTextEntity" class="frame" fill="black" font-family="arial" font-size="48" font-style="normal" font-weight="normal" id="2IGK" text-anchor="middle" text-decoration="normal" x="5270" y="3324">
133
</text>
</g>
<g baseline-shift="0%" cb-classname="DynamicText" cb-source="VD-9ZzIsUox" class="frame" id="2In1" text-anchor="middle">
<text cb-classname="GraphicTextEntity" class="frame" fill="black" font-family="arial" font-size="36" font-style="normal" font-weight="normal" id="2Inv" text-anchor="middle" text-decoration="normal" x="5270" y="3150">
A
</text>
</g>
<g baseline-shift="0%" cb-classname="DynamicText" cb-source="hz-1oPUPEgM-tAdG" class="frame" id="2In8" text-anchor="middle">
<text cb-classname="GraphicTextEntity" class="frame" fill="black" font-family="arial" font-size="20" font-style="normal" font-weight="normal" id="2InM" text-anchor="middle" text-decoration="normal" x="5270" y="3230">
12/27/2010
</text>
</g>
<g baseline-shift="-50%" cb-classname="DynamicText" cb-source="3u-OwwEL7or" class="frame" id="2Inz" text-anchor="end">
<text cb-classname="GraphicTextEntity" class="frame" fill="black" font-family="arial" font-size="26" font-style="normal" font-weight="normal" id="2InT" text-anchor="end" text-decoration="normal" x="4500" y="3420">
Heczko
</text>
</g>
<g baseline-shift="-50%" cb-classname="DynamicText" cb-source="Bj-jKWqoaCf" class="frame" id="2Inw" text-anchor="end">
<text cb-classname="GraphicTextEntity" class="frame" fill="black" font-family="arial" font-size="26" font-style="normal" font-weight="normal" id="2Iny" text-anchor="end" text-decoration="normal" x="5353" y="3420">
Nemec
</text>
</g>
<g cb-classname="GraphicShape" cb-tag="BORDER" id="2In9">
<line cb-classname="GraphicLineEntity" class="frameline" id="2InK" x1="40" x2="40" y1="40" y2="3460"/>
<line cb-classname="GraphicLineEntity" class="frameline" id="2IM1" x1="40" x2="5380" y1="3460" y2="3460"/>
<line cb-classname="GraphicLineEntity" class="frameline" id="2IMv" x1="5380" x2="5380" y1="3460" y2="40"/>
<line cb-classname="GraphicLineEntity" class="frameline" id="2IM8" x1="5380" x2="40" y1="40" y2="40"/>
<line cb-classname="GraphicLineEntity" class="frame" id="2IMM" x1="5430" x2="5440" y1="3510" y2="3510"/>
</g>
<g cb-classname="GraphicShape" cb-tag="TITLE BOX" id="2IMz">
<line cb-classname="GraphicLineEntity" class="frameline" id="2IMT" x1="2340" x2="2340" y1="3080" y2="3460"/>
<line cb-classname="GraphicLineEntity" class="frameline" id="2IMw" x1="2340" x2="5380" y1="3080" y2="3080"/>
<line cb-classname="GraphicLineEntity" class="frameline" id="2IMy" x1="3650" x2="3650" y1="3460" y2="3080"/>
<line cb-classname="GraphicLineEntity" class="frameline" id="2IM9" x1="3650" x2="5380" y1="3240" y2="3240"/>
<line cb-classname="GraphicLineEntity" class="frameline" id="2IMK" x1="3650" x2="5380" y1="3390" y2="3390"/>
<line cb-classname="GraphicLineEntity" class="frameline" id="3801" x1="3650" x2="5380" y1="3160" y2="3160"/>
<line cb-classname="GraphicLineEntity" class="frameline" id="380v" x1="3650" x2="4520" y1="3320" y2="3320"/>
<line cb-classname="GraphicLineEntity" class="frameline" id="3808" x1="4520" x2="5380" y1="3290" y2="3290"/>
<line cb-classname="GraphicLineEntity" class="frameline" id="380M" x1="4520" x2="5380" y1="3240" y2="3240"/>
<line cb-classname="GraphicLineEntity" class="frameline" id="380z" x1="4520" x2="4520" y1="3240" y2="3460"/>
<line cb-classname="GraphicLineEntity" class="frameline" id="380T" x1="4810" x2="4810" y1="3240" y2="3390"/>
<line cb-classname="GraphicLineEntity" class="frameline" id="380w" x1="4990" x2="4990" y1="3240" y2="3390"/>
<line cb-classname="GraphicLineEntity" class="frameline" id="380y" x1="5150" x2="5150" y1="3080" y2="3390"/>
</g>
<g cb-classname="GraphicShape" cb-tag="TEXT LABELS" id="3809">
<text baseline-shift="-50%" cb-classname="GraphicTextEntity" class="frame" font-size="25" id="380K" text-anchor="middle" x="4890" y="3252">
Drop
</text>
<text baseline-shift="-50%" cb-classname="GraphicTextEntity" class="frame" font-size="25" id="38m1" text-anchor="middle" x="5075" y="3252">
Task
</text>
<text baseline-shift="-50%" cb-classname="GraphicTextEntity" class="frame" font-size="25" id="38mv" text-anchor="middle" x="5265" y="3252">
Sheet
</text>
<text cb-classname="GraphicTextEntity" class="frame" font-size="25" id="38m8" x="5152" y="3107">
Rev.
</text>
<text cb-classname="GraphicTextEntity" class="frame" font-size="25" id="38mM" x="3653" y="3418">
Engineer
</text>
<text cb-classname="GraphicTextEntity" class="frame" font-size="25" id="38mz" x="4528" y="3419">
Approved
</text>
<text cb-classname="GraphicTextEntity" class="frame" font-size="25" id="38mT" x="5152" y="3187">
Date
</text>
<text baseline-shift="-50%" cb-classname="GraphicTextEntity" class="frame" font-size="25" id="38mw" text-anchor="middle" x="4660" y="3252">
Drawing Number
</text>
<text baseline-shift="-50%" cb-classname="GraphicTextEntity" class="frame" font-size="25" id="38my" text-anchor="middle" x="4680" y="3325">
CTL
</text>
</g>
<text baseline-shift="-50%" cb-classname="GraphicTextEntity" class="frame" font-size="48" id="38m9" text-anchor="middle" x="3000" y="3100">
EMERSON PROCESS MANAGEMENT
</text>
<g baseline-shift="-100%" cb-anchor-x="2360" cb-anchor-y="3140" cb-classname="GroupText" cb-max-width="1260" fill="black" id="38mK">
<text baseline-shift="-100%" cb-classname="GraphicTextEntity" class="frame" fill="black" font-family="arial" font-size="22" font-weight="normal" id="38l1" text-anchor="start" text-decoration="normal" x="2360" y="3140">
THIS DOCUMENT CONTAINS INFORMATION PROPRIETARY TO EMERSON PROCESS
</text>
<text baseline-shift="-100%" cb-classname="GraphicTextEntity" class="frame" fill="black" font-family="arial" font-size="22" font-weight="normal" id="38lv" text-anchor="start" text-decoration="normal" x="2360" y="3176">
MANAGEMENT POWER &amp; WATER SOLUTIONS, INC. IT IS SUBMITTED IN CONFIDENCE AND
</text>
<text baseline-shift="-100%" cb-classname="GraphicTextEntity" class="frame" fill="black" font-family="arial" font-size="22" font-weight="normal" id="38l8" text-anchor="start" text-decoration="normal" x="2360" y="3212">
TRUST, IS TO BE USED BY YOU SOLELY FOR THE PURPOSES FOR WHICH IT IS
</text>
<text baseline-shift="-100%" cb-classname="GraphicTextEntity" class="frame" fill="black" font-family="arial" font-size="22" font-weight="normal" id="38lM" text-anchor="start" text-decoration="normal" x="2360" y="3248">
FURNISHED AND IS TO BE RETURNED UPON REQUEST. THIS DOCUMENT AND ANY
</text>
<text baseline-shift="-100%" cb-classname="GraphicTextEntity" class="frame" fill="black" font-family="arial" font-size="22" font-weight="normal" id="38lz" text-anchor="start" text-decoration="normal" x="2360" y="3284">
OTHER INFORMATION PROVIDED TO YOU IS NOT TO BE REPRODUCED, TRANSMITTED,
</text>
<text baseline-shift="-100%" cb-classname="GraphicTextEntity" class="frame" fill="black" font-family="arial" font-size="22" font-weight="normal" id="38lT" text-anchor="start" text-decoration="normal" x="2360" y="3320">
DISCLOSED, OR USED OTHERWISE IN WHOLE OR IN PART WITHOUT THE PRIOR
</text>
<text baseline-shift="-100%" cb-classname="GraphicTextEntity" class="frame" fill="black" font-family="arial" font-size="22" font-weight="normal" id="38lw" text-anchor="start" text-decoration="normal" x="2360" y="3356">
WRITTEN AUTHORIZATION OF EMERSON PROCESS MANAGEMENT POWER &amp; WATER
</text>
<text baseline-shift="-100%" cb-classname="GraphicTextEntity" class="frame" fill="black" font-family="arial" font-size="22" font-weight="normal" id="38ly" text-anchor="start" text-decoration="normal" x="2360" y="3392">
SOLUTIONS,INC.
</text>
</g>
</g>
</svg>