<?xml version="1.0" ?><svg cb-auto-time="01/15/2011 15:23:06" cb-classname="ControlFunction" cb-create-time="05/14/2008" cb-drop-id="11" cb-engineer="Heczko" cb-filename="Z:\OVATION\NET0\UNIT0\CONTROLFUNCTIONS\0096.svg" cb-function-id="0096" cb-key="244332152551" cb-modified-timestamp="1489319777" cb-modify-id="00000004" cb-ortho-mode="enabled" cb-path="Z:/OVATION/NET0/UNIT0/CONTROLFUNCTIONS" cb-reviewer="Nemec" cb-revision="A" cb-revision-time="12/27/2010" cb-sheet-number="151" cb-sheet-title="HP BYP SPRAY SHT-OFF VLV - T0800D02" cb-snap-grid="10" cb-task-id="4" height="3707" id="1" width="5450" xmlns="http://www.w3.org/2000/svg">
<style cb-classname="EntityStyle" id="2" type="text/css">
	.algorithm { fill: white; stroke: black; stroke-linecap: round; stroke-width: 2 }
	.algorithm-function { fill: none; stroke: black; stroke-linecap: round; stroke-width: 2 }
	.algorithm-functionline { fill: none; stroke: black; stroke-linecap: round; stroke-width: 2 }
	.algorithm-name { fill: none; stroke: black; stroke-linecap: round; stroke-width: 2 }
	.algorithm-nameline { fill: none; stroke: black; stroke-linecap: round; stroke-width: 2 }
	.algorithm-sequence { fill: none; stroke: black; stroke-linecap: round; stroke-width: 2 }
	.algorithm-sequenceline { fill: none; stroke: black; stroke-linecap: round; stroke-width: 2 }
	.algorithmline { fill: none; stroke: black; stroke-linecap: round; stroke-width: 2 }
	.annotation { fill: none; stroke: black; stroke-linecap: round; stroke-width: 2 }
	.annotationline { fill: none; stroke: black; stroke-linecap: round; stroke-width: 2 }
	.frame { fill: none; stroke: black; stroke-linecap: round; stroke-width: 2 }
	.frameline { fill: none; stroke: black; stroke-linecap: round; stroke-width: 2 }
	.signal { fill: black; stroke: black; stroke-linecap: round; stroke-width: 2 }
	.signalline { fill: none; stroke: black; stroke-linecap: round; stroke-width: 2 }
	text.algorithm { fill: black; font-family: MS Shell Dlg 2; font-size: 14; stroke: none }
	text.algorithm-function { fill: black; font-family: MS Shell Dlg 2; font-size: 16; stroke: none }
	text.algorithm-name { fill: black; font-family: MS Shell Dlg 2; font-size: 16; stroke: none }
	text.algorithm-sequence { fill: black; font-family: MS Shell Dlg 2; font-size: 16; stroke: none }
	text.annotation { fill: black; font-family: MS Shell Dlg 2; font-size: 16; stroke: none }
	text.frame { fill: black; font-family: MS Shell Dlg 2; font-size: 16; stroke: none }
	text.signal { fill: black; font-family: MS Shell Dlg 2; font-size: 12; stroke: none }
</style>
<g cb-classname="NamedObject" cb-objectname="Comments" id="3">
<text cb-classname="GraphicTextEntity" class="annotation" fill="#000000" font-family="MS Shell Dlg 2" font-size="72" id="6g" x="3250" y="1440">
PCMD3-2
</text>
</g>
<g cb-classname="AlgorithmContainer" cb-objectname="Algorithms" id="4">
<g cb-alg-VFK="01T0800D02-EPO" cb-alg-VK9d="NO" cb-algorithm-id="008" cb-classname="ExternalPointInterface" cb-function-name="INPUT" id="3Q3">
<ellipse cb-classname="GraphicEllipseEntity" class="algorithm" cx="580" cy="2200" id="3Q6" rx="50" ry="50"/>
<rect cb-classname="GraphicRectangleEntity" class="algorithm" height="100" id="3Qt" width="40" x="490" y="2150"/>
<line cb-classname="GraphicLineEntity" class="algorithm" id="3Qq" x1="490" x2="530" y1="2200" y2="2200"/>
<g cb-classname="ControlPin" cb-pin-name="eY-VQQ-wxg" id="3Q8">
<line cb-classname="GraphicLineEntity" class="signalline" id="3Qm" x1="630" x2="660" y1="2200" y2="2200"/>
<g cb-classname="DynamicText" cb-source="5E-w6Y-QNrC" class="signal" id="3Qd" text-anchor="start">
<text cb-classname="GraphicTextEntity" class="signal" fill="black" font-style="normal" font-weight="normal" id="3Q7" text-anchor="start" text-decoration="normal" x="644" y="2197"/>
</g>
<g cb-classname="SignalSegment" id="4z7">
<line cb-classname="GraphicLineEntity" class="signalline" id="4zY" stroke="#1e12bf" stroke-dasharray="5,4" x1="660" x2="2560" y1="2200" y2="2200"/>
<g cb-classname="SignalSegment" id="4zW">
<line cb-classname="GraphicLineEntity" class="signalline" id="4d3" stroke="#1e12bf" stroke-dasharray="5,4" x1="2560" x2="2560" y1="2200" y2="2080"/>
<g cb-classname="SignalSegment" id="4d6">
<line cb-classname="GraphicLineEntity" class="signalline" id="4dt" stroke="#1e12bf" stroke-dasharray="5,4" x1="2560" x2="3000" y1="2080" y2="2080"/>
<g cb-classname="SignalConnection" cb-graphic-line="$442$" cb-input-pin="$6m0$" id="4dq"/>
</g>
</g>
</g>
</g>
<g cb-classname="PointStatusIndicator" cb-indicator-type="Highway" cb-source="BK-2ne-x27" id="3QY" visibility="hidden">
<line cb-classname="GraphicLineEntity" class="algorithmline" id="3QW" x1="530" x2="580" y1="2200" y2="2150"/>
<line cb-classname="GraphicLineEntity" class="algorithmline" id="3X3" x1="580" x2="630" y1="2150" y2="2200"/>
<line cb-classname="GraphicLineEntity" class="algorithmline" id="3X6" x1="630" x2="580" y1="2200" y2="2250"/>
<line cb-classname="GraphicLineEntity" class="algorithmline" id="3Xt" x1="580" x2="530" y1="2250" y2="2200"/>
</g>
<g cb-classname="PointStatusIndicator" cb-indicator-type="hardware" cb-source="bd-fyk-Hev" id="3Xq" visibility="visible">
<line cb-classname="GraphicLineEntity" class="algorithmline" id="3X8" x1="530" x2="630" y1="2150" y2="2150"/>
<line cb-classname="GraphicLineEntity" class="algorithmline" id="3Xm" x1="630" x2="630" y1="2150" y2="2250"/>
<line cb-classname="GraphicLineEntity" class="algorithmline" id="3Xd" x1="630" x2="530" y1="2250" y2="2250"/>
</g>
<g cb-classname="PointStatusIndicator" cb-indicator-type="alarm" cb-source="eY-VQQ-wxg" id="3X7" visibility="hidden">
<text cb-classname="GraphicTextEntity" class="algorithm" fill="#000000" font-family="arial" font-size="20" id="3XY" x="500" y="2185">
A
</text>
</g>
<g cb-classname="PointStatusIndicator" cb-indicator-type="ingraphic" cb-source="5E-41M-Msz" id="3XW" visibility="visible">
<text cb-classname="GraphicTextEntity" class="algorithm" fill="#000000" font-family="Arial" font-size="20" id="4V3" x="500" y="2235">
G
</text>
</g>
<g baseline-shift="-50%" cb-anchor-x="480" cb-anchor-y="2214" cb-classname="PointDescription" cb-content="extended" cb-labeled="false" cb-max-width="220" cb-source="BK-2ne-x27" class="algorithm" id="4V6" text-anchor="end">
<text baseline-shift="-50%" cb-classname="GraphicTextEntity" class="algorithm" id="4Vt" text-anchor="end" x="480" y="2189">
DESC: Point not found in
</text>
<text baseline-shift="-50%" cb-classname="GraphicTextEntity" class="algorithm" id="103z" text-anchor="end" x="480" y="2214">
database
</text>
<text baseline-shift="-50%" cb-classname="GraphicTextEntity" class="algorithm" id="1X8z" text-anchor="end" x="480" y="2239">
(01T0800D02-EPO)
</text>
</g>
<g cb-classname="DynamicText" cb-labeled="false" cb-pin-name="Oss" cb-source="cH-scs-UKG" class="algorithm" id="4Vq" text-anchor="start">
<text baseline-shift="0%" cb-classname="GraphicTextEntity" class="algorithm" fill="black" font-family="arial" font-size="20" font-style="normal" font-weight="normal" id="4V8" text-anchor="start" text-decoration="normal" x="650" y="2170"/>
</g>
<g baseline-shift="-100%" cb-anchor-x="650" cb-anchor-y="2210" cb-classname="PointReferences" cb-max-width="230" cb-originator="true" cb-source="jX-BXC-nuN" class="signal" id="4Vm" text-anchor="start">
<text baseline-shift="-100%" cb-classname="GraphicTextEntity" class="algorithm" id="4Vd" text-anchor="start" x="650" y="2210">
REF: Point not found in
</text>
<text baseline-shift="-100%" cb-classname="GraphicTextEntity" class="algorithm" id="2Qq3" text-anchor="start" x="650" y="2235">
database
</text>
<text baseline-shift="-100%" cb-classname="GraphicTextEntity" class="algorithm" id="2Qqc" text-anchor="start" x="650" y="2260">
(01T0800D02-EPO)
</text>
</g>
</g>
<g cb-alg-y30="01T0800D02-EPZ" cb-alg-yAJC="NO" cb-algorithm-id="009" cb-classname="ExternalPointInterface" cb-function-name="INPUT" id="4V7">
<ellipse cb-classname="GraphicEllipseEntity" class="algorithm" cx="580" cy="2370" id="4VY" rx="50" ry="50"/>
<rect cb-classname="GraphicRectangleEntity" class="algorithm" height="100" id="4VW" width="40" x="490" y="2320"/>
<line cb-classname="GraphicLineEntity" class="algorithm" id="4F3" x1="490" x2="530" y1="2370" y2="2370"/>
<g cb-classname="ControlPin" cb-pin-name="Do-oWF-Plc" id="4F6">
<line cb-classname="GraphicLineEntity" class="signalline" id="4Ft" x1="630" x2="660" y1="2370" y2="2370"/>
<g cb-classname="DynamicText" cb-source="LP-xOg-pFQu" class="signal" id="4Fq" text-anchor="start">
<text cb-classname="GraphicTextEntity" class="signal" fill="black" font-style="normal" font-weight="normal" id="4F8" text-anchor="start" text-decoration="normal" x="644" y="2367"/>
</g>
<g cb-classname="SignalSegment" id="4d8">
<line cb-classname="GraphicLineEntity" class="signalline" id="4dm" stroke="#1e12bf" stroke-dasharray="5,4" x1="660" x2="2640" y1="2370" y2="2370"/>
<g cb-classname="SignalSegment" id="4dd">
<line cb-classname="GraphicLineEntity" class="signalline" id="4d7" stroke="#1e12bf" stroke-dasharray="5,4" x1="2640" x2="2640" y1="2370" y2="2130"/>
<g cb-classname="SignalSegment" id="4dY">
<line cb-classname="GraphicLineEntity" class="signalline" id="4dW" stroke="#1e12bf" stroke-dasharray="5,4" x1="2640" x2="2990" y1="2130" y2="2130"/>
<g cb-classname="SignalConnection" cb-graphic-line="$449$" cb-input-pin="$tsT$" id="4g3"/>
</g>
</g>
</g>
</g>
<g cb-classname="PointStatusIndicator" cb-indicator-type="Highway" cb-source="9X-R9R-dcC" id="4Fm" visibility="hidden">
<line cb-classname="GraphicLineEntity" class="algorithmline" id="4Fd" x1="530" x2="580" y1="2370" y2="2320"/>
<line cb-classname="GraphicLineEntity" class="algorithmline" id="4F7" x1="580" x2="630" y1="2320" y2="2370"/>
<line cb-classname="GraphicLineEntity" class="algorithmline" id="4FY" x1="630" x2="580" y1="2370" y2="2420"/>
<line cb-classname="GraphicLineEntity" class="algorithmline" id="4FW" x1="580" x2="530" y1="2420" y2="2370"/>
</g>
<g cb-classname="PointStatusIndicator" cb-indicator-type="hardware" cb-source="Rh-K7Y-5Jh" id="453" visibility="visible">
<line cb-classname="GraphicLineEntity" class="algorithmline" id="456" x1="530" x2="630" y1="2320" y2="2320"/>
<line cb-classname="GraphicLineEntity" class="algorithmline" id="45t" x1="630" x2="630" y1="2320" y2="2420"/>
<line cb-classname="GraphicLineEntity" class="algorithmline" id="45q" x1="630" x2="530" y1="2420" y2="2420"/>
</g>
<g cb-classname="PointStatusIndicator" cb-indicator-type="alarm" cb-source="Do-oWF-Plc" id="458" visibility="hidden">
<text cb-classname="GraphicTextEntity" class="algorithm" fill="#000000" font-family="arial" font-size="20" id="45m" x="500" y="2355">
A
</text>
</g>
<g cb-classname="PointStatusIndicator" cb-indicator-type="ingraphic" cb-source="LP-0kb-6Np" id="45d" visibility="visible">
<text cb-classname="GraphicTextEntity" class="algorithm" fill="#000000" font-family="Arial" font-size="20" id="457" x="500" y="2405">
G
</text>
</g>
<g baseline-shift="-50%" cb-anchor-x="480" cb-anchor-y="2384" cb-classname="PointDescription" cb-content="extended" cb-labeled="false" cb-max-width="220" cb-source="9X-R9R-dcC" class="algorithm" id="45Y" text-anchor="end">
<text baseline-shift="-50%" cb-classname="GraphicTextEntity" class="algorithm" id="45W" text-anchor="end" x="480" y="2359">
DESC: Point not found in
</text>
<text baseline-shift="-50%" cb-classname="GraphicTextEntity" class="algorithm" id="1033" text-anchor="end" x="480" y="2384">
database
</text>
<text baseline-shift="-50%" cb-classname="GraphicTextEntity" class="algorithm" id="103c" text-anchor="end" x="480" y="2409">
(01T0800D02-EPZ)
</text>
</g>
<g cb-classname="DynamicText" cb-labeled="false" cb-pin-name="TVq" cb-source="9O-q0d-Z2T" class="algorithm" id="4z3" text-anchor="start">
<text baseline-shift="0%" cb-classname="GraphicTextEntity" class="algorithm" fill="black" font-family="arial" font-size="20" font-style="normal" font-weight="normal" id="4z6" text-anchor="start" text-decoration="normal" x="650" y="2340"/>
</g>
<g baseline-shift="-100%" cb-anchor-x="650" cb-anchor-y="2380" cb-classname="PointReferences" cb-max-width="230" cb-originator="true" cb-source="bd-fyk-Hev" class="signal" id="4zt" text-anchor="start">
<text baseline-shift="-100%" cb-classname="GraphicTextEntity" class="algorithm" id="4zq" text-anchor="start" x="650" y="2380">
REF: Point not found in
</text>
<text baseline-shift="-100%" cb-classname="GraphicTextEntity" class="algorithm" id="2QqK" text-anchor="start" x="650" y="2405">
database
</text>
<text baseline-shift="-100%" cb-classname="GraphicTextEntity" class="algorithm" id="2Q82" text-anchor="start" x="650" y="2430">
(01T0800D02-EPZ)
</text>
</g>
</g>
<g cb-alg-rVQJ="1" cb-alg-s1oQ="69" cb-algorithm-id="00a" cb-classname="ControlAlgorithm" cb-function-name="DVALGEN" cb-modify-id="00000001" id="4g6">
<rect cb-classname="GraphicRectangleEntity" class="algorithm" height="100" id="4gt" width="140" x="1990" y="1650"/>
<text baseline-shift="-50%" cb-classname="GraphicTextEntity" class="algorithm" fill="#000000" font-family="MS Shell Dlg" font-size="18" id="4gq" text-anchor="middle" x="2060" y="1700">
DVALGEN
</text>
<g cb-classname="ControlPin" cb-pin-name="9X-R9R-dcC" id="4g8">
<line cb-classname="GraphicLineEntity" class="signalline" id="4gm" x1="2130" x2="2150" y1="1700" y2="1700"/>
<g cb-classname="DynamicText" cb-source="9O-I9z-BJwS" class="signal" id="4gd" text-anchor="start">
<text cb-classname="GraphicTextEntity" class="signal" fill="black" font-style="normal" font-weight="normal" id="4g7" text-anchor="start" text-decoration="normal" x="2144" y="1697"/>
</g>
<g cb-classname="SignalSegment" id="4gY">
<line cb-classname="GraphicLineEntity" class="signalline" id="1MYm" stroke="#1e12bf" stroke-dasharray="5,4" x1="2150" x2="2700" y1="1700" y2="1700"/>
<g cb-classname="SignalSegment" id="1MYo">
<ellipse cb-classname="GraphicEllipseEntity" class="signal" cx="2700" cy="1700" fill="#1e12bf" id="1MYK" rx="5" ry="5" stroke="#1e12bf" stroke-dasharray="5,4"/>
<line cb-classname="GraphicLineEntity" class="signalline" id="4gW" stroke="#1e12bf" stroke-dasharray="5,4" x1="2700" x2="2990" y1="1700" y2="1700"/>
<g cb-classname="SignalConnection" cb-graphic-line="$459$" cb-input-pin="$iis$" id="403"/>
<line cb-classname="GraphicLineEntity" class="signalline" id="40q" stroke="#1e12bf" stroke-dasharray="5,4" x1="2700" x2="2700" y1="1700" y2="1760"/>
<g cb-classname="SignalSegment" id="408">
<line cb-classname="GraphicLineEntity" class="signalline" id="40m" stroke="#1e12bf" stroke-dasharray="5,4" x1="2700" x2="2990" y1="1760" y2="1760"/>
<g cb-classname="SignalConnection" cb-graphic-line="$465$" cb-input-pin="$7Sn$" id="40d"/>
</g>
<g cb-classname="SignalSegment" id="1XqK">
<line cb-classname="GraphicLineEntity" class="signalline" id="1MYG" stroke="#1e12bf" stroke-dasharray="5,4" x1="2700" x2="2700" y1="900" y2="780"/>
<g cb-classname="SignalSegment" id="1MYz">
<line cb-classname="GraphicLineEntity" class="signalline" id="1MY3" stroke="#1e12bf" stroke-dasharray="5,4" x1="2700" x2="2990" y1="780" y2="780"/>
<g cb-classname="SignalConnection" cb-graphic-line="$1787$" cb-input-pin="$Oq$" id="1MYc"/>
</g>
<g cb-classname="SignalConnection" cb-graphic-line="$1942$" cb-input-pin="$ms$" id="1X8m"/>
<line cb-classname="GraphicLineEntity" class="signalline" id="1X8J" stroke="#1e12bf" stroke-dasharray="5,4" x1="2700" x2="2990" y1="900" y2="900"/>
<ellipse cb-classname="GraphicEllipseEntity" class="signal" cx="2700" cy="900" fill="#1e12bf" id="1X8o" rx="5" ry="5" stroke="#1e12bf" stroke-dasharray="5,4"/>
</g>
<line cb-classname="GraphicLineEntity" class="signalline" id="1Xqc" stroke="#1e12bf" stroke-dasharray="5,4" x1="2700" x2="2700" y1="1700" y2="900"/>
</g>
</g>
</g>
<g cb-classname="DynamicText" cb-labeled="true" cb-source="Do-oWF-2HzN" class="algorithm" id="1V3K" text-anchor="start">
<text cb-classname="GraphicTextEntity" class="algorithm" fill="black" font-style="normal" font-weight="normal" id="1V62" text-anchor="start" text-decoration="normal" x="2020" y="1640"/>
</g>
</g>
<g cb-alg-dmA9="69" cb-alg-vRQP="0" cb-algorithm-id="00b" cb-classname="ControlAlgorithm" cb-function-name="DVALGEN" cb-modify-id="00000001" id="40Y">
<rect cb-classname="GraphicRectangleEntity" class="algorithm" height="100" id="40W" width="140" x="1990" y="1370"/>
<text baseline-shift="-50%" cb-classname="GraphicTextEntity" class="algorithm" fill="#000000" font-family="MS Shell Dlg" font-size="18" id="4M3" text-anchor="middle" x="2060" y="1420">
DVALGEN
</text>
<g cb-classname="ControlPin" cb-pin-name="bd-fyk-Hev" id="4M6">
<line cb-classname="GraphicLineEntity" class="signalline" id="4Mt" x1="2130" x2="2150" y1="1420" y2="1420"/>
<g cb-classname="DynamicText" cb-source="5C-apA-h0yj" class="signal" id="4Mq" text-anchor="start">
<text cb-classname="GraphicTextEntity" class="signal" fill="black" font-style="normal" font-weight="normal" id="4M8" text-anchor="start" text-decoration="normal" x="2144" y="1417"/>
</g>
<g cb-classname="SignalSegment" id="4Mm">
<line cb-classname="GraphicLineEntity" class="signalline" id="4MY" stroke="#1e12bf" stroke-dasharray="5,4" x1="2150" x2="2810" y1="1420" y2="1420"/>
<g cb-classname="SignalSegment" id="4MW">
<line cb-classname="GraphicLineEntity" class="signalline" id="4Q3" stroke="#1e12bf" stroke-dasharray="5,4" x1="2810" x2="2810" y1="1420" y2="1480"/>
<g cb-classname="SignalSegment" id="4Q6">
<line cb-classname="GraphicLineEntity" class="signalline" id="4Qt" stroke="#1e12bf" stroke-dasharray="5,4" x1="2810" x2="2990" y1="1480" y2="1480"/>
<g cb-classname="SignalConnection" cb-graphic-line="$482$" cb-input-pin="$L7X$" id="4Qq"/>
<line cb-classname="GraphicLineEntity" class="signalline" id="1F83" stroke="#1e12bf" stroke-dasharray="5,4" x1="2810" x2="2810" y1="1480" y2="2030"/>
<g cb-classname="SignalSegment" id="1F8c">
<line cb-classname="GraphicLineEntity" class="signalline" id="1F8K" stroke="#1e12bf" stroke-dasharray="5,4" x1="2810" x2="3000" y1="2030" y2="2030"/>
<g cb-classname="SignalConnection" cb-graphic-line="$1149$" cb-input-pin="$qsa$" id="1Fm2"/>
</g>
<ellipse cb-classname="GraphicEllipseEntity" class="signal" cx="2810" cy="1480" fill="#1e12bf" id="1FmL" rx="5" ry="5" stroke="#1e12bf" stroke-dasharray="5,4"/>
</g>
<line cb-classname="GraphicLineEntity" class="signalline" id="4Md" stroke="#1e12bf" stroke-dasharray="5,4" x1="2810" x2="3000" y1="1420" y2="1420"/>
<g cb-classname="SignalConnection" cb-graphic-line="$476$" cb-input-pin="$9Xs$" id="4M7"/>
<ellipse cb-classname="GraphicEllipseEntity" class="signal" cx="2810" cy="1420" fill="#1e12bf" id="4Q8" rx="5" ry="5" stroke="#1e12bf" stroke-dasharray="5,4"/>
<line cb-classname="GraphicLineEntity" class="signalline" id="4Qm" stroke="#1e12bf" stroke-dasharray="5,4" x1="2810" x2="2810" y1="1420" y2="1150"/>
<g cb-classname="SignalSegment" id="4Qd">
<line cb-classname="GraphicLineEntity" class="signalline" id="4Q7" stroke="#1e12bf" stroke-dasharray="5,4" x1="2810" x2="3000" y1="1150" y2="1150"/>
<g cb-classname="SignalConnection" cb-graphic-line="$487$" cb-input-pin="$3XG$" id="4QY"/>
<ellipse cb-classname="GraphicEllipseEntity" class="signal" cx="2810" cy="1150" fill="#1e12bf" id="1MWz" rx="5" ry="5" stroke="#1e12bf" stroke-dasharray="5,4"/>
<line cb-classname="GraphicLineEntity" class="signalline" id="1XqL" stroke="#1e12bf" stroke-dasharray="5,4" x1="2810" x2="2810" y1="1150" y2="860"/>
<g cb-classname="SignalSegment" id="1XqJ">
<line cb-classname="GraphicLineEntity" class="signalline" id="1Q3K" stroke="#1e12bf" stroke-dasharray="5,4" x1="2810" x2="2810" y1="860" y2="820"/>
<g cb-classname="SignalSegment" id="1Q62">
<g cb-classname="SignalConnection" cb-graphic-line="$1813$" cb-input-pin="$ha$" id="1Q6o"/>
<line cb-classname="GraphicLineEntity" class="signalline" id="1Q6m" stroke="#1e12bf" stroke-dasharray="5,4" x1="2810" x2="2990" y1="820" y2="820"/>
</g>
<g cb-classname="SignalConnection" cb-graphic-line="$1935$" cb-input-pin="$kn$" id="1Xqz"/>
<line cb-classname="GraphicLineEntity" class="signalline" id="1XqG" stroke="#1e12bf" stroke-dasharray="5,4" x1="2810" x2="2990" y1="860" y2="860"/>
<ellipse cb-classname="GraphicEllipseEntity" class="signal" cx="2810" cy="860" fill="#1e12bf" id="1Xq3" rx="5" ry="5" stroke="#1e12bf" stroke-dasharray="5,4"/>
</g>
</g>
</g>
</g>
</g>
<g cb-classname="DynamicText" cb-labeled="true" cb-source="Tj-Jqq-H2nl" class="algorithm" id="1V33" text-anchor="start">
<text cb-classname="GraphicTextEntity" class="algorithm" fill="black" font-style="normal" font-weight="normal" id="1V3c" text-anchor="start" text-decoration="normal" x="2020" y="1360"/>
</g>
</g>
<g cb-alg-Z2T="01T0800D01-EPO" cb-alg-Z31q="NO" cb-algorithm-id="00c" cb-classname="ExternalPointInterface" cb-function-name="INPUT" id="4QW">
<ellipse cb-classname="GraphicEllipseEntity" class="algorithm" cx="580" cy="1070" id="4X3" rx="50" ry="50"/>
<rect cb-classname="GraphicRectangleEntity" class="algorithm" height="100" id="4X6" width="40" x="490" y="1020"/>
<line cb-classname="GraphicLineEntity" class="algorithm" id="4Xt" x1="490" x2="530" y1="1070" y2="1070"/>
<g cb-classname="ControlPin" cb-pin-name="9X-R9R-dcC" id="4Xq">
<line cb-classname="GraphicLineEntity" class="signalline" id="4X8" x1="630" x2="660" y1="1070" y2="1070"/>
<g cb-classname="DynamicText" cb-source="9O-I9z-BJwS" class="signal" id="4Xm" text-anchor="start">
<text cb-classname="GraphicTextEntity" class="signal" fill="black" font-style="normal" font-weight="normal" id="4Xd" text-anchor="start" text-decoration="normal" x="644" y="1067"/>
</g>
<g cb-classname="SignalSegment" id="506">
<line cb-classname="GraphicLineEntity" class="signalline" id="50t" stroke="#1e12bf" stroke-dasharray="5,4" x1="660" x2="1430" y1="1070" y2="1070"/>
<g cb-classname="SignalConnection" cb-graphic-line="$562$" cb-input-pin="$RQw$" id="50q"/>
</g>
</g>
<g cb-classname="PointStatusIndicator" cb-indicator-type="Highway" cb-source="bd-fyk-Hev" id="4X7" visibility="hidden">
<line cb-classname="GraphicLineEntity" class="algorithmline" id="4XY" x1="530" x2="580" y1="1070" y2="1020"/>
<line cb-classname="GraphicLineEntity" class="algorithmline" id="4XW" x1="580" x2="630" y1="1020" y2="1070"/>
<line cb-classname="GraphicLineEntity" class="algorithmline" id="5V3" x1="630" x2="580" y1="1070" y2="1120"/>
<line cb-classname="GraphicLineEntity" class="algorithmline" id="5V6" x1="580" x2="530" y1="1120" y2="1070"/>
</g>
<g cb-classname="PointStatusIndicator" cb-indicator-type="hardware" cb-source="Do-oWF-Plc" id="5Vt" visibility="visible">
<line cb-classname="GraphicLineEntity" class="algorithmline" id="5Vq" x1="530" x2="630" y1="1020" y2="1020"/>
<line cb-classname="GraphicLineEntity" class="algorithmline" id="5V8" x1="630" x2="630" y1="1020" y2="1120"/>
<line cb-classname="GraphicLineEntity" class="algorithmline" id="5Vm" x1="630" x2="530" y1="1120" y2="1120"/>
</g>
<g cb-classname="PointStatusIndicator" cb-indicator-type="alarm" cb-source="9X-R9R-dcC" id="5Vd" visibility="hidden">
<text cb-classname="GraphicTextEntity" class="algorithm" fill="#000000" font-family="arial" font-size="20" id="5V7" x="500" y="1055">
A
</text>
</g>
<g cb-classname="PointStatusIndicator" cb-indicator-type="ingraphic" cb-source="9O-q0d-Z2T" id="5VY" visibility="visible">
<text cb-classname="GraphicTextEntity" class="algorithm" fill="#000000" font-family="Arial" font-size="20" id="5VW" x="500" y="1105">
G
</text>
</g>
<g baseline-shift="-50%" cb-anchor-x="480" cb-anchor-y="1084" cb-classname="PointDescription" cb-content="extended" cb-labeled="false" cb-max-width="220" cb-source="bd-fyk-Hev" class="algorithm" id="5F3" text-anchor="end">
<text baseline-shift="-50%" cb-classname="GraphicTextEntity" class="algorithm" id="5F6" text-anchor="end" x="480" y="1059">
DESC: Point not found in
</text>
<text baseline-shift="-50%" cb-classname="GraphicTextEntity" class="algorithm" id="1X83" text-anchor="end" x="480" y="1084">
database
</text>
<text baseline-shift="-50%" cb-classname="GraphicTextEntity" class="algorithm" id="2Q8L" text-anchor="end" x="480" y="1109">
(01T0800D01-EPO)
</text>
</g>
<g cb-classname="DynamicText" cb-labeled="false" cb-pin-name="zh9" cb-source="5C-2h0-Y9p" class="algorithm" id="5Ft" text-anchor="start">
<text baseline-shift="0%" cb-classname="GraphicTextEntity" class="algorithm" fill="black" font-family="arial" font-size="20" font-style="normal" font-weight="normal" id="5Fq" text-anchor="start" text-decoration="normal" x="650" y="1040"/>
</g>
<g baseline-shift="-100%" cb-anchor-x="650" cb-anchor-y="1080" cb-classname="PointReferences" cb-max-width="230" cb-originator="true" cb-source="eY-VQQ-wxg" class="signal" id="5F8" text-anchor="start">
<text baseline-shift="-100%" cb-classname="GraphicTextEntity" class="algorithm" id="5Fm" text-anchor="start" x="650" y="1080">
REF: Point not found in
</text>
<text baseline-shift="-100%" cb-classname="GraphicTextEntity" class="algorithm" id="2Q8J" text-anchor="start" x="650" y="1105">
database
</text>
<text baseline-shift="-100%" cb-classname="GraphicTextEntity" class="algorithm" id="2Q8m" text-anchor="start" x="650" y="1130">
(01T0800D01-EPO)
</text>
</g>
</g>
<g cb-alg-nirQ="NO" cb-alg-nuN="01TBC-H01" cb-algorithm-id="00d" cb-classname="ExternalPointInterface" cb-function-name="INPUT" id="5Fd">
<ellipse cb-classname="GraphicEllipseEntity" class="algorithm" cx="580" cy="1240" id="5F7" rx="50" ry="50"/>
<rect cb-classname="GraphicRectangleEntity" class="algorithm" height="100" id="5FY" width="40" x="490" y="1190"/>
<line cb-classname="GraphicLineEntity" class="algorithm" id="5FW" x1="490" x2="530" y1="1240" y2="1240"/>
<g cb-classname="ControlPin" cb-pin-name="cH-scs-UKG" id="553">
<line cb-classname="GraphicLineEntity" class="signalline" id="556" x1="630" x2="660" y1="1240" y2="1240"/>
<g cb-classname="DynamicText" cb-source="jX-EJ6-eVkV" class="signal" id="55t" text-anchor="start">
<text cb-classname="GraphicTextEntity" class="signal" fill="black" font-style="normal" font-weight="normal" id="55q" text-anchor="start" text-decoration="normal" x="644" y="1237"/>
</g>
<g cb-classname="SignalSegment" id="5MY">
<g cb-classname="SignalSegment" id="1Q82">
<line cb-classname="GraphicLineEntity" class="signalline" id="1Q8L" stroke="#1e12bf" stroke-dasharray="5,4" x1="1320" x2="1320" y1="1240" y2="1110"/>
<g cb-classname="SignalSegment" id="1Q8J">
<line cb-classname="GraphicLineEntity" class="signalline" id="1Q8m" stroke="#1e12bf" stroke-dasharray="5,4" x1="1320" x2="1430" y1="1110" y2="1110"/>
<g cb-classname="SignalConnection" cb-graphic-line="$1843$" cb-input-pin="$SQs$" id="1Q8o"/>
</g>
</g>
<line cb-classname="GraphicLineEntity" class="signalline" id="1QqK" stroke="#1e12bf" stroke-dasharray="5,4" x1="660" x2="1320" y1="1240" y2="1240"/>
</g>
</g>
<g cb-classname="PointStatusIndicator" cb-indicator-type="Highway" cb-source="Rh-K7Y-5Jh" id="558" visibility="visible">
<line cb-classname="GraphicLineEntity" class="algorithmline" id="55m" x1="530" x2="580" y1="1240" y2="1190"/>
<line cb-classname="GraphicLineEntity" class="algorithmline" id="55d" x1="580" x2="630" y1="1190" y2="1240"/>
<line cb-classname="GraphicLineEntity" class="algorithmline" id="557" x1="630" x2="580" y1="1240" y2="1290"/>
<line cb-classname="GraphicLineEntity" class="algorithmline" id="55Y" x1="580" x2="530" y1="1290" y2="1240"/>
</g>
<g cb-classname="PointStatusIndicator" cb-indicator-type="hardware" cb-source="5E-41M-Msz" id="55W" visibility="hidden">
<line cb-classname="GraphicLineEntity" class="algorithmline" id="5z3" x1="530" x2="630" y1="1190" y2="1190"/>
<line cb-classname="GraphicLineEntity" class="algorithmline" id="5z6" x1="630" x2="630" y1="1190" y2="1290"/>
<line cb-classname="GraphicLineEntity" class="algorithmline" id="5zt" x1="630" x2="530" y1="1290" y2="1290"/>
</g>
<g cb-classname="PointStatusIndicator" cb-indicator-type="alarm" cb-source="cH-scs-UKG" id="5zq" visibility="hidden">
<text cb-classname="GraphicTextEntity" class="algorithm" fill="#000000" font-family="arial" font-size="20" id="5z8" x="500" y="1225">
A
</text>
</g>
<g cb-classname="PointStatusIndicator" cb-indicator-type="ingraphic" cb-source="jX-BXC-nuN" id="5zm" visibility="hidden">
<text cb-classname="GraphicTextEntity" class="algorithm" fill="#000000" font-family="Arial" font-size="20" id="5zd" x="500" y="1275">
G
</text>
</g>
<g baseline-shift="-50%" cb-anchor-x="480" cb-anchor-y="1254" cb-classname="PointDescription" cb-content="extended" cb-labeled="false" cb-max-width="220" cb-source="Rh-K7Y-5Jh" class="algorithm" id="5z7" text-anchor="end">
<text baseline-shift="-50%" cb-classname="GraphicTextEntity" class="algorithm" id="5zY" text-anchor="end" x="480" y="1242">
DESC: Point not found in
</text>
<text baseline-shift="-50%" cb-classname="GraphicTextEntity" class="algorithm" id="103K" text-anchor="end" x="480" y="1267">
database (01TBC-H01)
</text>
</g>
<g cb-classname="DynamicText" cb-labeled="false" cb-pin-name="avT" cb-source="Tj-Jqq-O0k" class="algorithm" id="5zW" text-anchor="start">
<text baseline-shift="0%" cb-classname="GraphicTextEntity" class="algorithm" fill="black" font-family="arial" font-size="20" font-style="normal" font-weight="normal" id="5d3" text-anchor="start" text-decoration="normal" x="650" y="1210"/>
</g>
<g baseline-shift="-100%" cb-anchor-x="650" cb-anchor-y="1250" cb-classname="PointReferences" cb-max-width="230" cb-originator="true" cb-source="Do-oWF-Plc" class="signal" id="5d6" text-anchor="start">
<text baseline-shift="-100%" cb-classname="GraphicTextEntity" class="algorithm" id="5dt" text-anchor="start" x="650" y="1250">
REF: Point not found in
</text>
<text baseline-shift="-100%" cb-classname="GraphicTextEntity" class="algorithm" id="2Q8G" text-anchor="start" x="650" y="1275">
database (01TBC-H01)
</text>
</g>
</g>
<g cb-alg-137="$489$cb-alg-out$" cb-alg-13E="$516$cb-alg-out$" cb-algorithm-id="00e" cb-classname="FastBooleanAlgorithm" cb-function-name="AND" cb-modify-id="00000001" id="5dq">
<rect cb-classname="GraphicRectangleEntity" class="algorithm" height="60" id="5d8" width="60" x="1450" y="1060"/>
<g cb-classname="ControlPin" cb-pin-name="9X-R9R-fNv" id="5dm">
<line cb-classname="GraphicLineEntity" class="signalline" id="5dd" x1="1430" x2="1450" y1="1070" y2="1070"/>
<polygon cb-classname="GraphicPolygonEntity" class="signal" id="5d7" points="1450,1070 1439,1064 1439,1075"/>
<g cb-classname="DynamicText" cb-source="jX-EJ6-eVkV" class="signal" id="5dY" text-anchor="end">
<text cb-classname="GraphicTextEntity" class="signal" fill="black" font-style="normal" font-weight="normal" id="5dW" text-anchor="end" text-decoration="normal" x="1435" y="1067"/>
</g>
</g>
<g cb-classname="ControlPin" cb-pin-name="Rh-K7Y-rhS" id="5g3">
<line cb-classname="GraphicLineEntity" class="signalline" id="5g6" x1="1430" x2="1450" y1="1110" y2="1110"/>
<polygon cb-classname="GraphicPolygonEntity" class="signal" id="5gt" points="1450,1110 1439,1104 1439,1115"/>
<g cb-classname="DynamicText" cb-source="eY-Krh-YRqY" class="signal" id="5gq" text-anchor="end">
<text cb-classname="GraphicTextEntity" class="signal" fill="black" font-style="normal" font-weight="normal" id="5g8" text-anchor="end" text-decoration="normal" x="1435" y="1107"/>
</g>
</g>
<line cb-classname="GraphicLineEntity" class="algorithm" id="5gm" x1="1450" x2="1450" y1="1050" y2="1130"/>
<g cb-classname="ControlPin" cb-pin-name="LP-0kb-6Np" id="5gd">
<line cb-classname="GraphicLineEntity" class="signalline" id="5g7" x1="1510" x2="1530" y1="1090" y2="1090"/>
<g cb-classname="DynamicText" cb-source="9X-rbp-5EZu" class="signal" id="5gY" text-anchor="start">
<text cb-classname="GraphicTextEntity" class="signal" fill="black" font-style="normal" font-weight="normal" id="5gW" text-anchor="start" text-decoration="normal" x="1524" y="1087"/>
</g>
<g cb-classname="SignalSegment" id="5QY">
<line cb-classname="GraphicLineEntity" class="signalline" id="6Vm" stroke="#1e12bf" stroke-dasharray="5,4" x1="1530" x2="2061" y1="1090" y2="1090"/>
<g cb-classname="SignalSegment" id="6Vd">
<line cb-classname="GraphicLineEntity" class="signalline" id="6V7" stroke="#1e12bf" stroke-dasharray="5,4" x1="2061" x2="2061" y1="1090" y2="1210"/>
<g cb-classname="SignalSegment" id="6VY">
<line cb-classname="GraphicLineEntity" class="signalline" id="6VW" stroke="#1e12bf" stroke-dasharray="5,4" x1="2061" x2="2360" y1="1210" y2="1210"/>
<g cb-classname="SignalConnection" cb-graphic-line="$609$" cb-input-pin="$Qf6$" id="6F3"/>
</g>
<line cb-classname="GraphicLineEntity" class="signalline" id="5QW" stroke="#1e12bf" stroke-dasharray="5,4" x1="2061" x2="3000" y1="1090" y2="1090"/>
<g cb-classname="SignalConnection" cb-graphic-line="$589$" cb-input-pin="$q7$" id="5X3"/>
<ellipse cb-classname="GraphicEllipseEntity" class="signal" cx="2061" cy="1090" fill="#1e12bf" id="6F6" rx="5" ry="5" stroke="#1e12bf" stroke-dasharray="5,4"/>
</g>
</g>
</g>
<text baseline-shift="-50%" cb-classname="GraphicTextEntity" class="algorithm" fill="#000000" font-family="MS Shell Dlg" id="503" text-anchor="middle" x="1481" y="1086">
AND
</text>
</g>
<g cb-alg-J63="$543$cb-alg-out$" cb-algorithm-id="010" cb-classname="FastBooleanAlgorithm" cb-function-name="NOT" cb-modify-id="00000001" id="5X6">
<rect cb-classname="GraphicRectangleEntity" class="algorithm" height="40" id="5Xt" width="40" x="2380" y="1190"/>
<g cb-classname="ControlPin" cb-pin-name="Do-oWF-OQu" id="5Xq">
<line cb-classname="GraphicLineEntity" class="signalline" id="5X8" x1="2360" x2="2380" y1="1210" y2="1210"/>
<polygon cb-classname="GraphicPolygonEntity" class="signal" id="5Xm" points="2380,1210 2369,1204 2369,1215"/>
<g cb-classname="DynamicText" cb-source="BK-VOQ-Zcw7" class="signal" id="5Xd" text-anchor="end">
<text cb-classname="GraphicTextEntity" class="signal" fill="black" font-style="normal" font-weight="normal" id="5X7" text-anchor="end" text-decoration="normal" x="2365" y="1207"/>
</g>
</g>
<g cb-classname="ControlPin" cb-pin-name="cH-scs-UKG" id="5XY">
<line cb-classname="GraphicLineEntity" class="signalline" id="5XW" x1="2420" x2="2440" y1="1210" y2="1210"/>
<g cb-classname="DynamicText" cb-source="jX-EJ6-eVkV" class="signal" id="6V3" text-anchor="start">
<text cb-classname="GraphicTextEntity" class="signal" fill="black" font-style="normal" font-weight="normal" id="6V6" text-anchor="start" text-decoration="normal" x="2434" y="1207"/>
</g>
<g cb-classname="SignalSegment" id="6Ft">
<line cb-classname="GraphicLineEntity" class="signalline" id="6Fq" stroke="#1e12bf" stroke-dasharray="5,4" x1="2440" x2="3000" y1="1210" y2="1210"/>
<g cb-classname="SignalConnection" cb-graphic-line="$613$" cb-input-pin="$7jy$" id="6F8"/>
</g>
</g>
<line cb-classname="GraphicLineEntity" class="algorithm" id="6Vt" x1="2390" x2="2390" y1="1200" y2="1220"/>
<line cb-classname="GraphicLineEntity" class="algorithm" id="6Vq" x1="2390" x2="2410" y1="1200" y2="1220"/>
<line cb-classname="GraphicLineEntity" class="algorithm" id="6V8" x1="2410" x2="2410" y1="1220" y2="1200"/>
</g>
<g cb-alg-Zr4F="65" cb-alg-poW9="60" cb-algorithm-id="007" cb-classname="ControlAlgorithm" cb-function-name="AVALGEN" cb-modify-id="00000002" id="1z7G">
<g cb-classname="ControlPin" cb-pin-name="BK-2ne-x27" id="1z7z">
<line cb-classname="GraphicLineEntity" class="signalline" id="1z73" x1="2600" x2="2620" y1="2470" y2="2470"/>
<g cb-classname="DynamicText" cb-source="cH-v9S-62zr" class="signal" id="1z7c">
<text baseline-shift="5%" cb-classname="GraphicTextEntity" class="signal" fill="black" font-style="normal" font-weight="normal" id="1z7K" text-decoration="normal" x="2611" y="2460"/>
</g>
<g cb-classname="SignalSegment" id="10to">
<line cb-classname="GraphicLineEntity" class="signalline" id="10tG" x1="2620" x2="2750" y1="2470" y2="2470"/>
<g cb-classname="SignalSegment" id="10tz">
<line cb-classname="GraphicLineEntity" class="signalline" id="10t3" x1="2750" x2="2750" y1="2470" y2="2300"/>
<g cb-classname="SignalSegment" id="10tc">
<line cb-classname="GraphicLineEntity" class="signalline" id="10tK" x1="2750" x2="3000" y1="2300" y2="2300"/>
<g cb-classname="SignalConnection" cb-graphic-line="$1629$" cb-input-pin="$iV3a$" id="10q2"/>
</g>
</g>
</g>
</g>
<polygon cb-classname="GraphicPolygonEntity" class="algorithm" id="1zY2" points="2560,2510 2600,2470 2560,2430 2520,2470"/>
<text baseline-shift="-50%" cb-classname="GraphicTextEntity" class="algorithm" font-size="44" id="1zYL" text-anchor="middle" x="2560" y="2453">
A
</text>
<g cb-classname="DynamicText" cb-labeled="true" cb-source="cH-scs-P2hu" class="algorithm" id="10qc" text-anchor="start">
<text cb-classname="GraphicTextEntity" class="algorithm" fill="black" font-style="normal" font-weight="normal" id="10qK" text-anchor="start" text-decoration="normal" x="2510" y="2420"/>
</g>
</g>
<g cb-alg-39fC="65" cb-alg-ZBXA="60" cb-algorithm-id="011" cb-classname="ControlAlgorithm" cb-function-name="AVALGEN" cb-modify-id="00000002" id="1zYJ">
<g cb-classname="ControlPin" cb-pin-name="5C-2h0-Y9p" id="1zYm">
<line cb-classname="GraphicLineEntity" class="signalline" id="1zYo" x1="2600" x2="2620" y1="2570" y2="2570"/>
<g cb-classname="DynamicText" cb-source="eY-Krh-YRqY" class="signal" id="1zYG">
<text baseline-shift="5%" cb-classname="GraphicTextEntity" class="signal" fill="black" font-style="normal" font-weight="normal" id="1zYz" text-decoration="normal" x="2611" y="2560"/>
</g>
<g cb-classname="SignalSegment" id="10qL">
<line cb-classname="GraphicLineEntity" class="signalline" id="10qJ" x1="2620" x2="2840" y1="2570" y2="2570"/>
<g cb-classname="SignalSegment" id="10qm">
<line cb-classname="GraphicLineEntity" class="signalline" id="10qo" x1="2840" x2="2840" y1="2570" y2="2340"/>
<g cb-classname="SignalSegment" id="10qG">
<line cb-classname="GraphicLineEntity" class="signalline" id="10qz" x1="2840" x2="3000" y1="2340" y2="2340"/>
<g cb-classname="SignalConnection" cb-graphic-line="$1636$" cb-input-pin="$lTIU$" id="10q3"/>
</g>
</g>
</g>
</g>
<polygon cb-classname="GraphicPolygonEntity" class="algorithm" id="1zY3" points="2560,2610 2600,2570 2560,2530 2520,2570"/>
<text baseline-shift="-50%" cb-classname="GraphicTextEntity" class="algorithm" font-size="44" id="1zYc" text-anchor="middle" x="2560" y="2553">
A
</text>
<g cb-classname="DynamicText" cb-labeled="true" cb-source="jX-BXC-rVQJ" class="algorithm" id="1082" text-anchor="start">
<text cb-classname="GraphicTextEntity" class="algorithm" fill="black" font-style="normal" font-weight="normal" id="108L" text-anchor="start" text-decoration="normal" x="2510" y="2530"/>
</g>
</g>
<g cb-alg-D9Bd="128" cb-alg-YLSd="1" cb-alg-scs="01T0800D02-KB" cb-algorithm-id="002" cb-classname="ControlAlgorithm" cb-function-name="KEYBOARD" cb-modify-id="00000004" id="1Q7G">
<g cb-classname="ControlPin" cb-pin-name="Rh-K7Y-5wrY" id="1Q7z">
<line cb-classname="GraphicLineEntity" class="signalline" id="1Q73" x1="2400" x2="2420" y1="390" y2="390"/>
<g cb-classname="DynamicText" cb-source="Tj-T13-p2WI" class="signal" id="1Q7c">
<text baseline-shift="5%" cb-classname="GraphicTextEntity" class="signal" fill="black" font-style="normal" font-weight="normal" id="1Q7K" text-decoration="normal" x="2436" y="386"/>
</g>
<g cb-classname="SignalSegment" id="1Xto">
<line cb-classname="GraphicLineEntity" class="signalline" id="1XtG" stroke="#1e12bf" stroke-dasharray="5,4" x1="2420" x2="2840" y1="390" y2="390"/>
<g cb-classname="SignalSegment" id="1Xtz">
<line cb-classname="GraphicLineEntity" class="signalline" id="1Xt3" stroke="#1e12bf" stroke-dasharray="5,4" x1="2840" x2="2840" y1="390" y2="700"/>
<g cb-classname="SignalSegment" id="1Xtc">
<line cb-classname="GraphicLineEntity" class="signalline" id="1XtK" stroke="#1e12bf" stroke-dasharray="5,4" x1="2840" x2="2980" y1="700" y2="700"/>
<g cb-classname="SignalConnection" cb-graphic-line="$1929$" cb-input-pin="$Vh$" id="1Xq2"/>
</g>
</g>
</g>
</g>
<g cb-classname="ControlPin" cb-pin-name="Do-oWF-K968" id="1QY2">
<line cb-classname="GraphicLineEntity" class="signalline" id="1QYL" x1="2400" x2="2420" y1="410" y2="410"/>
<g cb-classname="DynamicText" cb-source="LP-xOg-pFQu" class="signal" id="1QYJ">
<text baseline-shift="5%" cb-classname="GraphicTextEntity" class="signal" fill="black" font-style="normal" font-weight="normal" id="1QYm" text-decoration="normal" x="2436" y="406"/>
</g>
<g cb-classname="SignalSegment" id="1X63">
<line cb-classname="GraphicLineEntity" class="signalline" id="1X6c" stroke="#1e12bf" stroke-dasharray="5,4" x1="2420" x2="2810" y1="410" y2="410"/>
<g cb-classname="SignalSegment" id="1X6K">
<line cb-classname="GraphicLineEntity" class="signalline" id="1Xt2" stroke="#1e12bf" stroke-dasharray="5,4" x1="2810" x2="2810" y1="410" y2="740"/>
<g cb-classname="SignalSegment" id="1XtL">
<line cb-classname="GraphicLineEntity" class="signalline" id="1XtJ" stroke="#1e12bf" stroke-dasharray="5,4" x1="2810" x2="2980" y1="740" y2="740"/>
<g cb-classname="SignalConnection" cb-graphic-line="$1922$" cb-input-pin="$UH$" id="1Xtm"/>
</g>
</g>
</g>
</g>
<rect cb-classname="GraphicRectangleEntity" class="algorithm" height="140" id="1X32" width="100" x="2300" y="370"/>
<text cb-classname="GraphicTextEntity" class="algorithm" font-size="18" id="1X3L" text-anchor="middle" x="2350" y="428">
KEY
</text>
<text cb-classname="GraphicTextEntity" class="algorithm" font-size="18" id="1X3J" text-anchor="middle" x="2350" y="454">
BOARD
</text>
<g cb-classname="DynamicText" cb-source="5C-2h0-41M" class="algorithm" id="1X3m">
<text baseline-shift="5%" cb-classname="GraphicTextEntity" class="algorithm" fill="black" font-family="arial" font-size="12" font-style="normal" font-weight="normal" id="1X3o" text-decoration="normal" x="2410" y="522"/>
</g>
<g cb-classname="ControlPin" cb-pin-name="Do-oWF-rE0" id="1X3z">
<line cb-classname="GraphicLineEntity" class="signalline" id="1X33" x1="2400" x2="2420" y1="430" y2="430"/>
<g cb-classname="DynamicText" cb-source="LP-xOg-pFQu" class="signal" id="1X3c" text-anchor="start">
<text cb-classname="GraphicTextEntity" class="signal" fill="black" font-style="normal" font-weight="normal" id="1X3K" text-anchor="start" text-decoration="normal" transform="translate(2414,427)rotate(360)"/>
</g>
<g cb-classname="SignalSegment" id="1X62">
<line cb-classname="GraphicLineEntity" class="signalline" id="1X6L" stroke="#1e12bf" stroke-dasharray="5,4" x1="2420" x2="2780" y1="430" y2="430"/>
<g cb-classname="SignalSegment" id="1X6J">
<line cb-classname="GraphicLineEntity" class="signalline" id="1X6m" stroke="#1e12bf" stroke-dasharray="5,4" x1="2780" x2="2780" y1="430" y2="950"/>
<g cb-classname="SignalSegment" id="1X6o">
<line cb-classname="GraphicLineEntity" class="signalline" id="1X6G" stroke="#1e12bf" stroke-dasharray="5,4" x1="2780" x2="3000" y1="950" y2="950"/>
<g cb-classname="SignalConnection" cb-graphic-line="$1915$" cb-input-pin="$iVja$" id="1X6z"/>
</g>
</g>
</g>
</g>
</g>
<g cb-alg-8O="01T0800D02-LB" cb-alg-9QQiA="$1382$cb-alg-out$" cb-alg-Dj1="$468$cb-alg-out$" cb-alg-DjV="$468$cb-alg-out$" cb-alg-Pj1="$451$cb-alg-out$" cb-alg-PjV="$451$cb-alg-out$" cb-alg-RQC="$468$cb-alg-out$" cb-alg-RQl="01T0800D02-ALM" cb-alg-RT="$591$cb-alg-out$" cb-alg-Rp="$543$cb-alg-out$" cb-alg-ZeQiA="$1375$cb-alg-out$" cb-alg-aA="$451$cb-alg-out$" cb-alg-aAC="$1875$cb-alg-pk5$" cb-alg-aQC="$468$cb-alg-out$" cb-alg-aQn="$451$cb-alg-out$" cb-alg-aT="$1875$cb-alg-clos$" cb-alg-aos="$468$cb-alg-out$" cb-alg-ap="$1875$cb-alg-open$" cb-alg-nw="01T0800D02-TR" cb-alg-ve1="$407$cb-alg-out$" cb-alg-veV="$380$cb-alg-out$" cb-alg-vyX="$468$cb-alg-out$" cb-alg-xS6="01T0800D02-STS" cb-algorithm-id="001" cb-classname="ControlMacroReference" cb-function-name="PCMD3" cb-macro-crc="52110" cb-modify-id="00000001" id="60">
<rect cb-classname="GraphicRectangleEntity" class="annotation" height="1860" id="6M" width="750" x="3020" y="540"/>
<g cb-classname="ControlPin" cb-pin-name="bd-fyk-J5" id="6Q">
<line cb-classname="GraphicLineEntity" class="signalline" id="6X" x1="2980" x2="3020" y1="700" y2="700"/>
<polygon cb-classname="GraphicPolygonEntity" class="signal" id="7V" points="3020,700 3009,694 3009,705"/>
<g cb-classname="DynamicText" cb-source="Tj-T13-p2WI" class="signal" id="7F" text-anchor="end">
<text cb-classname="GraphicTextEntity" class="signal" fill="black" font-style="normal" font-weight="normal" id="75" text-anchor="end" text-decoration="normal" x="3005" y="697"/>
</g>
</g>
<g cb-classname="ControlPin" cb-pin-name="Do-oWF-ld" id="7z">
<line cb-classname="GraphicLineEntity" class="signalline" id="7d" x1="2980" x2="3020" y1="740" y2="740"/>
<polygon cb-classname="GraphicPolygonEntity" class="signal" id="7g" points="3020,740 3009,734 3009,745"/>
<g cb-classname="DynamicText" cb-source="BK-VOQ-Zcw7" class="signal" id="70" text-anchor="end">
<text cb-classname="GraphicTextEntity" class="signal" fill="black" font-style="normal" font-weight="normal" id="7M" text-anchor="end" text-decoration="normal" x="3005" y="737"/>
</g>
</g>
<g cb-classname="ControlPin" cb-pin-name="cH-scs-J2" id="7Q">
<line cb-classname="GraphicLineEntity" class="signalline" id="7X" x1="2990" x2="3020" y1="780" y2="780"/>
<polygon cb-classname="GraphicPolygonEntity" class="signal" id="8V" points="3020,780 3009,774 3009,785"/>
<g cb-classname="DynamicText" cb-source="bd-NWB-Ao6r" class="signal" id="8F" text-anchor="end">
<text cb-classname="GraphicTextEntity" class="signal" fill="black" font-style="normal" font-weight="normal" id="85" text-anchor="end" text-decoration="normal" x="3005" y="777"/>
</g>
</g>
<g cb-classname="ControlPin" cb-pin-name="5C-2h0-op2" id="8z">
<line cb-classname="GraphicLineEntity" class="signalline" id="8d" x1="2990" x2="3020" y1="820" y2="820"/>
<polygon cb-classname="GraphicPolygonEntity" class="signal" id="8g" points="3020,820 3009,814 3009,825"/>
<g cb-classname="DynamicText" cb-source="Do-Fqp-gHa2" class="signal" id="80" text-anchor="end">
<text cb-classname="GraphicTextEntity" class="signal" fill="black" font-style="normal" font-weight="normal" id="8M" text-anchor="end" text-decoration="normal" x="3005" y="817"/>
</g>
</g>
<g cb-classname="ControlPin" cb-pin-name="LP-0kb-Ttk" id="8Q">
<line cb-classname="GraphicLineEntity" class="signalline" id="8X" x1="2990" x2="3020" y1="860" y2="860"/>
<polygon cb-classname="GraphicPolygonEntity" class="signal" id="9V" points="3020,860 3009,854 3009,865"/>
<g cb-classname="DynamicText" cb-source="cH-v9S-62zr" class="signal" id="9F" text-anchor="end">
<text cb-classname="GraphicTextEntity" class="signal" fill="black" font-style="normal" font-weight="normal" id="95" text-anchor="end" text-decoration="normal" x="3005" y="857"/>
</g>
</g>
<g cb-classname="ControlPin" cb-pin-name="jX-BXC-kqv" id="9z">
<line cb-classname="GraphicLineEntity" class="signalline" id="9d" x1="2990" x2="3020" y1="900" y2="900"/>
<polygon cb-classname="GraphicPolygonEntity" class="signal" id="9g" points="3020,900 3009,894 3009,905"/>
<g cb-classname="DynamicText" cb-source="5C-apA-h0yj" class="signal" id="90" text-anchor="end">
<text cb-classname="GraphicTextEntity" class="signal" fill="black" font-style="normal" font-weight="normal" id="9M" text-anchor="end" text-decoration="normal" x="3005" y="897"/>
</g>
</g>
<g cb-classname="ControlPin" cb-pin-name="eY-VQQ-2P" id="9Q">
<line cb-classname="GraphicLineEntity" class="signalline" id="9X" x1="3000" x2="3020" y1="1090" y2="1090"/>
<polygon cb-classname="GraphicPolygonEntity" class="signal" id="1V3" points="3020,1090 3009,1084 3009,1095"/>
<g cb-classname="DynamicText" cb-source="LP-xOg-pFQu" class="signal" id="1V6" text-anchor="end">
<text cb-classname="GraphicTextEntity" class="signal" fill="black" font-style="normal" font-weight="normal" id="1Vt" text-anchor="end" text-decoration="normal" x="3005" y="1087"/>
</g>
</g>
<g cb-classname="ControlPin" cb-pin-name="9X-R9R-cL3" id="1Vq">
<line cb-classname="GraphicLineEntity" class="signalline" id="1V8" x1="3000" x2="3020" y1="1150" y2="1150"/>
<polygon cb-classname="GraphicPolygonEntity" class="signal" id="1Vm" points="3020,1150 3009,1144 3009,1155"/>
<g cb-classname="DynamicText" cb-source="jX-EJ6-eVkV" class="signal" id="1Vd" text-anchor="end">
<text cb-classname="GraphicTextEntity" class="signal" fill="black" font-style="normal" font-weight="normal" id="1V7" text-anchor="end" text-decoration="normal" x="3005" y="1147"/>
</g>
</g>
<g cb-classname="ControlPin" cb-pin-name="Rh-K7Y-oZ" id="1VY">
<line cb-classname="GraphicLineEntity" class="signalline" id="1VW" x1="3000" x2="3020" y1="1210" y2="1210"/>
<polygon cb-classname="GraphicPolygonEntity" class="signal" id="1F3" points="3020,1210 3009,1204 3009,1215"/>
<g cb-classname="DynamicText" cb-source="eY-Krh-YRqY" class="signal" id="1F6" text-anchor="end">
<text cb-classname="GraphicTextEntity" class="signal" fill="black" font-style="normal" font-weight="normal" id="1Ft" text-anchor="end" text-decoration="normal" x="3005" y="1207"/>
</g>
</g>
<g cb-classname="ControlPin" cb-pin-name="5E-41M-cSx" id="1Fq">
<line cb-classname="GraphicLineEntity" class="signalline" id="1F8" x1="3000" x2="3020" y1="1420" y2="1420"/>
<polygon cb-classname="GraphicPolygonEntity" class="signal" id="1Fm" points="3020,1420 3009,1414 3009,1425"/>
<g cb-classname="DynamicText" cb-source="9X-rbp-5EZu" class="signal" id="1Fd" text-anchor="end">
<text cb-classname="GraphicTextEntity" class="signal" fill="black" font-style="normal" font-weight="normal" id="1F7" text-anchor="end" text-decoration="normal" x="3005" y="1417"/>
</g>
</g>
<g cb-classname="ControlPin" cb-pin-name="9O-q0d-m5S" id="1FY">
<line cb-classname="GraphicLineEntity" class="signalline" id="1FW" x1="2990" x2="3020" y1="1480" y2="1480"/>
<polygon cb-classname="GraphicPolygonEntity" class="signal" id="153" points="3020,1480 3009,1474 3009,1485"/>
<g cb-classname="DynamicText" cb-source="Rh-Rge-34il" class="signal" id="156" text-anchor="end">
<text cb-classname="GraphicTextEntity" class="signal" fill="black" font-style="normal" font-weight="normal" id="15t" text-anchor="end" text-decoration="normal" x="3005" y="1477"/>
</g>
</g>
<g cb-classname="ControlPin" cb-pin-name="Tj-Jqq-xGP" id="15q">
<line cb-classname="GraphicLineEntity" class="signalline" id="158" x1="2990" x2="3020" y1="1700" y2="1700"/>
<polygon cb-classname="GraphicPolygonEntity" class="signal" id="15m" points="3020,1700 3009,1694 3009,1705"/>
<g cb-classname="DynamicText" cb-source="5E-w6Y-QNrC" class="signal" id="15d" text-anchor="end">
<text cb-classname="GraphicTextEntity" class="signal" fill="black" font-style="normal" font-weight="normal" id="157" text-anchor="end" text-decoration="normal" x="3005" y="1697"/>
</g>
</g>
<g cb-classname="ControlPin" cb-pin-name="BK-2ne-gV1" id="15Y">
<line cb-classname="GraphicLineEntity" class="signalline" id="15W" x1="2990" x2="3020" y1="1760" y2="1760"/>
<polygon cb-classname="GraphicPolygonEntity" class="signal" id="1z3" points="3020,1760 3009,1754 3009,1765"/>
<g cb-classname="DynamicText" cb-source="9O-I9z-BJwS" class="signal" id="1z6" text-anchor="end">
<text cb-classname="GraphicTextEntity" class="signal" fill="black" font-style="normal" font-weight="normal" id="1zt" text-anchor="end" text-decoration="normal" x="3005" y="1757"/>
</g>
</g>
<g cb-classname="ControlPin" cb-pin-name="bd-fyk-rqK" id="1zq">
<line cb-classname="GraphicLineEntity" class="signalline" id="1z8" x1="3000" x2="3020" y1="2030" y2="2030"/>
<polygon cb-classname="GraphicPolygonEntity" class="signal" id="1zm" points="3020,2030 3009,2024 3009,2035"/>
<g cb-classname="DynamicText" cb-source="Tj-T13-p2WI" class="signal" id="1zd" text-anchor="end">
<text cb-classname="GraphicTextEntity" class="signal" fill="black" font-style="normal" font-weight="normal" id="1z7" text-anchor="end" text-decoration="normal" x="3005" y="2027"/>
</g>
</g>
<g cb-classname="ControlPin" cb-pin-name="Do-oWF-ji6" id="1zY">
<line cb-classname="GraphicLineEntity" class="signalline" id="1zW" x1="3000" x2="3020" y1="2080" y2="2080"/>
<polygon cb-classname="GraphicPolygonEntity" class="signal" id="1d3" points="3020,2080 3009,2074 3009,2085"/>
<g cb-classname="DynamicText" cb-source="BK-VOQ-Zcw7" class="signal" id="1d6" text-anchor="end">
<text cb-classname="GraphicTextEntity" class="signal" fill="black" font-style="normal" font-weight="normal" id="1dt" text-anchor="end" text-decoration="normal" x="3005" y="2077"/>
</g>
</g>
<g cb-classname="ControlPin" cb-pin-name="cH-scs-Gav" id="1dq">
<line cb-classname="GraphicLineEntity" class="signalline" id="1d8" x1="2990" x2="3020" y1="2130" y2="2130"/>
<polygon cb-classname="GraphicPolygonEntity" class="signal" id="1dm" points="3020,2130 3009,2124 3009,2135"/>
<g cb-classname="DynamicText" cb-source="bd-NWB-Ao6r" class="signal" id="1dd" text-anchor="end">
<text cb-classname="GraphicTextEntity" class="signal" fill="black" font-style="normal" font-weight="normal" id="1d7" text-anchor="end" text-decoration="normal" x="3005" y="2127"/>
</g>
</g>
<g cb-classname="ControlPin" cb-pin-name="5C-2h0-ve" id="1dY">
<line cb-classname="GraphicLineEntity" class="signalline" id="1dW" x1="3770" x2="3790" y1="2060" y2="2060"/>
<g cb-classname="DynamicText" cb-source="eY-Krh-YRqY" class="signal" id="1g3" text-anchor="start">
<text cb-classname="GraphicTextEntity" class="signal" fill="black" font-style="normal" font-weight="normal" id="1g6" text-anchor="start" text-decoration="normal" x="3784" y="2057"/>
</g>
<g cb-classname="SignalSegment" id="658">
<line cb-classname="GraphicLineEntity" class="signalline" id="65m" stroke="#1e12bf" stroke-dasharray="5,4" x1="3790" x2="4430" y1="2060" y2="2060"/>
<g cb-classname="SignalSegment" id="65d">
<line cb-classname="GraphicLineEntity" class="signalline" id="657" stroke="#1e12bf" stroke-dasharray="5,4" x1="4430" x2="4430" y1="2060" y2="2180"/>
<g cb-classname="SignalSegment" id="65Y">
<line cb-classname="GraphicLineEntity" class="signalline" id="65W" stroke="#1e12bf" stroke-dasharray="5,4" x1="4430" x2="4790" y1="2180" y2="2180"/>
<g cb-classname="SignalConnection" cb-graphic-line="$629$" cb-input-pin="$N4l$" id="6z3"/>
</g>
</g>
</g>
</g>
<g cb-classname="ControlPin" cb-pin-name="5E-41M-9o" id="1gt">
<line cb-classname="GraphicLineEntity" class="signalline" id="1gq" x1="3770" x2="3800" y1="1970" y2="1970"/>
<g cb-classname="DynamicText" cb-source="BK-VOQ-Zcw7" class="signal" id="1g8" text-anchor="start">
<text cb-classname="GraphicTextEntity" class="signal" fill="black" font-style="normal" font-weight="normal" id="1gm" text-anchor="start" text-decoration="normal" x="3784" y="1967"/>
</g>
<g cb-classname="SignalSegment" id="656">
<line cb-classname="GraphicLineEntity" class="signalline" id="65t" stroke="#1e12bf" stroke-dasharray="5,4" x1="3800" x2="4790" y1="1970" y2="1970"/>
<g cb-classname="SignalConnection" cb-graphic-line="$622$" cb-input-pin="$ZsI$" id="65q"/>
</g>
</g>
<g cb-classname="ControlPin" cb-pin-name="cH-scs-K7z" id="1gd">
<line cb-classname="GraphicLineEntity" class="signalline" id="1g7" x1="3770" x2="3790" y1="1530" y2="1530"/>
<g cb-classname="DynamicText" cb-source="jX-EJ6-eVkV" class="signal" id="1gY" text-anchor="start">
<text cb-classname="GraphicTextEntity" class="signal" fill="black" font-style="normal" font-weight="normal" id="1gW" text-anchor="start" text-decoration="normal" x="3784" y="1527"/>
</g>
<g cb-classname="SignalSegment" id="6FY">
<line cb-classname="GraphicLineEntity" class="signalline" id="6FW" x1="3790" x2="4790" y1="1530" y2="1530"/>
<g cb-classname="SignalConnection" cb-graphic-line="$619$" cb-input-pin="$lRs$" id="653"/>
</g>
</g>
<g cb-classname="ControlPin" cb-pin-name="Rh-K7Y-Gvm" id="103">
<line cb-classname="GraphicLineEntity" class="signalline" id="106" x1="3770" x2="3800" y1="1250" y2="1250"/>
<g cb-classname="DynamicText" cb-source="Tj-T13-p2WI" class="signal" id="10t" text-anchor="start">
<text cb-classname="GraphicTextEntity" class="signal" fill="black" font-style="normal" font-weight="normal" id="10q" text-anchor="start" text-decoration="normal" x="3784" y="1247"/>
</g>
<g cb-classname="SignalSegment" id="6Fm">
<line cb-classname="GraphicLineEntity" class="signalline" id="6Fd" x1="3800" x2="4790" y1="1250" y2="1250"/>
<g cb-classname="SignalConnection" cb-graphic-line="$616$" cb-input-pin="$ijZ$" id="6F7"/>
</g>
</g>
<g cb-classname="ControlPin" cb-pin-name="9O-q0d-ZTTku" id="106m">
<line cb-classname="GraphicLineEntity" class="signalline" id="106o" x1="3000" x2="3020" y1="2300" y2="2300"/>
<polygon cb-classname="GraphicPolygonEntity" class="signal" id="106G" points="3020,2300 3009,2294 3009,2305"/>
<g cb-classname="DynamicText" cb-source="Rh-Rge-34il" class="signal" id="106z" text-anchor="end">
<text cb-classname="GraphicTextEntity" class="signal" fill="black" font-style="normal" font-weight="normal" id="1063" text-anchor="end" text-decoration="normal" x="3005" y="2297"/>
</g>
</g>
<g cb-classname="ControlPin" cb-pin-name="eY-VQQ-GngaC" id="106K">
<line cb-classname="GraphicLineEntity" class="signalline" id="10t2" x1="3000" x2="3020" y1="2340" y2="2340"/>
<polygon cb-classname="GraphicPolygonEntity" class="signal" id="10tL" points="3020,2340 3009,2334 3009,2345"/>
<g cb-classname="DynamicText" cb-source="LP-xOg-pFQu" class="signal" id="10tJ" text-anchor="end">
<text cb-classname="GraphicTextEntity" class="signal" fill="black" font-style="normal" font-weight="normal" id="10tm" text-anchor="end" text-decoration="normal" x="3005" y="2337"/>
</g>
</g>
<g cb-classname="ControlPin" cb-pin-name="5C-2h0-o0C" id="108m">
<line cb-classname="GraphicLineEntity" class="signalline" id="108o" x1="3000" x2="3020" y1="950" y2="950"/>
<polygon cb-classname="GraphicPolygonEntity" class="signal" id="108G" points="3020,950 3009,944 3009,955"/>
<g cb-classname="DynamicText" cb-source="Do-Fqp-gHa2" class="signal" id="108z" text-anchor="end">
<text cb-classname="GraphicTextEntity" class="signal" fill="black" font-style="normal" font-weight="normal" id="1083" text-anchor="end" text-decoration="normal" x="3005" y="947"/>
</g>
</g>
</g>
<g cb-alg-WB="$66$cb-alg-sts$" cb-algorithm-id="003" cb-classname="ExternalPointInterface" cb-function-name="OUTPUT" id="2d6">
<ellipse cb-classname="GraphicEllipseEntity" class="algorithm" cx="4870" cy="1250" id="2dt" rx="50" ry="50"/>
<rect cb-classname="GraphicRectangleEntity" class="algorithm" height="100" id="2dq" width="40" x="4920" y="1200"/>
<line cb-classname="GraphicLineEntity" class="algorithm" id="2d8" x1="4920" x2="4960" y1="1250" y2="1250"/>
<g cb-classname="ControlPin" cb-pin-name="BK-2ne-a5" id="2dm">
<line cb-classname="GraphicLineEntity" class="signalline" id="2dd" x1="4790" x2="4820" y1="1250" y2="1250"/>
<polygon cb-classname="GraphicPolygonEntity" class="signal" id="2d7" points="4820,1250 4809,1244 4809,1255"/>
<g cb-classname="DynamicText" cb-source="9O-I9z-BJwS" class="signal" id="2dY" text-anchor="end">
<text cb-classname="GraphicTextEntity" class="signal" fill="black" font-style="normal" font-weight="normal" id="2dW" text-anchor="end" text-decoration="normal" x="4805" y="1247"/>
</g>
</g>
<g cb-classname="PointStatusIndicator" cb-indicator-type="highway" cb-source="bd-fyk-13" id="2g3" visibility="hidden">
<line cb-classname="GraphicLineEntity" class="algorithmline" id="2g6" x1="4820" x2="4870" y1="1250" y2="1200"/>
<line cb-classname="GraphicLineEntity" class="algorithmline" id="2gt" x1="4870" x2="4920" y1="1200" y2="1250"/>
<line cb-classname="GraphicLineEntity" class="algorithmline" id="2gq" x1="4920" x2="4870" y1="1250" y2="1300"/>
<line cb-classname="GraphicLineEntity" class="algorithmline" id="2g8" x1="4870" x2="4820" y1="1300" y2="1250"/>
</g>
<g cb-classname="PointStatusIndicator" cb-indicator-type="hardware" cb-source="Do-oWF-OQ" id="2gm" visibility="hidden">
<line cb-classname="GraphicLineEntity" class="algorithmline" id="2gd" x1="4920" x2="4820" y1="1200" y2="1200"/>
<line cb-classname="GraphicLineEntity" class="algorithmline" id="2g7" x1="4820" x2="4820" y1="1200" y2="1300"/>
<line cb-classname="GraphicLineEntity" class="algorithmline" id="2gY" x1="4820" x2="4920" y1="1300" y2="1300"/>
</g>
<g cb-classname="PointStatusIndicator" cb-indicator-type="alarm" cb-source="9X-R9R-fN" id="2gW" visibility="hidden">
<text cb-classname="GraphicTextEntity" class="algorithm" fill="#000000" font-family="Arial" font-size="20" id="203" x="4930" y="1285">
A
</text>
</g>
<g cb-classname="PointStatusIndicator" cb-indicator-type="ingraphic" cb-source="9O-q0d-ge" id="206" visibility="visible">
<text cb-classname="GraphicTextEntity" class="algorithm" fill="#000000" font-family="Arial" font-size="20" id="20t" x="4930" y="1235">
G
</text>
</g>
<g cb-classname="DynamicText" cb-labeled="false" cb-pin-name="jl" cb-source="bd-fyk-13" class="algorithm" id="20q" text-anchor="end">
<text baseline-shift="0%" cb-classname="GraphicTextEntity" class="algorithm" fill="black" font-family="arial" font-size="20" font-style="normal" font-weight="normal" id="208" text-anchor="end" text-decoration="normal" x="4795" y="1225"/>
</g>
<g baseline-shift="-100%" cb-anchor-x="4795" cb-anchor-y="1260" cb-classname="PointReferences" cb-max-width="130" cb-originator="false" cb-source="5C-2h0-qp" class="signal" id="20m" text-anchor="end">
<text baseline-shift="-100%" cb-classname="GraphicTextEntity" class="algorithm" id="20d" text-anchor="end" x="4795" y="1260">
REF: Point not
</text>
<text baseline-shift="-100%" cb-classname="GraphicTextEntity" class="algorithm" id="2Q83" text-anchor="end" x="4795" y="1285">
found in
</text>
<text baseline-shift="-100%" cb-classname="GraphicTextEntity" class="algorithm" id="2Q8c" text-anchor="end" x="4795" y="1310">
database
</text>
<text baseline-shift="-100%" cb-classname="GraphicTextEntity" class="algorithm" id="2Q8K" text-anchor="end" x="4795" y="1335">
(01T0800D02-STS)
</text>
</g>
<g baseline-shift="-50%" cb-anchor-x="4975" cb-anchor-y="1265" cb-classname="PointDescription" cb-content="extended" cb-labeled="false" cb-max-width="240" cb-source="eY-VQQ-Og" class="algorithm" id="207" text-anchor="start">
<text baseline-shift="-50%" cb-classname="GraphicTextEntity" class="algorithm" id="20Y" text-anchor="start" x="4975" y="1253">
DESC: Point not found in
</text>
<text baseline-shift="-50%" cb-classname="GraphicTextEntity" class="algorithm" id="1X8K" text-anchor="start" x="4975" y="1278">
database (01T0800D02-STS)
</text>
</g>
</g>
<g cb-alg-pA="$66$cb-alg-alm$" cb-algorithm-id="004" cb-classname="ExternalPointInterface" cb-function-name="OUTPUT" id="20W">
<ellipse cb-classname="GraphicEllipseEntity" class="algorithm" cx="4870" cy="1530" id="2M3" rx="50" ry="50"/>
<rect cb-classname="GraphicRectangleEntity" class="algorithm" height="100" id="2M6" width="40" x="4920" y="1480"/>
<line cb-classname="GraphicLineEntity" class="algorithm" id="2Mt" x1="4920" x2="4960" y1="1530" y2="1530"/>
<g cb-classname="ControlPin" cb-pin-name="cH-scs-WB" id="2Mq">
<line cb-classname="GraphicLineEntity" class="signalline" id="2M8" x1="4790" x2="4820" y1="1530" y2="1530"/>
<polygon cb-classname="GraphicPolygonEntity" class="signal" id="2Mm" points="4820,1530 4809,1524 4809,1535"/>
<g cb-classname="DynamicText" cb-source="bd-NWB-Ao6r" class="signal" id="2Md" text-anchor="end">
<text cb-classname="GraphicTextEntity" class="signal" fill="black" font-style="normal" font-weight="normal" id="2M7" text-anchor="end" text-decoration="normal" x="4805" y="1527"/>
</g>
</g>
<g cb-classname="PointStatusIndicator" cb-indicator-type="highway" cb-source="5C-2h0-qp" id="2MY" visibility="hidden">
<line cb-classname="GraphicLineEntity" class="algorithmline" id="2MW" x1="4820" x2="4870" y1="1530" y2="1480"/>
<line cb-classname="GraphicLineEntity" class="algorithmline" id="2Q3" x1="4870" x2="4920" y1="1480" y2="1530"/>
<line cb-classname="GraphicLineEntity" class="algorithmline" id="2Q6" x1="4920" x2="4870" y1="1530" y2="1580"/>
<line cb-classname="GraphicLineEntity" class="algorithmline" id="2Qt" x1="4870" x2="4820" y1="1580" y2="1530"/>
</g>
<g cb-classname="PointStatusIndicator" cb-indicator-type="hardware" cb-source="LP-0kb-bZ" id="2Qq" visibility="hidden">
<line cb-classname="GraphicLineEntity" class="algorithmline" id="2Q8" x1="4920" x2="4820" y1="1480" y2="1480"/>
<line cb-classname="GraphicLineEntity" class="algorithmline" id="2Qm" x1="4820" x2="4820" y1="1480" y2="1580"/>
<line cb-classname="GraphicLineEntity" class="algorithmline" id="2Qd" x1="4820" x2="4920" y1="1580" y2="1580"/>
</g>
<g cb-classname="PointStatusIndicator" cb-indicator-type="alarm" cb-source="9O-q0d-ge" id="2Q7" visibility="hidden">
<text cb-classname="GraphicTextEntity" class="algorithm" fill="#000000" font-family="Arial" font-size="20" id="2QY" x="4930" y="1565">
A
</text>
</g>
<g cb-classname="PointStatusIndicator" cb-indicator-type="ingraphic" cb-source="bd-fyk-13" id="2QW" visibility="visible">
<text cb-classname="GraphicTextEntity" class="algorithm" fill="#000000" font-family="Arial" font-size="20" id="2X3" x="4930" y="1515">
G
</text>
</g>
<g cb-classname="DynamicText" cb-labeled="false" cb-pin-name="L9" cb-source="5C-2h0-qp" class="algorithm" id="2X6" text-anchor="end">
<text baseline-shift="0%" cb-classname="GraphicTextEntity" class="algorithm" fill="black" font-family="arial" font-size="20" font-style="normal" font-weight="normal" id="2Xt" text-anchor="end" text-decoration="normal" x="4795" y="1505"/>
</g>
<g baseline-shift="-100%" cb-anchor-x="4795" cb-anchor-y="1540" cb-classname="PointReferences" cb-max-width="130" cb-originator="false" cb-source="eY-VQQ-Og" class="signal" id="2Xq" text-anchor="end">
<text baseline-shift="-100%" cb-classname="GraphicTextEntity" class="algorithm" id="2X8" text-anchor="end" x="4795" y="1540">
REF: Point not
</text>
<text baseline-shift="-100%" cb-classname="GraphicTextEntity" class="algorithm" id="2QmL" text-anchor="end" x="4795" y="1565">
found in
</text>
<text baseline-shift="-100%" cb-classname="GraphicTextEntity" class="algorithm" id="2QmJ" text-anchor="end" x="4795" y="1590">
database
</text>
<text baseline-shift="-100%" cb-classname="GraphicTextEntity" class="algorithm" id="2Qmm" text-anchor="end" x="4795" y="1615">
(01T0800D02-ALM)
</text>
</g>
<g baseline-shift="-50%" cb-anchor-x="4975" cb-anchor-y="1545" cb-classname="PointDescription" cb-content="extended" cb-labeled="false" cb-max-width="240" cb-source="5E-41M-bp" class="algorithm" id="2Xm" text-anchor="start">
<text baseline-shift="-50%" cb-classname="GraphicTextEntity" class="algorithm" id="2Xd" text-anchor="start" x="4975" y="1533">
DESC: Point not found in
</text>
<text baseline-shift="-50%" cb-classname="GraphicTextEntity" class="algorithm" id="1Xm2" text-anchor="start" x="4975" y="1558">
database (01T0800D02-ALM)
</text>
</g>
</g>
<g cb-alg-rh="$66$cb-alg-lb$" cb-algorithm-id="005" cb-classname="ExternalPointInterface" cb-function-name="OUTPUT" id="2X7">
<ellipse cb-classname="GraphicEllipseEntity" class="algorithm" cx="4870" cy="1970" id="2XY" rx="50" ry="50"/>
<rect cb-classname="GraphicRectangleEntity" class="algorithm" height="100" id="2XW" width="40" x="4920" y="1920"/>
<line cb-classname="GraphicLineEntity" class="algorithm" id="3V3" x1="4920" x2="4960" y1="1970" y2="1970"/>
<g cb-classname="ControlPin" cb-pin-name="jX-BXC-pA" id="3V6">
<line cb-classname="GraphicLineEntity" class="signalline" id="3Vt" x1="4790" x2="4820" y1="1970" y2="1970"/>
<polygon cb-classname="GraphicPolygonEntity" class="signal" id="3Vq" points="4820,1970 4809,1964 4809,1975"/>
<g cb-classname="DynamicText" cb-source="5C-apA-h0yj" class="signal" id="3V8" text-anchor="end">
<text cb-classname="GraphicTextEntity" class="signal" fill="black" font-style="normal" font-weight="normal" id="3Vm" text-anchor="end" text-decoration="normal" x="4805" y="1967"/>
</g>
</g>
<g cb-classname="PointStatusIndicator" cb-indicator-type="highway" cb-source="eY-VQQ-Og" id="3Vd" visibility="hidden">
<line cb-classname="GraphicLineEntity" class="algorithmline" id="3V7" x1="4820" x2="4870" y1="1970" y2="1920"/>
<line cb-classname="GraphicLineEntity" class="algorithmline" id="3VY" x1="4870" x2="4920" y1="1920" y2="1970"/>
<line cb-classname="GraphicLineEntity" class="algorithmline" id="3VW" x1="4920" x2="4870" y1="1970" y2="2020"/>
<line cb-classname="GraphicLineEntity" class="algorithmline" id="3F3" x1="4870" x2="4820" y1="2020" y2="1970"/>
</g>
<g cb-classname="PointStatusIndicator" cb-indicator-type="hardware" cb-source="9X-R9R-fN" id="3F6" visibility="hidden">
<line cb-classname="GraphicLineEntity" class="algorithmline" id="3Ft" x1="4920" x2="4820" y1="1920" y2="1920"/>
<line cb-classname="GraphicLineEntity" class="algorithmline" id="3Fq" x1="4820" x2="4820" y1="1920" y2="2020"/>
<line cb-classname="GraphicLineEntity" class="algorithmline" id="3F8" x1="4820" x2="4920" y1="2020" y2="2020"/>
</g>
<g cb-classname="PointStatusIndicator" cb-indicator-type="alarm" cb-source="bd-fyk-13" id="3Fm" visibility="hidden">
<text cb-classname="GraphicTextEntity" class="algorithm" fill="#000000" font-family="Arial" font-size="20" id="3Fd" x="4930" y="2005">
A
</text>
</g>
<g cb-classname="PointStatusIndicator" cb-indicator-type="ingraphic" cb-source="5C-2h0-qp" id="3F7" visibility="hidden">
<text cb-classname="GraphicTextEntity" class="algorithm" fill="#000000" font-family="Arial" font-size="20" id="3FY" x="4930" y="1955">
G
</text>
</g>
<g cb-classname="DynamicText" cb-labeled="false" cb-pin-name="tt" cb-source="eY-VQQ-Og" class="algorithm" id="3FW" text-anchor="end">
<text baseline-shift="0%" cb-classname="GraphicTextEntity" class="algorithm" fill="black" font-family="arial" font-size="20" font-style="normal" font-weight="normal" id="353" text-anchor="end" text-decoration="normal" x="4795" y="1945"/>
</g>
<g baseline-shift="-100%" cb-anchor-x="4795" cb-anchor-y="1980" cb-classname="PointReferences" cb-max-width="130" cb-originator="false" cb-source="5E-41M-bp" class="signal" id="356" text-anchor="end">
<text baseline-shift="-100%" cb-classname="GraphicTextEntity" class="algorithm" id="35t" text-anchor="end" x="4795" y="1980">
REF: Point not
</text>
<text baseline-shift="-100%" cb-classname="GraphicTextEntity" class="algorithm" id="2QmG" text-anchor="end" x="4795" y="2005">
found in
</text>
<text baseline-shift="-100%" cb-classname="GraphicTextEntity" class="algorithm" id="2Qmz" text-anchor="end" x="4795" y="2030">
database
</text>
<text baseline-shift="-100%" cb-classname="GraphicTextEntity" class="algorithm" id="2Qm3" text-anchor="end" x="4795" y="2055">
(01T0800D02-LB)
</text>
</g>
<g baseline-shift="-50%" cb-anchor-x="4975" cb-anchor-y="1985" cb-classname="PointDescription" cb-content="extended" cb-labeled="false" cb-max-width="240" cb-source="BK-2ne-a5" class="algorithm" id="35q" text-anchor="start">
<text baseline-shift="-50%" cb-classname="GraphicTextEntity" class="algorithm" id="358" text-anchor="start" x="4975" y="1973">
DESC: Point not found in
</text>
<text baseline-shift="-50%" cb-classname="GraphicTextEntity" class="algorithm" id="1062" text-anchor="start" x="4975" y="1998">
database (01T0800D02-LB)
</text>
</g>
</g>
<g cb-alg-iS="$66$cb-alg-tr$" cb-algorithm-id="006" cb-classname="ExternalPointInterface" cb-function-name="OUTPUT" id="35m">
<ellipse cb-classname="GraphicEllipseEntity" class="algorithm" cx="4870" cy="2180" id="35d" rx="50" ry="50"/>
<rect cb-classname="GraphicRectangleEntity" class="algorithm" height="100" id="357" width="40" x="4920" y="2130"/>
<line cb-classname="GraphicLineEntity" class="algorithm" id="35Y" x1="4920" x2="4960" y1="2180" y2="2180"/>
<g cb-classname="ControlPin" cb-pin-name="Rh-K7Y-rh" id="35W">
<line cb-classname="GraphicLineEntity" class="signalline" id="3z3" x1="4790" x2="4820" y1="2180" y2="2180"/>
<polygon cb-classname="GraphicPolygonEntity" class="signal" id="3z6" points="4820,2180 4809,2174 4809,2185"/>
<g cb-classname="DynamicText" cb-source="eY-Krh-YRqY" class="signal" id="3zt" text-anchor="end">
<text cb-classname="GraphicTextEntity" class="signal" fill="black" font-style="normal" font-weight="normal" id="3zq" text-anchor="end" text-decoration="normal" x="4805" y="2177"/>
</g>
</g>
<g cb-classname="PointStatusIndicator" cb-indicator-type="highway" cb-source="5E-41M-bp" id="3z8" visibility="hidden">
<line cb-classname="GraphicLineEntity" class="algorithmline" id="3zm" x1="4820" x2="4870" y1="2180" y2="2130"/>
<line cb-classname="GraphicLineEntity" class="algorithmline" id="3zd" x1="4870" x2="4920" y1="2130" y2="2180"/>
<line cb-classname="GraphicLineEntity" class="algorithmline" id="3z7" x1="4920" x2="4870" y1="2180" y2="2230"/>
<line cb-classname="GraphicLineEntity" class="algorithmline" id="3zY" x1="4870" x2="4820" y1="2230" y2="2180"/>
</g>
<g cb-classname="PointStatusIndicator" cb-indicator-type="hardware" cb-source="9O-q0d-ge" id="3zW" visibility="hidden">
<line cb-classname="GraphicLineEntity" class="algorithmline" id="3d3" x1="4920" x2="4820" y1="2130" y2="2130"/>
<line cb-classname="GraphicLineEntity" class="algorithmline" id="3d6" x1="4820" x2="4820" y1="2130" y2="2230"/>
<line cb-classname="GraphicLineEntity" class="algorithmline" id="3dt" x1="4820" x2="4920" y1="2230" y2="2230"/>
</g>
<g cb-classname="PointStatusIndicator" cb-indicator-type="alarm" cb-source="5C-2h0-qp" id="3dq" visibility="visible">
<text cb-classname="GraphicTextEntity" class="algorithm" fill="#000000" font-family="Arial" font-size="20" id="3d8" x="4930" y="2215">
A
</text>
</g>
<g cb-classname="PointStatusIndicator" cb-indicator-type="ingraphic" cb-source="eY-VQQ-Og" id="3dm" visibility="hidden">
<text cb-classname="GraphicTextEntity" class="algorithm" fill="#000000" font-family="Arial" font-size="20" id="3dd" x="4930" y="2165">
G
</text>
</g>
<g cb-classname="DynamicText" cb-labeled="false" cb-pin-name="7X" cb-source="5E-41M-bp" class="algorithm" id="3d7" text-anchor="end">
<text baseline-shift="0%" cb-classname="GraphicTextEntity" class="algorithm" fill="black" font-family="arial" font-size="20" font-style="normal" font-weight="normal" id="3dY" text-anchor="end" text-decoration="normal" x="4795" y="2155"/>
</g>
<g baseline-shift="-100%" cb-anchor-x="4795" cb-anchor-y="2190" cb-classname="PointReferences" cb-max-width="130" cb-originator="false" cb-source="BK-2ne-a5" class="signal" id="3dW" text-anchor="end">
<text baseline-shift="-100%" cb-classname="GraphicTextEntity" class="algorithm" id="3g3" text-anchor="end" x="4795" y="2190">
REF: Point not
</text>
<text baseline-shift="-100%" cb-classname="GraphicTextEntity" class="algorithm" id="2QmK" text-anchor="end" x="4795" y="2215">
found in
</text>
<text baseline-shift="-100%" cb-classname="GraphicTextEntity" class="algorithm" id="2Qd2" text-anchor="end" x="4795" y="2240">
database
</text>
<text baseline-shift="-100%" cb-classname="GraphicTextEntity" class="algorithm" id="2QdL" text-anchor="end" x="4795" y="2265">
(01T0800D02-TR)
</text>
</g>
<g baseline-shift="-50%" cb-anchor-x="4975" cb-anchor-y="2195" cb-classname="PointDescription" cb-content="extended" cb-labeled="false" cb-max-width="240" cb-source="cH-scs-WB" class="algorithm" id="3g6" text-anchor="start">
<text baseline-shift="-50%" cb-classname="GraphicTextEntity" class="algorithm" id="3gt" text-anchor="start" x="4975" y="2183">
DESC: Point not found in
</text>
<text baseline-shift="-50%" cb-classname="GraphicTextEntity" class="algorithm" id="106L" text-anchor="start" x="4975" y="2208">
database (01T0800D02-TR)
</text>
</g>
</g>
</g>
<g cb-classname="IncludeDocument" cb-modify-time="09/25/2018 01:40:30" cb-objectname="Frame" id="5">
<text cb-classname="GraphicTextEntity" class="frame" font-size="50" id="2Xtm" x="3660" y="3146">
Project Title &lt;Edit in FRAME.SVG&gt;
</text>
<g baseline-shift="-50%" cb-classname="DynamicText" cb-source="9X-ec6g-QR" class="frame" id="2Xto">
<text cb-classname="GraphicTextEntity" class="frame" fill="black" font-family="arial" font-size="25" font-style="normal" font-weight="normal" id="2XtG" text-decoration="normal" x="4715" y="3325">
11
</text>
</g>
<g baseline-shift="-50%" cb-classname="DynamicText" cb-source="9O-3APR-pZ" class="frame" id="2Xtz" text-anchor="middle">
<text cb-classname="GraphicTextEntity" class="frame" fill="black" font-family="arial" font-size="48" font-style="normal" font-weight="normal" id="2Xt3" text-anchor="middle" text-decoration="normal" x="4900" y="3320">
11
</text>
</g>
<g baseline-shift="-50%" cb-classname="DynamicText" cb-source="bd-0KS4-rT" class="frame" id="2Xtc" text-anchor="middle">
<text cb-classname="GraphicTextEntity" class="frame" fill="black" font-family="arial" font-size="48" font-style="normal" font-weight="normal" id="2XtK" text-anchor="middle" text-decoration="normal" x="5067" y="3324">
4
</text>
</g>
<g cb-classname="DynamicText" cb-source="5C-SkrSv-pOgz2" class="frame" id="2Xq2">
<text cb-classname="GraphicTextEntity" class="frame" fill="black" font-family="arial" font-size="48" font-style="normal" font-weight="normal" id="2XqL" text-decoration="normal" x="3660" y="3224">
HP BYP SPRAY SHT-OFF VLV - T0800D02
</text>
</g>
<g baseline-shift="-50%" cb-classname="DynamicText" cb-source="eY-jJVrp-QsrGus" class="frame" id="2XqJ" text-anchor="middle">
<text cb-classname="GraphicTextEntity" class="frame" fill="black" font-family="arial" font-size="48" font-style="normal" font-weight="normal" id="2Xqm" text-anchor="middle" text-decoration="normal" x="5270" y="3324">
151
</text>
</g>
<g baseline-shift="0%" cb-classname="DynamicText" cb-source="5E-urFOkbx5" class="frame" id="2Xqo" text-anchor="middle">
<text cb-classname="GraphicTextEntity" class="frame" fill="black" font-family="arial" font-size="36" font-style="normal" font-weight="normal" id="2XqG" text-anchor="middle" text-decoration="normal" x="5270" y="3150">
A
</text>
</g>
<g baseline-shift="0%" cb-classname="DynamicText" cb-source="BK-8jOb8fOV-gHqW" class="frame" id="2Xqz" text-anchor="middle">
<text cb-classname="GraphicTextEntity" class="frame" fill="black" font-family="arial" font-size="20" font-style="normal" font-weight="normal" id="2Xq3" text-anchor="middle" text-decoration="normal" x="5270" y="3230">
12/27/2010
</text>
</g>
<g baseline-shift="-50%" cb-classname="DynamicText" cb-source="cH-TgsJ6r1i" class="frame" id="2Xqc" text-anchor="end">
<text cb-classname="GraphicTextEntity" class="frame" fill="black" font-family="arial" font-size="26" font-style="normal" font-weight="normal" id="2XqK" text-anchor="end" text-decoration="normal" x="4500" y="3420">
Heczko
</text>
</g>
<g baseline-shift="-50%" cb-classname="DynamicText" cb-source="jX-AAPg1nSu" class="frame" id="2X82" text-anchor="end">
<text cb-classname="GraphicTextEntity" class="frame" fill="black" font-family="arial" font-size="26" font-style="normal" font-weight="normal" id="2X8L" text-anchor="end" text-decoration="normal" x="5353" y="3420">
Nemec
</text>
</g>
<g cb-classname="GraphicShape" cb-tag="BORDER" id="2X8J">
<line cb-classname="GraphicLineEntity" class="frameline" id="2X8m" x1="40" x2="40" y1="40" y2="3460"/>
<line cb-classname="GraphicLineEntity" class="frameline" id="2X8o" x1="40" x2="5380" y1="3460" y2="3460"/>
<line cb-classname="GraphicLineEntity" class="frameline" id="2X8G" x1="5380" x2="5380" y1="3460" y2="40"/>
<line cb-classname="GraphicLineEntity" class="frameline" id="2X8z" x1="5380" x2="40" y1="40" y2="40"/>
<line cb-classname="GraphicLineEntity" class="frame" id="2X83" x1="5430" x2="5440" y1="3510" y2="3510"/>
</g>
<g cb-classname="GraphicShape" cb-tag="TITLE BOX" id="2X8c">
<line cb-classname="GraphicLineEntity" class="frameline" id="2X8K" x1="2340" x2="2340" y1="3080" y2="3460"/>
<line cb-classname="GraphicLineEntity" class="frameline" id="2Xm2" x1="2340" x2="5380" y1="3080" y2="3080"/>
<line cb-classname="GraphicLineEntity" class="frameline" id="2XmL" x1="3650" x2="3650" y1="3460" y2="3080"/>
<line cb-classname="GraphicLineEntity" class="frameline" id="2XmJ" x1="3650" x2="5380" y1="3240" y2="3240"/>
<line cb-classname="GraphicLineEntity" class="frameline" id="2Xmm" x1="3650" x2="5380" y1="3390" y2="3390"/>
<line cb-classname="GraphicLineEntity" class="frameline" id="2Xmo" x1="3650" x2="5380" y1="3160" y2="3160"/>
<line cb-classname="GraphicLineEntity" class="frameline" id="2XmG" x1="3650" x2="4520" y1="3320" y2="3320"/>
<line cb-classname="GraphicLineEntity" class="frameline" id="2Xmz" x1="4520" x2="5380" y1="3290" y2="3290"/>
<line cb-classname="GraphicLineEntity" class="frameline" id="2Xm3" x1="4520" x2="5380" y1="3240" y2="3240"/>
<line cb-classname="GraphicLineEntity" class="frameline" id="2Xmc" x1="4520" x2="4520" y1="3240" y2="3460"/>
<line cb-classname="GraphicLineEntity" class="frameline" id="2XmK" x1="4810" x2="4810" y1="3240" y2="3390"/>
<line cb-classname="GraphicLineEntity" class="frameline" id="2Xd2" x1="4990" x2="4990" y1="3240" y2="3390"/>
<line cb-classname="GraphicLineEntity" class="frameline" id="2XdL" x1="5150" x2="5150" y1="3080" y2="3390"/>
</g>
<g cb-classname="GraphicShape" cb-tag="TEXT LABELS" id="2XdJ">
<text baseline-shift="-50%" cb-classname="GraphicTextEntity" class="frame" font-size="25" id="2Xdm" text-anchor="middle" x="4890" y="3252">
Drop
</text>
<text baseline-shift="-50%" cb-classname="GraphicTextEntity" class="frame" font-size="25" id="2Xdo" text-anchor="middle" x="5075" y="3252">
Task
</text>
<text baseline-shift="-50%" cb-classname="GraphicTextEntity" class="frame" font-size="25" id="2XdG" text-anchor="middle" x="5265" y="3252">
Sheet
</text>
<text cb-classname="GraphicTextEntity" class="frame" font-size="25" id="2Xdz" x="5152" y="3107">
Rev.
</text>
<text cb-classname="GraphicTextEntity" class="frame" font-size="25" id="2Xd3" x="3653" y="3418">
Engineer
</text>
<text cb-classname="GraphicTextEntity" class="frame" font-size="25" id="2Xdc" x="4528" y="3419">
Approved
</text>
<text cb-classname="GraphicTextEntity" class="frame" font-size="25" id="2XdK" x="5152" y="3187">
Date
</text>
<text baseline-shift="-50%" cb-classname="GraphicTextEntity" class="frame" font-size="25" id="2X72" text-anchor="middle" x="4660" y="3252">
Drawing Number
</text>
<text baseline-shift="-50%" cb-classname="GraphicTextEntity" class="frame" font-size="25" id="2X7L" text-anchor="middle" x="4680" y="3325">
CTL
</text>
</g>
<text baseline-shift="-50%" cb-classname="GraphicTextEntity" class="frame" font-size="48" id="2X7J" text-anchor="middle" x="3000" y="3100">
EMERSON PROCESS MANAGEMENT
</text>
<g baseline-shift="-100%" cb-anchor-x="2360" cb-anchor-y="3140" cb-classname="GroupText" cb-max-width="1260" fill="black" id="2X7m">
<text baseline-shift="-100%" cb-classname="GraphicTextEntity" class="frame" fill="black" font-family="arial" font-size="22" font-weight="normal" id="2X7o" text-anchor="start" text-decoration="normal" x="2360" y="3140">
THIS DOCUMENT CONTAINS INFORMATION PROPRIETARY TO EMERSON PROCESS
</text>
<text baseline-shift="-100%" cb-classname="GraphicTextEntity" class="frame" fill="black" font-family="arial" font-size="22" font-weight="normal" id="2X7G" text-anchor="start" text-decoration="normal" x="2360" y="3176">
MANAGEMENT POWER &amp; WATER SOLUTIONS, INC. IT IS SUBMITTED IN CONFIDENCE AND
</text>
<text baseline-shift="-100%" cb-classname="GraphicTextEntity" class="frame" fill="black" font-family="arial" font-size="22" font-weight="normal" id="2X7z" text-anchor="start" text-decoration="normal" x="2360" y="3212">
TRUST, IS TO BE USED BY YOU SOLELY FOR THE PURPOSES FOR WHICH IT IS
</text>
<text baseline-shift="-100%" cb-classname="GraphicTextEntity" class="frame" fill="black" font-family="arial" font-size="22" font-weight="normal" id="2X73" text-anchor="start" text-decoration="normal" x="2360" y="3248">
FURNISHED AND IS TO BE RETURNED UPON REQUEST. THIS DOCUMENT AND ANY
</text>
<text baseline-shift="-100%" cb-classname="GraphicTextEntity" class="frame" fill="black" font-family="arial" font-size="22" font-weight="normal" id="2X7c" text-anchor="start" text-decoration="normal" x="2360" y="3284">
OTHER INFORMATION PROVIDED TO YOU IS NOT TO BE REPRODUCED, TRANSMITTED,
</text>
<text baseline-shift="-100%" cb-classname="GraphicTextEntity" class="frame" fill="black" font-family="arial" font-size="22" font-weight="normal" id="2X7K" text-anchor="start" text-decoration="normal" x="2360" y="3320">
DISCLOSED, OR USED OTHERWISE IN WHOLE OR IN PART WITHOUT THE PRIOR
</text>
<text baseline-shift="-100%" cb-classname="GraphicTextEntity" class="frame" fill="black" font-family="arial" font-size="22" font-weight="normal" id="2XY2" text-anchor="start" text-decoration="normal" x="2360" y="3356">
WRITTEN AUTHORIZATION OF EMERSON PROCESS MANAGEMENT POWER &amp; WATER
</text>
<text baseline-shift="-100%" cb-classname="GraphicTextEntity" class="frame" fill="black" font-family="arial" font-size="22" font-weight="normal" id="2XYL" text-anchor="start" text-decoration="normal" x="2360" y="3392">
SOLUTIONS,INC.
</text>
</g>
</g>
</svg>