<?xml version="1.0" ?><svg cb-auto-time="12/23/2010 10:06:13" cb-classname="ControlFunction" cb-create-time="03/12/2008" cb-drop-id="11" cb-engineer="Dufek" cb-filename="Z:\OVATION\NET0\UNIT0\CONTROLFUNCTIONS\00C8.svg" cb-function-id="00C8" cb-key="234244332152" cb-modified-timestamp="1489318827" cb-modify-id="00000001" cb-ortho-mode="enabled" cb-path="Z:/OVATION/NET0/UNIT0/CONTROLFUNCTIONS" cb-reviewer="Nemec" cb-revision="A" cb-revision-time="12/27/2010" cb-sheet-number="530" cb-sheet-title="T07- DRIVES OUTPUTS" cb-snap-grid="10" cb-task-id="5" height="3707" id="1" width="5450" xmlns="http://www.w3.org/2000/svg">
<style cb-classname="EntityStyle" id="2" type="text/css">
	.algorithm { fill: white; stroke: black; stroke-linecap: round; stroke-width: 2 }
	.algorithm-function { fill: none; stroke: black; stroke-linecap: round; stroke-width: 2 }
	.algorithm-functionline { fill: none; stroke: black; stroke-linecap: round; stroke-width: 2 }
	.algorithm-name { fill: none; stroke: black; stroke-linecap: round; stroke-width: 2 }
	.algorithm-nameline { fill: none; stroke: black; stroke-linecap: round; stroke-width: 2 }
	.algorithm-sequence { fill: none; stroke: black; stroke-linecap: round; stroke-width: 2 }
	.algorithm-sequenceline { fill: none; stroke: black; stroke-linecap: round; stroke-width: 2 }
	.algorithmline { fill: none; stroke: black; stroke-linecap: round; stroke-width: 2 }
	.annotation { fill: none; stroke: black; stroke-linecap: round; stroke-width: 2 }
	.annotationline { fill: none; stroke: black; stroke-linecap: round; stroke-width: 2 }
	.frame { fill: none; stroke: black; stroke-linecap: round; stroke-width: 2 }
	.frameline { fill: none; stroke: black; stroke-linecap: round; stroke-width: 2 }
	.signal { fill: black; stroke: black; stroke-linecap: round; stroke-width: 2 }
	.signalline { fill: none; stroke: black; stroke-linecap: round; stroke-width: 2 }
	text.algorithm { fill: black; font-family: MS Shell Dlg 2; font-size: 14; stroke: none }
	text.algorithm-function { fill: black; font-family: MS Shell Dlg 2; font-size: 16; stroke: none }
	text.algorithm-name { fill: black; font-family: MS Shell Dlg 2; font-size: 16; stroke: none }
	text.algorithm-sequence { fill: black; font-family: MS Shell Dlg 2; font-size: 16; stroke: none }
	text.annotation { fill: black; font-family: MS Shell Dlg 2; font-size: 16; stroke: none }
	text.frame { fill: black; font-family: MS Shell Dlg 2; font-size: 16; stroke: none }
	text.signal { fill: black; font-family: MS Shell Dlg 2; font-size: 12; stroke: none }
</style>
<g cb-classname="NamedObject" cb-objectname="Comments" id="3"/>
<g cb-classname="AlgorithmContainer" cb-objectname="Algorithms" id="4">
<g cb-alg-TANA="NO" cb-alg-TSU="01T0700D01-STS" cb-algorithm-id="001" cb-classname="ExternalPointInterface" cb-function-name="INPUT" id="7F">
<ellipse cb-classname="GraphicEllipseEntity" class="algorithm" cx="640" cy="300" id="71" rx="50" ry="50"/>
<rect cb-classname="GraphicRectangleEntity" class="algorithm" height="100" id="7j" width="40" x="550" y="250"/>
<line cb-classname="GraphicLineEntity" class="algorithm" id="7b" x1="550" x2="590" y1="300" y2="300"/>
<g cb-classname="ControlPin" cb-pin-name="0V-rq6-cbw" id="7i">
<line cb-classname="GraphicLineEntity" class="signalline" id="72" x1="690" x2="720" y1="300" y2="300"/>
<g cb-classname="DynamicText" cb-source="cJ-6jB-SGdz" class="signal" id="7E" text-anchor="start">
<text cb-classname="GraphicTextEntity" class="signal" fill="black" font-style="normal" font-weight="normal" id="7O" text-anchor="start" text-decoration="normal" x="704" y="297"/>
</g>
<g cb-classname="SignalSegment" id="8Q">
<line cb-classname="GraphicLineEntity" class="signalline" id="8V" x1="720" x2="1220" y1="300" y2="300"/>
<g cb-classname="SignalConnection" cb-graphic-line="$81$" cb-input-pin="$gpu$" id="8F"/>
</g>
</g>
<g cb-classname="PointStatusIndicator" cb-indicator-type="Highway" cb-source="Uv-GeA-Y9i" id="81" visibility="hidden">
<line cb-classname="GraphicLineEntity" class="algorithmline" id="8j" x1="590" x2="640" y1="300" y2="250"/>
<line cb-classname="GraphicLineEntity" class="algorithmline" id="8b" x1="640" x2="690" y1="250" y2="300"/>
<line cb-classname="GraphicLineEntity" class="algorithmline" id="8i" x1="690" x2="640" y1="300" y2="350"/>
<line cb-classname="GraphicLineEntity" class="algorithmline" id="82" x1="640" x2="590" y1="350" y2="300"/>
</g>
<g cb-classname="PointStatusIndicator" cb-indicator-type="hardware" cb-source="ls-lxx-I8L" id="8E" visibility="hidden">
<line cb-classname="GraphicLineEntity" class="algorithmline" id="8O" x1="590" x2="690" y1="250" y2="250"/>
<line cb-classname="GraphicLineEntity" class="algorithmline" id="9Q" x1="690" x2="690" y1="250" y2="350"/>
<line cb-classname="GraphicLineEntity" class="algorithmline" id="9V" x1="690" x2="590" y1="350" y2="350"/>
</g>
<g cb-classname="PointStatusIndicator" cb-indicator-type="alarm" cb-source="DU-SzB-xIv" id="9F" visibility="hidden">
<text cb-classname="GraphicTextEntity" class="algorithm" fill="#000000" font-family="arial" font-size="20" id="91" x="560" y="285">
A
</text>
</g>
<g cb-classname="PointStatusIndicator" cb-indicator-type="ingraphic" cb-source="Hf-f77-qbn" id="9j" visibility="visible">
<text cb-classname="GraphicTextEntity" class="algorithm" fill="#000000" font-family="Arial" font-size="20" id="9b" x="560" y="335">
G
</text>
</g>
<g baseline-shift="-50%" cb-anchor-x="540" cb-anchor-y="314" cb-classname="PointDescription" cb-content="extended" cb-labeled="false" cb-max-width="220" cb-source="Uv-GeA-Y9i" class="algorithm" id="9i" text-anchor="end">
<text baseline-shift="-50%" cb-classname="GraphicTextEntity" class="algorithm" id="92" text-anchor="end" x="540" y="289">
DESC: Point not found in
</text>
<text baseline-shift="-50%" cb-classname="GraphicTextEntity" class="algorithm" id="21s3" text-anchor="end" x="540" y="314">
database
</text>
<text baseline-shift="-50%" cb-classname="GraphicTextEntity" class="algorithm" id="21sh" text-anchor="end" x="540" y="339">
(01T0700D01-STS)
</text>
</g>
<g cb-classname="DynamicText" cb-labeled="false" cb-pin-name="F5D" cb-source="M1-gia-uhi" class="algorithm" id="9E" text-anchor="start">
<text baseline-shift="0%" cb-classname="GraphicTextEntity" class="algorithm" fill="black" font-family="arial" font-size="20" font-style="normal" font-weight="normal" id="9O" text-anchor="start" text-decoration="normal" x="710" y="270"/>
</g>
<g baseline-shift="-100%" cb-anchor-x="710" cb-anchor-y="310" cb-classname="PointReferences" cb-max-width="230" cb-originator="true" cb-source="4h-ST3-9Aa" class="signal" id="1Qp" text-anchor="start">
<text baseline-shift="-100%" cb-classname="GraphicTextEntity" class="algorithm" id="1QA" text-anchor="start" x="710" y="310">
REF: Point not found in
</text>
<text baseline-shift="-100%" cb-classname="GraphicTextEntity" class="algorithm" id="21ss" text-anchor="start" x="710" y="335">
database
</text>
<text baseline-shift="-100%" cb-classname="GraphicTextEntity" class="algorithm" id="21sR" text-anchor="start" x="710" y="360">
(01T0700D01-STS)
</text>
</g>
</g>
<g cb-alg-7D="01T0700D01-WCZ" cb-alg-KdR="$72$cb-alg-out$" cb-algorithm-id="004" cb-classname="ControlAlgorithm" cb-function-name="UNPACK16" cb-modify-id="00000001" id="1QK">
<rect cb-classname="GraphicRectangleEntity" class="algorithm" height="100" id="1QI" width="140" x="1240" y="250"/>
<text baseline-shift="-50%" cb-classname="GraphicTextEntity" class="algorithm" fill="#000000" font-family="MS Shell Dlg" font-size="18" id="1QX" text-anchor="middle" x="1308" y="295">
UNPACK16
</text>
<g cb-classname="ControlPin" cb-pin-name="DU-SzB-lNR" id="1Qs">
<line cb-classname="GraphicLineEntity" class="signalline" id="1QS" x1="1220" x2="1240" y1="300" y2="300"/>
<polygon cb-classname="GraphicPolygonEntity" class="signal" id="1QQ" points="1240,300 1229,294 1229,305"/>
<g cb-classname="DynamicText" cb-source="iW-CNv-CSIZ" class="signal" id="1QZ" text-anchor="end">
<text cb-classname="GraphicTextEntity" class="signal" fill="black" font-style="normal" font-weight="normal" id="1Qw" text-anchor="end" text-decoration="normal" x="1225" y="297"/>
</g>
</g>
<g cb-classname="ControlPin" cb-pin-name="02-ybJ-Xz" id="1Vp">
<line cb-classname="GraphicLineEntity" class="signalline" id="1VA" x1="1380" x2="1400" y1="280" y2="280"/>
<g cb-classname="DynamicText" cb-source="zW-KdR-8MDW" class="signal" id="1VK" text-anchor="start">
<text cb-classname="GraphicTextEntity" class="signal" fill="black" font-style="normal" font-weight="normal" id="1VI" text-anchor="start" text-decoration="normal" x="1394" y="277"/>
</g>
<g cb-classname="SignalSegment" id="11w3">
<g cb-classname="SignalConnection" cb-graphic-line="$1394$" cb-input-pin="$gZca$" id="11wU"/>
<line cb-classname="GraphicLineEntity" class="signalline" id="11wR" stroke="#1e12bf" stroke-dasharray="5,4" x1="1400" x2="1590" y1="280" y2="280"/>
</g>
</g>
<g cb-classname="ControlPin" cb-pin-name="cJ-xRb-Ha" id="1VQ">
<line cb-classname="GraphicLineEntity" class="signalline" id="1VZ" x1="1380" x2="1400" y1="320" y2="320"/>
<g cb-classname="DynamicText" cb-source="B5-QYS-vgxj" class="signal" id="1Vw" text-anchor="start">
<text cb-classname="GraphicTextEntity" class="signal" fill="black" font-style="normal" font-weight="normal" id="1Fp" text-anchor="start" text-decoration="normal" x="1394" y="317"/>
</g>
<g cb-classname="SignalSegment" id="1jp3">
<line cb-classname="GraphicLineEntity" class="signalline" id="1jIs" stroke="#1e12bf" stroke-dasharray="5,4" x1="1400" x2="1520" y1="320" y2="320"/>
<g cb-classname="SignalSegment" id="1jIR">
<line cb-classname="GraphicLineEntity" class="signalline" id="1jIU" stroke="#1e12bf" stroke-dasharray="5,4" x1="1520" x2="1520" y1="320" y2="440"/>
<g cb-classname="SignalSegment" id="1jIm">
<line cb-classname="GraphicLineEntity" class="signalline" id="1jI1" stroke="#1e12bf" stroke-dasharray="5,4" x1="1520" x2="1990" y1="440" y2="440"/>
<g cb-classname="SignalConnection" cb-graphic-line="$1437$" cb-input-pin="$mk5P$" id="1jIZ"/>
</g>
<line cb-classname="GraphicLineEntity" class="signalline" id="1jpR" stroke="#1e12bf" stroke-dasharray="5,4" x1="1520" x2="1590" y1="320" y2="320"/>
<g cb-classname="SignalConnection" cb-graphic-line="$1404$" cb-input-pin="$AsyZ$" id="1jpU"/>
<ellipse cb-classname="GraphicEllipseEntity" class="signal" cx="1520" cy="320" fill="#1e12bf" id="1jIi" rx="5" ry="5" stroke="#1e12bf" stroke-dasharray="5,4"/>
</g>
</g>
</g>
</g>
<g cb-alg-dC="$102$cb-alg-d2$" cb-algorithm-id="003" cb-classname="ExternalPointInterface" cb-function-name="OUTPUT" id="1QQm">
<ellipse cb-classname="GraphicEllipseEntity" class="algorithm" cx="2070" cy="440" id="1QQ1" rx="50" ry="50"/>
<rect cb-classname="GraphicRectangleEntity" class="algorithm" height="100" id="1QQZ" width="40" x="2120" y="390"/>
<line cb-classname="GraphicLineEntity" class="algorithm" id="1QQi" x1="2120" x2="2160" y1="440" y2="440"/>
<g cb-classname="ControlPin" cb-pin-name="DU-SzB-Nv" id="1QZ2">
<line cb-classname="GraphicLineEntity" class="signalline" id="1QZ3" x1="1990" x2="2020" y1="440" y2="440"/>
<polygon cb-classname="GraphicPolygonEntity" class="signal" id="1QZh" points="2020,440 2009,434 2009,445"/>
<g cb-classname="DynamicText" cb-source="iW-CNv-CSIZ" class="signal" id="1QZs" text-anchor="end">
<text cb-classname="GraphicTextEntity" class="signal" fill="black" font-style="normal" font-weight="normal" id="1QZR" text-anchor="end" text-decoration="normal" x="2005" y="437"/>
</g>
</g>
<g cb-classname="PointStatusIndicator" cb-indicator-type="highway" cb-source="02-ybJ-a5" id="1QZU" visibility="hidden">
<line cb-classname="GraphicLineEntity" class="algorithmline" id="1QZm" x1="2020" x2="2070" y1="440" y2="390"/>
<line cb-classname="GraphicLineEntity" class="algorithmline" id="1QZ1" x1="2070" x2="2120" y1="390" y2="440"/>
<line cb-classname="GraphicLineEntity" class="algorithmline" id="1QZZ" x1="2120" x2="2070" y1="440" y2="490"/>
<line cb-classname="GraphicLineEntity" class="algorithmline" id="1QZi" x1="2070" x2="2020" y1="490" y2="440"/>
</g>
<g cb-classname="PointStatusIndicator" cb-indicator-type="hardware" cb-source="0V-rq6-uM" id="1Qw2" visibility="visible">
<line cb-classname="GraphicLineEntity" class="algorithmline" id="1Qw3" x1="2120" x2="2020" y1="390" y2="390"/>
<line cb-classname="GraphicLineEntity" class="algorithmline" id="1Qwh" x1="2020" x2="2020" y1="390" y2="490"/>
<line cb-classname="GraphicLineEntity" class="algorithmline" id="1Qws" x1="2020" x2="2120" y1="490" y2="490"/>
</g>
<g cb-classname="PointStatusIndicator" cb-indicator-type="alarm" cb-source="B5-MuP-NR" id="1QwR" visibility="hidden">
<text cb-classname="GraphicTextEntity" class="algorithm" fill="#000000" font-family="Arial" font-size="20" id="1QwU" x="2130" y="475">
A
</text>
</g>
<g cb-classname="PointStatusIndicator" cb-indicator-type="ingraphic" cb-source="iW-Unn-d9" id="1Qwm" visibility="visible">
<text cb-classname="GraphicTextEntity" class="algorithm" fill="#000000" font-family="Arial" font-size="20" id="1Qw1" x="2130" y="425">
G
</text>
</g>
<g cb-classname="DynamicText" cb-labeled="false" cb-pin-name="SX" cb-source="02-ybJ-a5" class="algorithm" id="1QwZ" text-anchor="end">
<text baseline-shift="0%" cb-classname="GraphicTextEntity" class="algorithm" fill="black" font-family="arial" font-size="20" font-style="normal" font-weight="normal" id="1Qwi" text-anchor="end" text-decoration="normal" x="1995" y="415"/>
</g>
<g baseline-shift="-100%" cb-anchor-x="1995" cb-anchor-y="450" cb-classname="PointReferences" cb-max-width="130" cb-originator="false" cb-source="zW-u3B-3A" class="signal" id="1Vp2" text-anchor="end">
<text baseline-shift="-100%" cb-classname="GraphicTextEntity" class="algorithm" id="1Vp3" text-anchor="end" x="1995" y="450">
REF: Point not
</text>
<text baseline-shift="-100%" cb-classname="GraphicTextEntity" class="algorithm" id="21sU" text-anchor="end" x="1995" y="475">
found in
</text>
<text baseline-shift="-100%" cb-classname="GraphicTextEntity" class="algorithm" id="21sm" text-anchor="end" x="1995" y="500">
database
</text>
<text baseline-shift="-100%" cb-classname="GraphicTextEntity" class="algorithm" id="21s1" text-anchor="end" x="1995" y="525">
(01T0700D01-WCZ)
</text>
</g>
<g baseline-shift="-50%" cb-anchor-x="2175" cb-anchor-y="455" cb-classname="PointDescription" cb-content="extended" cb-labeled="false" cb-max-width="240" cb-source="ls-lxx-sp" class="algorithm" id="1Vph" text-anchor="start">
<text baseline-shift="-50%" cb-classname="GraphicTextEntity" class="algorithm" id="1Vps" text-anchor="start" x="2175" y="443">
DESC: Point not found in
</text>
<text baseline-shift="-50%" cb-classname="GraphicTextEntity" class="algorithm" id="21sZ" text-anchor="start" x="2175" y="468">
database (01T0700D01-WCZ)
</text>
</g>
</g>
<g cb-alg-K3hU="$102$cb-alg-d2$" cb-alg-cK9="01T0700D01-WCO" cb-alg-eN9="$102$cb-alg-d0$" cb-alg-g4lJ="RESET" cb-algorithm-id="008" cb-classname="FastBooleanAlgorithm" cb-function-name="FLIPFLOP" id="11Q3">
<g cb-classname="ControlPin" cb-pin-name="M1-gia-WNi" id="11Qh">
<line cb-classname="GraphicLineEntity" class="signalline" id="11Qs" x1="1590" x2="1610" y1="280" y2="280"/>
<polygon cb-classname="GraphicPolygonEntity" class="signal" id="11QR" points="1610,280 1599,276 1599,284"/>
<g cb-classname="DynamicText" cb-source="ls-q28-HCU0" class="signal" id="11QU" text-anchor="end">
<text baseline-shift="5%" cb-classname="GraphicTextEntity" class="signal" fill="black" font-style="normal" font-weight="normal" id="11Qm" text-anchor="end" text-decoration="normal" x="1594" y="270"/>
</g>
</g>
<g cb-classname="ControlPin" cb-pin-name="cG-yOV-7cGg" id="11Q1">
<line cb-classname="GraphicLineEntity" class="signalline" id="11QZ" x1="1590" x2="1610" y1="320" y2="320"/>
<polygon cb-classname="GraphicPolygonEntity" class="signal" id="11Qi" points="1610,320 1599,316 1599,324"/>
<g cb-classname="DynamicText" cb-source="B5-QYS-vgxj" class="signal" id="11Z2" text-anchor="end">
<text baseline-shift="5%" cb-classname="GraphicTextEntity" class="signal" fill="black" font-style="normal" font-weight="normal" id="11Z3" text-anchor="end" text-decoration="normal" x="1591" y="311"/>
</g>
</g>
<g cb-classname="ControlPin" cb-pin-name="iW-Unn-EiZ" id="11Zh">
<line cb-classname="GraphicLineEntity" class="signalline" id="11Zs" x1="1690" x2="1710" y1="280" y2="280"/>
<g cb-classname="DynamicText" cb-source="02-odC-RrEs" class="signal" id="11ZR">
<text baseline-shift="5%" cb-classname="GraphicTextEntity" class="signal" fill="black" font-style="normal" font-weight="normal" id="11ZU" text-decoration="normal" x="1705" y="271"/>
</g>
<g cb-classname="SignalSegment" id="11wm">
<g cb-classname="SignalConnection" cb-graphic-line="$1399$" cb-input-pin="$L1D$" id="1jp2"/>
<line cb-classname="GraphicLineEntity" class="signalline" id="11wi" stroke="#1e12bf" stroke-dasharray="5,4" x1="1710" x2="1990" y1="280" y2="280"/>
</g>
</g>
<rect cb-classname="GraphicRectangleEntity" class="algorithm" height="80" id="11Zm" width="80" x="1610" y="260"/>
<text baseline-shift="-50%" cb-classname="GraphicTextEntity" class="algorithm" id="11Z1" text-anchor="middle" x="1627" y="275">
S
</text>
<text baseline-shift="-50%" cb-classname="GraphicTextEntity" class="algorithm" id="11ZZ" text-anchor="middle" x="1629" y="316">
R
</text>
<text baseline-shift="-50%" cb-classname="GraphicTextEntity" class="algorithm" id="11Zi" text-anchor="middle" x="1671" y="277">
1
</text>
<text baseline-shift="-50%" cb-classname="GraphicTextEntity" class="algorithm" id="11w2" text-anchor="middle" x="1670" y="317">
0
</text>
</g>
<g cb-alg-d9="$1371$cb-alg-out$" cb-algorithm-id="002" cb-classname="ExternalPointInterface" cb-function-name="OUTPUT" id="1FZ">
<ellipse cb-classname="GraphicEllipseEntity" class="algorithm" cx="2070" cy="280" id="1Fw" rx="50" ry="50"/>
<rect cb-classname="GraphicRectangleEntity" class="algorithm" height="100" id="11p" width="40" x="2120" y="230"/>
<line cb-classname="GraphicLineEntity" class="algorithm" id="11A" x1="2120" x2="2160" y1="280" y2="280"/>
<g cb-classname="ControlPin" cb-pin-name="B5-MuP-NR" id="11K">
<line cb-classname="GraphicLineEntity" class="signalline" id="11I" x1="1990" x2="2020" y1="280" y2="280"/>
<polygon cb-classname="GraphicPolygonEntity" class="signal" id="11X" points="2020,280 2009,274 2009,285"/>
<g cb-classname="DynamicText" cb-source="Uv-lNR-9lPN" class="signal" id="11s" text-anchor="end">
<text cb-classname="GraphicTextEntity" class="signal" fill="black" font-style="normal" font-weight="normal" id="11S" text-anchor="end" text-decoration="normal" x="2005" y="277"/>
</g>
</g>
<g cb-classname="PointStatusIndicator" cb-indicator-type="highway" cb-source="M1-gia-28" id="11Q" visibility="hidden">
<line cb-classname="GraphicLineEntity" class="algorithmline" id="11Z" x1="2020" x2="2070" y1="280" y2="230"/>
<line cb-classname="GraphicLineEntity" class="algorithmline" id="11w" x1="2070" x2="2120" y1="230" y2="280"/>
<line cb-classname="GraphicLineEntity" class="algorithmline" id="1jp" x1="2120" x2="2070" y1="280" y2="330"/>
<line cb-classname="GraphicLineEntity" class="algorithmline" id="1jA" x1="2070" x2="2020" y1="330" y2="280"/>
</g>
<g cb-classname="PointStatusIndicator" cb-indicator-type="hardware" cb-source="cG-yOV-PH" id="1jK" visibility="visible">
<line cb-classname="GraphicLineEntity" class="algorithmline" id="1jI" x1="2120" x2="2020" y1="230" y2="230"/>
<line cb-classname="GraphicLineEntity" class="algorithmline" id="1jX" x1="2020" x2="2020" y1="230" y2="330"/>
<line cb-classname="GraphicLineEntity" class="algorithmline" id="1js" x1="2020" x2="2120" y1="330" y2="330"/>
</g>
<g cb-classname="PointStatusIndicator" cb-indicator-type="alarm" cb-source="Hf-f77-dC" id="1jS" visibility="hidden">
<text cb-classname="GraphicTextEntity" class="algorithm" fill="#000000" font-family="Arial" font-size="20" id="1jQ" x="2130" y="315">
A
</text>
</g>
<g cb-classname="PointStatusIndicator" cb-indicator-type="ingraphic" cb-source="Uv-GeA-dR" id="1jZ" visibility="visible">
<text cb-classname="GraphicTextEntity" class="algorithm" fill="#000000" font-family="Arial" font-size="20" id="1jw" x="2130" y="265">
G
</text>
</g>
<g cb-classname="DynamicText" cb-labeled="false" cb-pin-name="Zu" cb-source="M1-gia-28" class="algorithm" id="1bp" text-anchor="end">
<text baseline-shift="0%" cb-classname="GraphicTextEntity" class="algorithm" fill="black" font-family="arial" font-size="20" font-style="normal" font-weight="normal" id="1bA" text-anchor="end" text-decoration="normal" x="1995" y="255"/>
</g>
<g baseline-shift="-100%" cb-anchor-x="1995" cb-anchor-y="290" cb-classname="PointReferences" cb-max-width="130" cb-originator="false" cb-source="4h-ST3-xH" class="signal" id="1bK" text-anchor="end">
<text baseline-shift="-100%" cb-classname="GraphicTextEntity" class="algorithm" id="1bI" text-anchor="end" x="1995" y="290">
REF: Point not
</text>
<text baseline-shift="-100%" cb-classname="GraphicTextEntity" class="algorithm" id="21S2" text-anchor="end" x="1995" y="315">
found in
</text>
<text baseline-shift="-100%" cb-classname="GraphicTextEntity" class="algorithm" id="21S3" text-anchor="end" x="1995" y="340">
database
</text>
<text baseline-shift="-100%" cb-classname="GraphicTextEntity" class="algorithm" id="21Sh" text-anchor="end" x="1995" y="365">
(01T0700D01-WCO)
</text>
</g>
<g baseline-shift="-50%" cb-anchor-x="2175" cb-anchor-y="295" cb-classname="PointDescription" cb-content="extended" cb-labeled="false" cb-max-width="240" cb-source="cJ-xRb-0B" class="algorithm" id="1bS" text-anchor="start">
<text baseline-shift="-50%" cb-classname="GraphicTextEntity" class="algorithm" id="1bQ" text-anchor="start" x="2175" y="270">
DESC: Point not found in
</text>
<text baseline-shift="-50%" cb-classname="GraphicTextEntity" class="algorithm" id="21Ss" text-anchor="start" x="2175" y="295">
database
</text>
<text baseline-shift="-50%" cb-classname="GraphicTextEntity" class="algorithm" id="21SR" text-anchor="start" x="2175" y="320">
(01T0700D01-WCO)
</text>
</g>
</g>
<g cb-alg-c5Nn="NO" cb-alg-cK9="01T0700D02-STS" cb-algorithm-id="005" cb-classname="ExternalPointInterface" cb-function-name="INPUT" id="1EZ">
<ellipse cb-classname="GraphicEllipseEntity" class="algorithm" cx="3310" cy="300" id="1Ew" rx="50" ry="50"/>
<rect cb-classname="GraphicRectangleEntity" class="algorithm" height="100" id="1Op" width="40" x="3220" y="250"/>
<line cb-classname="GraphicLineEntity" class="algorithm" id="1OA" x1="3220" x2="3260" y1="300" y2="300"/>
<g cb-classname="ControlPin" cb-pin-name="ls-lxx-I8L" id="1OK">
<line cb-classname="GraphicLineEntity" class="signalline" id="1OI" x1="3360" x2="3390" y1="300" y2="300"/>
<g cb-classname="DynamicText" cb-source="cG-LxH-M6B8" class="signal" id="1OX" text-anchor="start">
<text cb-classname="GraphicTextEntity" class="signal" fill="black" font-style="normal" font-weight="normal" id="1Os" text-anchor="start" text-decoration="normal" x="3374" y="297"/>
</g>
<g cb-classname="SignalSegment" id="1OS">
<line cb-classname="GraphicLineEntity" class="signalline" id="1OQ" x1="3390" x2="3890" y1="300" y2="300"/>
<g cb-classname="SignalConnection" cb-graphic-line="$197$" cb-input-pin="$9tN$" id="1OZ"/>
</g>
</g>
<g cb-classname="PointStatusIndicator" cb-indicator-type="Highway" cb-source="iW-Unn-EiZ" id="1Ow" visibility="hidden">
<line cb-classname="GraphicLineEntity" class="algorithmline" id="2Qp" x1="3260" x2="3310" y1="300" y2="250"/>
<line cb-classname="GraphicLineEntity" class="algorithmline" id="2QA" x1="3310" x2="3360" y1="250" y2="300"/>
<line cb-classname="GraphicLineEntity" class="algorithmline" id="2QK" x1="3360" x2="3310" y1="300" y2="350"/>
<line cb-classname="GraphicLineEntity" class="algorithmline" id="2QI" x1="3310" x2="3260" y1="350" y2="300"/>
</g>
<g cb-classname="PointStatusIndicator" cb-indicator-type="hardware" cb-source="4h-ST3-9Aa" id="2QX" visibility="hidden">
<line cb-classname="GraphicLineEntity" class="algorithmline" id="2Qs" x1="3260" x2="3360" y1="250" y2="250"/>
<line cb-classname="GraphicLineEntity" class="algorithmline" id="2QS" x1="3360" x2="3360" y1="250" y2="350"/>
<line cb-classname="GraphicLineEntity" class="algorithmline" id="2QQ" x1="3360" x2="3260" y1="350" y2="350"/>
</g>
<g cb-classname="PointStatusIndicator" cb-indicator-type="alarm" cb-source="cJ-xRb-TSU" id="2QZ" visibility="hidden">
<text cb-classname="GraphicTextEntity" class="algorithm" fill="#000000" font-family="arial" font-size="20" id="2Qw" x="3230" y="285">
A
</text>
</g>
<g cb-classname="PointStatusIndicator" cb-indicator-type="ingraphic" cb-source="B5-MuP-tjn" id="2Vp" visibility="visible">
<text cb-classname="GraphicTextEntity" class="algorithm" fill="#000000" font-family="Arial" font-size="20" id="2VA" x="3230" y="335">
G
</text>
</g>
<g baseline-shift="-50%" cb-anchor-x="3210" cb-anchor-y="314" cb-classname="PointDescription" cb-content="extended" cb-labeled="false" cb-max-width="220" cb-source="iW-Unn-EiZ" class="algorithm" id="2VK" text-anchor="end">
<text baseline-shift="-50%" cb-classname="GraphicTextEntity" class="algorithm" id="2VI" text-anchor="end" x="3210" y="289">
DESC: Point not found in
</text>
<text baseline-shift="-50%" cb-classname="GraphicTextEntity" class="algorithm" id="1jXs" text-anchor="end" x="3210" y="314">
database
</text>
<text baseline-shift="-50%" cb-classname="GraphicTextEntity" class="algorithm" id="21SU" text-anchor="end" x="3210" y="339">
(01T0700D02-STS)
</text>
</g>
<g cb-classname="DynamicText" cb-labeled="false" cb-pin-name="DWH" cb-source="02-ybJ-Mci" class="algorithm" id="2VX" text-anchor="start">
<text baseline-shift="0%" cb-classname="GraphicTextEntity" class="algorithm" fill="black" font-family="arial" font-size="20" font-style="normal" font-weight="normal" id="2Vs" text-anchor="start" text-decoration="normal" x="3380" y="270"/>
</g>
<g baseline-shift="-100%" cb-anchor-x="3380" cb-anchor-y="310" cb-classname="PointReferences" cb-max-width="230" cb-originator="true" cb-source="zW-u3B-Vqh" class="signal" id="2VS" text-anchor="start">
<text baseline-shift="-100%" cb-classname="GraphicTextEntity" class="algorithm" id="2VQ" text-anchor="start" x="3380" y="310">
REF: Point not found in
</text>
<text baseline-shift="-100%" cb-classname="GraphicTextEntity" class="algorithm" id="21Sm" text-anchor="start" x="3380" y="335">
database
</text>
<text baseline-shift="-100%" cb-classname="GraphicTextEntity" class="algorithm" id="21S1" text-anchor="start" x="3380" y="360">
(01T0700D02-STS)
</text>
</g>
</g>
<g cb-alg-T2="01T0700D02-WCO" cb-alg-cd9="$188$cb-alg-out$" cb-algorithm-id="006" cb-classname="ControlAlgorithm" cb-function-name="UNPACK16" id="2VZ">
<rect cb-classname="GraphicRectangleEntity" class="algorithm" height="100" id="2Vw" width="140" x="3910" y="250"/>
<text baseline-shift="-50%" cb-classname="GraphicTextEntity" class="algorithm" fill="#000000" font-family="MS Shell Dlg" font-size="18" id="2Fp" text-anchor="middle" x="3978" y="295">
UNPACK16
</text>
<g cb-classname="ControlPin" cb-pin-name="cJ-xRb-CNv" id="2FA">
<line cb-classname="GraphicLineEntity" class="signalline" id="2FK" x1="3890" x2="3910" y1="300" y2="300"/>
<polygon cb-classname="GraphicPolygonEntity" class="signal" id="2FI" points="3910,300 3899,294 3899,305"/>
<g cb-classname="DynamicText" cb-source="Hf-r0B-RuUn" class="signal" id="2FX" text-anchor="end">
<text cb-classname="GraphicTextEntity" class="signal" fill="black" font-style="normal" font-weight="normal" id="2Fs" text-anchor="end" text-decoration="normal" x="3895" y="297"/>
</g>
</g>
<g cb-classname="ControlPin" cb-pin-name="Uv-GeA-BK" id="2FS">
<line cb-classname="GraphicLineEntity" class="signalline" id="2FQ" x1="4050" x2="4070" y1="280" y2="280"/>
<g cb-classname="DynamicText" cb-source="M1-cd9-5yJu" class="signal" id="2FZ" text-anchor="start">
<text cb-classname="GraphicTextEntity" class="signal" fill="black" font-style="normal" font-weight="normal" id="2Fw" text-anchor="start" text-decoration="normal" x="4064" y="277"/>
</g>
<g cb-classname="SignalSegment" id="21p">
<line cb-classname="GraphicLineEntity" class="signalline" id="21A" stroke="#1e12bf" stroke-dasharray="5,4" x1="4070" x2="4660" y1="280" y2="280"/>
<g cb-classname="SignalConnection" cb-graphic-line="$231$" cb-input-pin="$DxQ$" id="21K"/>
</g>
</g>
<g cb-classname="ControlPin" cb-pin-name="cG-yOV-eS" id="21I">
<line cb-classname="GraphicLineEntity" class="signalline" id="21X" x1="4050" x2="4070" y1="320" y2="320"/>
<g cb-classname="DynamicText" cb-source="DU-8VP-ByPL" class="signal" id="21s" text-anchor="start">
<text cb-classname="GraphicTextEntity" class="signal" fill="black" font-style="normal" font-weight="normal" id="21S" text-anchor="start" text-decoration="normal" x="4064" y="317"/>
</g>
</g>
</g>
<g cb-alg-dC="$218$cb-alg-d0$" cb-algorithm-id="007" cb-classname="ExternalPointInterface" cb-function-name="OUTPUT" id="2jX">
<ellipse cb-classname="GraphicEllipseEntity" class="algorithm" cx="4740" cy="280" id="2js" rx="50" ry="50"/>
<rect cb-classname="GraphicRectangleEntity" class="algorithm" height="100" id="2jS" width="40" x="4790" y="230"/>
<line cb-classname="GraphicLineEntity" class="algorithm" id="2jQ" x1="4790" x2="4830" y1="280" y2="280"/>
<g cb-classname="ControlPin" cb-pin-name="DU-SzB-Nv" id="2jZ">
<line cb-classname="GraphicLineEntity" class="signalline" id="2jw" x1="4660" x2="4690" y1="280" y2="280"/>
<polygon cb-classname="GraphicPolygonEntity" class="signal" id="2bp" points="4690,280 4679,274 4679,285"/>
<g cb-classname="DynamicText" cb-source="iW-CNv-CSIZ" class="signal" id="2bA" text-anchor="end">
<text cb-classname="GraphicTextEntity" class="signal" fill="black" font-style="normal" font-weight="normal" id="2bK" text-anchor="end" text-decoration="normal" x="4675" y="277"/>
</g>
</g>
<g cb-classname="PointStatusIndicator" cb-indicator-type="highway" cb-source="02-ybJ-a5" id="2bI" visibility="hidden">
<line cb-classname="GraphicLineEntity" class="algorithmline" id="2bX" x1="4690" x2="4740" y1="280" y2="230"/>
<line cb-classname="GraphicLineEntity" class="algorithmline" id="2bs" x1="4740" x2="4790" y1="230" y2="280"/>
<line cb-classname="GraphicLineEntity" class="algorithmline" id="2bS" x1="4790" x2="4740" y1="280" y2="330"/>
<line cb-classname="GraphicLineEntity" class="algorithmline" id="2bQ" x1="4740" x2="4690" y1="330" y2="280"/>
</g>
<g cb-classname="PointStatusIndicator" cb-indicator-type="hardware" cb-source="0V-rq6-uM" id="2bZ" visibility="visible">
<line cb-classname="GraphicLineEntity" class="algorithmline" id="2bw" x1="4790" x2="4690" y1="230" y2="230"/>
<line cb-classname="GraphicLineEntity" class="algorithmline" id="2ip" x1="4690" x2="4690" y1="230" y2="330"/>
<line cb-classname="GraphicLineEntity" class="algorithmline" id="2iA" x1="4690" x2="4790" y1="330" y2="330"/>
</g>
<g cb-classname="PointStatusIndicator" cb-indicator-type="alarm" cb-source="B5-MuP-NR" id="2iK" visibility="hidden">
<text cb-classname="GraphicTextEntity" class="algorithm" fill="#000000" font-family="Arial" font-size="20" id="2iI" x="4800" y="315">
A
</text>
</g>
<g cb-classname="PointStatusIndicator" cb-indicator-type="ingraphic" cb-source="iW-Unn-d9" id="2iX" visibility="visible">
<text cb-classname="GraphicTextEntity" class="algorithm" fill="#000000" font-family="Arial" font-size="20" id="2is" x="4800" y="265">
G
</text>
</g>
<g cb-classname="DynamicText" cb-labeled="false" cb-pin-name="SX" cb-source="02-ybJ-a5" class="algorithm" id="2iS" text-anchor="end">
<text baseline-shift="0%" cb-classname="GraphicTextEntity" class="algorithm" fill="black" font-family="arial" font-size="20" font-style="normal" font-weight="normal" id="2iQ" text-anchor="end" text-decoration="normal" x="4665" y="255"/>
</g>
<g baseline-shift="-100%" cb-anchor-x="4665" cb-anchor-y="290" cb-classname="PointReferences" cb-max-width="130" cb-originator="false" cb-source="zW-u3B-3A" class="signal" id="2iZ" text-anchor="end">
<text baseline-shift="-100%" cb-classname="GraphicTextEntity" class="algorithm" id="2iw" text-anchor="end" x="4665" y="290">
REF: Point not
</text>
<text baseline-shift="-100%" cb-classname="GraphicTextEntity" class="algorithm" id="21SZ" text-anchor="end" x="4665" y="315">
found in
</text>
<text baseline-shift="-100%" cb-classname="GraphicTextEntity" class="algorithm" id="21Si" text-anchor="end" x="4665" y="340">
database
</text>
<text baseline-shift="-100%" cb-classname="GraphicTextEntity" class="algorithm" id="21Q2" text-anchor="end" x="4665" y="365">
(01T0700D02-WCO)
</text>
</g>
<g baseline-shift="-50%" cb-anchor-x="4845" cb-anchor-y="295" cb-classname="PointDescription" cb-content="extended" cb-labeled="false" cb-max-width="240" cb-source="cG-yOV-PH" class="algorithm" id="22K" text-anchor="start">
<text baseline-shift="-50%" cb-classname="GraphicTextEntity" class="algorithm" id="22I" text-anchor="start" x="4845" y="270">
DESC: Point not found in
</text>
<text baseline-shift="-50%" cb-classname="GraphicTextEntity" class="algorithm" id="1FXU" text-anchor="start" x="4845" y="295">
database
</text>
<text baseline-shift="-50%" cb-classname="GraphicTextEntity" class="algorithm" id="21Q3" text-anchor="start" x="4845" y="320">
(01T0700D02-WCO)
</text>
</g>
</g>
<g cb-alg-CK07="NO" cb-alg-Cz6="01T0700D03-STS" cb-algorithm-id="009" cb-classname="ExternalPointInterface" cb-function-name="INPUT" id="3QX">
<ellipse cb-classname="GraphicEllipseEntity" class="algorithm" cx="640" cy="870" id="3Qs" rx="50" ry="50"/>
<rect cb-classname="GraphicRectangleEntity" class="algorithm" height="100" id="3QS" width="40" x="550" y="820"/>
<line cb-classname="GraphicLineEntity" class="algorithm" id="3QQ" x1="550" x2="590" y1="870" y2="870"/>
<g cb-classname="ControlPin" cb-pin-name="4h-ST3-9Aa" id="3QZ">
<line cb-classname="GraphicLineEntity" class="signalline" id="3Qw" x1="690" x2="720" y1="870" y2="870"/>
<g cb-classname="DynamicText" cb-source="0V-63A-poKG" class="signal" id="3Vp" text-anchor="start">
<text cb-classname="GraphicTextEntity" class="signal" fill="black" font-style="normal" font-weight="normal" id="3VA" text-anchor="start" text-decoration="normal" x="704" y="867"/>
</g>
<g cb-classname="SignalSegment" id="3VK">
<line cb-classname="GraphicLineEntity" class="signalline" id="3VI" x1="720" x2="1220" y1="870" y2="870"/>
<g cb-classname="SignalConnection" cb-graphic-line="$313$" cb-input-pin="$sTZ$" id="3VX"/>
</g>
</g>
<g cb-classname="PointStatusIndicator" cb-indicator-type="Highway" cb-source="Hf-f77-qbn" id="3Vs" visibility="hidden">
<line cb-classname="GraphicLineEntity" class="algorithmline" id="3VS" x1="590" x2="640" y1="870" y2="820"/>
<line cb-classname="GraphicLineEntity" class="algorithmline" id="3VQ" x1="640" x2="690" y1="820" y2="870"/>
<line cb-classname="GraphicLineEntity" class="algorithmline" id="3VZ" x1="690" x2="640" y1="870" y2="920"/>
<line cb-classname="GraphicLineEntity" class="algorithmline" id="3Vw" x1="640" x2="590" y1="920" y2="870"/>
</g>
<g cb-classname="PointStatusIndicator" cb-indicator-type="hardware" cb-source="zW-u3B-Vqh" id="3Fp" visibility="hidden">
<line cb-classname="GraphicLineEntity" class="algorithmline" id="3FA" x1="590" x2="690" y1="820" y2="820"/>
<line cb-classname="GraphicLineEntity" class="algorithmline" id="3FK" x1="690" x2="690" y1="820" y2="920"/>
<line cb-classname="GraphicLineEntity" class="algorithmline" id="3FI" x1="690" x2="590" y1="920" y2="920"/>
</g>
<g cb-classname="PointStatusIndicator" cb-indicator-type="alarm" cb-source="cG-yOV-lMo" id="3FX" visibility="hidden">
<text cb-classname="GraphicTextEntity" class="algorithm" fill="#000000" font-family="arial" font-size="20" id="3Fs" x="560" y="855">
A
</text>
</g>
<g cb-classname="PointStatusIndicator" cb-indicator-type="ingraphic" cb-source="DU-SzB-xIv" id="3FS" visibility="visible">
<text cb-classname="GraphicTextEntity" class="algorithm" fill="#000000" font-family="Arial" font-size="20" id="3FQ" x="560" y="905">
G
</text>
</g>
<g baseline-shift="-50%" cb-anchor-x="540" cb-anchor-y="884" cb-classname="PointDescription" cb-content="extended" cb-labeled="false" cb-max-width="220" cb-source="Hf-f77-qbn" class="algorithm" id="3FZ" text-anchor="end">
<text baseline-shift="-50%" cb-classname="GraphicTextEntity" class="algorithm" id="3Fw" text-anchor="end" x="540" y="859">
DESC: Point not found in
</text>
<text baseline-shift="-50%" cb-classname="GraphicTextEntity" class="algorithm" id="1jXU" text-anchor="end" x="540" y="884">
database
</text>
<text baseline-shift="-50%" cb-classname="GraphicTextEntity" class="algorithm" id="21Qh" text-anchor="end" x="540" y="909">
(01T0700D03-STS)
</text>
</g>
<g cb-classname="DynamicText" cb-labeled="false" cb-pin-name="pia" cb-source="Uv-GeA-Y9i" class="algorithm" id="31p" text-anchor="start">
<text baseline-shift="0%" cb-classname="GraphicTextEntity" class="algorithm" fill="black" font-family="arial" font-size="20" font-style="normal" font-weight="normal" id="31A" text-anchor="start" text-decoration="normal" x="710" y="840"/>
</g>
<g baseline-shift="-100%" cb-anchor-x="710" cb-anchor-y="880" cb-classname="PointReferences" cb-max-width="230" cb-originator="true" cb-source="M1-gia-uhi" class="signal" id="31K" text-anchor="start">
<text baseline-shift="-100%" cb-classname="GraphicTextEntity" class="algorithm" id="31I" text-anchor="start" x="710" y="880">
REF: Point not found in
</text>
<text baseline-shift="-100%" cb-classname="GraphicTextEntity" class="algorithm" id="21Qs" text-anchor="start" x="710" y="905">
database
</text>
<text baseline-shift="-100%" cb-classname="GraphicTextEntity" class="algorithm" id="21QR" text-anchor="start" x="710" y="930">
(01T0700D03-STS)
</text>
</g>
</g>
<g cb-alg-jk="01T0700D03-WCO" cb-alg-odC="$304$cb-alg-out$" cb-algorithm-id="00a" cb-classname="ControlAlgorithm" cb-function-name="UNPACK16" id="31X">
<rect cb-classname="GraphicRectangleEntity" class="algorithm" height="100" id="31s" width="140" x="1240" y="820"/>
<text baseline-shift="-50%" cb-classname="GraphicTextEntity" class="algorithm" fill="#000000" font-family="MS Shell Dlg" font-size="18" id="31S" text-anchor="middle" x="1308" y="865">
UNPACK16
</text>
<g cb-classname="ControlPin" cb-pin-name="cG-yOV-IFg" id="31Q">
<line cb-classname="GraphicLineEntity" class="signalline" id="31Z" x1="1220" x2="1240" y1="870" y2="870"/>
<polygon cb-classname="GraphicPolygonEntity" class="signal" id="31w" points="1240,870 1229,864 1229,875"/>
<g cb-classname="DynamicText" cb-source="B5-QYS-vgxj" class="signal" id="3jp" text-anchor="end">
<text cb-classname="GraphicTextEntity" class="signal" fill="black" font-style="normal" font-weight="normal" id="3jA" text-anchor="end" text-decoration="normal" x="1225" y="867"/>
</g>
</g>
<g cb-classname="ControlPin" cb-pin-name="iW-Unn-7P" id="3jK">
<line cb-classname="GraphicLineEntity" class="signalline" id="3jI" x1="1380" x2="1400" y1="850" y2="850"/>
<g cb-classname="DynamicText" cb-source="02-odC-RrEs" class="signal" id="3jX" text-anchor="start">
<text cb-classname="GraphicTextEntity" class="signal" fill="black" font-style="normal" font-weight="normal" id="3js" text-anchor="start" text-decoration="normal" x="1394" y="847"/>
</g>
<g cb-classname="SignalSegment" id="3jS">
<line cb-classname="GraphicLineEntity" class="signalline" id="3jQ" stroke="#1e12bf" stroke-dasharray="5,4" x1="1400" x2="1990" y1="850" y2="850"/>
<g cb-classname="SignalConnection" cb-graphic-line="$347$" cb-input-pin="$1Lx$" id="3jZ"/>
</g>
</g>
<g cb-classname="ControlPin" cb-pin-name="0V-rq6-kJ" id="3jw">
<line cb-classname="GraphicLineEntity" class="signalline" id="3bp" x1="1380" x2="1400" y1="890" y2="890"/>
<g cb-classname="DynamicText" cb-source="cJ-6jB-SGdz" class="signal" id="3bA" text-anchor="start">
<text cb-classname="GraphicTextEntity" class="signal" fill="black" font-style="normal" font-weight="normal" id="3bK" text-anchor="start" text-decoration="normal" x="1394" y="887"/>
</g>
</g>
</g>
<g cb-alg-NR="$334$cb-alg-d0$" cb-algorithm-id="00b" cb-classname="ExternalPointInterface" cb-function-name="OUTPUT" id="3ip">
<ellipse cb-classname="GraphicEllipseEntity" class="algorithm" cx="2070" cy="850" id="3iA" rx="50" ry="50"/>
<rect cb-classname="GraphicRectangleEntity" class="algorithm" height="100" id="3iK" width="40" x="2120" y="800"/>
<line cb-classname="GraphicLineEntity" class="algorithm" id="3iI" x1="2120" x2="2160" y1="850" y2="850"/>
<g cb-classname="ControlPin" cb-pin-name="cJ-xRb-0B" id="3iX">
<line cb-classname="GraphicLineEntity" class="signalline" id="3is" x1="1990" x2="2020" y1="850" y2="850"/>
<polygon cb-classname="GraphicPolygonEntity" class="signal" id="3iS" points="2020,850 2009,844 2009,855"/>
<g cb-classname="DynamicText" cb-source="Hf-r0B-RuUn" class="signal" id="3iQ" text-anchor="end">
<text cb-classname="GraphicTextEntity" class="signal" fill="black" font-style="normal" font-weight="normal" id="3iZ" text-anchor="end" text-decoration="normal" x="2005" y="847"/>
</g>
</g>
<g cb-classname="PointStatusIndicator" cb-indicator-type="highway" cb-source="Uv-GeA-dR" id="3iw" visibility="hidden">
<line cb-classname="GraphicLineEntity" class="algorithmline" id="32p" x1="2020" x2="2070" y1="850" y2="800"/>
<line cb-classname="GraphicLineEntity" class="algorithmline" id="32A" x1="2070" x2="2120" y1="800" y2="850"/>
<line cb-classname="GraphicLineEntity" class="algorithmline" id="32K" x1="2120" x2="2070" y1="850" y2="900"/>
<line cb-classname="GraphicLineEntity" class="algorithmline" id="32I" x1="2070" x2="2020" y1="900" y2="850"/>
</g>
<g cb-classname="PointStatusIndicator" cb-indicator-type="hardware" cb-source="ls-lxx-sp" id="32X" visibility="visible">
<line cb-classname="GraphicLineEntity" class="algorithmline" id="32s" x1="2120" x2="2020" y1="800" y2="800"/>
<line cb-classname="GraphicLineEntity" class="algorithmline" id="32S" x1="2020" x2="2020" y1="800" y2="900"/>
<line cb-classname="GraphicLineEntity" class="algorithmline" id="32Q" x1="2020" x2="2120" y1="900" y2="900"/>
</g>
<g cb-classname="PointStatusIndicator" cb-indicator-type="alarm" cb-source="DU-SzB-Nv" id="32Z" visibility="hidden">
<text cb-classname="GraphicTextEntity" class="algorithm" fill="#000000" font-family="Arial" font-size="20" id="32w" x="2130" y="885">
A
</text>
</g>
<g cb-classname="PointStatusIndicator" cb-indicator-type="ingraphic" cb-source="Hf-f77-dC" id="3Ep" visibility="visible">
<text cb-classname="GraphicTextEntity" class="algorithm" fill="#000000" font-family="Arial" font-size="20" id="3EA" x="2130" y="835">
G
</text>
</g>
<g cb-classname="DynamicText" cb-labeled="false" cb-pin-name="o2" cb-source="Uv-GeA-dR" class="algorithm" id="3EK" text-anchor="end">
<text baseline-shift="0%" cb-classname="GraphicTextEntity" class="algorithm" fill="black" font-family="arial" font-size="20" font-style="normal" font-weight="normal" id="3EI" text-anchor="end" text-decoration="normal" x="1995" y="825"/>
</g>
<g baseline-shift="-100%" cb-anchor-x="1995" cb-anchor-y="860" cb-classname="PointReferences" cb-max-width="130" cb-originator="false" cb-source="M1-gia-28" class="signal" id="3EX" text-anchor="end">
<text baseline-shift="-100%" cb-classname="GraphicTextEntity" class="algorithm" id="3Es" text-anchor="end" x="1995" y="860">
REF: Point not
</text>
<text baseline-shift="-100%" cb-classname="GraphicTextEntity" class="algorithm" id="21QU" text-anchor="end" x="1995" y="885">
found in
</text>
<text baseline-shift="-100%" cb-classname="GraphicTextEntity" class="algorithm" id="21Qm" text-anchor="end" x="1995" y="910">
database
</text>
<text baseline-shift="-100%" cb-classname="GraphicTextEntity" class="algorithm" id="21Q1" text-anchor="end" x="1995" y="935">
(01T0700D03-WCO)
</text>
</g>
<g baseline-shift="-50%" cb-anchor-x="2175" cb-anchor-y="865" cb-classname="PointDescription" cb-content="extended" cb-labeled="false" cb-max-width="240" cb-source="0V-rq6-uM" class="algorithm" id="3EZ" text-anchor="start">
<text baseline-shift="-50%" cb-classname="GraphicTextEntity" class="algorithm" id="3Ew" text-anchor="start" x="2175" y="840">
DESC: Point not found in
</text>
<text baseline-shift="-50%" cb-classname="GraphicTextEntity" class="algorithm" id="1FXm" text-anchor="start" x="2175" y="865">
database
</text>
<text baseline-shift="-50%" cb-classname="GraphicTextEntity" class="algorithm" id="21QZ" text-anchor="start" x="2175" y="890">
(01T0700D03-WCO)
</text>
</g>
</g>
<g cb-alg-nFg="01T0700D04-STS" cb-alg-nmYP="NO" cb-algorithm-id="00d" cb-classname="ExternalPointInterface" cb-function-name="INPUT" id="4Fp">
<ellipse cb-classname="GraphicEllipseEntity" class="algorithm" cx="3310" cy="870" id="4FA" rx="50" ry="50"/>
<rect cb-classname="GraphicRectangleEntity" class="algorithm" height="100" id="4FK" width="40" x="3220" y="820"/>
<line cb-classname="GraphicLineEntity" class="algorithm" id="4FI" x1="3220" x2="3260" y1="870" y2="870"/>
<g cb-classname="ControlPin" cb-pin-name="zW-u3B-Vqh" id="4FX">
<line cb-classname="GraphicLineEntity" class="signalline" id="4Fs" x1="3360" x2="3390" y1="870" y2="870"/>
<g cb-classname="DynamicText" cb-source="ls-q28-HCU0" class="signal" id="4FS" text-anchor="start">
<text cb-classname="GraphicTextEntity" class="signal" fill="black" font-style="normal" font-weight="normal" id="4FQ" text-anchor="start" text-decoration="normal" x="3374" y="867"/>
</g>
<g cb-classname="SignalSegment" id="4FZ">
<line cb-classname="GraphicLineEntity" class="signalline" id="4Fw" x1="3390" x2="3890" y1="870" y2="870"/>
<g cb-classname="SignalConnection" cb-graphic-line="$429$" cb-input-pin="$XUT$" id="41p"/>
</g>
</g>
<g cb-classname="PointStatusIndicator" cb-indicator-type="Highway" cb-source="B5-MuP-tjn" id="41A" visibility="hidden">
<line cb-classname="GraphicLineEntity" class="algorithmline" id="41K" x1="3260" x2="3310" y1="870" y2="820"/>
<line cb-classname="GraphicLineEntity" class="algorithmline" id="41I" x1="3310" x2="3360" y1="820" y2="870"/>
<line cb-classname="GraphicLineEntity" class="algorithmline" id="41X" x1="3360" x2="3310" y1="870" y2="920"/>
<line cb-classname="GraphicLineEntity" class="algorithmline" id="41s" x1="3310" x2="3260" y1="920" y2="870"/>
</g>
<g cb-classname="PointStatusIndicator" cb-indicator-type="hardware" cb-source="M1-gia-uhi" id="41S" visibility="hidden">
<line cb-classname="GraphicLineEntity" class="algorithmline" id="41Q" x1="3260" x2="3360" y1="820" y2="820"/>
<line cb-classname="GraphicLineEntity" class="algorithmline" id="41Z" x1="3360" x2="3360" y1="820" y2="920"/>
<line cb-classname="GraphicLineEntity" class="algorithmline" id="41w" x1="3360" x2="3260" y1="920" y2="920"/>
</g>
<g cb-classname="PointStatusIndicator" cb-indicator-type="alarm" cb-source="0V-rq6-cbw" id="4jp" visibility="hidden">
<text cb-classname="GraphicTextEntity" class="algorithm" fill="#000000" font-family="arial" font-size="20" id="4jA" x="3230" y="855">
A
</text>
</g>
<g cb-classname="PointStatusIndicator" cb-indicator-type="ingraphic" cb-source="cJ-xRb-TSU" id="4jK" visibility="visible">
<text cb-classname="GraphicTextEntity" class="algorithm" fill="#000000" font-family="Arial" font-size="20" id="4jI" x="3230" y="905">
G
</text>
</g>
<g baseline-shift="-50%" cb-anchor-x="3210" cb-anchor-y="884" cb-classname="PointDescription" cb-content="extended" cb-labeled="false" cb-max-width="220" cb-source="B5-MuP-tjn" class="algorithm" id="4jX" text-anchor="end">
<text baseline-shift="-50%" cb-classname="GraphicTextEntity" class="algorithm" id="4js" text-anchor="end" x="3210" y="859">
DESC: Point not found in
</text>
<text baseline-shift="-50%" cb-classname="GraphicTextEntity" class="algorithm" id="1jX1" text-anchor="end" x="3210" y="884">
database
</text>
<text baseline-shift="-50%" cb-classname="GraphicTextEntity" class="algorithm" id="21Qi" text-anchor="end" x="3210" y="909">
(01T0700D04-STS)
</text>
</g>
<g cb-classname="DynamicText" cb-labeled="false" cb-pin-name="erU" cb-source="iW-Unn-EiZ" class="algorithm" id="4jS" text-anchor="start">
<text baseline-shift="0%" cb-classname="GraphicTextEntity" class="algorithm" fill="black" font-family="arial" font-size="20" font-style="normal" font-weight="normal" id="4jQ" text-anchor="start" text-decoration="normal" x="3380" y="840"/>
</g>
<g baseline-shift="-100%" cb-anchor-x="3380" cb-anchor-y="880" cb-classname="PointReferences" cb-max-width="230" cb-originator="true" cb-source="02-ybJ-Mci" class="signal" id="4jZ" text-anchor="start">
<text baseline-shift="-100%" cb-classname="GraphicTextEntity" class="algorithm" id="4jw" text-anchor="start" x="3380" y="880">
REF: Point not found in
</text>
<text baseline-shift="-100%" cb-classname="GraphicTextEntity" class="algorithm" id="21Z2" text-anchor="start" x="3380" y="905">
database
</text>
<text baseline-shift="-100%" cb-classname="GraphicTextEntity" class="algorithm" id="21Z3" text-anchor="start" x="3380" y="930">
(01T0700D04-STS)
</text>
</g>
</g>
<g cb-alg-Dw="01T0700D04-WCO" cb-alg-lNR="$420$cb-alg-out$" cb-algorithm-id="00e" cb-classname="ControlAlgorithm" cb-function-name="UNPACK16" id="4bp">
<rect cb-classname="GraphicRectangleEntity" class="algorithm" height="100" id="4bA" width="140" x="3910" y="820"/>
<text baseline-shift="-50%" cb-classname="GraphicTextEntity" class="algorithm" fill="#000000" font-family="MS Shell Dlg" font-size="18" id="4bK" text-anchor="middle" x="3978" y="865">
UNPACK16
</text>
<g cb-classname="ControlPin" cb-pin-name="0V-rq6-ZPH" id="4bI">
<line cb-classname="GraphicLineEntity" class="signalline" id="4bX" x1="3890" x2="3910" y1="870" y2="870"/>
<polygon cb-classname="GraphicPolygonEntity" class="signal" id="4bs" points="3910,870 3899,864 3899,875"/>
<g cb-classname="DynamicText" cb-source="DU-8VP-ByPL" class="signal" id="4bS" text-anchor="end">
<text cb-classname="GraphicTextEntity" class="signal" fill="black" font-style="normal" font-weight="normal" id="4bQ" text-anchor="end" text-decoration="normal" x="3895" y="867"/>
</g>
</g>
<g cb-classname="ControlPin" cb-pin-name="Hf-f77-T2" id="4bZ">
<line cb-classname="GraphicLineEntity" class="signalline" id="4bw" x1="4050" x2="4070" y1="850" y2="850"/>
<g cb-classname="DynamicText" cb-source="Uv-lNR-9lPN" class="signal" id="4ip" text-anchor="start">
<text cb-classname="GraphicTextEntity" class="signal" fill="black" font-style="normal" font-weight="normal" id="4iA" text-anchor="start" text-decoration="normal" x="4064" y="847"/>
</g>
<g cb-classname="SignalSegment" id="4iK">
<line cb-classname="GraphicLineEntity" class="signalline" id="4iI" stroke="#1e12bf" stroke-dasharray="5,4" x1="4070" x2="4660" y1="850" y2="850"/>
<g cb-classname="SignalConnection" cb-graphic-line="$463$" cb-input-pin="$i5P$" id="4iX"/>
</g>
</g>
<g cb-classname="ControlPin" cb-pin-name="ls-lxx-4T" id="4is">
<line cb-classname="GraphicLineEntity" class="signalline" id="4iS" x1="4050" x2="4070" y1="890" y2="890"/>
<g cb-classname="DynamicText" cb-source="cG-LxH-M6B8" class="signal" id="4iQ" text-anchor="start">
<text cb-classname="GraphicTextEntity" class="signal" fill="black" font-style="normal" font-weight="normal" id="4iZ" text-anchor="start" text-decoration="normal" x="4064" y="887"/>
</g>
</g>
</g>
<g cb-alg-Nv="$450$cb-alg-d0$" cb-algorithm-id="00f" cb-classname="ExternalPointInterface" cb-function-name="OUTPUT" id="42S">
<ellipse cb-classname="GraphicEllipseEntity" class="algorithm" cx="4740" cy="850" id="42Q" rx="50" ry="50"/>
<rect cb-classname="GraphicRectangleEntity" class="algorithm" height="100" id="42Z" width="40" x="4790" y="800"/>
<line cb-classname="GraphicLineEntity" class="algorithm" id="42w" x1="4790" x2="4830" y1="850" y2="850"/>
<g cb-classname="ControlPin" cb-pin-name="cG-yOV-PH" id="4Ep">
<line cb-classname="GraphicLineEntity" class="signalline" id="4EA" x1="4660" x2="4690" y1="850" y2="850"/>
<polygon cb-classname="GraphicPolygonEntity" class="signal" id="4EK" points="4690,850 4679,844 4679,855"/>
<g cb-classname="DynamicText" cb-source="B5-QYS-vgxj" class="signal" id="4EI" text-anchor="end">
<text cb-classname="GraphicTextEntity" class="signal" fill="black" font-style="normal" font-weight="normal" id="4EX" text-anchor="end" text-decoration="normal" x="4675" y="847"/>
</g>
</g>
<g cb-classname="PointStatusIndicator" cb-indicator-type="highway" cb-source="iW-Unn-d9" id="4Es" visibility="hidden">
<line cb-classname="GraphicLineEntity" class="algorithmline" id="4ES" x1="4690" x2="4740" y1="850" y2="800"/>
<line cb-classname="GraphicLineEntity" class="algorithmline" id="4EQ" x1="4740" x2="4790" y1="800" y2="850"/>
<line cb-classname="GraphicLineEntity" class="algorithmline" id="4EZ" x1="4790" x2="4740" y1="850" y2="900"/>
<line cb-classname="GraphicLineEntity" class="algorithmline" id="4Ew" x1="4740" x2="4690" y1="900" y2="850"/>
</g>
<g cb-classname="PointStatusIndicator" cb-indicator-type="hardware" cb-source="4h-ST3-xH" id="4Op" visibility="visible">
<line cb-classname="GraphicLineEntity" class="algorithmline" id="4OA" x1="4790" x2="4690" y1="800" y2="800"/>
<line cb-classname="GraphicLineEntity" class="algorithmline" id="4OK" x1="4690" x2="4690" y1="800" y2="900"/>
<line cb-classname="GraphicLineEntity" class="algorithmline" id="4OI" x1="4690" x2="4790" y1="900" y2="900"/>
</g>
<g cb-classname="PointStatusIndicator" cb-indicator-type="alarm" cb-source="cJ-xRb-0B" id="4OX" visibility="hidden">
<text cb-classname="GraphicTextEntity" class="algorithm" fill="#000000" font-family="Arial" font-size="20" id="4Os" x="4800" y="885">
A
</text>
</g>
<g cb-classname="PointStatusIndicator" cb-indicator-type="ingraphic" cb-source="B5-MuP-NR" id="4OS" visibility="hidden">
<text cb-classname="GraphicTextEntity" class="algorithm" fill="#000000" font-family="Arial" font-size="20" id="4OQ" x="4800" y="835">
G
</text>
</g>
<g cb-classname="DynamicText" cb-labeled="false" cb-pin-name="14" cb-source="iW-Unn-d9" class="algorithm" id="4OZ" text-anchor="end">
<text baseline-shift="0%" cb-classname="GraphicTextEntity" class="algorithm" fill="black" font-family="arial" font-size="20" font-style="normal" font-weight="normal" id="4Ow" text-anchor="end" text-decoration="normal" x="4665" y="825"/>
</g>
<g baseline-shift="-100%" cb-anchor-x="4665" cb-anchor-y="860" cb-classname="PointReferences" cb-max-width="130" cb-originator="false" cb-source="02-ybJ-a5" class="signal" id="5Qp" text-anchor="end">
<text baseline-shift="-100%" cb-classname="GraphicTextEntity" class="algorithm" id="5QA" text-anchor="end" x="4665" y="860">
REF: Point not
</text>
<text baseline-shift="-100%" cb-classname="GraphicTextEntity" class="algorithm" id="21Zh" text-anchor="end" x="4665" y="885">
found in
</text>
<text baseline-shift="-100%" cb-classname="GraphicTextEntity" class="algorithm" id="21Zs" text-anchor="end" x="4665" y="910">
database
</text>
<text baseline-shift="-100%" cb-classname="GraphicTextEntity" class="algorithm" id="21ZR" text-anchor="end" x="4665" y="935">
(01T0700D04-WCO)
</text>
</g>
<g baseline-shift="-50%" cb-anchor-x="4845" cb-anchor-y="865" cb-classname="PointDescription" cb-content="extended" cb-labeled="false" cb-max-width="240" cb-source="ls-lxx-sp" class="algorithm" id="5QX" text-anchor="start">
<text baseline-shift="-50%" cb-classname="GraphicTextEntity" class="algorithm" id="5Qs" text-anchor="start" x="4845" y="840">
DESC: Point not found in
</text>
<text baseline-shift="-50%" cb-classname="GraphicTextEntity" class="algorithm" id="1FX1" text-anchor="start" x="4845" y="865">
database
</text>
<text baseline-shift="-50%" cb-classname="GraphicTextEntity" class="algorithm" id="21ZU" text-anchor="start" x="4845" y="890">
(01T0700D04-WCO)
</text>
</g>
</g>
</g>
<g cb-classname="IncludeDocument" cb-modify-time="09/25/2018 01:40:30" cb-objectname="Frame" id="5">
<text cb-classname="GraphicTextEntity" class="frame" font-size="50" id="2jX1" x="3660" y="3146">
Project Title &lt;Edit in FRAME.SVG&gt;
</text>
<g baseline-shift="-50%" cb-classname="DynamicText" cb-source="iW-HAtc-dX" class="frame" id="2jXZ">
<text cb-classname="GraphicTextEntity" class="frame" fill="black" font-family="arial" font-size="25" font-style="normal" font-weight="normal" id="2jXi" text-decoration="normal" x="4715" y="3325">
11
</text>
</g>
<g baseline-shift="-50%" cb-classname="DynamicText" cb-source="02-jaEz-24" class="frame" id="2js2" text-anchor="middle">
<text cb-classname="GraphicTextEntity" class="frame" fill="black" font-family="arial" font-size="48" font-style="normal" font-weight="normal" id="2js3" text-anchor="middle" text-decoration="normal" x="4900" y="3320">
11
</text>
</g>
<g baseline-shift="-50%" cb-classname="DynamicText" cb-source="zW-nS8U-x4" class="frame" id="2jsh" text-anchor="middle">
<text cb-classname="GraphicTextEntity" class="frame" fill="black" font-family="arial" font-size="48" font-style="normal" font-weight="normal" id="2jss" text-anchor="middle" text-decoration="normal" x="5067" y="3324">
5
</text>
</g>
<g cb-classname="DynamicText" cb-source="ls-8GNsh-LFoVh" class="frame" id="2jsR">
<text cb-classname="GraphicTextEntity" class="frame" fill="black" font-family="arial" font-size="48" font-style="normal" font-weight="normal" id="2jsU" text-decoration="normal" x="3660" y="3224">
T07- DRIVES OUTPUTS
</text>
</g>
<g baseline-shift="-50%" cb-classname="DynamicText" cb-source="cG-myuWL-gxys9C" class="frame" id="2jsm" text-anchor="middle">
<text cb-classname="GraphicTextEntity" class="frame" fill="black" font-family="arial" font-size="48" font-style="normal" font-weight="normal" id="2js1" text-anchor="middle" text-decoration="normal" x="5270" y="3324">
530
</text>
</g>
<g baseline-shift="0%" cb-classname="DynamicText" cb-source="DU-JYI0cNqC" class="frame" id="2jsZ" text-anchor="middle">
<text cb-classname="GraphicTextEntity" class="frame" fill="black" font-family="arial" font-size="36" font-style="normal" font-weight="normal" id="2jsi" text-anchor="middle" text-decoration="normal" x="5270" y="3150">
A
</text>
</g>
<g baseline-shift="0%" cb-classname="DynamicText" cb-source="Hf-KNUNmdYR-ixDW" class="frame" id="2jS2" text-anchor="middle">
<text cb-classname="GraphicTextEntity" class="frame" fill="black" font-family="arial" font-size="20" font-style="normal" font-weight="normal" id="2jS3" text-anchor="middle" text-decoration="normal" x="5270" y="3230">
12/27/2010
</text>
</g>
<g baseline-shift="-50%" cb-classname="DynamicText" cb-source="Uv-hvAd9nZF" class="frame" id="2jSh" text-anchor="end">
<text cb-classname="GraphicTextEntity" class="frame" fill="black" font-family="arial" font-size="26" font-style="normal" font-weight="normal" id="2jSs" text-anchor="end" text-decoration="normal" x="4500" y="3420">
Dufek
</text>
</g>
<g baseline-shift="-50%" cb-classname="DynamicText" cb-source="M1-aLgaZ2sU" class="frame" id="2jSR" text-anchor="end">
<text cb-classname="GraphicTextEntity" class="frame" fill="black" font-family="arial" font-size="26" font-style="normal" font-weight="normal" id="2jSU" text-anchor="end" text-decoration="normal" x="5353" y="3420">
Nemec
</text>
</g>
<g cb-classname="GraphicShape" cb-tag="BORDER" id="2jSm">
<line cb-classname="GraphicLineEntity" class="frameline" id="2jS1" x1="40" x2="40" y1="40" y2="3460"/>
<line cb-classname="GraphicLineEntity" class="frameline" id="2jSZ" x1="40" x2="5380" y1="3460" y2="3460"/>
<line cb-classname="GraphicLineEntity" class="frameline" id="2jSi" x1="5380" x2="5380" y1="3460" y2="40"/>
<line cb-classname="GraphicLineEntity" class="frameline" id="2jQ2" x1="5380" x2="40" y1="40" y2="40"/>
<line cb-classname="GraphicLineEntity" class="frame" id="2jQ3" x1="5430" x2="5440" y1="3510" y2="3510"/>
</g>
<g cb-classname="GraphicShape" cb-tag="TITLE BOX" id="2jQh">
<line cb-classname="GraphicLineEntity" class="frameline" id="2jQs" x1="2340" x2="2340" y1="3080" y2="3460"/>
<line cb-classname="GraphicLineEntity" class="frameline" id="2jQR" x1="2340" x2="5380" y1="3080" y2="3080"/>
<line cb-classname="GraphicLineEntity" class="frameline" id="2jQU" x1="3650" x2="3650" y1="3460" y2="3080"/>
<line cb-classname="GraphicLineEntity" class="frameline" id="2jQm" x1="3650" x2="5380" y1="3240" y2="3240"/>
<line cb-classname="GraphicLineEntity" class="frameline" id="2jQ1" x1="3650" x2="5380" y1="3390" y2="3390"/>
<line cb-classname="GraphicLineEntity" class="frameline" id="2jQZ" x1="3650" x2="5380" y1="3160" y2="3160"/>
<line cb-classname="GraphicLineEntity" class="frameline" id="2jQi" x1="3650" x2="4520" y1="3320" y2="3320"/>
<line cb-classname="GraphicLineEntity" class="frameline" id="2jZ2" x1="4520" x2="5380" y1="3290" y2="3290"/>
<line cb-classname="GraphicLineEntity" class="frameline" id="2jZ3" x1="4520" x2="5380" y1="3240" y2="3240"/>
<line cb-classname="GraphicLineEntity" class="frameline" id="2jZh" x1="4520" x2="4520" y1="3240" y2="3460"/>
<line cb-classname="GraphicLineEntity" class="frameline" id="2jZs" x1="4810" x2="4810" y1="3240" y2="3390"/>
<line cb-classname="GraphicLineEntity" class="frameline" id="2jZR" x1="4990" x2="4990" y1="3240" y2="3390"/>
<line cb-classname="GraphicLineEntity" class="frameline" id="2jZU" x1="5150" x2="5150" y1="3080" y2="3390"/>
</g>
<g cb-classname="GraphicShape" cb-tag="TEXT LABELS" id="2jZm">
<text baseline-shift="-50%" cb-classname="GraphicTextEntity" class="frame" font-size="25" id="2jZ1" text-anchor="middle" x="4890" y="3252">
Drop
</text>
<text baseline-shift="-50%" cb-classname="GraphicTextEntity" class="frame" font-size="25" id="2jZZ" text-anchor="middle" x="5075" y="3252">
Task
</text>
<text baseline-shift="-50%" cb-classname="GraphicTextEntity" class="frame" font-size="25" id="2jZi" text-anchor="middle" x="5265" y="3252">
Sheet
</text>
<text cb-classname="GraphicTextEntity" class="frame" font-size="25" id="2jw2" x="5152" y="3107">
Rev.
</text>
<text cb-classname="GraphicTextEntity" class="frame" font-size="25" id="2jw3" x="3653" y="3418">
Engineer
</text>
<text cb-classname="GraphicTextEntity" class="frame" font-size="25" id="2jwh" x="4528" y="3419">
Approved
</text>
<text cb-classname="GraphicTextEntity" class="frame" font-size="25" id="2jws" x="5152" y="3187">
Date
</text>
<text baseline-shift="-50%" cb-classname="GraphicTextEntity" class="frame" font-size="25" id="2jwR" text-anchor="middle" x="4660" y="3252">
Drawing Number
</text>
<text baseline-shift="-50%" cb-classname="GraphicTextEntity" class="frame" font-size="25" id="2jwU" text-anchor="middle" x="4680" y="3325">
CTL
</text>
</g>
<text baseline-shift="-50%" cb-classname="GraphicTextEntity" class="frame" font-size="48" id="2jwm" text-anchor="middle" x="3000" y="3100">
EMERSON PROCESS MANAGEMENT
</text>
<g baseline-shift="-100%" cb-anchor-x="2360" cb-anchor-y="3140" cb-classname="GroupText" cb-max-width="1260" fill="black" id="2jw1">
<text baseline-shift="-100%" cb-classname="GraphicTextEntity" class="frame" fill="black" font-family="arial" font-size="22" font-weight="normal" id="2jwZ" text-anchor="start" text-decoration="normal" x="2360" y="3140">
THIS DOCUMENT CONTAINS INFORMATION PROPRIETARY TO EMERSON PROCESS
</text>
<text baseline-shift="-100%" cb-classname="GraphicTextEntity" class="frame" fill="black" font-family="arial" font-size="22" font-weight="normal" id="2jwi" text-anchor="start" text-decoration="normal" x="2360" y="3176">
MANAGEMENT POWER &amp; WATER SOLUTIONS, INC. IT IS SUBMITTED IN CONFIDENCE AND
</text>
<text baseline-shift="-100%" cb-classname="GraphicTextEntity" class="frame" fill="black" font-family="arial" font-size="22" font-weight="normal" id="2bp2" text-anchor="start" text-decoration="normal" x="2360" y="3212">
TRUST, IS TO BE USED BY YOU SOLELY FOR THE PURPOSES FOR WHICH IT IS
</text>
<text baseline-shift="-100%" cb-classname="GraphicTextEntity" class="frame" fill="black" font-family="arial" font-size="22" font-weight="normal" id="2bp3" text-anchor="start" text-decoration="normal" x="2360" y="3248">
FURNISHED AND IS TO BE RETURNED UPON REQUEST. THIS DOCUMENT AND ANY
</text>
<text baseline-shift="-100%" cb-classname="GraphicTextEntity" class="frame" fill="black" font-family="arial" font-size="22" font-weight="normal" id="2bph" text-anchor="start" text-decoration="normal" x="2360" y="3284">
OTHER INFORMATION PROVIDED TO YOU IS NOT TO BE REPRODUCED, TRANSMITTED,
</text>
<text baseline-shift="-100%" cb-classname="GraphicTextEntity" class="frame" fill="black" font-family="arial" font-size="22" font-weight="normal" id="2bps" text-anchor="start" text-decoration="normal" x="2360" y="3320">
DISCLOSED, OR USED OTHERWISE IN WHOLE OR IN PART WITHOUT THE PRIOR
</text>
<text baseline-shift="-100%" cb-classname="GraphicTextEntity" class="frame" fill="black" font-family="arial" font-size="22" font-weight="normal" id="2bpR" text-anchor="start" text-decoration="normal" x="2360" y="3356">
WRITTEN AUTHORIZATION OF EMERSON PROCESS MANAGEMENT POWER &amp; WATER
</text>
<text baseline-shift="-100%" cb-classname="GraphicTextEntity" class="frame" fill="black" font-family="arial" font-size="22" font-weight="normal" id="2bpU" text-anchor="start" text-decoration="normal" x="2360" y="3392">
SOLUTIONS,INC.
</text>
</g>
</g>
</svg>