<?xml version="1.0" ?><svg cb-auto-time="11/21/2009 14:01:23" cb-classname="ControlFunction" cb-create-time="03/12/2008" cb-drop-id="11" cb-engineer="Dufek" cb-filename="Z:\OVATION\NET0\UNIT0\CONTROLFUNCTIONS\00C9.svg" cb-function-id="00C9" cb-key="152551123424" cb-modified-timestamp="1489318819" cb-modify-id="00000001" cb-ortho-mode="enabled" cb-path="Z:/OVATION/NET0/UNIT0/CONTROLFUNCTIONS" cb-project="AS PONTES GRUPO 2" cb-reviewer="Nemec" cb-revision="A" cb-revision-time="12/27/2010" cb-sheet-number="246" cb-sheet-title="DEH - TURBINE LATCH LOGIC" cb-snap-grid="10" cb-task-id="5" height="3667" id="1" width="5450" xmlns="http://www.w3.org/2000/svg">
<style cb-classname="EntityStyle" id="2" type="text/css">
	.algorithm { fill: white; stroke: black; stroke-width: 3 }
	.algorithm-function { fill: black; stroke: none }
	.algorithm-functionline { fill: none; stroke: black; stroke-linecap: round; stroke-width: 3 }
	.algorithm-name { fill: black; stroke: none }
	.algorithm-nameline { fill: none; stroke: black; stroke-linecap: round; stroke-width: 3 }
	.algorithm-sequence { fill: black; stroke: none; visibility: hidden }
	.algorithm-sequenceline { fill: none; stroke: black; stroke-linecap: round; stroke-width: 3; visibility: hidden }
	.algorithmline { fill: none; stroke: black; stroke-linecap: round; stroke-width: 3 }
	.annotation { fill: none; stroke: none }
	.annotationline { fill: none; stroke: black; stroke-linecap: round; stroke-width: 3 }
	.frame { fill: black; stroke: none }
	.frameline { fill: none; stroke: black; stroke-linecap: round; stroke-width: 3 }
	.signal { fill: black; stroke: none }
	.signalline { fill: none; stroke: black; stroke-linecap: round; stroke-width: 3 }
	text.algorithm { fill: black; font-family: &quot;Lucida Console&quot;; font-size: 22; stroke: none }
	text.algorithm-function { fill: black; font-family: &quot;Lucida Console&quot;; font-size: 22; stroke: none }
	text.algorithm-name { fill: black; font-family: &quot;Lucida Console&quot;; font-size: 22; stroke: none }
	text.algorithm-sequence { fill: black; font-family: arial; font-size: 22; stroke: none; visibility: hidden }
	text.annotation { fill: black; font-family: arial; font-size: 22; stroke: none }
	text.frame { fill: black; font-family: arial; font-size: 18; stroke: none }
	text.signal { fill: black; font-family: arial; font-size: 12; stroke: none }
</style>
<g cb-classname="IncludeDocument" cb-modify-time="09/25/2018 01:40:30" cb-objectname="frame" id="3">
<text cb-classname="GraphicTextEntity" class="frame" font-size="50" id="2DBu" x="3660" y="3146">
Project Title &lt;Edit in FRAME.SVG&gt;
</text>
<g baseline-shift="-50%" cb-classname="DynamicText" cb-source="sZ-kPRm-FO" class="frame" id="2DBn">
<text cb-classname="GraphicTextEntity" class="frame" fill="black" font-family="arial" font-size="25" font-style="normal" font-weight="normal" id="2DBL" text-decoration="normal" x="4715" y="3325">
11
</text>
</g>
<g baseline-shift="-50%" cb-classname="DynamicText" cb-source="cJ-aIwQ-Lc" class="frame" id="2DTS" text-anchor="middle">
<text cb-classname="GraphicTextEntity" class="frame" fill="black" font-family="arial" font-size="48" font-style="normal" font-weight="normal" id="2DTl" text-anchor="middle" text-decoration="normal" x="4900" y="3320">
11
</text>
</g>
<g baseline-shift="-50%" cb-classname="DynamicText" cb-source="wk-Yg2T-vV" class="frame" id="2DT0" text-anchor="middle">
<text cb-classname="GraphicTextEntity" class="frame" fill="black" font-family="arial" font-size="48" font-style="normal" font-weight="normal" id="2DTK" text-anchor="middle" text-decoration="normal" x="5067" y="3324">
5
</text>
</g>
<g cb-classname="DynamicText" cb-source="q8-2I9l0-AwODB" class="frame" id="2DT1">
<text cb-classname="GraphicTextEntity" class="frame" fill="black" font-family="arial" font-size="48" font-style="normal" font-weight="normal" id="2DTz" text-decoration="normal" x="3660" y="3224">
DEH - TURBINE LATCH LOGIC
</text>
</g>
<g baseline-shift="-50%" cb-classname="DynamicText" cb-source="s6-gd8zA-qPMbux" class="frame" id="2DT9" text-anchor="middle">
<text cb-classname="GraphicTextEntity" class="frame" fill="black" font-family="arial" font-size="48" font-style="normal" font-weight="normal" id="2DTu" text-anchor="middle" text-decoration="normal" x="5270" y="3324">
246
</text>
</g>
<g baseline-shift="0%" cb-classname="DynamicText" cb-source="Qo-zzZwS9oS" class="frame" id="2DTn" text-anchor="middle">
<text cb-classname="GraphicTextEntity" class="frame" fill="black" font-family="arial" font-size="36" font-style="normal" font-weight="normal" id="2DTL" text-anchor="middle" text-decoration="normal" x="5270" y="3150">
A
</text>
</g>
<g baseline-shift="0%" cb-classname="DynamicText" cb-source="1c-gbk9AH4U-TIVo" class="frame" id="2DpS" text-anchor="middle">
<text cb-classname="GraphicTextEntity" class="frame" fill="black" font-family="arial" font-size="20" font-style="normal" font-weight="normal" id="2Dpl" text-anchor="middle" text-decoration="normal" x="5270" y="3230">
12/27/2010
</text>
</g>
<g baseline-shift="-50%" cb-classname="DynamicText" cb-source="Bs-yNUHlZE4" class="frame" id="2Dp0" text-anchor="end">
<text cb-classname="GraphicTextEntity" class="frame" fill="black" font-family="arial" font-size="26" font-style="normal" font-weight="normal" id="2DpK" text-anchor="end" text-decoration="normal" x="4500" y="3420">
Dufek
</text>
</g>
<g baseline-shift="-50%" cb-classname="DynamicText" cb-source="7c-Icpjbblz" class="frame" id="2Dp1" text-anchor="end">
<text cb-classname="GraphicTextEntity" class="frame" fill="black" font-family="arial" font-size="26" font-style="normal" font-weight="normal" id="2Dpz" text-anchor="end" text-decoration="normal" x="5353" y="3420">
Nemec
</text>
</g>
<g cb-classname="GraphicShape" cb-tag="BORDER" id="2Dp9">
<line cb-classname="GraphicLineEntity" class="frameline" id="2Dpu" x1="40" x2="40" y1="40" y2="3460"/>
<line cb-classname="GraphicLineEntity" class="frameline" id="2Dpn" x1="40" x2="5380" y1="3460" y2="3460"/>
<line cb-classname="GraphicLineEntity" class="frameline" id="2DpL" x1="5380" x2="5380" y1="3460" y2="40"/>
<line cb-classname="GraphicLineEntity" class="frameline" id="2DAS" x1="5380" x2="40" y1="40" y2="40"/>
<line cb-classname="GraphicLineEntity" class="frame" id="2DAl" x1="5430" x2="5440" y1="3510" y2="3510"/>
</g>
<g cb-classname="GraphicShape" cb-tag="TITLE BOX" id="2DA0">
<line cb-classname="GraphicLineEntity" class="frameline" id="2DAK" x1="2340" x2="2340" y1="3080" y2="3460"/>
<line cb-classname="GraphicLineEntity" class="frameline" id="2DA1" x1="2340" x2="5380" y1="3080" y2="3080"/>
<line cb-classname="GraphicLineEntity" class="frameline" id="2DAz" x1="3650" x2="3650" y1="3460" y2="3080"/>
<line cb-classname="GraphicLineEntity" class="frameline" id="2DA9" x1="3650" x2="5380" y1="3240" y2="3240"/>
<line cb-classname="GraphicLineEntity" class="frameline" id="2DAu" x1="3650" x2="5380" y1="3390" y2="3390"/>
<line cb-classname="GraphicLineEntity" class="frameline" id="2DAn" x1="3650" x2="5380" y1="3160" y2="3160"/>
<line cb-classname="GraphicLineEntity" class="frameline" id="2DAL" x1="3650" x2="4520" y1="3320" y2="3320"/>
<line cb-classname="GraphicLineEntity" class="frameline" id="2DNS" x1="4520" x2="5380" y1="3290" y2="3290"/>
<line cb-classname="GraphicLineEntity" class="frameline" id="2DNl" x1="4520" x2="5380" y1="3240" y2="3240"/>
<line cb-classname="GraphicLineEntity" class="frameline" id="2DN0" x1="4520" x2="4520" y1="3240" y2="3460"/>
<line cb-classname="GraphicLineEntity" class="frameline" id="2DNK" x1="4810" x2="4810" y1="3240" y2="3390"/>
<line cb-classname="GraphicLineEntity" class="frameline" id="2DN1" x1="4990" x2="4990" y1="3240" y2="3390"/>
<line cb-classname="GraphicLineEntity" class="frameline" id="2DNz" x1="5150" x2="5150" y1="3080" y2="3390"/>
</g>
<g cb-classname="GraphicShape" cb-tag="TEXT LABELS" id="2DN9">
<text baseline-shift="-50%" cb-classname="GraphicTextEntity" class="frame" font-size="25" id="2DNu" text-anchor="middle" x="4890" y="3252">
Drop
</text>
<text baseline-shift="-50%" cb-classname="GraphicTextEntity" class="frame" font-size="25" id="2DNn" text-anchor="middle" x="5075" y="3252">
Task
</text>
<text baseline-shift="-50%" cb-classname="GraphicTextEntity" class="frame" font-size="25" id="2DNL" text-anchor="middle" x="5265" y="3252">
Sheet
</text>
<text cb-classname="GraphicTextEntity" class="frame" font-size="25" id="2DaS" x="5152" y="3107">
Rev.
</text>
<text cb-classname="GraphicTextEntity" class="frame" font-size="25" id="2Dal" x="3653" y="3418">
Engineer
</text>
<text cb-classname="GraphicTextEntity" class="frame" font-size="25" id="2Da0" x="4528" y="3419">
Approved
</text>
<text cb-classname="GraphicTextEntity" class="frame" font-size="25" id="2DaK" x="5152" y="3187">
Date
</text>
<text baseline-shift="-50%" cb-classname="GraphicTextEntity" class="frame" font-size="25" id="2Da1" text-anchor="middle" x="4660" y="3252">
Drawing Number
</text>
<text baseline-shift="-50%" cb-classname="GraphicTextEntity" class="frame" font-size="25" id="2Daz" text-anchor="middle" x="4680" y="3325">
CTL
</text>
</g>
<text baseline-shift="-50%" cb-classname="GraphicTextEntity" class="frame" font-size="48" id="2Da9" text-anchor="middle" x="3000" y="3100">
EMERSON PROCESS MANAGEMENT
</text>
<g baseline-shift="-100%" cb-anchor-x="2360" cb-anchor-y="3140" cb-classname="GroupText" cb-max-width="1260" fill="black" id="2Dau">
<text baseline-shift="-100%" cb-classname="GraphicTextEntity" class="frame" fill="black" font-family="arial" font-size="22" font-weight="normal" id="2Dan" text-anchor="start" text-decoration="normal" x="2360" y="3140">
THIS DOCUMENT CONTAINS INFORMATION PROPRIETARY TO EMERSON PROCESS
</text>
<text baseline-shift="-100%" cb-classname="GraphicTextEntity" class="frame" fill="black" font-family="arial" font-size="22" font-weight="normal" id="2DaL" text-anchor="start" text-decoration="normal" x="2360" y="3176">
MANAGEMENT POWER &amp; WATER SOLUTIONS, INC. IT IS SUBMITTED IN CONFIDENCE AND
</text>
<text baseline-shift="-100%" cb-classname="GraphicTextEntity" class="frame" fill="black" font-family="arial" font-size="22" font-weight="normal" id="2DhS" text-anchor="start" text-decoration="normal" x="2360" y="3212">
TRUST, IS TO BE USED BY YOU SOLELY FOR THE PURPOSES FOR WHICH IT IS
</text>
<text baseline-shift="-100%" cb-classname="GraphicTextEntity" class="frame" fill="black" font-family="arial" font-size="22" font-weight="normal" id="2Dhl" text-anchor="start" text-decoration="normal" x="2360" y="3248">
FURNISHED AND IS TO BE RETURNED UPON REQUEST. THIS DOCUMENT AND ANY
</text>
<text baseline-shift="-100%" cb-classname="GraphicTextEntity" class="frame" fill="black" font-family="arial" font-size="22" font-weight="normal" id="2Dh0" text-anchor="start" text-decoration="normal" x="2360" y="3284">
OTHER INFORMATION PROVIDED TO YOU IS NOT TO BE REPRODUCED, TRANSMITTED,
</text>
<text baseline-shift="-100%" cb-classname="GraphicTextEntity" class="frame" fill="black" font-family="arial" font-size="22" font-weight="normal" id="2DhK" text-anchor="start" text-decoration="normal" x="2360" y="3320">
DISCLOSED, OR USED OTHERWISE IN WHOLE OR IN PART WITHOUT THE PRIOR
</text>
<text baseline-shift="-100%" cb-classname="GraphicTextEntity" class="frame" fill="black" font-family="arial" font-size="22" font-weight="normal" id="2Dh1" text-anchor="start" text-decoration="normal" x="2360" y="3356">
WRITTEN AUTHORIZATION OF EMERSON PROCESS MANAGEMENT POWER &amp; WATER
</text>
<text baseline-shift="-100%" cb-classname="GraphicTextEntity" class="frame" fill="black" font-family="arial" font-size="22" font-weight="normal" id="2Dhz" text-anchor="start" text-decoration="normal" x="2360" y="3392">
SOLUTIONS,INC.
</text>
</g>
</g>
<g cb-classname="AlgorithmContainer" cb-objectname="Algorithms" id="4">
<g cb-alg-57W="01ASL" cb-alg-5z8V="NO" cb-algorithm-id="00e" cb-classname="ExternalPointInterface" cb-function-name="INPUT" id="8UA">
<ellipse cb-classname="GraphicEllipseEntity" class="algorithm" cx="760" cy="1880" id="8UN" rx="50" ry="50"/>
<rect cb-classname="GraphicRectangleEntity" class="algorithm" height="100" id="8Ua" width="40" x="670" y="1830"/>
<line cb-classname="GraphicLineEntity" class="algorithm" id="8Uh" x1="670" x2="710" y1="1880" y2="1880"/>
<g cb-classname="ControlPin" cb-pin-name="7c-CWl-yI8" id="8Um">
<line cb-classname="GraphicLineEntity" class="signalline" id="8UD" x1="810" x2="840" y1="1880" y2="1880"/>
<g cb-classname="DynamicText" cb-source="6V-Qj3-7Ohw" class="signal" id="8U6" text-anchor="start">
<text cb-classname="GraphicTextEntity" class="signal" fill="black" font-style="normal" font-weight="normal" id="8NB" text-anchor="start" text-decoration="normal" x="824" y="1877"/>
</g>
<g cb-classname="SignalSegment" id="85B">
<line cb-classname="GraphicLineEntity" class="signalline" id="85T" stroke="#1e12bf" stroke-dasharray="5,4" x1="840" x2="2440" y1="1880" y2="1880"/>
<g cb-classname="SignalConnection" cb-graphic-line="$831$" cb-input-pin="$Dhl$" id="85p"/>
</g>
</g>
<g cb-classname="PointStatusIndicator" cb-indicator-type="Highway" cb-source="HE-Fxo-IFr" id="8NT" visibility="hidden">
<line cb-classname="GraphicLineEntity" class="algorithmline" id="8Np" x1="710" x2="760" y1="1880" y2="1830"/>
<line cb-classname="GraphicLineEntity" class="algorithmline" id="8NA" x1="760" x2="810" y1="1830" y2="1880"/>
<line cb-classname="GraphicLineEntity" class="algorithmline" id="8NN" x1="810" x2="760" y1="1880" y2="1930"/>
<line cb-classname="GraphicLineEntity" class="algorithmline" id="8Na" x1="760" x2="710" y1="1930" y2="1880"/>
</g>
<g cb-classname="PointStatusIndicator" cb-indicator-type="hardware" cb-source="1c-PGs-okG" id="8Nh" visibility="hidden">
<line cb-classname="GraphicLineEntity" class="algorithmline" id="8Nm" x1="710" x2="810" y1="1830" y2="1830"/>
<line cb-classname="GraphicLineEntity" class="algorithmline" id="8ND" x1="810" x2="810" y1="1830" y2="1930"/>
<line cb-classname="GraphicLineEntity" class="algorithmline" id="8N6" x1="810" x2="710" y1="1930" y2="1930"/>
</g>
<g cb-classname="PointStatusIndicator" cb-indicator-type="alarm" cb-source="7c-CWl-yI8" id="8DB" visibility="hidden">
<text cb-classname="GraphicTextEntity" class="algorithm" fill="#000000" font-family="arial" font-size="20" id="8DT" x="680" y="1865">
A
</text>
</g>
<g cb-classname="PointStatusIndicator" cb-indicator-type="ingraphic" cb-source="6V-gRE-57W" id="8Dp" visibility="visible">
<text cb-classname="GraphicTextEntity" class="algorithm" fill="#000000" font-family="Arial" font-size="20" id="8DA" x="680" y="1915">
G
</text>
</g>
<g baseline-shift="-50%" cb-anchor-x="660" cb-anchor-y="1894" cb-classname="PointDescription" cb-content="extended" cb-labeled="false" cb-max-width="220" cb-source="HE-Fxo-IFr" class="algorithm" id="8DN" text-anchor="end">
<text baseline-shift="-50%" cb-classname="GraphicTextEntity" class="algorithm" id="8Da" text-anchor="end" x="660" y="1848">
DESC: Point
</text>
<text baseline-shift="-50%" cb-classname="GraphicTextEntity" class="algorithm" id="15Bu" text-anchor="end" x="660" y="1879">
not found in
</text>
<text baseline-shift="-50%" cb-classname="GraphicTextEntity" class="algorithm" id="2Nm1" text-anchor="end" x="660" y="1910">
database
</text>
<text baseline-shift="-50%" cb-classname="GraphicTextEntity" class="algorithm" id="2Nmz" text-anchor="end" x="660" y="1941">
(01ASL)
</text>
</g>
<g cb-classname="DynamicText" cb-labeled="false" cb-pin-name="HiZ" cb-source="Wt-kL5-I12" class="algorithm" id="8Dh" text-anchor="start">
<text baseline-shift="0%" cb-classname="GraphicTextEntity" class="algorithm" fill="black" font-family="arial" font-size="20" font-style="normal" font-weight="normal" id="8Dm" text-anchor="start" text-decoration="normal" x="830" y="1850"/>
</g>
<g baseline-shift="-100%" cb-anchor-x="830" cb-anchor-y="1890" cb-classname="PointReferences" cb-max-width="230" cb-originator="true" cb-source="df-jff-Rus" class="signal" id="8DD" text-anchor="start">
<text baseline-shift="-100%" cb-classname="GraphicTextEntity" class="algorithm" id="8D6" text-anchor="start" x="830" y="1890">
REF: Point
</text>
<text baseline-shift="-100%" cb-classname="GraphicTextEntity" class="algorithm" id="2Nmu" text-anchor="start" x="830" y="1921">
not found in
</text>
<text baseline-shift="-100%" cb-classname="GraphicTextEntity" class="algorithm" id="2Nmn" text-anchor="start" x="830" y="1952">
database
</text>
<text baseline-shift="-100%" cb-classname="GraphicTextEntity" class="algorithm" id="2NmL" text-anchor="start" x="830" y="1983">
(01ASL)
</text>
</g>
</g>
<g cb-alg-oPy3="NO" cb-alg-oYR="01ZS323-NC" cb-algorithm-id="001" cb-classname="ExternalPointInterface" cb-function-name="INPUT" id="85N">
<ellipse cb-classname="GraphicEllipseEntity" class="algorithm" cx="760" cy="1610" id="85a" rx="50" ry="50"/>
<rect cb-classname="GraphicRectangleEntity" class="algorithm" height="100" id="85h" width="40" x="670" y="1560"/>
<line cb-classname="GraphicLineEntity" class="algorithm" id="85m" x1="670" x2="710" y1="1610" y2="1610"/>
<g cb-classname="ControlPin" cb-pin-name="s6-VmQ-12O" id="85D">
<line cb-classname="GraphicLineEntity" class="signalline" id="856" x1="810" x2="840" y1="1610" y2="1610"/>
<g cb-classname="DynamicText" cb-source="Qo-p8Y-qxMK" class="signal" id="8xB" text-anchor="start">
<text cb-classname="GraphicTextEntity" class="signal" fill="black" font-style="normal" font-weight="normal" id="8xT" text-anchor="start" text-decoration="normal" x="824" y="1607"/>
</g>
<g cb-classname="SignalSegment" id="8iT">
<line cb-classname="GraphicLineEntity" class="signalline" id="8ip" stroke="#1e12bf" stroke-dasharray="5,4" x1="840" x2="1280" y1="1610" y2="1610"/>
<g cb-classname="SignalSegment" id="8iA">
<line cb-classname="GraphicLineEntity" class="signalline" id="8iN" stroke="#1e12bf" stroke-dasharray="5,4" x1="1280" x2="1280" y1="1610" y2="1540"/>
<g cb-classname="SignalSegment" id="8ia">
<line cb-classname="GraphicLineEntity" class="signalline" id="8ih" stroke="#1e12bf" stroke-dasharray="5,4" x1="1280" x2="1380" y1="1540" y2="1540"/>
<g cb-classname="SignalConnection" cb-graphic-line="$866$" cb-input-pin="$2UE$" id="8im"/>
</g>
</g>
</g>
</g>
<g cb-classname="PointStatusIndicator" cb-indicator-type="Highway" cb-source="1c-PGs-okG" id="8xp" visibility="hidden">
<line cb-classname="GraphicLineEntity" class="algorithmline" id="8xA" x1="710" x2="760" y1="1610" y2="1560"/>
<line cb-classname="GraphicLineEntity" class="algorithmline" id="8xN" x1="760" x2="810" y1="1560" y2="1610"/>
<line cb-classname="GraphicLineEntity" class="algorithmline" id="8xa" x1="810" x2="760" y1="1610" y2="1660"/>
<line cb-classname="GraphicLineEntity" class="algorithmline" id="8xh" x1="760" x2="710" y1="1660" y2="1610"/>
</g>
<g cb-classname="PointStatusIndicator" cb-indicator-type="hardware" cb-source="wk-po9-ix0" id="8xm" visibility="visible">
<line cb-classname="GraphicLineEntity" class="algorithmline" id="8xD" x1="710" x2="810" y1="1560" y2="1560"/>
<line cb-classname="GraphicLineEntity" class="algorithmline" id="8x6" x1="810" x2="810" y1="1560" y2="1660"/>
<line cb-classname="GraphicLineEntity" class="algorithmline" id="8fB" x1="810" x2="710" y1="1660" y2="1660"/>
</g>
<g cb-classname="PointStatusIndicator" cb-indicator-type="alarm" cb-source="s6-VmQ-12O" id="8fT" visibility="hidden">
<text cb-classname="GraphicTextEntity" class="algorithm" fill="#000000" font-family="arial" font-size="20" id="8fp" x="680" y="1595">
A
</text>
</g>
<g cb-classname="PointStatusIndicator" cb-indicator-type="ingraphic" cb-source="Qo-OmV-HP1" id="8fA" visibility="visible">
<text cb-classname="GraphicTextEntity" class="algorithm" fill="#000000" font-family="Arial" font-size="20" id="8fN" x="680" y="1645">
G
</text>
</g>
<g baseline-shift="-50%" cb-anchor-x="660" cb-anchor-y="1624" cb-classname="PointDescription" cb-content="extended" cb-labeled="false" cb-max-width="220" cb-source="1c-PGs-okG" class="algorithm" id="8fa" text-anchor="end">
<text baseline-shift="-50%" cb-classname="GraphicTextEntity" class="algorithm" id="8fh" text-anchor="end" x="660" y="1578">
DESC: Point
</text>
<text baseline-shift="-50%" cb-classname="GraphicTextEntity" class="algorithm" id="15m9" text-anchor="end" x="660" y="1609">
not found in
</text>
<text baseline-shift="-50%" cb-classname="GraphicTextEntity" class="algorithm" id="15mn" text-anchor="end" x="660" y="1640">
database
</text>
<text baseline-shift="-50%" cb-classname="GraphicTextEntity" class="algorithm" id="15mL" text-anchor="end" x="660" y="1671">
(01ZS323-NC)
</text>
</g>
<g cb-classname="DynamicText" cb-labeled="false" cb-pin-name="XlT" cb-source="Bs-9DU-4jt" class="algorithm" id="8fm" text-anchor="start">
<text baseline-shift="0%" cb-classname="GraphicTextEntity" class="algorithm" fill="black" font-family="arial" font-size="20" font-style="normal" font-weight="normal" id="8fD" text-anchor="start" text-decoration="normal" x="830" y="1580"/>
</g>
<g baseline-shift="-100%" cb-anchor-x="830" cb-anchor-y="1620" cb-classname="PointReferences" cb-max-width="230" cb-originator="true" cb-source="7c-CWl-yI8" class="signal" id="8f6" text-anchor="start">
<text baseline-shift="-100%" cb-classname="GraphicTextEntity" class="algorithm" id="8iB" text-anchor="start" x="830" y="1620">
REF: Point
</text>
<text baseline-shift="-100%" cb-classname="GraphicTextEntity" class="algorithm" id="2ND0" text-anchor="start" x="830" y="1651">
not found in
</text>
<text baseline-shift="-100%" cb-classname="GraphicTextEntity" class="algorithm" id="2NDK" text-anchor="start" x="830" y="1682">
database
</text>
<text baseline-shift="-100%" cb-classname="GraphicTextEntity" class="algorithm" id="2ND1" text-anchor="start" x="830" y="1713">
(01ZS323-NC)
</text>
</g>
</g>
<g cb-alg-57W="01LATCHPB" cb-alg-5z8V="NO" cb-algorithm-id="004" cb-classname="ExternalPointInterface" cb-function-name="INPUT" id="8iD">
<ellipse cb-classname="GraphicEllipseEntity" class="algorithm" cx="760" cy="1460" id="8i6" rx="50" ry="50"/>
<rect cb-classname="GraphicRectangleEntity" class="algorithm" height="100" id="8wB" width="40" x="670" y="1410"/>
<line cb-classname="GraphicLineEntity" class="algorithm" id="8wT" x1="670" x2="710" y1="1460" y2="1460"/>
<g cb-classname="ControlPin" cb-pin-name="7c-CWl-yI8" id="8wp">
<line cb-classname="GraphicLineEntity" class="signalline" id="8wA" x1="810" x2="840" y1="1460" y2="1460"/>
<g cb-classname="DynamicText" cb-source="6V-Qj3-7Ohw" class="signal" id="8wN" text-anchor="start">
<text cb-classname="GraphicTextEntity" class="signal" fill="black" font-style="normal" font-weight="normal" id="8wa" text-anchor="start" text-decoration="normal" x="824" y="1457"/>
</g>
<g cb-classname="SignalSegment" id="8Ka">
<line cb-classname="GraphicLineEntity" class="signalline" id="8Kh" stroke="#1e12bf" stroke-dasharray="5,4" x1="840" x2="1380" y1="1460" y2="1460"/>
<g cb-classname="SignalConnection" cb-graphic-line="$896$" cb-input-pin="$N6n$" id="8Km"/>
</g>
</g>
<g cb-classname="PointStatusIndicator" cb-indicator-type="Highway" cb-source="HE-Fxo-IFr" id="8wh" visibility="hidden">
<line cb-classname="GraphicLineEntity" class="algorithmline" id="8wm" x1="710" x2="760" y1="1460" y2="1410"/>
<line cb-classname="GraphicLineEntity" class="algorithmline" id="8wD" x1="760" x2="810" y1="1410" y2="1460"/>
<line cb-classname="GraphicLineEntity" class="algorithmline" id="8w6" x1="810" x2="760" y1="1460" y2="1510"/>
<line cb-classname="GraphicLineEntity" class="algorithmline" id="8CB" x1="760" x2="710" y1="1510" y2="1460"/>
</g>
<g cb-classname="PointStatusIndicator" cb-indicator-type="hardware" cb-source="1c-PGs-okG" id="8CT" visibility="hidden">
<line cb-classname="GraphicLineEntity" class="algorithmline" id="8Cp" x1="710" x2="810" y1="1410" y2="1410"/>
<line cb-classname="GraphicLineEntity" class="algorithmline" id="8CA" x1="810" x2="810" y1="1410" y2="1510"/>
<line cb-classname="GraphicLineEntity" class="algorithmline" id="8CN" x1="810" x2="710" y1="1510" y2="1510"/>
</g>
<g cb-classname="PointStatusIndicator" cb-indicator-type="alarm" cb-source="7c-CWl-yI8" id="8Ca" visibility="hidden">
<text cb-classname="GraphicTextEntity" class="algorithm" fill="#000000" font-family="arial" font-size="20" id="8Ch" x="680" y="1445">
A
</text>
</g>
<g cb-classname="PointStatusIndicator" cb-indicator-type="ingraphic" cb-source="6V-gRE-57W" id="8Cm" visibility="hidden">
<text cb-classname="GraphicTextEntity" class="algorithm" fill="#000000" font-family="Arial" font-size="20" id="8CD" x="680" y="1495">
G
</text>
</g>
<g baseline-shift="-50%" cb-anchor-x="660" cb-anchor-y="1474" cb-classname="PointDescription" cb-content="extended" cb-labeled="false" cb-max-width="220" cb-source="HE-Fxo-IFr" class="algorithm" id="8C6" text-anchor="end">
<text baseline-shift="-50%" cb-classname="GraphicTextEntity" class="algorithm" id="8KB" text-anchor="end" x="660" y="1428">
DESC: Point
</text>
<text baseline-shift="-50%" cb-classname="GraphicTextEntity" class="algorithm" id="15Bn" text-anchor="end" x="660" y="1459">
not found in
</text>
<text baseline-shift="-50%" cb-classname="GraphicTextEntity" class="algorithm" id="2ND9" text-anchor="end" x="660" y="1490">
database
</text>
<text baseline-shift="-50%" cb-classname="GraphicTextEntity" class="algorithm" id="2NDu" text-anchor="end" x="660" y="1521">
(01LATCHPB)
</text>
</g>
<g cb-classname="DynamicText" cb-labeled="false" cb-pin-name="HiZ" cb-source="Wt-kL5-I12" class="algorithm" id="8KT" text-anchor="start">
<text baseline-shift="0%" cb-classname="GraphicTextEntity" class="algorithm" fill="black" font-family="arial" font-size="20" font-style="normal" font-weight="normal" id="8Kp" text-anchor="start" text-decoration="normal" x="830" y="1430"/>
</g>
<g baseline-shift="-100%" cb-anchor-x="830" cb-anchor-y="1470" cb-classname="PointReferences" cb-max-width="230" cb-originator="true" cb-source="df-jff-Rus" class="signal" id="8KA" text-anchor="start">
<text baseline-shift="-100%" cb-classname="GraphicTextEntity" class="algorithm" id="8KN" text-anchor="start" x="830" y="1470">
REF: Point
</text>
<text baseline-shift="-100%" cb-classname="GraphicTextEntity" class="algorithm" id="2NDL" text-anchor="start" x="830" y="1501">
not found in
</text>
<text baseline-shift="-100%" cb-classname="GraphicTextEntity" class="algorithm" id="2N6S" text-anchor="start" x="830" y="1532">
database
</text>
<text baseline-shift="-100%" cb-classname="GraphicTextEntity" class="algorithm" id="2N6l" text-anchor="start" x="830" y="1563">
(01LATCHPB)
</text>
</g>
</g>
<g cb-alg-Lu2="$834$cb-alg-out$" cb-alg-LuE="$868$cb-alg-out$" cb-algorithm-id="00F" cb-classname="FastBooleanAlgorithm" cb-function-name="OR" id="2N">
<g cb-classname="ControlPin" cb-pin-name="6V-gRE-vRD" id="1KD">
<line cb-classname="GraphicLineEntity" class="signalline" id="1K6" x1="1380" x2="1400" y1="1460" y2="1460"/>
<polygon cb-classname="GraphicPolygonEntity" class="signal" id="2UB" points="1400,1460 1389,1456 1389,1464"/>
<g cb-classname="DynamicText" cb-source="s6-XvR-YuWJ" class="signal" id="2UT" text-anchor="end">
<text cb-classname="GraphicTextEntity" class="signal" fill="black" font-style="normal" font-weight="normal" id="2Up" text-anchor="end" text-decoration="normal" x="1384" y="1452"/>
</g>
</g>
<g cb-classname="ControlPin" cb-pin-name="Qo-OmV-HP1" id="2UA">
<line cb-classname="GraphicLineEntity" class="signalline" id="2UN" x1="1480" x2="1500" y1="1500" y2="1500"/>
<g cb-classname="DynamicText" cb-source="1c-2wq-k58Z" class="signal" id="2Ua">
<text cb-classname="GraphicTextEntity" class="signal" fill="black" font-style="normal" font-weight="normal" id="2Uh" text-decoration="normal" x="1484" y="1492"/>
</g>
<g cb-classname="SignalSegment" cb-start-x="75.0" cb-start-y="101.0" id="2Um">
<line cb-classname="GraphicLineEntity" class="signalline" id="2UD" stroke="#1e12bf" stroke-dasharray="5,4" x1="1500" x2="1760" y1="1500" y2="1500"/>
<g cb-classname="SignalSegment" cb-start-x="88.0" cb-start-y="101.0" id="2U6">
<line cb-classname="GraphicLineEntity" class="signalline" id="2NB" stroke="#1e12bf" stroke-dasharray="5,4" x1="1760" x2="1760" y1="1500" y2="1100"/>
<g cb-classname="SignalSegment" cb-start-x="88.0" cb-start-y="121.0" id="2NT">
<line cb-classname="GraphicLineEntity" class="signalline" id="2Np" stroke="#1e12bf" stroke-dasharray="5,4" x1="1760" x2="1860" y1="1100" y2="1100"/>
<g cb-classname="SignalConnection" cb-graphic-line="$212$" cb-input-pin="$uu$" id="5Dp"/>
</g>
<line cb-classname="GraphicLineEntity" class="signalline" id="2NA" stroke="#1e12bf" stroke-dasharray="5,4" x1="1760" x2="2300" y1="1500" y2="1500"/>
<g cb-classname="SignalSegment" cb-start-x="115.0" cb-start-y="101.0" id="2NN">
<line cb-classname="GraphicLineEntity" class="signalline" id="2Na" stroke="#1e12bf" stroke-dasharray="5,4" x1="2300" x2="2300" y1="1500" y2="1840"/>
<g cb-classname="SignalSegment" cb-start-x="115.0" cb-start-y="84.0" id="2Nh">
<line cb-classname="GraphicLineEntity" class="signalline" id="2Nm" stroke="#1e12bf" stroke-dasharray="5,4" x1="2300" x2="2440" y1="1840" y2="1840"/>
<g cb-classname="SignalConnection" cb-graphic-line="$217$" cb-input-pin="$4o2$" id="5DA"/>
</g>
</g>
<ellipse cb-classname="GraphicEllipseEntity" class="signal" cx="1760" cy="1500" fill="#1e12bf" id="2ND" rx="5" ry="5" stroke="#1e12bf" stroke-dasharray="5,4"/>
</g>
</g>
</g>
<g cb-classname="ControlPin" cb-pin-name="sZ-udq-HlJ" id="2N6">
<line cb-classname="GraphicLineEntity" class="signalline" id="2DB" x1="1380" x2="1400" y1="1540" y2="1540"/>
<polygon cb-classname="GraphicPolygonEntity" class="signal" id="2DT" points="1400,1540 1389,1536 1389,1544"/>
<g cb-classname="DynamicText" cb-source="7c-3CA-3VG8" class="signal" id="2Dp" text-anchor="end">
<text cb-classname="GraphicTextEntity" class="signal" fill="black" font-style="normal" font-weight="normal" id="2DA" text-anchor="end" text-decoration="normal" x="1384" y="1532"/>
</g>
</g>
<g cb-classname="ControlPin" cb-pin-name="6V-gRE-vRU" id="2DN">
<line cb-classname="GraphicLineEntity" class="signalline" id="2Da" x1="1380" x2="1400" y1="1500" y2="1500"/>
<polygon cb-classname="GraphicPolygonEntity" class="signal" id="2Dh" points="1400,1500 1389,1496 1389,1504"/>
<g cb-classname="DynamicText" cb-source="s6-XvR-YuWJ" class="signal" id="2Dm" text-anchor="end">
<text cb-classname="GraphicTextEntity" class="signal" fill="black" font-style="normal" font-weight="normal" id="2DD" text-anchor="end" text-decoration="normal" x="1384" y="1492"/>
</g>
</g>
<ellipse cb-classname="GraphicEllipseEntity" class="algorithm" cx="1440" cy="1500" id="2D6" rx="40" ry="40"/>
<text baseline-shift="-50%" cb-classname="GraphicTextEntity" class="algorithm" id="25B" text-anchor="middle" x="1440" y="1499">
OR
</text>
<line cb-classname="GraphicLineEntity" class="algorithmline" id="25T" x1="1400" x2="1400" y1="1440" y2="1560"/>
</g>
<g cb-alg-r7U="$21$cb-alg-out$" cb-alg-r7n="$803$cb-alg-out$" cb-algorithm-id="00D" cb-classname="FastBooleanAlgorithm" cb-function-name="OR" id="3f">
<g cb-classname="ControlPin" cb-pin-name="sZ-udq-Hl5" id="2xa">
<line cb-classname="GraphicLineEntity" class="signalline" id="2xh" x1="2440" x2="2460" y1="1840" y2="1840"/>
<polygon cb-classname="GraphicPolygonEntity" class="signal" id="2xm" points="2460,1840 2449,1836 2449,1844"/>
<g cb-classname="DynamicText" cb-source="7c-3CA-3VG8" class="signal" id="2xD" text-anchor="end">
<text cb-classname="GraphicTextEntity" class="signal" fill="black" font-style="normal" font-weight="normal" id="2x6" text-anchor="end" text-decoration="normal" x="2444" y="1832"/>
</g>
</g>
<g cb-classname="ControlPin" cb-pin-name="6V-gRE-57W" id="2fB">
<line cb-classname="GraphicLineEntity" class="signalline" id="2fT" x1="2540" x2="2560" y1="1880" y2="1880"/>
<g cb-classname="DynamicText" cb-source="HE-0r7-4Pvy" class="signal" id="2fp">
<text cb-classname="GraphicTextEntity" class="signal" fill="black" font-style="normal" font-weight="normal" id="2fA" text-decoration="normal" x="2544" y="1872"/>
</g>
<g cb-classname="SignalSegment" cb-start-x="128.0" cb-start-y="82.0" id="2fN">
<line cb-classname="GraphicLineEntity" class="signalline" id="2fa" stroke="#1e12bf" stroke-dasharray="5,4" x1="2560" x2="2920" y1="1880" y2="1880"/>
<g cb-classname="SignalConnection" cb-graphic-line="$255$" cb-input-pin="$BK7$" id="55m"/>
</g>
</g>
<g cb-classname="ControlPin" cb-pin-name="df-jff-9ki" id="2fh">
<line cb-classname="GraphicLineEntity" class="signalline" id="2fm" x1="2440" x2="2460" y1="1920" y2="1920"/>
<polygon cb-classname="GraphicPolygonEntity" class="signal" id="2fD" points="2460,1920 2449,1916 2449,1924"/>
<g cb-classname="DynamicText" cb-source="Bs-g9k-lgFm" class="signal" id="2f6" text-anchor="end">
<text cb-classname="GraphicTextEntity" class="signal" fill="black" font-style="normal" font-weight="normal" id="2iB" text-anchor="end" text-decoration="normal" x="2444" y="1912"/>
</g>
</g>
<g cb-classname="ControlPin" cb-pin-name="7c-CWl-Luz" id="2iT">
<line cb-classname="GraphicLineEntity" class="signalline" id="2ip" x1="2440" x2="2460" y1="1880" y2="1880"/>
<polygon cb-classname="GraphicPolygonEntity" class="signal" id="2iA" points="2460,1880 2449,1876 2449,1884"/>
<g cb-classname="DynamicText" cb-source="q8-mLu-Rjeb" class="signal" id="2iN" text-anchor="end">
<text cb-classname="GraphicTextEntity" class="signal" fill="black" font-style="normal" font-weight="normal" id="2ia" text-anchor="end" text-decoration="normal" x="2444" y="1872"/>
</g>
</g>
<ellipse cb-classname="GraphicEllipseEntity" class="algorithm" cx="2500" cy="1880" id="2ih" rx="40" ry="40"/>
<text baseline-shift="-50%" cb-classname="GraphicTextEntity" class="algorithm" id="2im" text-anchor="middle" x="2500" y="1879">
OR
</text>
<line cb-classname="GraphicLineEntity" class="algorithmline" id="2iD" x1="2460" x2="2460" y1="1820" y2="1940"/>
</g>
<g cb-alg-YRv="01PS322-NO" cb-alg-Ydr2="NO" cb-algorithm-id="005" cb-classname="ExternalPointInterface" cb-function-name="INPUT" id="95m">
<ellipse cb-classname="GraphicEllipseEntity" class="algorithm" cx="740" cy="1020" id="95D" rx="50" ry="50"/>
<rect cb-classname="GraphicRectangleEntity" class="algorithm" height="100" id="956" width="40" x="650" y="970"/>
<line cb-classname="GraphicLineEntity" class="algorithm" id="9xB" x1="650" x2="690" y1="1020" y2="1020"/>
<g cb-classname="ControlPin" cb-pin-name="HE-Fxo-IFr" id="9xT">
<line cb-classname="GraphicLineEntity" class="signalline" id="9xp" x1="790" x2="820" y1="1020" y2="1020"/>
<g cb-classname="DynamicText" cb-source="Wt-Po4-U9ZB" class="signal" id="9xA" text-anchor="start">
<text cb-classname="GraphicTextEntity" class="signal" fill="black" font-style="normal" font-weight="normal" id="9xN" text-anchor="start" text-decoration="normal" x="804" y="1017"/>
</g>
<g cb-classname="SignalSegment" id="15ml">
<g cb-classname="SignalConnection" cb-graphic-line="$1374$" cb-input-pin="$vq$" id="15mz"/>
<line cb-classname="GraphicLineEntity" class="signalline" id="15m1" stroke="#1e12bf" stroke-dasharray="5,4" x1="820" x2="1860" y1="1020" y2="1020"/>
</g>
</g>
<g cb-classname="PointStatusIndicator" cb-indicator-type="Highway" cb-source="df-jff-Rus" id="9xa" visibility="hidden">
<line cb-classname="GraphicLineEntity" class="algorithmline" id="9xh" x1="690" x2="740" y1="1020" y2="970"/>
<line cb-classname="GraphicLineEntity" class="algorithmline" id="9xm" x1="740" x2="790" y1="970" y2="1020"/>
<line cb-classname="GraphicLineEntity" class="algorithmline" id="9xD" x1="790" x2="740" y1="1020" y2="1070"/>
<line cb-classname="GraphicLineEntity" class="algorithmline" id="9x6" x1="740" x2="690" y1="1070" y2="1020"/>
</g>
<g cb-classname="PointStatusIndicator" cb-indicator-type="hardware" cb-source="7c-CWl-yI8" id="9fB" visibility="visible">
<line cb-classname="GraphicLineEntity" class="algorithmline" id="9fT" x1="690" x2="790" y1="970" y2="970"/>
<line cb-classname="GraphicLineEntity" class="algorithmline" id="9fp" x1="790" x2="790" y1="970" y2="1070"/>
<line cb-classname="GraphicLineEntity" class="algorithmline" id="9fA" x1="790" x2="690" y1="1070" y2="1070"/>
</g>
<g cb-classname="PointStatusIndicator" cb-indicator-type="alarm" cb-source="HE-Fxo-IFr" id="9fN" visibility="hidden">
<text cb-classname="GraphicTextEntity" class="algorithm" fill="#000000" font-family="arial" font-size="20" id="9fa" x="660" y="1005">
A
</text>
</g>
<g cb-classname="PointStatusIndicator" cb-indicator-type="ingraphic" cb-source="Wt-kL5-I12" id="9fh" visibility="visible">
<text cb-classname="GraphicTextEntity" class="algorithm" fill="#000000" font-family="Arial" font-size="20" id="9fm" x="660" y="1055">
G
</text>
</g>
<g baseline-shift="-50%" cb-anchor-x="640" cb-anchor-y="1034" cb-classname="PointDescription" cb-content="extended" cb-labeled="false" cb-max-width="220" cb-source="df-jff-Rus" class="algorithm" id="9fD" text-anchor="end">
<text baseline-shift="-50%" cb-classname="GraphicTextEntity" class="algorithm" id="9f6" text-anchor="end" x="640" y="988">
DESC: Point
</text>
<text baseline-shift="-50%" cb-classname="GraphicTextEntity" class="algorithm" id="15TS" text-anchor="end" x="640" y="1019">
not found in
</text>
<text baseline-shift="-50%" cb-classname="GraphicTextEntity" class="algorithm" id="15mu" text-anchor="end" x="640" y="1050">
database
</text>
<text baseline-shift="-50%" cb-classname="GraphicTextEntity" class="algorithm" id="2N6K" text-anchor="end" x="640" y="1081">
(01PS322-NO)
</text>
</g>
<g cb-classname="DynamicText" cb-labeled="false" cb-pin-name="M6z" cb-source="sZ-udq-Yoh" class="algorithm" id="9iB" text-anchor="start">
<text baseline-shift="0%" cb-classname="GraphicTextEntity" class="algorithm" fill="black" font-family="arial" font-size="20" font-style="normal" font-weight="normal" id="9iT" text-anchor="start" text-decoration="normal" x="810" y="990"/>
</g>
<g baseline-shift="-100%" cb-anchor-x="810" cb-anchor-y="1030" cb-classname="PointReferences" cb-max-width="230" cb-originator="true" cb-source="cJ-y13-nap" class="signal" id="9ip" text-anchor="start">
<text baseline-shift="-100%" cb-classname="GraphicTextEntity" class="algorithm" id="9iA" text-anchor="start" x="810" y="1030">
REF: Point
</text>
<text baseline-shift="-100%" cb-classname="GraphicTextEntity" class="algorithm" id="2N6z" text-anchor="start" x="810" y="1061">
not found in
</text>
<text baseline-shift="-100%" cb-classname="GraphicTextEntity" class="algorithm" id="2N69" text-anchor="start" x="810" y="1092">
database
</text>
<text baseline-shift="-100%" cb-classname="GraphicTextEntity" class="algorithm" id="2N6u" text-anchor="start" x="810" y="1123">
(01PS322-NO)
</text>
</g>
</g>
<g cb-alg-8YL="$937$cb-alg-out$" cb-alg-8Yt="$21$cb-alg-out$" cb-algorithm-id="003" cb-classname="FastBooleanAlgorithm" cb-function-name="AND" cb-modify-id="00000001" id="2f">
<g cb-classname="ControlPin" cb-pin-name="1c-PGs-xSD" id="6D">
<line cb-classname="GraphicLineEntity" class="signalline" id="65" x1="1860" x2="1880" y1="1020" y2="1020"/>
<polygon cb-classname="GraphicPolygonEntity" class="signal" id="6x" points="1880,1020 1869,1016 1869,1024"/>
<g cb-classname="DynamicText" cb-source="cJ-Fy5-BFjl" class="signal" id="6f" text-anchor="end">
<text cb-classname="GraphicTextEntity" class="signal" fill="black" font-style="normal" font-weight="normal" id="6i" text-anchor="end" text-decoration="normal" x="1864" y="1012"/>
</g>
</g>
<g cb-classname="ControlPin" cb-pin-name="wk-po9-ix0" id="6w">
<line cb-classname="GraphicLineEntity" class="signalline" id="6C" x1="1960" x2="1980" y1="1060" y2="1060"/>
<g cb-classname="DynamicText" cb-source="q8-mLu-Rjeb" class="signal" id="6K">
<text cb-classname="GraphicTextEntity" class="signal" fill="black" font-style="normal" font-weight="normal" id="7U" text-decoration="normal" x="1964" y="1052"/>
</g>
<g cb-classname="SignalSegment" cb-start-x="99.0" cb-start-y="123.0" id="7N">
<line cb-classname="GraphicLineEntity" class="signalline" id="7D" stroke="#1e12bf" stroke-dasharray="5,4" x1="1980" x2="2480" y1="1060" y2="1060"/>
<g cb-classname="SignalConnection" cb-graphic-line="$72$" cb-input-pin="$T8$" id="55T"/>
</g>
</g>
<g cb-classname="ControlPin" cb-pin-name="Qo-OmV-wN4" id="75">
<line cb-classname="GraphicLineEntity" class="signalline" id="7x" x1="1860" x2="1880" y1="1100" y2="1100"/>
<polygon cb-classname="GraphicPolygonEntity" class="signal" id="7f" points="1880,1100 1869,1096 1869,1104"/>
<g cb-classname="DynamicText" cb-source="sZ-DwN-SjwE" class="signal" id="7i" text-anchor="end">
<text cb-classname="GraphicTextEntity" class="signal" fill="black" font-style="normal" font-weight="normal" id="7w" text-anchor="end" text-decoration="normal" x="1864" y="1092"/>
</g>
</g>
<g cb-classname="ControlPin" cb-pin-name="cJ-y13-j3z" id="7C">
<line cb-classname="GraphicLineEntity" class="signalline" id="7K" x1="1860" x2="1880" y1="1060" y2="1060"/>
<polygon cb-classname="GraphicPolygonEntity" class="signal" id="8U" points="1880,1060 1869,1056 1869,1064"/>
<g cb-classname="DynamicText" cb-source="6V-Qj3-7Ohw" class="signal" id="8N" text-anchor="end">
<text cb-classname="GraphicTextEntity" class="signal" fill="black" font-style="normal" font-weight="normal" id="8D" text-anchor="end" text-decoration="normal" x="1864" y="1052"/>
</g>
</g>
<rect cb-classname="GraphicRectangleEntity" class="algorithm" height="60" id="85" width="80" x="1880" y="1030"/>
<text baseline-shift="-50%" cb-classname="GraphicTextEntity" class="algorithm" id="8x" text-anchor="middle" x="1920" y="1059">
AND
</text>
<line cb-classname="GraphicLineEntity" class="algorithmline" id="8f" x1="1880" x2="1880" y1="1000" y2="1120"/>
</g>
<g cb-alg-8g2b="1" cb-alg-9HaE="98" cb-alg-CA1="$25$cb-alg-out$" cb-alg-WQ2="0" cb-alg-YgGE="5" cb-alg-cFIm="POSITIVE" cb-alg-mJn0p="RETRIGGABLE" cb-algorithm-id="009" cb-classname="ControlAlgorithm" cb-function-name="ONESHOT" cb-modify-id="00000001" id="3N">
<g cb-classname="ControlPin" cb-pin-name="Qo-OmV-wNl" id="8i">
<line cb-classname="GraphicLineEntity" class="signalline" id="8w" x1="2480" x2="2500" y1="1060" y2="1060"/>
<polygon cb-classname="GraphicPolygonEntity" class="signal" id="8C" points="2500,1060 2489,1056 2489,1064"/>
<g cb-classname="DynamicText" cb-source="sZ-DwN-SjwE" class="signal" id="8K" text-anchor="end">
<text cb-classname="GraphicTextEntity" class="signal" fill="black" font-style="normal" font-weight="normal" id="9U" text-anchor="end" text-decoration="normal" x="2484" y="1052"/>
</g>
</g>
<g cb-classname="ControlPin" cb-pin-name="cJ-y13-nap" id="9N">
<line cb-classname="GraphicLineEntity" class="signalline" id="9D" x1="2540" x2="2560" y1="1060" y2="1060"/>
<g cb-classname="DynamicText" cb-source="wk-lHB-ukiz" class="signal" id="95">
<text cb-classname="GraphicTextEntity" class="signal" fill="black" font-style="normal" font-weight="normal" id="9x" text-decoration="normal" x="2544" y="1052"/>
</g>
<g cb-classname="SignalSegment" cb-start-x="128.0" cb-start-y="123.0" id="9f">
<line cb-classname="GraphicLineEntity" class="signalline" id="9i" stroke="#1e12bf" stroke-dasharray="5,4" x1="2560" x2="2800" y1="1060" y2="1060"/>
<g cb-classname="SignalSegment" cb-start-x="140.0" cb-start-y="123.0" id="9w">
<line cb-classname="GraphicLineEntity" class="signalline" id="9K" stroke="#1e12bf" stroke-dasharray="5,4" x1="2800" x2="2800" y1="1060" y2="1840"/>
<g cb-classname="SignalSegment" cb-start-x="140.0" cb-start-y="84.0" id="1UB">
<line cb-classname="GraphicLineEntity" class="signalline" id="1UT" stroke="#1e12bf" stroke-dasharray="5,4" x1="2800" x2="2920" y1="1840" y2="1840"/>
<g cb-classname="SignalConnection" cb-graphic-line="$101$" cb-input-pin="$dLm$" id="55p"/>
</g>
</g>
</g>
</g>
<g cb-classname="DynamicText" cb-labeled="true" cb-source="Bs-9DU-GgTI" class="algorithm" id="1UA">
<text cb-classname="GraphicTextEntity" class="algorithm" fill="black" font-family="arial" font-size="12" font-style="normal" font-weight="normal" id="1UN" text-decoration="normal" x="2400" y="1013"/>
</g>
<rect cb-classname="GraphicRectangleEntity" class="algorithm" height="40" id="1Ua" width="40" x="2500" y="1040"/>
<line cb-classname="GraphicLineEntity" class="algorithmline" id="1Uh" x1="2503" x2="2513" y1="1070" y2="1070"/>
<line cb-classname="GraphicLineEntity" class="algorithmline" id="1Um" x1="2513" x2="2513" y1="1070" y2="1050"/>
<line cb-classname="GraphicLineEntity" class="algorithmline" id="1UD" x1="2513" x2="2527" y1="1050" y2="1050"/>
<line cb-classname="GraphicLineEntity" class="algorithmline" id="1U6" x1="2527" x2="2527" y1="1050" y2="1070"/>
<line cb-classname="GraphicLineEntity" class="algorithmline" id="1NB" x1="2527" x2="2537" y1="1070" y2="1070"/>
</g>
<g cb-alg-092b="RESET" cb-alg-JzA="$31$cb-alg-out$" cb-alg-zrwr="$35$cb-alg-out$" cb-algorithm-id="002" cb-classname="FastBooleanAlgorithm" cb-function-name="FLIPFLOP" cb-modify-id="00000001" id="2x">
<g cb-classname="ControlPin" cb-pin-name="Wt-kL5-py2" id="1NT">
<line cb-classname="GraphicLineEntity" class="signalline" id="1Np" x1="2920" x2="2940" y1="1840" y2="1840"/>
<polygon cb-classname="GraphicPolygonEntity" class="signal" id="1NA" points="2940,1840 2929,1836 2929,1844"/>
<g cb-classname="DynamicText" cb-source="1c-2wq-k58Z" class="signal" id="1NN" text-anchor="end">
<text cb-classname="GraphicTextEntity" class="signal" fill="black" font-style="normal" font-weight="normal" id="1Na" text-anchor="end" text-decoration="normal" x="2924" y="1832"/>
</g>
</g>
<g cb-classname="ControlPin" cb-pin-name="Bs-9DU-eSET" id="1Nh">
<line cb-classname="GraphicLineEntity" class="signalline" id="1Nm" x1="2920" x2="2940" y1="1880" y2="1880"/>
<polygon cb-classname="GraphicPolygonEntity" class="signal" id="1ND" points="2940,1880 2929,1876 2929,1884"/>
<g cb-classname="DynamicText" cb-source="wk-lHB-ukiz" class="signal" id="1N6" text-anchor="end">
<text cb-classname="GraphicTextEntity" class="signal" fill="black" font-style="normal" font-weight="normal" id="1DB" text-anchor="end" text-decoration="normal" x="2924" y="1872"/>
</g>
</g>
<g cb-classname="ControlPin" cb-pin-name="q8-apv-FpA" id="1DT">
<line cb-classname="GraphicLineEntity" class="signalline" id="1Dp" x1="3020" x2="3040" y1="1840" y2="1840"/>
<g cb-classname="DynamicText" cb-source="s6-XvR-YuWJ" class="signal" id="1DA">
<text cb-classname="GraphicTextEntity" class="signal" fill="black" font-style="normal" font-weight="normal" id="1DN" text-decoration="normal" x="3024" y="1832"/>
</g>
<g cb-classname="SignalSegment" cb-start-x="152.0" cb-start-y="84.0" id="1Da">
<line cb-classname="GraphicLineEntity" class="signalline" id="1Dh" stroke="#1e12bf" stroke-dasharray="5,4" x1="3040" x2="3240" y1="1840" y2="1840"/>
<g cb-classname="SignalSegment" cb-start-x="162.0" cb-start-y="84.0" id="1Dm">
<line cb-classname="GraphicLineEntity" class="signalline" id="1DD" stroke="#1e12bf" stroke-dasharray="5,4" x1="3240" x2="3320" y1="1840" y2="1840"/>
<line cb-classname="GraphicLineEntity" class="signalline" id="1D6" stroke="#1e12bf" stroke-dasharray="5,4" x1="3240" x2="3240" y1="1840" y2="1860"/>
<g cb-classname="SignalSegment" cb-start-x="162.0" cb-start-y="83.0" id="15B">
<line cb-classname="GraphicLineEntity" class="signalline" id="15T" stroke="#1e12bf" stroke-dasharray="5,4" x1="3240" x2="3320" y1="1860" y2="1860"/>
<g cb-classname="SignalConnection" cb-graphic-line="$131$" cb-input-pin="$Kp1$" id="55D"/>
</g>
<ellipse cb-classname="GraphicEllipseEntity" class="signal" cx="3240" cy="1840" fill="#1e12bf" id="15p" rx="5" ry="5" stroke="#1e12bf" stroke-dasharray="5,4"/>
<g cb-classname="SignalConnection" cb-graphic-line="$128$" cb-input-pin="$11K$" id="556"/>
</g>
</g>
</g>
<rect cb-classname="GraphicRectangleEntity" class="algorithm" height="80" id="15A" width="80" x="2940" y="1820"/>
<text baseline-shift="-50%" cb-classname="GraphicTextEntity" class="algorithm" id="15N" text-anchor="middle" x="2960" y="1839">
S
</text>
<text baseline-shift="-50%" cb-classname="GraphicTextEntity" class="algorithm" id="15a" text-anchor="middle" x="2960" y="1879">
R
</text>
<text baseline-shift="-50%" cb-classname="GraphicTextEntity" class="algorithm" id="15h" text-anchor="middle" x="3000" y="1839">
1
</text>
<text baseline-shift="-50%" cb-classname="GraphicTextEntity" class="algorithm" id="15m" text-anchor="middle" x="3000" y="1879">
0
</text>
</g>
<g cb-alg-HPY="01ASLNOT" cb-alg-QD8o="$24$cb-alg-out$" cb-alg-aypl="96" cb-alg-kCz7="1" cb-alg-rDB="$24$cb-alg-out$" cb-alg-vCml="10" cb-algorithm-id="007" cb-classname="ControlAlgorithm" cb-function-name="ONDELAY" cb-modify-id="00000001" id="2K">
<g cb-classname="ControlPin" cb-pin-name="Qo-OmV-wNl" id="15D">
<line cb-classname="GraphicLineEntity" class="signalline" id="156" x1="3320" x2="3340" y1="1840" y2="1840"/>
<polygon cb-classname="GraphicPolygonEntity" class="signal" id="1xB" points="3340,1840 3329,1836 3329,1844"/>
<g cb-classname="DynamicText" cb-source="sZ-DwN-SjwE" class="signal" id="1xT" text-anchor="end">
<text cb-classname="GraphicTextEntity" class="signal" fill="black" font-style="normal" font-weight="normal" id="1xp" text-anchor="end" text-decoration="normal" x="3324" y="1832"/>
</g>
</g>
<g cb-classname="ControlPin" cb-pin-name="cJ-y13-I3om" id="1xA">
<line cb-classname="GraphicLineEntity" class="signalline" id="1xN" x1="3320" x2="3340" y1="1860" y2="1860"/>
<polygon cb-classname="GraphicPolygonEntity" class="signal" id="1xa" points="3340,1860 3329,1856 3329,1864"/>
<g cb-classname="DynamicText" cb-source="6V-Qj3-7Ohw" class="signal" id="1xh" text-anchor="end">
<text cb-classname="GraphicTextEntity" class="signal" fill="black" font-style="normal" font-weight="normal" id="1xm" text-anchor="end" text-decoration="normal" x="3324" y="1852"/>
</g>
</g>
<g cb-classname="ControlPin" cb-pin-name="HE-Fxo-IFr" id="1xD">
<line cb-classname="GraphicLineEntity" class="signalline" id="1x6" x1="3400" x2="3420" y1="1840" y2="1840"/>
<g cb-classname="DynamicText" cb-source="Wt-Po4-U9ZB" class="signal" id="1fB">
<text cb-classname="GraphicTextEntity" class="signal" fill="black" font-style="normal" font-weight="normal" id="1fT" text-decoration="normal" x="3404" y="1832"/>
</g>
<g cb-classname="SignalSegment" cb-start-x="171.0" cb-start-y="84.0" id="1fp">
<g cb-classname="SignalConnection" cb-graphic-line="$996$" cb-input-pin="$6rq$" id="9Km"/>
<line cb-classname="GraphicLineEntity" class="signalline" id="9Kh" stroke="#1e12bf" stroke-dasharray="5,4" x1="3420" x2="4260" y1="1840" y2="1840"/>
</g>
</g>
<g cb-classname="DynamicText" cb-labeled="true" cb-source="Qo-OmV-Oxhm" class="algorithm" id="1iN">
<text cb-classname="GraphicTextEntity" class="algorithm" fill="black" font-family="arial" font-size="12" font-style="normal" font-weight="normal" id="1ia" text-decoration="normal" x="3240" y="1793"/>
</g>
<rect cb-classname="GraphicRectangleEntity" class="algorithm" height="60" id="1ih" width="60" x="3340" y="1820"/>
<text baseline-shift="-50%" cb-classname="GraphicTextEntity" class="algorithm" font-size="18" id="1im" text-anchor="middle" x="3370" y="1837">
TD
</text>
<text cb-classname="GraphicTextEntity" class="algorithm" font-size="18" id="1iD" text-anchor="middle" x="3370" y="1865">
ON
</text>
</g>
<g cb-alg-HB="$29$cb-alg-out$" cb-algorithm-id="010" cb-classname="ExternalPointInterface" cb-function-name="OUTPUT" id="9iD">
<ellipse cb-classname="GraphicEllipseEntity" class="algorithm" cx="4340" cy="1840" id="9i6" rx="50" ry="50"/>
<rect cb-classname="GraphicRectangleEntity" class="algorithm" height="100" id="9wB" width="40" x="4390" y="1790"/>
<line cb-classname="GraphicLineEntity" class="algorithm" id="9wT" x1="4390" x2="4430" y1="1840" y2="1840"/>
<g cb-classname="ControlPin" cb-pin-name="1c-PGs-xS" id="9wp">
<line cb-classname="GraphicLineEntity" class="signalline" id="9wA" x1="4260" x2="4290" y1="1840" y2="1840"/>
<polygon cb-classname="GraphicPolygonEntity" class="signal" id="9wN" points="4290,1840 4279,1834 4279,1845"/>
<g cb-classname="DynamicText" cb-source="cJ-Fy5-BFjl" class="signal" id="9wa" text-anchor="end">
<text cb-classname="GraphicTextEntity" class="signal" fill="black" font-style="normal" font-weight="normal" id="9wh" text-anchor="end" text-decoration="normal" x="4275" y="1837"/>
</g>
</g>
<g cb-classname="PointStatusIndicator" cb-indicator-type="highway" cb-source="wk-po9-r7" id="9wm" visibility="hidden">
<line cb-classname="GraphicLineEntity" class="algorithmline" id="9wD" x1="4290" x2="4340" y1="1840" y2="1790"/>
<line cb-classname="GraphicLineEntity" class="algorithmline" id="9w6" x1="4340" x2="4390" y1="1790" y2="1840"/>
<line cb-classname="GraphicLineEntity" class="algorithmline" id="9CB" x1="4390" x2="4340" y1="1840" y2="1890"/>
<line cb-classname="GraphicLineEntity" class="algorithmline" id="9CT" x1="4340" x2="4290" y1="1890" y2="1840"/>
</g>
<g cb-classname="PointStatusIndicator" cb-indicator-type="hardware" cb-source="Wt-kL5-wq" id="9Cp" visibility="hidden">
<line cb-classname="GraphicLineEntity" class="algorithmline" id="9CA" x1="4390" x2="4290" y1="1790" y2="1790"/>
<line cb-classname="GraphicLineEntity" class="algorithmline" id="9CN" x1="4290" x2="4290" y1="1790" y2="1890"/>
<line cb-classname="GraphicLineEntity" class="algorithmline" id="9Ca" x1="4290" x2="4390" y1="1890" y2="1890"/>
</g>
<g cb-classname="PointStatusIndicator" cb-indicator-type="alarm" cb-source="sZ-udq-Hl" id="9Ch" visibility="hidden">
<text cb-classname="GraphicTextEntity" class="algorithm" fill="#000000" font-family="Arial" font-size="20" id="9Cm" x="4400" y="1875">
A
</text>
</g>
<g cb-classname="PointStatusIndicator" cb-indicator-type="ingraphic" cb-source="cJ-y13-j3" id="9CD" visibility="visible">
<text cb-classname="GraphicTextEntity" class="algorithm" fill="#000000" font-family="Arial" font-size="20" id="9C6" x="4400" y="1825">
G
</text>
</g>
<g cb-classname="DynamicText" cb-labeled="false" cb-pin-name="fp" cb-source="wk-po9-r7" class="algorithm" id="9KB" text-anchor="end">
<text baseline-shift="0%" cb-classname="GraphicTextEntity" class="algorithm" fill="black" font-family="arial" font-size="20" font-style="normal" font-weight="normal" id="9KT" text-anchor="end" text-decoration="normal" x="4265" y="1815"/>
</g>
<g baseline-shift="-100%" cb-anchor-x="4265" cb-anchor-y="1850" cb-classname="PointReferences" cb-max-width="130" cb-originator="false" cb-source="q8-apv-o4" class="signal" id="9Kp" text-anchor="end">
<text baseline-shift="-100%" cb-classname="GraphicTextEntity" class="algorithm" id="9KA" text-anchor="end" x="4265" y="1850">
REF:
</text>
<text baseline-shift="-100%" cb-classname="GraphicTextEntity" class="algorithm" id="2N6L" text-anchor="end" x="4265" y="1881">
Point
</text>
<text baseline-shift="-100%" cb-classname="GraphicTextEntity" class="algorithm" id="2DBS" text-anchor="end" x="4265" y="1912">
not
</text>
<text baseline-shift="-100%" cb-classname="GraphicTextEntity" class="algorithm" id="2DBl" text-anchor="end" x="4265" y="1943">
found
</text>
<text baseline-shift="-100%" cb-classname="GraphicTextEntity" class="algorithm" id="2DB0" text-anchor="end" x="4265" y="1974">
in
</text>
<text baseline-shift="-100%" cb-classname="GraphicTextEntity" class="algorithm" id="2DBK" text-anchor="end" x="4265" y="2005">
database (01ASLNOT)
</text>
</g>
<g baseline-shift="-50%" cb-anchor-x="4445" cb-anchor-y="1855" cb-classname="PointDescription" cb-content="extended" cb-labeled="false" cb-max-width="240" cb-source="s6-VmQ-7U" class="algorithm" id="9KN" text-anchor="start">
<text baseline-shift="-50%" cb-classname="GraphicTextEntity" class="algorithm" id="9Ka" text-anchor="start" x="4445" y="1809">
DESC: Point
</text>
<text baseline-shift="-50%" cb-classname="GraphicTextEntity" class="algorithm" id="15T0" text-anchor="start" x="4445" y="1840">
not found in
</text>
<text baseline-shift="-50%" cb-classname="GraphicTextEntity" class="algorithm" id="2DB1" text-anchor="start" x="4445" y="1871">
database
</text>
<text baseline-shift="-50%" cb-classname="GraphicTextEntity" class="algorithm" id="2DBz" text-anchor="start" x="4445" y="1902">
(01ASLNOT)
</text>
</g>
</g>
</g>
<g cb-classname="NamedObject" cb-objectname="comments" id="5">
<text cb-classname="GraphicTextEntity" class="annotation" font-size="22" id="4fh" text-anchor="end" x="632" y="1456">
LATCH TURBINE PB
</text>
</g>
</svg>