<?xml version="1.0" ?><svg cb-auto-time="03/05/2008 10:26:51" cb-classname="ControlFunction" cb-create-time="03/12/2008" cb-drop-id="12" cb-engineer="Dufek" cb-filename="Z:\OVATION\NET0\UNIT0\CONTROLFUNCTIONS\00ED.svg" cb-function-id="00ED" cb-key="443321525511" cb-modified-timestamp="1489318885" cb-modify-id="00000001" cb-ortho-mode="enabled" cb-path="Z:/OVATION/NET0/UNIT0/CONTROLFUNCTIONS" cb-reviewer="Nemec" cb-revision="A" cb-revision-time="12/28/2010" cb-sheet-number="014" cb-sheet-title="BOILER DRUM LEVEL LIMITS FOR MFT" cb-snap-grid="10" cb-task-id="3" height="3606" id="1" width="5450" xmlns="http://www.w3.org/2000/svg">
<style cb-classname="EntityStyle" id="2" type="text/css">
	.algorithm { fill: white; stroke: black; stroke-linecap: round; stroke-width: 2 }
	.algorithm-function { fill: none; stroke: black; stroke-linecap: round; stroke-width: 2 }
	.algorithm-functionline { fill: none; stroke: black; stroke-linecap: round; stroke-width: 2 }
	.algorithm-name { fill: none; stroke: black; stroke-linecap: round; stroke-width: 2 }
	.algorithm-nameline { fill: none; stroke: black; stroke-linecap: round; stroke-width: 2 }
	.algorithm-sequence { fill: none; stroke: black; stroke-linecap: round; stroke-width: 2 }
	.algorithm-sequenceline { fill: none; stroke: black; stroke-linecap: round; stroke-width: 2 }
	.algorithmline { fill: none; stroke: black; stroke-linecap: round; stroke-width: 2 }
	.annotation { fill: none; stroke: black; stroke-linecap: round; stroke-width: 2 }
	.annotationline { fill: none; stroke: black; stroke-linecap: round; stroke-width: 2 }
	.frame { fill: none; stroke: black; stroke-linecap: round; stroke-width: 2 }
	.frameline { fill: none; stroke: black; stroke-linecap: round; stroke-width: 2 }
	.signal { fill: black; stroke: black; stroke-linecap: round; stroke-width: 2 }
	.signalline { fill: none; stroke: black; stroke-linecap: round; stroke-width: 2 }
	text.algorithm { fill: black; font-family: MS Shell Dlg 2; font-size: 14; stroke: none }
	text.algorithm-function { fill: black; font-family: MS Shell Dlg 2; font-size: 16; stroke: none }
	text.algorithm-name { fill: black; font-family: MS Shell Dlg 2; font-size: 16; stroke: none }
	text.algorithm-sequence { fill: black; font-family: MS Shell Dlg 2; font-size: 16; stroke: none }
	text.annotation { fill: black; font-family: MS Shell Dlg 2; font-size: 16; stroke: none }
	text.frame { fill: black; font-family: MS Shell Dlg 2; font-size: 16; stroke: none }
	text.signal { fill: black; font-family: MS Shell Dlg 2; font-size: 12; stroke: none }
</style>
<g cb-classname="NamedObject" cb-objectname="Comments" id="3"/>
<g cb-classname="AlgorithmContainer" cb-objectname="Algorithms" id="4">
<g cb-alg-69N="01LT101B-CMP" cb-alg-6D6J="YES" cb-alg-C1Vy="LT-101A" cb-alg-hBlU="DRUM LEVEL LEFT" cb-algorithm-id="001" cb-classname="ExternalPointInterface" cb-function-name="INPUT" id="6t">
<ellipse cb-classname="GraphicEllipseEntity" class="algorithm" cx="1300" cy="540" id="6b" rx="50" ry="50"/>
<rect cb-classname="GraphicRectangleEntity" class="algorithm" height="40" id="6y" width="100" x="1250" y="450"/>
<line cb-classname="GraphicLineEntity" class="algorithm" id="64" x1="1300" x2="1300" y1="490" y2="450"/>
<g cb-classname="ControlPin" cb-pin-name="jB-D85-yJX" id="6A">
<line cb-classname="GraphicLineEntity" class="signalline" id="6S" x1="1300" x2="1300" y1="590" y2="620"/>
<g cb-classname="DynamicText" cb-source="Wb-bJD-C1Vy" class="signal" id="7Y" text-anchor="end">
<text cb-classname="GraphicTextEntity" class="signal" fill="black" font-style="normal" font-weight="normal" id="7V" text-anchor="end" text-decoration="normal" transform="translate(1292,607)rotate(-90)"/>
</g>
<g cb-classname="SignalSegment" id="1yug">
<line cb-classname="GraphicLineEntity" class="signalline" id="1yuT" x1="1300" x2="1300" y1="620" y2="1530"/>
<g cb-classname="SignalSegment" id="1yrs">
<line cb-classname="GraphicLineEntity" class="signalline" id="1yrD" x1="1300" x2="1410" y1="1530" y2="1530"/>
<g cb-classname="SignalConnection" cb-graphic-line="$1612$" cb-input-pin="$AGdE$" id="1yrn"/>
<line cb-classname="GraphicLineEntity" class="signalline" id="1y3s" x1="1300" x2="1300" y1="1530" y2="2090"/>
<g cb-classname="SignalSegment" id="1y3A">
<line cb-classname="GraphicLineEntity" class="signalline" id="1y32" x1="1300" x2="1410" y1="2090" y2="2090"/>
<g cb-classname="SignalConnection" cb-graphic-line="$1663$" cb-input-pin="$rA18$" id="1y3c"/>
</g>
<ellipse cb-classname="GraphicEllipseEntity" class="signal" cx="1300" cy="1530" id="1SOc" rx="5" ry="5"/>
</g>
</g>
</g>
<g cb-classname="PointStatusIndicator" cb-indicator-type="Highway" cb-source="CO-1pJ-2NR" id="7b" visibility="hidden">
<line cb-classname="GraphicLineEntity" class="algorithmline" id="7y" x1="1300" x2="1250" y1="490" y2="540"/>
<line cb-classname="GraphicLineEntity" class="algorithmline" id="74" x1="1250" x2="1300" y1="540" y2="590"/>
<line cb-classname="GraphicLineEntity" class="algorithmline" id="7A" x1="1300" x2="1350" y1="590" y2="540"/>
<line cb-classname="GraphicLineEntity" class="algorithmline" id="7S" x1="1350" x2="1300" y1="540" y2="490"/>
</g>
<g cb-classname="PointStatusIndicator" cb-indicator-type="hardware" cb-source="Ia-6dc-v4X" id="8Y" visibility="hidden">
<line cb-classname="GraphicLineEntity" class="algorithmline" id="8V" x1="1250" x2="1250" y1="490" y2="590"/>
<line cb-classname="GraphicLineEntity" class="algorithmline" id="8N" x1="1250" x2="1350" y1="590" y2="590"/>
<line cb-classname="GraphicLineEntity" class="algorithmline" id="8z" x1="1350" x2="1350" y1="590" y2="490"/>
</g>
<g cb-classname="PointStatusIndicator" cb-indicator-type="alarm" cb-source="IT-e6D-tgk" id="8t" visibility="hidden">
<text baseline-shift="-50%" cb-classname="GraphicTextEntity" class="algorithm" fill="#000000" font-family="MS Shell Dlg" font-size="20" id="8b" text-anchor="middle" x="1275" y="460">
A
</text>
</g>
<g cb-classname="PointStatusIndicator" cb-indicator-type="ingraphic" cb-source="JP-vdU-5h1" id="8y" visibility="visible">
<text baseline-shift="-50%" cb-classname="GraphicTextEntity" class="algorithm" fill="#000000" font-family="MS Shell Dlg" font-size="20" id="84" text-anchor="middle" x="1325" y="460">
G
</text>
</g>
<g cb-classname="DynamicText" cb-labeled="false" cb-pin-name="rzG" cb-source="CO-1pJ-2NR" class="algorithm" id="8A" text-anchor="middle">
<text cb-classname="GraphicTextEntity" class="algorithm" fill="black" font-family="arial" font-size="20" font-style="normal" font-weight="normal" id="8S" text-anchor="middle" text-decoration="normal" x="1300" y="430"/>
</g>
<g baseline-shift="-100%" cb-anchor-x="1320" cb-anchor-y="610" cb-classname="PointReferences" cb-max-width="160" cb-originator="true" cb-source="YA-mnX-7O8" class="signal" id="9Y" text-anchor="start">
<text baseline-shift="-100%" cb-classname="GraphicTextEntity" class="algorithm" id="9V" text-anchor="start" x="1320" y="610">
REF: Point not
</text>
<text baseline-shift="-100%" cb-classname="GraphicTextEntity" class="algorithm" id="2y8D" text-anchor="start" x="1320" y="635">
found in database
</text>
<text baseline-shift="-100%" cb-classname="GraphicTextEntity" class="algorithm" id="2y82" text-anchor="start" x="1320" y="660">
(01LT101B-CMP)
</text>
</g>
<g baseline-shift="0%" cb-anchor-x="1300" cb-anchor-y="390" cb-classname="PointDescription" cb-content="extended" cb-labeled="false" cb-max-width="240" cb-source="BZ-7H9-EdX" class="algorithm" id="9N" text-anchor="middle">
<text baseline-shift="0%" cb-classname="GraphicTextEntity" class="algorithm" id="9z" text-anchor="middle" x="1300" y="365">
DESC: Point not found in
</text>
<text baseline-shift="0%" cb-classname="GraphicTextEntity" class="algorithm" id="1z8T" text-anchor="middle" x="1300" y="390">
database (01LT101B-CMP)
</text>
</g>
</g>
<g cb-alg-1M2M="250" cb-alg-1MTf="1" cb-alg-FyR="01DL-H01C" cb-alg-od1="$64$cb-alg-out$" cb-alg-xM7t="63" cb-algorithm-id="01c" cb-classname="ControlAlgorithm" cb-function-name="HIGHMON" cb-modify-id="00000002" id="1Ywc">
<rect cb-classname="GraphicRectangleEntity" class="algorithm" height="40" id="1Ywk" width="80" x="1430" y="1510"/>
<line cb-classname="GraphicLineEntity" class="algorithm" id="1Ywe" x1="1470" x2="1460" y1="1510" y2="1550"/>
<line cb-classname="GraphicLineEntity" class="algorithm" id="1Ywg" x1="1480" x2="1470" y1="1510" y2="1550"/>
<line cb-classname="GraphicLineEntity" class="algorithm" id="1YwT" x1="1440" x2="1440" y1="1520" y2="1540"/>
<line cb-classname="GraphicLineEntity" class="algorithm" id="1Y3s" x1="1450" x2="1450" y1="1540" y2="1520"/>
<line cb-classname="GraphicLineEntity" class="algorithm" id="1Y3A" x1="1440" x2="1450" y1="1530" y2="1530"/>
<g cb-classname="ControlPin" cb-pin-name="70-9NY-JYJ" id="1Y3D">
<line cb-classname="GraphicLineEntity" class="signalline" id="1Y32" x1="1410" x2="1430" y1="1530" y2="1530"/>
<polygon cb-classname="GraphicPolygonEntity" class="signal" id="1Y3n" points="1430,1530 1419,1524 1419,1535"/>
<g cb-classname="DynamicText" cb-source="YA-ZJY-gHrB" class="signal" id="1Y3c" text-anchor="end">
<text cb-classname="GraphicTextEntity" class="signal" fill="black" font-style="normal" font-weight="normal" id="1Y3k" text-anchor="end" text-decoration="normal" x="1415" y="1527"/>
</g>
</g>
<g cb-classname="ControlPin" cb-pin-name="BZ-7H9-EdX" id="1Y3e">
<line cb-classname="GraphicLineEntity" class="signalline" id="1Y3g" x1="1510" x2="1530" y1="1530" y2="1530"/>
<g cb-classname="DynamicText" cb-source="jB-v1d-DvVB" class="signal" id="1Y3T" text-anchor="start">
<text cb-classname="GraphicTextEntity" class="signal" fill="black" font-style="normal" font-weight="normal" id="1YCs" text-anchor="start" text-decoration="normal" x="1524" y="1527"/>
</g>
<g cb-classname="SignalSegment" id="1yrc">
<line cb-classname="GraphicLineEntity" class="signalline" id="1yrk" stroke="#1e12bf" stroke-dasharray="5,4" x1="1530" x2="2910" y1="1530" y2="1530"/>
<g cb-classname="SignalSegment" id="1yre">
<g cb-classname="SignalSegment" id="1yeA">
<line cb-classname="GraphicLineEntity" class="signalline" id="1ye2" stroke="#1e12bf" stroke-dasharray="5,4" x1="2910" x2="3270" y1="1230" y2="1230"/>
<g cb-classname="SignalConnection" cb-graphic-line="$1623$" cb-input-pin="$VOAU$" id="1yec"/>
</g>
<line cb-classname="GraphicLineEntity" class="signalline" id="1yes" stroke="#1e12bf" stroke-dasharray="5,4" x1="2910" x2="2910" y1="1530" y2="1230"/>
</g>
</g>
</g>
<g cb-classname="DynamicText" cb-labeled="true" cb-source="JP-vdU-FJdw" class="algorithm" id="1YCn" text-anchor="start">
<text cb-classname="GraphicTextEntity" class="algorithm" fill="black" font-style="normal" font-weight="normal" id="1YCc" text-anchor="start" text-decoration="normal" x="1440" y="1500"/>
</g>
</g>
<g cb-alg-69N="01DL-L01C" cb-alg-dtJ9="1" cb-alg-dtlZ="-250" cb-alg-h6FJ="60" cb-alg-iIy="$64$cb-alg-out$" cb-algorithm-id="01d" cb-classname="ControlAlgorithm" cb-function-name="LOWMON" cb-modify-id="00000002" id="1Vun">
<rect cb-classname="GraphicRectangleEntity" class="algorithm" height="40" id="1Vuc" width="80" x="1430" y="2070"/>
<line cb-classname="GraphicLineEntity" class="algorithm" id="1Vuk" x1="1470" x2="1460" y1="2070" y2="2110"/>
<line cb-classname="GraphicLineEntity" class="algorithm" id="1Vue" x1="1480" x2="1470" y1="2070" y2="2110"/>
<line cb-classname="GraphicLineEntity" class="algorithm" id="1Vug" x1="1490" x2="1490" y1="2080" y2="2100"/>
<line cb-classname="GraphicLineEntity" class="algorithm" id="1VuT" x1="1490" x2="1500" y1="2100" y2="2100"/>
<g cb-classname="ControlPin" cb-pin-name="Wb-Xfx-iIy" id="1Vrs">
<line cb-classname="GraphicLineEntity" class="signalline" id="1VrA" x1="1410" x2="1430" y1="2090" y2="2090"/>
<polygon cb-classname="GraphicPolygonEntity" class="signal" id="1VrD" points="1430,2090 1419,2084 1419,2095"/>
<g cb-classname="DynamicText" cb-source="JP-HiI-hEQe" class="signal" id="1Vr2" text-anchor="end">
<text cb-classname="GraphicTextEntity" class="signal" fill="black" font-style="normal" font-weight="normal" id="1Vrn" text-anchor="end" text-decoration="normal" x="1415" y="2087"/>
</g>
</g>
<g cb-classname="ControlPin" cb-pin-name="CO-1pJ-2NR" id="1Vrc">
<line cb-classname="GraphicLineEntity" class="signalline" id="1Vrk" x1="1510" x2="1530" y1="2090" y2="2090"/>
<g cb-classname="DynamicText" cb-source="YA-ZJY-gHrB" class="signal" id="1Vre" text-anchor="start">
<text cb-classname="GraphicTextEntity" class="signal" fill="black" font-style="normal" font-weight="normal" id="1Vrg" text-anchor="start" text-decoration="normal" x="1524" y="2087"/>
</g>
<g cb-classname="SignalSegment" id="1y3e">
<line cb-classname="GraphicLineEntity" class="signalline" id="1y3g" stroke="#1e12bf" stroke-dasharray="5,4" x1="1530" x2="2910" y1="2090" y2="2090"/>
<g cb-classname="SignalSegment" id="1y3T">
<line cb-classname="GraphicLineEntity" class="signalline" id="1yCs" stroke="#1e12bf" stroke-dasharray="5,4" x1="2910" x2="2910" y1="2090" y2="2010"/>
<g cb-classname="SignalSegment" id="1yCA">
<line cb-classname="GraphicLineEntity" class="signalline" id="1yC2" stroke="#1e12bf" stroke-dasharray="5,4" x1="2910" x2="3270" y1="2010" y2="2010"/>
<g cb-classname="SignalConnection" cb-graphic-line="$1673$" cb-input-pin="$BSIK$" id="1yCc"/>
</g>
</g>
</g>
</g>
<g cb-classname="DynamicText" cb-labeled="true" cb-source="Ef-mlF-F6od" class="algorithm" id="1VeD" text-anchor="start">
<text cb-classname="GraphicTextEntity" class="algorithm" fill="black" font-style="normal" font-weight="normal" id="1Ve2" text-anchor="start" text-decoration="normal" x="1430" y="2060"/>
</g>
</g>
<g cb-alg-CulI="DRUM LEVEL RIGHT" cb-alg-KdR="01LT101-2-A-SEL" cb-alg-Keq9="YES" cb-alg-d7zU="LT-102A" cb-algorithm-id="012" cb-classname="ExternalPointInterface" cb-function-name="INPUT" id="9t">
<ellipse cb-classname="GraphicEllipseEntity" class="algorithm" cx="1810" cy="540" id="9b" rx="50" ry="50"/>
<rect cb-classname="GraphicRectangleEntity" class="algorithm" height="40" id="9y" width="100" x="1760" y="450"/>
<line cb-classname="GraphicLineEntity" class="algorithm" id="94" x1="1810" x2="1810" y1="490" y2="450"/>
<g cb-classname="ControlPin" cb-pin-name="jO-LFc-bp1" id="9A">
<line cb-classname="GraphicLineEntity" class="signalline" id="9S" x1="1810" x2="1810" y1="590" y2="620"/>
<g cb-classname="DynamicText" cb-source="70-g6w-vNqb" class="signal" id="1Yu" text-anchor="end">
<text cb-classname="GraphicTextEntity" class="signal" fill="black" font-style="normal" font-weight="normal" id="1Yr" text-anchor="end" text-decoration="normal" transform="translate(1802,607)rotate(-90)"/>
</g>
<g cb-classname="SignalSegment" id="1b8D">
<line cb-classname="GraphicLineEntity" class="signalline" id="1b82" x1="1810" x2="1810" y1="620" y2="1210"/>
<g cb-classname="SignalSegment" id="1b8n">
<line cb-classname="GraphicLineEntity" class="signalline" id="1b8k" x1="1810" x2="1890" y1="1210" y2="1210"/>
<g cb-classname="SignalConnection" cb-graphic-line="$1596$" cb-input-pin="$XSY$" id="1b8g"/>
<line cb-classname="GraphicLineEntity" class="signalline" id="1yOD" x1="1810" x2="1810" y1="1210" y2="2020"/>
<g cb-classname="SignalSegment" id="1yO2">
<line cb-classname="GraphicLineEntity" class="signalline" id="1yOc" x1="1810" x2="1890" y1="2020" y2="2020"/>
<g cb-classname="SignalConnection" cb-graphic-line="$1645$" cb-input-pin="$UAo$" id="1yOe"/>
</g>
<ellipse cb-classname="GraphicEllipseEntity" class="signal" cx="1810" cy="1210" id="1yOg" rx="5" ry="5"/>
</g>
</g>
</g>
<g cb-classname="PointStatusIndicator" cb-indicator-type="Highway" cb-source="BZ-7H9-EdX" id="1Yw" visibility="hidden">
<line cb-classname="GraphicLineEntity" class="algorithmline" id="1Y3" x1="1810" x2="1760" y1="490" y2="540"/>
<line cb-classname="GraphicLineEntity" class="algorithmline" id="1YC" x1="1760" x2="1810" y1="540" y2="590"/>
<line cb-classname="GraphicLineEntity" class="algorithmline" id="1YU" x1="1810" x2="1860" y1="590" y2="540"/>
<line cb-classname="GraphicLineEntity" class="algorithmline" id="1Y8" x1="1860" x2="1810" y1="540" y2="490"/>
</g>
<g cb-classname="PointStatusIndicator" cb-indicator-type="hardware" cb-source="IT-e6D-tgk" id="1Vu" visibility="hidden">
<line cb-classname="GraphicLineEntity" class="algorithmline" id="1Vr" x1="1760" x2="1760" y1="490" y2="590"/>
<line cb-classname="GraphicLineEntity" class="algorithmline" id="1Ve" x1="1760" x2="1860" y1="590" y2="590"/>
<line cb-classname="GraphicLineEntity" class="algorithmline" id="1Vb" x1="1860" x2="1860" y1="590" y2="490"/>
</g>
<g cb-classname="PointStatusIndicator" cb-indicator-type="alarm" cb-source="CO-1pJ-2NR" id="1VO" visibility="hidden">
<text baseline-shift="-50%" cb-classname="GraphicTextEntity" class="algorithm" fill="#000000" font-family="MS Shell Dlg" font-size="20" id="1Vw" text-anchor="middle" x="1785" y="460">
A
</text>
</g>
<g cb-classname="PointStatusIndicator" cb-indicator-type="ingraphic" cb-source="YA-mnX-7O8" id="1V3" visibility="visible">
<text baseline-shift="-50%" cb-classname="GraphicTextEntity" class="algorithm" fill="#000000" font-family="MS Shell Dlg" font-size="20" id="1VC" text-anchor="middle" x="1835" y="460">
G
</text>
</g>
<g cb-classname="DynamicText" cb-labeled="false" cb-pin-name="KBz" cb-source="BZ-7H9-EdX" class="algorithm" id="1VU" text-anchor="middle">
<text cb-classname="GraphicTextEntity" class="algorithm" fill="black" font-family="arial" font-size="20" font-style="normal" font-weight="normal" id="1V8" text-anchor="middle" text-decoration="normal" x="1810" y="430"/>
</g>
<g baseline-shift="-100%" cb-anchor-x="1830" cb-anchor-y="610" cb-classname="PointReferences" cb-max-width="160" cb-originator="true" cb-source="jB-D85-yJX" class="signal" id="1Nu" text-anchor="start">
<text baseline-shift="-100%" cb-classname="GraphicTextEntity" class="algorithm" id="1Nr" text-anchor="start" x="1830" y="610">
REF: Point not
</text>
<text baseline-shift="-100%" cb-classname="GraphicTextEntity" class="algorithm" id="2y8k" text-anchor="start" x="1830" y="635">
found in database
</text>
<text baseline-shift="-100%" cb-classname="GraphicTextEntity" class="algorithm" id="2y8e" text-anchor="start" x="1830" y="660">
(01LT101-2-A-SEL)
</text>
</g>
<g baseline-shift="0%" cb-anchor-x="1810" cb-anchor-y="390" cb-classname="PointDescription" cb-content="extended" cb-labeled="false" cb-max-width="240" cb-source="Wb-Xfx-69N" class="algorithm" id="1Ne" text-anchor="middle">
<text baseline-shift="0%" cb-classname="GraphicTextEntity" class="algorithm" id="1Nb" text-anchor="middle" x="1810" y="365">
DESC: Point not found in
</text>
<text baseline-shift="0%" cb-classname="GraphicTextEntity" class="algorithm" id="1z8g" text-anchor="middle" x="1810" y="390">
database (01LT101-2-A-SEL)
</text>
</g>
</g>
<g cb-alg-69N="01DL-H01B" cb-alg-h6FJ="63" cb-alg-iIy="$94$cb-alg-out$" cb-alg-v6J9="1" cb-alg-v6lZ="250" cb-algorithm-id="015" cb-classname="ControlAlgorithm" cb-function-name="HIGHMON" cb-modify-id="00000002" id="4NU">
<rect cb-classname="GraphicRectangleEntity" class="algorithm" height="40" id="4N8" width="80" x="1910" y="1190"/>
<line cb-classname="GraphicLineEntity" class="algorithm" id="4zu" x1="1950" x2="1940" y1="1190" y2="1230"/>
<line cb-classname="GraphicLineEntity" class="algorithm" id="4zr" x1="1960" x2="1950" y1="1190" y2="1230"/>
<line cb-classname="GraphicLineEntity" class="algorithm" id="4ze" x1="1920" x2="1920" y1="1200" y2="1220"/>
<line cb-classname="GraphicLineEntity" class="algorithm" id="4zb" x1="1930" x2="1930" y1="1220" y2="1200"/>
<line cb-classname="GraphicLineEntity" class="algorithm" id="4zO" x1="1920" x2="1930" y1="1210" y2="1210"/>
<g cb-classname="ControlPin" cb-pin-name="IT-e6D-6w2" id="4zw">
<line cb-classname="GraphicLineEntity" class="signalline" id="4z3" x1="1890" x2="1910" y1="1210" y2="1210"/>
<polygon cb-classname="GraphicPolygonEntity" class="signal" id="4zC" points="1910,1210 1899,1204 1899,1215"/>
<g cb-classname="DynamicText" cb-source="70-g6w-vNqb" class="signal" id="4zU" text-anchor="end">
<text cb-classname="GraphicTextEntity" class="signal" fill="black" font-style="normal" font-weight="normal" id="4z8" text-anchor="end" text-decoration="normal" x="1895" y="1207"/>
</g>
</g>
<g cb-classname="ControlPin" cb-pin-name="eS-FoF-IF8" id="4tu">
<line cb-classname="GraphicLineEntity" class="signalline" id="4tr" x1="1990" x2="2010" y1="1210" y2="1210"/>
<g cb-classname="DynamicText" cb-source="cJ-4xc-pXY1" class="signal" id="4te" text-anchor="start">
<text cb-classname="GraphicTextEntity" class="signal" fill="black" font-style="normal" font-weight="normal" id="4tb" text-anchor="start" text-decoration="normal" x="2004" y="1207"/>
</g>
<g cb-classname="SignalSegment" id="1b8T">
<g cb-classname="SignalConnection" cb-graphic-line="$1606$" cb-input-pin="$1UhZ$" id="1yue"/>
<line cb-classname="GraphicLineEntity" class="signalline" id="1yuk" stroke="#1e12bf" stroke-dasharray="5,4" x1="2010" x2="3270" y1="1210" y2="1210"/>
</g>
</g>
<g cb-classname="DynamicText" cb-labeled="true" cb-source="Wb-Xfx-v6lZ" class="algorithm" id="4tC" text-anchor="start">
<text cb-classname="GraphicTextEntity" class="algorithm" fill="black" font-style="normal" font-weight="normal" id="4tU" text-anchor="start" text-decoration="normal" x="1910" y="1170"/>
</g>
</g>
<g cb-alg-JDh="$94$cb-alg-out$" cb-alg-Q7vc="60" cb-alg-fyGg="-250" cb-alg-fyfS="1" cb-alg-v4X="01DL-L01B" cb-algorithm-id="01a" cb-classname="ControlAlgorithm" cb-function-name="LOWMON" cb-modify-id="00000002" id="44C">
<rect cb-classname="GraphicRectangleEntity" class="algorithm" height="40" id="44U" width="80" x="1910" y="2000"/>
<line cb-classname="GraphicLineEntity" class="algorithm" id="448" x1="1950" x2="1940" y1="2000" y2="2040"/>
<line cb-classname="GraphicLineEntity" class="algorithm" id="4Au" x1="1960" x2="1950" y1="2000" y2="2040"/>
<line cb-classname="GraphicLineEntity" class="algorithm" id="4Ar" x1="1970" x2="1970" y1="2010" y2="2030"/>
<line cb-classname="GraphicLineEntity" class="algorithm" id="4Ae" x1="1970" x2="1980" y1="2030" y2="2030"/>
<g cb-classname="ControlPin" cb-pin-name="Ia-6dc-JDh" id="4Ab">
<line cb-classname="GraphicLineEntity" class="signalline" id="4AO" x1="1890" x2="1910" y1="2020" y2="2020"/>
<polygon cb-classname="GraphicPolygonEntity" class="signal" id="4Aw" points="1910,2020 1899,2014 1899,2025"/>
<g cb-classname="DynamicText" cb-source="Wb-bJD-C1Vy" class="signal" id="4A3" text-anchor="end">
<text cb-classname="GraphicTextEntity" class="signal" fill="black" font-style="normal" font-weight="normal" id="4AC" text-anchor="end" text-decoration="normal" x="1895" y="2017"/>
</g>
</g>
<g cb-classname="ControlPin" cb-pin-name="jO-LFc-bp1" id="4AU">
<line cb-classname="GraphicLineEntity" class="signalline" id="4A8" x1="1990" x2="2010" y1="2020" y2="2020"/>
<g cb-classname="DynamicText" cb-source="70-g6w-vNqb" class="signal" id="4Su" text-anchor="start">
<text cb-classname="GraphicTextEntity" class="signal" fill="black" font-style="normal" font-weight="normal" id="4Sr" text-anchor="start" text-decoration="normal" x="2004" y="2017"/>
</g>
<g cb-classname="SignalSegment" id="1yOT">
<line cb-classname="GraphicLineEntity" class="signalline" id="1yws" stroke="#1e12bf" stroke-dasharray="5,4" x1="2010" x2="2880" y1="2020" y2="2020"/>
<g cb-classname="SignalSegment" id="1ywA">
<line cb-classname="GraphicLineEntity" class="signalline" id="1ywD" stroke="#1e12bf" stroke-dasharray="5,4" x1="2880" x2="2880" y1="2020" y2="1990"/>
<g cb-classname="SignalSegment" id="1yw2">
<line cb-classname="GraphicLineEntity" class="signalline" id="1ywc" stroke="#1e12bf" stroke-dasharray="5,4" x1="2880" x2="3270" y1="1990" y2="1990"/>
<g cb-classname="SignalConnection" cb-graphic-line="$1655$" cb-input-pin="$hj23$" id="1ywe"/>
</g>
</g>
</g>
</g>
<g cb-classname="DynamicText" cb-labeled="true" cb-source="BZ-7H9-lvjH" class="algorithm" id="4Sw" text-anchor="start">
<text cb-classname="GraphicTextEntity" class="algorithm" fill="black" font-style="normal" font-weight="normal" id="4S3" text-anchor="start" text-decoration="normal" x="1920" y="1980"/>
</g>
</g>
<g cb-alg-5UKC="DRUM LEVEL LEFT" cb-alg-HGJx="YES" cb-alg-HIs="01LT102B-CMP" cb-alg-pXY1="LT-101B" cb-algorithm-id="014" cb-classname="ExternalPointInterface" cb-function-name="INPUT" id="1NO">
<ellipse cb-classname="GraphicEllipseEntity" class="algorithm" cx="2290" cy="540" id="1Nw" rx="50" ry="50"/>
<rect cb-classname="GraphicRectangleEntity" class="algorithm" height="40" id="1N3" width="100" x="2240" y="450"/>
<line cb-classname="GraphicLineEntity" class="algorithm" id="1NC" x1="2290" x2="2290" y1="490" y2="450"/>
<g cb-classname="ControlPin" cb-pin-name="eS-FoF-IF8" id="1NU">
<line cb-classname="GraphicLineEntity" class="signalline" id="1N8" x1="2290" x2="2290" y1="590" y2="620"/>
<g cb-classname="DynamicText" cb-source="cJ-4xc-pXY1" class="signal" id="1zu" text-anchor="end">
<text cb-classname="GraphicTextEntity" class="signal" fill="black" font-style="normal" font-weight="normal" id="1zr" text-anchor="end" text-decoration="normal" transform="translate(2282,607)rotate(-90)"/>
</g>
<g cb-classname="SignalSegment" id="1bCk">
<line cb-classname="GraphicLineEntity" class="signalline" id="1bCe" x1="2290" x2="2290" y1="620" y2="840"/>
<g cb-classname="SignalSegment" id="1bCg">
<line cb-classname="GraphicLineEntity" class="signalline" id="1bUs" x1="2290" x2="2570" y1="840" y2="840"/>
<g cb-classname="SignalConnection" cb-graphic-line="$1580$" cb-input-pin="$wAM$" id="1bUD"/>
<line cb-classname="GraphicLineEntity" class="signalline" id="1yek" x1="2290" x2="2290" y1="840" y2="1970"/>
<g cb-classname="SignalSegment" id="1yee">
<line cb-classname="GraphicLineEntity" class="signalline" id="1yeT" x1="2290" x2="2570" y1="1970" y2="1970"/>
<g cb-classname="SignalConnection" cb-graphic-line="$1629$" cb-input-pin="$xh6$" id="1ybA"/>
</g>
<ellipse cb-classname="GraphicEllipseEntity" class="signal" cx="2290" cy="840" id="1ybD" rx="5" ry="5"/>
</g>
</g>
</g>
<g cb-classname="PointStatusIndicator" cb-indicator-type="Highway" cb-source="Wb-Xfx-69N" id="1zw" visibility="hidden">
<line cb-classname="GraphicLineEntity" class="algorithmline" id="1z3" x1="2290" x2="2240" y1="490" y2="540"/>
<line cb-classname="GraphicLineEntity" class="algorithmline" id="1zC" x1="2240" x2="2290" y1="540" y2="590"/>
<line cb-classname="GraphicLineEntity" class="algorithmline" id="1zU" x1="2290" x2="2340" y1="590" y2="540"/>
<line cb-classname="GraphicLineEntity" class="algorithmline" id="1z8" x1="2340" x2="2290" y1="540" y2="490"/>
</g>
<g cb-classname="PointStatusIndicator" cb-indicator-type="hardware" cb-source="CO-1pJ-2NR" id="1tu" visibility="hidden">
<line cb-classname="GraphicLineEntity" class="algorithmline" id="1tr" x1="2240" x2="2240" y1="490" y2="590"/>
<line cb-classname="GraphicLineEntity" class="algorithmline" id="1te" x1="2240" x2="2340" y1="590" y2="590"/>
<line cb-classname="GraphicLineEntity" class="algorithmline" id="1tb" x1="2340" x2="2340" y1="590" y2="490"/>
</g>
<g cb-classname="PointStatusIndicator" cb-indicator-type="alarm" cb-source="BZ-7H9-EdX" id="1tO" visibility="hidden">
<text baseline-shift="-50%" cb-classname="GraphicTextEntity" class="algorithm" fill="#000000" font-family="MS Shell Dlg" font-size="20" id="1tw" text-anchor="middle" x="2265" y="460">
A
</text>
</g>
<g cb-classname="PointStatusIndicator" cb-indicator-type="ingraphic" cb-source="jB-D85-yJX" id="1t3" visibility="visible">
<text baseline-shift="-50%" cb-classname="GraphicTextEntity" class="algorithm" fill="#000000" font-family="MS Shell Dlg" font-size="20" id="1tC" text-anchor="middle" x="2315" y="460">
G
</text>
</g>
<g cb-classname="DynamicText" cb-labeled="false" cb-pin-name="NJW" cb-source="Wb-Xfx-69N" class="algorithm" id="1tU" text-anchor="middle">
<text cb-classname="GraphicTextEntity" class="algorithm" fill="black" font-family="arial" font-size="20" font-style="normal" font-weight="normal" id="1t8" text-anchor="middle" text-decoration="normal" x="2290" y="430"/>
</g>
<g baseline-shift="-100%" cb-anchor-x="2310" cb-anchor-y="610" cb-classname="PointReferences" cb-max-width="160" cb-originator="true" cb-source="jO-LFc-bp1" class="signal" id="1bu" text-anchor="start">
<text baseline-shift="-100%" cb-classname="GraphicTextEntity" class="algorithm" id="1br" text-anchor="start" x="2310" y="610">
REF: Point not
</text>
<text baseline-shift="-100%" cb-classname="GraphicTextEntity" class="algorithm" id="2y8T" text-anchor="start" x="2310" y="635">
found in database
</text>
<text baseline-shift="-100%" cb-classname="GraphicTextEntity" class="algorithm" id="24us" text-anchor="start" x="2310" y="660">
(01LT102B-CMP)
</text>
</g>
<g baseline-shift="0%" cb-anchor-x="2290" cb-anchor-y="390" cb-classname="PointDescription" cb-content="extended" cb-labeled="false" cb-max-width="240" cb-source="70-9NY-IGK" class="algorithm" id="1be" text-anchor="middle">
<text baseline-shift="0%" cb-classname="GraphicTextEntity" class="algorithm" id="1bb" text-anchor="middle" x="2290" y="365">
DESC: Point not found in
</text>
<text baseline-shift="0%" cb-classname="GraphicTextEntity" class="algorithm" id="1zCn" text-anchor="middle" x="2290" y="390">
database (01LT102B-CMP)
</text>
</g>
</g>
<g cb-alg-6x8="$124$cb-alg-out$" cb-alg-9JLD="63" cb-alg-EdX="01DL-H01A" cb-alg-FJjH="250.0" cb-alg-FJuO="1.0" cb-algorithm-id="019" cb-classname="ControlAlgorithm" cb-function-name="HIGHMON" cb-modify-id="00000002" id="2Ar">
<rect cb-classname="GraphicRectangleEntity" class="algorithm" height="40" id="2Ae" width="80" x="2590" y="820"/>
<line cb-classname="GraphicLineEntity" class="algorithm" id="2Ab" x1="2630" x2="2620" y1="820" y2="860"/>
<line cb-classname="GraphicLineEntity" class="algorithm" id="2AO" x1="2640" x2="2630" y1="820" y2="860"/>
<line cb-classname="GraphicLineEntity" class="algorithm" id="2Aw" x1="2600" x2="2600" y1="830" y2="850"/>
<line cb-classname="GraphicLineEntity" class="algorithm" id="2A3" x1="2610" x2="2610" y1="850" y2="830"/>
<line cb-classname="GraphicLineEntity" class="algorithm" id="2AC" x1="2600" x2="2610" y1="840" y2="840"/>
<g cb-classname="ControlPin" cb-pin-name="Ia-6dc-JDh" id="2AU">
<line cb-classname="GraphicLineEntity" class="signalline" id="2A8" x1="2570" x2="2590" y1="840" y2="840"/>
<polygon cb-classname="GraphicPolygonEntity" class="signal" id="2Su" points="2590,840 2579,834 2579,845"/>
<g cb-classname="DynamicText" cb-source="Wb-bJD-C1Vy" class="signal" id="2Sr" text-anchor="end">
<text cb-classname="GraphicTextEntity" class="signal" fill="black" font-style="normal" font-weight="normal" id="2Se" text-anchor="end" text-decoration="normal" x="2575" y="837"/>
</g>
</g>
<g cb-classname="ControlPin" cb-pin-name="jO-LFc-bp1" id="2Sb">
<line cb-classname="GraphicLineEntity" class="signalline" id="2SO" x1="2670" x2="2690" y1="840" y2="840"/>
<g cb-classname="DynamicText" cb-source="70-g6w-vNqb" class="signal" id="2Sw" text-anchor="start">
<text cb-classname="GraphicTextEntity" class="signal" fill="black" font-style="normal" font-weight="normal" id="2S3" text-anchor="start" text-decoration="normal" x="2684" y="837"/>
</g>
<g cb-classname="SignalSegment" id="1bU2">
<line cb-classname="GraphicLineEntity" class="signalline" id="1bUn" stroke="#1e12bf" stroke-dasharray="5,4" x1="2690" x2="2940" y1="840" y2="840"/>
<g cb-classname="SignalSegment" id="1bUc">
<line cb-classname="GraphicLineEntity" class="signalline" id="1bUk" stroke="#1e12bf" stroke-dasharray="5,4" x1="2940" x2="2940" y1="840" y2="1190"/>
<g cb-classname="SignalSegment" id="1bUe">
<g cb-classname="SignalConnection" cb-graphic-line="$1590$" cb-input-pin="$xok1$" id="1b8A"/>
<line cb-classname="GraphicLineEntity" class="signalline" id="1b8s" stroke="#1e12bf" stroke-dasharray="5,4" x1="2940" x2="3270" y1="1190" y2="1190"/>
</g>
</g>
</g>
</g>
<g cb-classname="DynamicText" cb-labeled="true" cb-source="BZ-7H9-FJjH" class="algorithm" id="3Yu" text-anchor="start">
<text cb-classname="GraphicTextEntity" class="algorithm" fill="black" font-style="normal" font-weight="normal" id="3Yr" text-anchor="start" text-decoration="normal" x="2590" y="800"/>
</g>
</g>
<g cb-alg-4cNu="OFF" cb-alg-JD8="$1055$cb-alg-out$" cb-alg-JDh="$281$cb-alg-out$" cb-alg-JDn="$428$cb-alg-out$" cb-alg-Q7vc="85" cb-alg-YXTf="2" cb-alg-byJX="01DL-H01" cb-alg-xB1C="3" cb-algorithm-id="002" cb-classname="ControlAlgorithm" cb-function-name="DIGCOUNT" cb-modify-id="00000001" id="1tus">
<g cb-classname="ControlPin" cb-pin-name="CO-1pJ-uRv" id="1tuA">
<line cb-classname="GraphicLineEntity" class="signalline" id="1tuD" x1="3270" x2="3290" y1="1190" y2="1190"/>
<polygon cb-classname="GraphicPolygonEntity" class="signal" id="1tu2" points="3290,1190 3279,1186 3279,1194"/>
<g cb-classname="DynamicText" cb-source="cJ-4xc-pXY1" class="signal" id="1tun" text-anchor="end">
<text baseline-shift="5%" cb-classname="GraphicTextEntity" class="signal" fill="black" font-style="normal" font-weight="normal" id="1tuc" text-anchor="end" text-decoration="normal" x="3275" y="1186"/>
</g>
</g>
<g cb-classname="ControlPin" cb-pin-name="Ia-6dc-v4X" id="1tuk">
<line cb-classname="GraphicLineEntity" class="signalline" id="1tue" x1="3390" x2="3410" y1="1230" y2="1230"/>
<g cb-classname="DynamicText" cb-source="Ef-s6x-Z9jL" class="signal" id="1tug">
<text baseline-shift="5%" cb-classname="GraphicTextEntity" class="signal" fill="black" font-style="normal" font-weight="normal" id="1tuT" text-decoration="normal" x="3405" y="1221"/>
</g>
</g>
<g cb-classname="ControlPin" cb-pin-name="IT-e6D-gbp1" id="1trs">
<line cb-classname="GraphicLineEntity" class="signalline" id="1trA" x1="3390" x2="3410" y1="1290" y2="1290"/>
<g cb-classname="DynamicText" cb-source="JP-HiI-hEQe" class="signal" id="1trD">
<text baseline-shift="5%" cb-classname="GraphicTextEntity" class="signal" fill="black" font-style="normal" font-weight="normal" id="1tr2" text-decoration="normal" x="3405" y="1281"/>
</g>
<g cb-classname="SignalSegment" id="14rD">
<g cb-classname="SignalConnection" cb-graphic-line="$1715$" cb-input-pin="$V3gX$" id="14rk"/>
<line cb-classname="GraphicLineEntity" class="signalline" id="14rc" stroke="#1e12bf" stroke-dasharray="5,4" x1="3410" x2="4100" y1="1290" y2="1290"/>
</g>
</g>
<g cb-classname="ControlPin" cb-pin-name="CO-1pJ-uR1" id="1trn">
<line cb-classname="GraphicLineEntity" class="signalline" id="1trc" x1="3270" x2="3290" y1="1210" y2="1210"/>
<polygon cb-classname="GraphicPolygonEntity" class="signal" id="1trk" points="3290,1210 3279,1206 3279,1214"/>
<g cb-classname="DynamicText" cb-source="cJ-4xc-pXY1" class="signal" id="1tre" text-anchor="end">
<text baseline-shift="5%" cb-classname="GraphicTextEntity" class="signal" fill="black" font-style="normal" font-weight="normal" id="1trg" text-anchor="end" text-decoration="normal" x="3275" y="1206"/>
</g>
</g>
<g cb-classname="ControlPin" cb-pin-name="Ia-6dc-JD8" id="1trT">
<line cb-classname="GraphicLineEntity" class="signalline" id="1tes" x1="3270" x2="3290" y1="1230" y2="1230"/>
<polygon cb-classname="GraphicPolygonEntity" class="signal" id="1teA" points="3290,1230 3279,1226 3279,1234"/>
<g cb-classname="DynamicText" cb-source="Wb-bJD-C1Vy" class="signal" id="1teD" text-anchor="end">
<text baseline-shift="5%" cb-classname="GraphicTextEntity" class="signal" fill="black" font-style="normal" font-weight="normal" id="1te2" text-anchor="end" text-decoration="normal" x="3275" y="1226"/>
</g>
</g>
<g cb-classname="ControlPin" cb-pin-name="jO-LFc-6hZ" id="1ten">
<line cb-classname="GraphicLineEntity" class="signalline" id="1tec" x1="3270" x2="3290" y1="1250" y2="1250"/>
<polygon cb-classname="GraphicPolygonEntity" class="signal" id="1tek" points="3290,1250 3279,1246 3279,1254"/>
<g cb-classname="DynamicText" cb-source="CO-H6h-YDTe" class="signal" id="1tee" text-anchor="end">
<text baseline-shift="5%" cb-classname="GraphicTextEntity" class="signal" fill="black" font-style="normal" font-weight="normal" id="1teg" text-anchor="end" text-decoration="normal" x="3275" y="1246"/>
</g>
</g>
<g cb-classname="ControlPin" cb-pin-name="YA-mnX-BhH" id="1teT">
<line cb-classname="GraphicLineEntity" class="signalline" id="1tbs" x1="3270" x2="3290" y1="1270" y2="1270"/>
<polygon cb-classname="GraphicPolygonEntity" class="signal" id="1tbA" points="3290,1270 3279,1266 3279,1274"/>
<g cb-classname="DynamicText" cb-source="Ia-MAp-xLix" class="signal" id="1tbD" text-anchor="end">
<text baseline-shift="5%" cb-classname="GraphicTextEntity" class="signal" fill="black" font-style="normal" font-weight="normal" id="1tb2" text-anchor="end" text-decoration="normal" x="3275" y="1266"/>
</g>
</g>
<g cb-classname="ControlPin" cb-pin-name="Ef-mlF-1Cp" id="1tbn">
<line cb-classname="GraphicLineEntity" class="signalline" id="1tbc" x1="3270" x2="3290" y1="1290" y2="1290"/>
<polygon cb-classname="GraphicPolygonEntity" class="signal" id="1tbk" points="3290,1290 3279,1286 3279,1294"/>
<g cb-classname="DynamicText" cb-source="jO-M1C-wmSx" class="signal" id="1tbe" text-anchor="end">
<text baseline-shift="5%" cb-classname="GraphicTextEntity" class="signal" fill="black" font-style="normal" font-weight="normal" id="1tbg" text-anchor="end" text-decoration="normal" x="3275" y="1286"/>
</g>
</g>
<g cb-classname="ControlPin" cb-pin-name="70-9NY-JYU" id="1tbT">
<line cb-classname="GraphicLineEntity" class="signalline" id="1tOs" x1="3270" x2="3290" y1="1310" y2="1310"/>
<polygon cb-classname="GraphicPolygonEntity" class="signal" id="1tOA" points="3290,1310 3279,1306 3279,1314"/>
<g cb-classname="DynamicText" cb-source="YA-ZJY-gHrB" class="signal" id="1tOD" text-anchor="end">
<text baseline-shift="5%" cb-classname="GraphicTextEntity" class="signal" fill="black" font-style="normal" font-weight="normal" id="1tO2" text-anchor="end" text-decoration="normal" x="3275" y="1306"/>
</g>
</g>
<g cb-classname="ControlPin" cb-pin-name="BZ-7H9-6x3" id="1tOn">
<line cb-classname="GraphicLineEntity" class="signalline" id="1tOc" x1="3270" x2="3290" y1="1330" y2="1330"/>
<polygon cb-classname="GraphicPolygonEntity" class="signal" id="1tOk" points="3290,1330 3279,1326 3279,1334"/>
<g cb-classname="DynamicText" cb-source="Ef-s6x-Z9jL" class="signal" id="1tOe" text-anchor="end">
<text baseline-shift="5%" cb-classname="GraphicTextEntity" class="signal" fill="black" font-style="normal" font-weight="normal" id="1tOg" text-anchor="end" text-decoration="normal" x="3275" y="1326"/>
</g>
</g>
<rect cb-classname="GraphicRectangleEntity" class="algorithm" height="180" id="1tOT" width="100" x="3290" y="1170"/>
<text baseline-shift="-50%" cb-classname="GraphicTextEntity" class="algorithm" font-size="18" id="1tws" text-anchor="middle" x="3340" y="1247">
DIG
</text>
<text baseline-shift="-50%" cb-classname="GraphicTextEntity" class="algorithm" font-size="18" id="1twA" text-anchor="middle" x="3340" y="1273">
COUNT
</text>
<g cb-classname="DynamicText" cb-labeled="true" cb-source="YA-mnX-gXAD" class="algorithm" id="1yCk" text-anchor="start">
<text cb-classname="GraphicTextEntity" class="algorithm" fill="black" font-style="normal" font-weight="normal" id="1yCe" text-anchor="start" text-decoration="normal" x="3290" y="1160"/>
</g>
<g cb-classname="DynamicText" cb-labeled="true" cb-source="BZ-7H9-tscJ" class="algorithm" id="1yCg" text-anchor="start">
<text cb-classname="GraphicTextEntity" class="algorithm" fill="black" font-style="normal" font-weight="normal" id="1yCT" text-anchor="start" text-decoration="normal" x="3290" y="1140"/>
</g>
</g>
<g cb-alg-1d="$1400$cb-alg-fout$" cb-algorithm-id="004" cb-classname="ExternalPointInterface" cb-function-name="OUTPUT" id="1yUn">
<ellipse cb-classname="GraphicEllipseEntity" class="algorithm" cx="4180" cy="1290" id="1yUc" rx="50" ry="50"/>
<rect cb-classname="GraphicRectangleEntity" class="algorithm" height="100" id="1yUk" width="40" x="4230" y="1240"/>
<line cb-classname="GraphicLineEntity" class="algorithm" id="1yUe" x1="4230" x2="4270" y1="1290" y2="1290"/>
<g cb-classname="ControlPin" cb-pin-name="eS-FoF-2g" id="1yUg">
<line cb-classname="GraphicLineEntity" class="signalline" id="1yUT" x1="4100" x2="4130" y1="1290" y2="1290"/>
<polygon cb-classname="GraphicPolygonEntity" class="signal" id="1y8s" points="4130,1290 4119,1284 4119,1295"/>
<g cb-classname="DynamicText" cb-source="BZ-YqN-deBR" class="signal" id="1y8A" text-anchor="end">
<text cb-classname="GraphicTextEntity" class="signal" fill="black" font-style="normal" font-weight="normal" id="1y8D" text-anchor="end" text-decoration="normal" x="4115" y="1287"/>
</g>
</g>
<g cb-classname="PointStatusIndicator" cb-indicator-type="highway" cb-source="jB-D85-7Z" id="1y82" visibility="hidden">
<line cb-classname="GraphicLineEntity" class="algorithmline" id="1y8n" x1="4130" x2="4180" y1="1290" y2="1240"/>
<line cb-classname="GraphicLineEntity" class="algorithmline" id="1y8c" x1="4180" x2="4230" y1="1240" y2="1290"/>
<line cb-classname="GraphicLineEntity" class="algorithmline" id="1y8k" x1="4230" x2="4180" y1="1290" y2="1340"/>
<line cb-classname="GraphicLineEntity" class="algorithmline" id="1y8e" x1="4180" x2="4130" y1="1340" y2="1290"/>
</g>
<g cb-classname="PointStatusIndicator" cb-indicator-type="hardware" cb-source="JP-vdU-Lv" id="1y8g" visibility="hidden">
<line cb-classname="GraphicLineEntity" class="algorithmline" id="1y8T" x1="4230" x2="4130" y1="1240" y2="1240"/>
<line cb-classname="GraphicLineEntity" class="algorithmline" id="14us" x1="4130" x2="4130" y1="1240" y2="1340"/>
<line cb-classname="GraphicLineEntity" class="algorithmline" id="14uA" x1="4130" x2="4230" y1="1340" y2="1340"/>
</g>
<g cb-classname="PointStatusIndicator" cb-indicator-type="alarm" cb-source="YA-mnX-Bh" id="14uD" visibility="visible">
<text cb-classname="GraphicTextEntity" class="algorithm" fill="#000000" font-family="Arial" font-size="20" id="14u2" x="4240" y="1325">
A
</text>
</g>
<g cb-classname="PointStatusIndicator" cb-indicator-type="ingraphic" cb-source="BZ-7H9-6x" id="14un" visibility="hidden">
<text cb-classname="GraphicTextEntity" class="algorithm" fill="#000000" font-family="Arial" font-size="20" id="14uc" x="4240" y="1275">
G
</text>
</g>
<g cb-classname="DynamicText" cb-labeled="false" cb-pin-name="6F" cb-source="jB-D85-7Z" class="algorithm" id="14uk" text-anchor="end">
<text baseline-shift="0%" cb-classname="GraphicTextEntity" class="algorithm" fill="black" font-family="arial" font-size="20" font-style="normal" font-weight="normal" id="14ue" text-anchor="end" text-decoration="normal" x="4105" y="1265"/>
</g>
<g baseline-shift="-100%" cb-anchor-x="4105" cb-anchor-y="1300" cb-classname="PointReferences" cb-max-width="130" cb-originator="false" cb-source="Wb-Xfx-iI" class="signal" id="14ug" text-anchor="end">
<text baseline-shift="-100%" cb-classname="GraphicTextEntity" class="algorithm" id="14uT" text-anchor="end" x="4105" y="1300">
REF: Point not
</text>
<text baseline-shift="-100%" cb-classname="GraphicTextEntity" class="algorithm" id="24u2" text-anchor="end" x="4105" y="1325">
found in
</text>
<text baseline-shift="-100%" cb-classname="GraphicTextEntity" class="algorithm" id="24un" text-anchor="end" x="4105" y="1350">
database
</text>
<text baseline-shift="-100%" cb-classname="GraphicTextEntity" class="algorithm" id="24uc" text-anchor="end" x="4105" y="1375">
(01DL-H01)
</text>
</g>
<g baseline-shift="-50%" cb-anchor-x="4285" cb-anchor-y="1305" cb-classname="PointDescription" cb-content="extended" cb-labeled="false" cb-max-width="240" cb-source="jO-LFc-6h" class="algorithm" id="14rs" text-anchor="start">
<text baseline-shift="-50%" cb-classname="GraphicTextEntity" class="algorithm" id="14rA" text-anchor="start" x="4285" y="1293">
DESC: Point not found in
</text>
<text baseline-shift="-50%" cb-classname="GraphicTextEntity" class="algorithm" id="1A3g" text-anchor="start" x="4285" y="1318">
database (01DL-H01)
</text>
</g>
</g>
<g cb-alg-9Am5="60" cb-alg-A6N="01DL-L01A" cb-alg-HO4b="-250" cb-alg-HO5O="1" cb-alg-qNh="$124$cb-alg-out$" cb-algorithm-id="018" cb-classname="ControlAlgorithm" cb-function-name="LOWMON" cb-modify-id="00000002" id="3zu">
<rect cb-classname="GraphicRectangleEntity" class="algorithm" height="40" id="3zr" width="80" x="2590" y="1950"/>
<line cb-classname="GraphicLineEntity" class="algorithm" id="3ze" x1="2630" x2="2620" y1="1950" y2="1990"/>
<line cb-classname="GraphicLineEntity" class="algorithm" id="3zb" x1="2640" x2="2630" y1="1950" y2="1990"/>
<line cb-classname="GraphicLineEntity" class="algorithm" id="3zO" x1="2650" x2="2650" y1="1960" y2="1980"/>
<line cb-classname="GraphicLineEntity" class="algorithm" id="3zw" x1="2650" x2="2660" y1="1980" y2="1980"/>
<g cb-classname="ControlPin" cb-pin-name="eS-FoF-2g5" id="3z3">
<line cb-classname="GraphicLineEntity" class="signalline" id="3zC" x1="2570" x2="2590" y1="1970" y2="1970"/>
<polygon cb-classname="GraphicPolygonEntity" class="signal" id="3zU" points="2590,1970 2579,1964 2579,1975"/>
<g cb-classname="DynamicText" cb-source="BZ-YqN-deBR" class="signal" id="3z8" text-anchor="end">
<text cb-classname="GraphicTextEntity" class="signal" fill="black" font-style="normal" font-weight="normal" id="3tu" text-anchor="end" text-decoration="normal" x="2575" y="1967"/>
</g>
</g>
<g cb-classname="ControlPin" cb-pin-name="jB-D85-yJX" id="3tr">
<line cb-classname="GraphicLineEntity" class="signalline" id="3te" x1="2670" x2="2690" y1="1970" y2="1970"/>
<g cb-classname="DynamicText" cb-source="Wb-bJD-C1Vy" class="signal" id="3tb" text-anchor="start">
<text cb-classname="GraphicTextEntity" class="signal" fill="black" font-style="normal" font-weight="normal" id="3tO" text-anchor="start" text-decoration="normal" x="2684" y="1967"/>
</g>
<g cb-classname="SignalSegment" id="1yb2">
<g cb-classname="SignalConnection" cb-graphic-line="$1636$" cb-input-pin="$lWDd$" id="1ybe"/>
<line cb-classname="GraphicLineEntity" class="signalline" id="1ybk" stroke="#1e12bf" stroke-dasharray="5,4" x1="2690" x2="3270" y1="1970" y2="1970"/>
</g>
</g>
<g cb-classname="DynamicText" cb-labeled="true" cb-source="CO-1pJ-7IZS" class="algorithm" id="3tU" text-anchor="start">
<text cb-classname="GraphicTextEntity" class="algorithm" fill="black" font-style="normal" font-weight="normal" id="3t8" text-anchor="start" text-decoration="normal" x="2590" y="1930"/>
</g>
</g>
<g cb-alg-4eA0="OFF" cb-alg-Cx69="85" cb-alg-Mh1="$477$cb-alg-out$" cb-alg-Mh5="$330$cb-alg-out$" cb-alg-MhL="$1104$cb-alg-out$" cb-alg-NRU6="2" cb-alg-dbqN="3" cb-alg-lOT2="01DL-L01" cb-algorithm-id="003" cb-classname="ControlAlgorithm" cb-function-name="DIGCOUNT" cb-modify-id="00000001" id="1ben">
<g cb-classname="ControlPin" cb-pin-name="Ef-mlF-1Cl" id="1bec">
<line cb-classname="GraphicLineEntity" class="signalline" id="1bek" x1="3270" x2="3290" y1="1970" y2="1970"/>
<polygon cb-classname="GraphicPolygonEntity" class="signal" id="1bee" points="3290,1970 3279,1966 3279,1974"/>
<g cb-classname="DynamicText" cb-source="jO-M1C-wmSx" class="signal" id="1beg" text-anchor="end">
<text baseline-shift="5%" cb-classname="GraphicTextEntity" class="signal" fill="black" font-style="normal" font-weight="normal" id="1beT" text-anchor="end" text-decoration="normal" x="3275" y="1966"/>
</g>
</g>
<g cb-classname="ControlPin" cb-pin-name="70-9NY-IGK" id="1bbs">
<line cb-classname="GraphicLineEntity" class="signalline" id="1bbA" x1="3390" x2="3410" y1="2010" y2="2010"/>
<g cb-classname="DynamicText" cb-source="eS-dLv-RVX2" class="signal" id="1bbD">
<text baseline-shift="5%" cb-classname="GraphicTextEntity" class="signal" fill="black" font-style="normal" font-weight="normal" id="1bb2" text-decoration="normal" x="3405" y="2001"/>
</g>
</g>
<g cb-classname="ControlPin" cb-pin-name="cJ-Skt-vEdX" id="1bbn">
<line cb-classname="GraphicLineEntity" class="signalline" id="1bbc" x1="3390" x2="3410" y1="2070" y2="2070"/>
<g cb-classname="DynamicText" cb-source="Ia-MAp-xLix" class="signal" id="1bbk">
<text baseline-shift="5%" cb-classname="GraphicTextEntity" class="signal" fill="black" font-style="normal" font-weight="normal" id="1bbe" text-decoration="normal" x="3405" y="2061"/>
</g>
<g cb-classname="SignalSegment" id="14Oe">
<g cb-classname="SignalConnection" cb-graphic-line="$1751$" cb-input-pin="$BZx2$" id="14w2"/>
<line cb-classname="GraphicLineEntity" class="signalline" id="14wA" stroke="#1e12bf" stroke-dasharray="5,4" x1="3410" x2="4100" y1="2070" y2="2070"/>
</g>
</g>
<g cb-classname="ControlPin" cb-pin-name="Ef-mlF-1CR" id="1bbg">
<line cb-classname="GraphicLineEntity" class="signalline" id="1bbT" x1="3270" x2="3290" y1="1990" y2="1990"/>
<polygon cb-classname="GraphicPolygonEntity" class="signal" id="1bOs" points="3290,1990 3279,1986 3279,1994"/>
<g cb-classname="DynamicText" cb-source="jO-M1C-wmSx" class="signal" id="1bOA" text-anchor="end">
<text baseline-shift="5%" cb-classname="GraphicTextEntity" class="signal" fill="black" font-style="normal" font-weight="normal" id="1bOD" text-anchor="end" text-decoration="normal" x="3275" y="1986"/>
</g>
</g>
<g cb-classname="ControlPin" cb-pin-name="70-9NY-JY0" id="1bO2">
<line cb-classname="GraphicLineEntity" class="signalline" id="1bOn" x1="3270" x2="3290" y1="2010" y2="2010"/>
<polygon cb-classname="GraphicPolygonEntity" class="signal" id="1bOc" points="3290,2010 3279,2006 3279,2014"/>
<g cb-classname="DynamicText" cb-source="YA-ZJY-gHrB" class="signal" id="1bOk" text-anchor="end">
<text baseline-shift="5%" cb-classname="GraphicTextEntity" class="signal" fill="black" font-style="normal" font-weight="normal" id="1bOe" text-anchor="end" text-decoration="normal" x="3275" y="2006"/>
</g>
</g>
<g cb-classname="ControlPin" cb-pin-name="BZ-7H9-6xU" id="1bOg">
<line cb-classname="GraphicLineEntity" class="signalline" id="1bOT" x1="3270" x2="3290" y1="2030" y2="2030"/>
<polygon cb-classname="GraphicPolygonEntity" class="signal" id="1bws" points="3290,2030 3279,2026 3279,2034"/>
<g cb-classname="DynamicText" cb-source="Ef-s6x-Z9jL" class="signal" id="1bwA" text-anchor="end">
<text baseline-shift="5%" cb-classname="GraphicTextEntity" class="signal" fill="black" font-style="normal" font-weight="normal" id="1bwD" text-anchor="end" text-decoration="normal" x="3275" y="2026"/>
</g>
</g>
<g cb-classname="ControlPin" cb-pin-name="IT-e6D-6wY" id="1bw2">
<line cb-classname="GraphicLineEntity" class="signalline" id="1bwn" x1="3270" x2="3290" y1="2050" y2="2050"/>
<polygon cb-classname="GraphicPolygonEntity" class="signal" id="1bwc" points="3290,2050 3279,2046 3279,2054"/>
<g cb-classname="DynamicText" cb-source="70-g6w-vNqb" class="signal" id="1bwk" text-anchor="end">
<text baseline-shift="5%" cb-classname="GraphicTextEntity" class="signal" fill="black" font-style="normal" font-weight="normal" id="1bwe" text-anchor="end" text-decoration="normal" x="3275" y="2046"/>
</g>
</g>
<g cb-classname="ControlPin" cb-pin-name="eS-FoF-2gT" id="1bwg">
<line cb-classname="GraphicLineEntity" class="signalline" id="1bwT" x1="3270" x2="3290" y1="2070" y2="2070"/>
<polygon cb-classname="GraphicPolygonEntity" class="signal" id="1b3s" points="3290,2070 3279,2066 3279,2074"/>
<g cb-classname="DynamicText" cb-source="BZ-YqN-deBR" class="signal" id="1b3A" text-anchor="end">
<text baseline-shift="5%" cb-classname="GraphicTextEntity" class="signal" fill="black" font-style="normal" font-weight="normal" id="1b3D" text-anchor="end" text-decoration="normal" x="3275" y="2066"/>
</g>
</g>
<g cb-classname="ControlPin" cb-pin-name="jB-D85-7ZE" id="1b32">
<line cb-classname="GraphicLineEntity" class="signalline" id="1b3n" x1="3270" x2="3290" y1="2090" y2="2090"/>
<polygon cb-classname="GraphicPolygonEntity" class="signal" id="1b3c" points="3290,2090 3279,2086 3279,2094"/>
<g cb-classname="DynamicText" cb-source="IT-47Z-IFRf" class="signal" id="1b3k" text-anchor="end">
<text baseline-shift="5%" cb-classname="GraphicTextEntity" class="signal" fill="black" font-style="normal" font-weight="normal" id="1b3e" text-anchor="end" text-decoration="normal" x="3275" y="2086"/>
</g>
</g>
<g cb-classname="ControlPin" cb-pin-name="JP-vdU-Lvc" id="1b3g">
<line cb-classname="GraphicLineEntity" class="signalline" id="1b3T" x1="3270" x2="3290" y1="2110" y2="2110"/>
<polygon cb-classname="GraphicPolygonEntity" class="signal" id="1bCs" points="3290,2110 3279,2106 3279,2114"/>
<g cb-classname="DynamicText" cb-source="eS-dLv-RVX2" class="signal" id="1bCA" text-anchor="end">
<text baseline-shift="5%" cb-classname="GraphicTextEntity" class="signal" fill="black" font-style="normal" font-weight="normal" id="1bCD" text-anchor="end" text-decoration="normal" x="3275" y="2106"/>
</g>
</g>
<rect cb-classname="GraphicRectangleEntity" class="algorithm" height="180" id="1bC2" width="100" x="3290" y="1950"/>
<text baseline-shift="-50%" cb-classname="GraphicTextEntity" class="algorithm" font-size="18" id="1bCn" text-anchor="middle" x="3340" y="2027">
DIG
</text>
<text baseline-shift="-50%" cb-classname="GraphicTextEntity" class="algorithm" font-size="18" id="1bCc" text-anchor="middle" x="3340" y="2053">
COUNT
</text>
<g cb-classname="DynamicText" cb-labeled="true" cb-source="jB-D85-DiiI" class="algorithm" id="1yUs" text-anchor="start">
<text cb-classname="GraphicTextEntity" class="algorithm" fill="black" font-style="normal" font-weight="normal" id="1yUA" text-anchor="start" text-decoration="normal" x="3290" y="1940"/>
</g>
<g cb-classname="DynamicText" cb-labeled="true" cb-source="Wb-Xfx-VCkp" class="algorithm" id="1yUD" text-anchor="start">
<text cb-classname="GraphicTextEntity" class="algorithm" fill="black" font-style="normal" font-weight="normal" id="1yU2" text-anchor="start" text-decoration="normal" x="3290" y="1920"/>
</g>
</g>
<g cb-alg-ov="$1524$cb-alg-fout$" cb-algorithm-id="005" cb-classname="ExternalPointInterface" cb-function-name="OUTPUT" id="14re">
<ellipse cb-classname="GraphicEllipseEntity" class="algorithm" cx="4180" cy="2070" id="14rg" rx="50" ry="50"/>
<rect cb-classname="GraphicRectangleEntity" class="algorithm" height="100" id="14rT" width="40" x="4230" y="2020"/>
<line cb-classname="GraphicLineEntity" class="algorithm" id="14es" x1="4230" x2="4270" y1="2070" y2="2070"/>
<g cb-classname="ControlPin" cb-pin-name="Wb-Xfx-iI" id="14eA">
<line cb-classname="GraphicLineEntity" class="signalline" id="14eD" x1="4100" x2="4130" y1="2070" y2="2070"/>
<polygon cb-classname="GraphicPolygonEntity" class="signal" id="14e2" points="4130,2070 4119,2064 4119,2075"/>
<g cb-classname="DynamicText" cb-source="JP-HiI-hEQe" class="signal" id="14en" text-anchor="end">
<text cb-classname="GraphicTextEntity" class="signal" fill="black" font-style="normal" font-weight="normal" id="14ec" text-anchor="end" text-decoration="normal" x="4115" y="2067"/>
</g>
</g>
<g cb-classname="PointStatusIndicator" cb-indicator-type="highway" cb-source="CO-1pJ-uR" id="14ek" visibility="hidden">
<line cb-classname="GraphicLineEntity" class="algorithmline" id="14ee" x1="4130" x2="4180" y1="2070" y2="2020"/>
<line cb-classname="GraphicLineEntity" class="algorithmline" id="14eg" x1="4180" x2="4230" y1="2020" y2="2070"/>
<line cb-classname="GraphicLineEntity" class="algorithmline" id="14eT" x1="4230" x2="4180" y1="2070" y2="2120"/>
<line cb-classname="GraphicLineEntity" class="algorithmline" id="14bs" x1="4180" x2="4130" y1="2120" y2="2070"/>
</g>
<g cb-classname="PointStatusIndicator" cb-indicator-type="hardware" cb-source="Ia-6dc-JD" id="14bA" visibility="hidden">
<line cb-classname="GraphicLineEntity" class="algorithmline" id="14bD" x1="4230" x2="4130" y1="2020" y2="2020"/>
<line cb-classname="GraphicLineEntity" class="algorithmline" id="14b2" x1="4130" x2="4130" y1="2020" y2="2120"/>
<line cb-classname="GraphicLineEntity" class="algorithmline" id="14bn" x1="4130" x2="4230" y1="2120" y2="2120"/>
</g>
<g cb-classname="PointStatusIndicator" cb-indicator-type="alarm" cb-source="IT-e6D-6w" id="14bc" visibility="visible">
<text cb-classname="GraphicTextEntity" class="algorithm" fill="#000000" font-family="Arial" font-size="20" id="14bk" x="4240" y="2105">
A
</text>
</g>
<g cb-classname="PointStatusIndicator" cb-indicator-type="ingraphic" cb-source="JP-vdU-Lv" id="14be" visibility="hidden">
<text cb-classname="GraphicTextEntity" class="algorithm" fill="#000000" font-family="Arial" font-size="20" id="14bg" x="4240" y="2055">
G
</text>
</g>
<g cb-classname="DynamicText" cb-labeled="false" cb-pin-name="au" cb-source="CO-1pJ-uR" class="algorithm" id="14bT" text-anchor="end">
<text baseline-shift="0%" cb-classname="GraphicTextEntity" class="algorithm" fill="black" font-family="arial" font-size="20" font-style="normal" font-weight="normal" id="14Os" text-anchor="end" text-decoration="normal" x="4105" y="2045"/>
</g>
<g baseline-shift="-100%" cb-anchor-x="4105" cb-anchor-y="2080" cb-classname="PointReferences" cb-max-width="130" cb-originator="false" cb-source="YA-mnX-Bh" class="signal" id="14OA" text-anchor="end">
<text baseline-shift="-100%" cb-classname="GraphicTextEntity" class="algorithm" id="14OD" text-anchor="end" x="4105" y="2080">
REF: Point not
</text>
<text baseline-shift="-100%" cb-classname="GraphicTextEntity" class="algorithm" id="24uk" text-anchor="end" x="4105" y="2105">
found in
</text>
<text baseline-shift="-100%" cb-classname="GraphicTextEntity" class="algorithm" id="24ue" text-anchor="end" x="4105" y="2130">
database
</text>
<text baseline-shift="-100%" cb-classname="GraphicTextEntity" class="algorithm" id="24ug" text-anchor="end" x="4105" y="2155">
(01DL-L01)
</text>
</g>
<g baseline-shift="-50%" cb-anchor-x="4285" cb-anchor-y="2085" cb-classname="PointDescription" cb-content="extended" cb-labeled="false" cb-max-width="240" cb-source="BZ-7H9-6x" class="algorithm" id="14O2" text-anchor="start">
<text baseline-shift="-50%" cb-classname="GraphicTextEntity" class="algorithm" id="14On" text-anchor="start" x="4285" y="2073">
DESC: Point not found in
</text>
<text baseline-shift="-50%" cb-classname="GraphicTextEntity" class="algorithm" id="1ACs" text-anchor="start" x="4285" y="2098">
database (01DL-L01)
</text>
</g>
</g>
</g>
<g cb-classname="IncludeDocument" cb-modify-time="09/25/2018 01:40:30" cb-objectname="Frame" id="5">
<text cb-classname="GraphicTextEntity" class="frame" font-size="50" id="24Cs" x="3660" y="3146">
Project Title &lt;Edit in FRAME.SVG&gt;
</text>
<g baseline-shift="-50%" cb-classname="DynamicText" cb-source="Ia-9PHb-7f" class="frame" id="24CA">
<text cb-classname="GraphicTextEntity" class="frame" fill="black" font-family="arial" font-size="25" font-style="normal" font-weight="normal" id="24CD" text-decoration="normal" x="4715" y="3325">
12
</text>
</g>
<g baseline-shift="-50%" cb-classname="DynamicText" cb-source="Ef-5GvM-i0" class="frame" id="24C2" text-anchor="middle">
<text cb-classname="GraphicTextEntity" class="frame" fill="black" font-family="arial" font-size="48" font-style="normal" font-weight="normal" id="24Cn" text-anchor="middle" text-decoration="normal" x="4900" y="3320">
12
</text>
</g>
<g baseline-shift="-50%" cb-classname="DynamicText" cb-source="IT-sLGn-6q" class="frame" id="24Cc" text-anchor="middle">
<text cb-classname="GraphicTextEntity" class="frame" fill="black" font-family="arial" font-size="48" font-style="normal" font-weight="normal" id="24Ck" text-anchor="middle" text-decoration="normal" x="5067" y="3324">
3
</text>
</g>
<g cb-classname="DynamicText" cb-source="JP-GvBLk-12Rd2" class="frame" id="24Ce">
<text cb-classname="GraphicTextEntity" class="frame" fill="black" font-family="arial" font-size="48" font-style="normal" font-weight="normal" id="24Cg" text-decoration="normal" x="3660" y="3224">
BOILER DRUM LEVEL LIMITS FOR MFT
</text>
</g>
<g baseline-shift="-50%" cb-classname="DynamicText" cb-source="CO-oByf1-gOrs1p" class="frame" id="24CT" text-anchor="middle">
<text cb-classname="GraphicTextEntity" class="frame" fill="black" font-family="arial" font-size="48" font-style="normal" font-weight="normal" id="24Us" text-anchor="middle" text-decoration="normal" x="5270" y="3324">
014
</text>
</g>
<g baseline-shift="0%" cb-classname="DynamicText" cb-source="YA-sfF2ZNwD" class="frame" id="24UA" text-anchor="middle">
<text cb-classname="GraphicTextEntity" class="frame" fill="black" font-family="arial" font-size="36" font-style="normal" font-weight="normal" id="24UD" text-anchor="middle" text-decoration="normal" x="5270" y="3150">
A
</text>
</g>
<g baseline-shift="0%" cb-classname="DynamicText" cb-source="BZ-eeG1nJyZ-C6Rf" class="frame" id="24U2" text-anchor="middle">
<text cb-classname="GraphicTextEntity" class="frame" fill="black" font-family="arial" font-size="20" font-style="normal" font-weight="normal" id="24Un" text-anchor="middle" text-decoration="normal" x="5270" y="3230">
12/28/2010
</text>
</g>
<g baseline-shift="-50%" cb-classname="DynamicText" cb-source="jB-Up5JDRxD" class="frame" id="24Uc" text-anchor="end">
<text cb-classname="GraphicTextEntity" class="frame" fill="black" font-family="arial" font-size="26" font-style="normal" font-weight="normal" id="24Uk" text-anchor="end" text-decoration="normal" x="4500" y="3420">
Dufek
</text>
</g>
<g baseline-shift="-50%" cb-classname="DynamicText" cb-source="Wb-GAb1xnLs" class="frame" id="24Ue" text-anchor="end">
<text cb-classname="GraphicTextEntity" class="frame" fill="black" font-family="arial" font-size="26" font-style="normal" font-weight="normal" id="24Ug" text-anchor="end" text-decoration="normal" x="5353" y="3420">
Nemec
</text>
</g>
<g cb-classname="GraphicShape" cb-tag="BORDER" id="24UT">
<line cb-classname="GraphicLineEntity" class="frameline" id="248s" x1="40" x2="40" y1="40" y2="3460"/>
<line cb-classname="GraphicLineEntity" class="frameline" id="248A" x1="40" x2="5380" y1="3460" y2="3460"/>
<line cb-classname="GraphicLineEntity" class="frameline" id="248D" x1="5380" x2="5380" y1="3460" y2="40"/>
<line cb-classname="GraphicLineEntity" class="frameline" id="2482" x1="5380" x2="40" y1="40" y2="40"/>
<line cb-classname="GraphicLineEntity" class="frame" id="248n" x1="5430" x2="5440" y1="3510" y2="3510"/>
</g>
<g cb-classname="GraphicShape" cb-tag="TITLE BOX" id="248c">
<line cb-classname="GraphicLineEntity" class="frameline" id="248k" x1="2340" x2="2340" y1="3080" y2="3460"/>
<line cb-classname="GraphicLineEntity" class="frameline" id="248e" x1="2340" x2="5380" y1="3080" y2="3080"/>
<line cb-classname="GraphicLineEntity" class="frameline" id="248g" x1="3650" x2="3650" y1="3460" y2="3080"/>
<line cb-classname="GraphicLineEntity" class="frameline" id="248T" x1="3650" x2="5380" y1="3240" y2="3240"/>
<line cb-classname="GraphicLineEntity" class="frameline" id="2Aus" x1="3650" x2="5380" y1="3390" y2="3390"/>
<line cb-classname="GraphicLineEntity" class="frameline" id="2AuA" x1="3650" x2="5380" y1="3160" y2="3160"/>
<line cb-classname="GraphicLineEntity" class="frameline" id="2AuD" x1="3650" x2="4520" y1="3320" y2="3320"/>
<line cb-classname="GraphicLineEntity" class="frameline" id="2Au2" x1="4520" x2="5380" y1="3290" y2="3290"/>
<line cb-classname="GraphicLineEntity" class="frameline" id="2Aun" x1="4520" x2="5380" y1="3240" y2="3240"/>
<line cb-classname="GraphicLineEntity" class="frameline" id="2Auc" x1="4520" x2="4520" y1="3240" y2="3460"/>
<line cb-classname="GraphicLineEntity" class="frameline" id="2Auk" x1="4810" x2="4810" y1="3240" y2="3390"/>
<line cb-classname="GraphicLineEntity" class="frameline" id="2Aue" x1="4990" x2="4990" y1="3240" y2="3390"/>
<line cb-classname="GraphicLineEntity" class="frameline" id="2Aug" x1="5150" x2="5150" y1="3080" y2="3390"/>
</g>
<g cb-classname="GraphicShape" cb-tag="TEXT LABELS" id="2AuT">
<text baseline-shift="-50%" cb-classname="GraphicTextEntity" class="frame" font-size="25" id="2Ars" text-anchor="middle" x="4890" y="3252">
Drop
</text>
<text baseline-shift="-50%" cb-classname="GraphicTextEntity" class="frame" font-size="25" id="2ArA" text-anchor="middle" x="5075" y="3252">
Task
</text>
<text baseline-shift="-50%" cb-classname="GraphicTextEntity" class="frame" font-size="25" id="2ArD" text-anchor="middle" x="5265" y="3252">
Sheet
</text>
<text cb-classname="GraphicTextEntity" class="frame" font-size="25" id="2Ar2" x="5152" y="3107">
Rev.
</text>
<text cb-classname="GraphicTextEntity" class="frame" font-size="25" id="2Arn" x="3653" y="3418">
Engineer
</text>
<text cb-classname="GraphicTextEntity" class="frame" font-size="25" id="2Arc" x="4528" y="3419">
Approved
</text>
<text cb-classname="GraphicTextEntity" class="frame" font-size="25" id="2Ark" x="5152" y="3187">
Date
</text>
<text baseline-shift="-50%" cb-classname="GraphicTextEntity" class="frame" font-size="25" id="2Are" text-anchor="middle" x="4660" y="3252">
Drawing Number
</text>
<text baseline-shift="-50%" cb-classname="GraphicTextEntity" class="frame" font-size="25" id="2Arg" text-anchor="middle" x="4680" y="3325">
CTL
</text>
</g>
<text baseline-shift="-50%" cb-classname="GraphicTextEntity" class="frame" font-size="48" id="2ArT" text-anchor="middle" x="3000" y="3100">
EMERSON PROCESS MANAGEMENT
</text>
<g baseline-shift="-100%" cb-anchor-x="2360" cb-anchor-y="3140" cb-classname="GroupText" cb-max-width="1260" fill="black" id="2Aes">
<text baseline-shift="-100%" cb-classname="GraphicTextEntity" class="frame" fill="black" font-family="arial" font-size="22" font-weight="normal" id="2AeA" text-anchor="start" text-decoration="normal" x="2360" y="3140">
THIS DOCUMENT CONTAINS INFORMATION PROPRIETARY TO EMERSON PROCESS
</text>
<text baseline-shift="-100%" cb-classname="GraphicTextEntity" class="frame" fill="black" font-family="arial" font-size="22" font-weight="normal" id="2AeD" text-anchor="start" text-decoration="normal" x="2360" y="3176">
MANAGEMENT POWER &amp; WATER SOLUTIONS, INC. IT IS SUBMITTED IN CONFIDENCE AND
</text>
<text baseline-shift="-100%" cb-classname="GraphicTextEntity" class="frame" fill="black" font-family="arial" font-size="22" font-weight="normal" id="2Ae2" text-anchor="start" text-decoration="normal" x="2360" y="3212">
TRUST, IS TO BE USED BY YOU SOLELY FOR THE PURPOSES FOR WHICH IT IS
</text>
<text baseline-shift="-100%" cb-classname="GraphicTextEntity" class="frame" fill="black" font-family="arial" font-size="22" font-weight="normal" id="2Aen" text-anchor="start" text-decoration="normal" x="2360" y="3248">
FURNISHED AND IS TO BE RETURNED UPON REQUEST. THIS DOCUMENT AND ANY
</text>
<text baseline-shift="-100%" cb-classname="GraphicTextEntity" class="frame" fill="black" font-family="arial" font-size="22" font-weight="normal" id="2Aec" text-anchor="start" text-decoration="normal" x="2360" y="3284">
OTHER INFORMATION PROVIDED TO YOU IS NOT TO BE REPRODUCED, TRANSMITTED,
</text>
<text baseline-shift="-100%" cb-classname="GraphicTextEntity" class="frame" fill="black" font-family="arial" font-size="22" font-weight="normal" id="2Aek" text-anchor="start" text-decoration="normal" x="2360" y="3320">
DISCLOSED, OR USED OTHERWISE IN WHOLE OR IN PART WITHOUT THE PRIOR
</text>
<text baseline-shift="-100%" cb-classname="GraphicTextEntity" class="frame" fill="black" font-family="arial" font-size="22" font-weight="normal" id="2Aee" text-anchor="start" text-decoration="normal" x="2360" y="3356">
WRITTEN AUTHORIZATION OF EMERSON PROCESS MANAGEMENT POWER &amp; WATER
</text>
<text baseline-shift="-100%" cb-classname="GraphicTextEntity" class="frame" fill="black" font-family="arial" font-size="22" font-weight="normal" id="2Aeg" text-anchor="start" text-decoration="normal" x="2360" y="3392">
SOLUTIONS,INC.
</text>
</g>
</g>
</svg>