<?xml version="1.0" ?><svg cb-auto-time="06/15/2008 14:12:39" cb-classname="ControlFunction" cb-create-time="03/12/2008" cb-drop-id="13" cb-engineer="Heczko" cb-filename="Z:\OVATION\NET0\UNIT0\CONTROLFUNCTIONS\01A5.svg" cb-function-id="01A5" cb-key="111111111111" cb-modified-timestamp="1489320076" cb-modify-id="00000003" cb-ortho-mode="enabled" cb-path="Z:/OVATION/NET0/UNIT0/CONTROLFUNCTIONS" cb-reviewer="Nemec" cb-revision="A" cb-revision-time="12/28/2010" cb-sheet-number="132" cb-sheet-title="BFPT EXHAUST DRN VLV - B0201D12" cb-snap-grid="10" cb-task-id="4" height="3707" id="1" width="5450" xmlns="http://www.w3.org/2000/svg">
<style cb-classname="EntityStyle" id="2" type="text/css">
	.algorithm { fill: white; stroke: black; stroke-linecap: round; stroke-width: 2 }
	.algorithm-function { fill: none; stroke: black; stroke-linecap: round; stroke-width: 2 }
	.algorithm-functionline { fill: none; stroke: black; stroke-linecap: round; stroke-width: 2 }
	.algorithm-name { fill: none; stroke: black; stroke-linecap: round; stroke-width: 2 }
	.algorithm-nameline { fill: none; stroke: black; stroke-linecap: round; stroke-width: 2 }
	.algorithm-sequence { fill: none; stroke: black; stroke-linecap: round; stroke-width: 2 }
	.algorithm-sequenceline { fill: none; stroke: black; stroke-linecap: round; stroke-width: 2 }
	.algorithmline { fill: none; stroke: black; stroke-linecap: round; stroke-width: 2 }
	.annotation { fill: none; stroke: black; stroke-linecap: round; stroke-width: 2 }
	.annotationline { fill: none; stroke: black; stroke-linecap: round; stroke-width: 2 }
	.frame { fill: none; stroke: black; stroke-linecap: round; stroke-width: 2 }
	.frameline { fill: none; stroke: black; stroke-linecap: round; stroke-width: 2 }
	.signal { fill: black; stroke: black; stroke-linecap: round; stroke-width: 2 }
	.signalline { fill: none; stroke: black; stroke-linecap: round; stroke-width: 2 }
	text.algorithm { fill: black; font-family: MS Shell Dlg 2; font-size: 14; stroke: none }
	text.algorithm-function { fill: black; font-family: MS Shell Dlg 2; font-size: 16; stroke: none }
	text.algorithm-name { fill: black; font-family: MS Shell Dlg 2; font-size: 16; stroke: none }
	text.algorithm-sequence { fill: black; font-family: MS Shell Dlg 2; font-size: 16; stroke: none }
	text.annotation { fill: black; font-family: MS Shell Dlg 2; font-size: 16; stroke: none }
	text.frame { fill: black; font-family: MS Shell Dlg 2; font-size: 16; stroke: none }
	text.signal { fill: black; font-family: MS Shell Dlg 2; font-size: 12; stroke: none }
</style>
<g cb-classname="NamedObject" cb-objectname="Comments" id="3">
<text cb-classname="GraphicTextEntity" class="annotation" fill="#000000" font-family="MS Shell Dlg 2" font-size="72" id="7YF" x="2760" y="1380">
PCMS1
</text>
</g>
<g cb-classname="AlgorithmContainer" cb-objectname="Algorithms" id="4">
<g cb-alg-ap3="01B0201D12-KB" cb-alg-d17U="128" cb-alg-lH5U="5" cb-algorithm-id="002" cb-classname="ControlAlgorithm" cb-function-name="KEYBOARD" cb-modify-id="00000001" id="6Z">
<rect cb-classname="GraphicRectangleEntity" class="annotation" height="200" id="6R" stroke-width="1" width="140" x="1410" y="410"/>
<g cb-classname="ControlPin" cb-pin-name="gz-jOM-dCze" id="6J">
<line cb-classname="GraphicLineEntity" class="signalline" id="6B" x1="1550" x2="1560" y1="420" y2="420"/>
<g cb-classname="DynamicText" cb-source="3k-xak-qcft" class="signal" id="63" text-anchor="start">
<text cb-classname="GraphicTextEntity" class="signal" fill="black" font-style="normal" font-weight="normal" id="7I" text-anchor="start" text-decoration="normal" x="1564" y="417"/>
</g>
<g cb-classname="SignalSegment" id="7M">
<line cb-classname="GraphicLineEntity" class="signalline" id="7Q" stroke="#1e12bf" stroke-dasharray="5,4" x1="1560" x2="2330" y1="420" y2="420"/>
<g cb-classname="SignalSegment" id="7U">
<line cb-classname="GraphicLineEntity" class="signalline" id="7Y" stroke="#1e12bf" stroke-dasharray="5,4" x1="2330" x2="2330" y1="420" y2="490"/>
<g cb-classname="SignalSegment" id="7Z">
<line cb-classname="GraphicLineEntity" class="signalline" id="7R" stroke="#1e12bf" stroke-dasharray="5,4" x1="2330" x2="2500" y1="490" y2="490"/>
<g cb-classname="SignalConnection" cb-graphic-line="$76$" cb-input-pin="$7eF$" id="7J"/>
</g>
</g>
</g>
</g>
<g cb-classname="ControlPin" cb-pin-name="cT-J7i-ixdx" id="7B">
<line cb-classname="GraphicLineEntity" class="signalline" id="73" x1="1550" x2="1560" y1="440" y2="440"/>
<g cb-classname="DynamicText" cb-source="gz-Olz-kfRE" class="signal" id="8I" text-anchor="start">
<text cb-classname="GraphicTextEntity" class="signal" fill="black" font-style="normal" font-weight="normal" id="8M" text-anchor="start" text-decoration="normal" x="1564" y="437"/>
</g>
<g cb-classname="SignalSegment" id="8Q">
<line cb-classname="GraphicLineEntity" class="signalline" id="8U" stroke="#1e12bf" stroke-dasharray="5,4" x1="1560" x2="2310" y1="440" y2="440"/>
<g cb-classname="SignalSegment" id="8Y">
<line cb-classname="GraphicLineEntity" class="signalline" id="8Z" stroke="#1e12bf" stroke-dasharray="5,4" x1="2310" x2="2310" y1="440" y2="530"/>
<g cb-classname="SignalSegment" id="8R">
<line cb-classname="GraphicLineEntity" class="signalline" id="8J" stroke="#1e12bf" stroke-dasharray="5,4" x1="2310" x2="2500" y1="530" y2="530"/>
<g cb-classname="SignalConnection" cb-graphic-line="$87$" cb-input-pin="$aax$" id="8B"/>
</g>
</g>
</g>
</g>
<g cb-classname="ControlPin" cb-pin-name="sn-gPJ-ru8d" id="83">
<line cb-classname="GraphicLineEntity" class="signalline" id="9I" x1="1550" x2="1560" y1="460" y2="460"/>
<g cb-classname="DynamicText" cb-source="cT-7sT-zRxN" class="signal" id="9M" text-anchor="start">
<text cb-classname="GraphicTextEntity" class="signal" fill="black" font-style="normal" font-weight="normal" id="9Q" text-anchor="start" text-decoration="normal" x="1564" y="457"/>
</g>
</g>
<g cb-classname="ControlPin" cb-pin-name="M8-cDX-PU5" id="1IG">
<line cb-classname="GraphicLineEntity" class="signalline" id="1IF" x1="1550" x2="1560" y1="480" y2="480"/>
<g cb-classname="DynamicText" cb-source="sn-P6n-5iUh" class="signal" id="1Iw" text-anchor="start">
<text cb-classname="GraphicTextEntity" class="signal" fill="black" font-style="normal" font-weight="normal" id="1Ir" text-anchor="start" text-decoration="normal" x="1564" y="477"/>
</g>
</g>
<g cb-classname="ControlPin" cb-pin-name="ie-fCp-PEC" id="1MF">
<line cb-classname="GraphicLineEntity" class="signalline" id="1Mw" x1="1550" x2="1560" y1="510" y2="510"/>
<g cb-classname="DynamicText" cb-source="M8-Dj8-nU9B" class="signal" id="1Mr" text-anchor="start">
<text cb-classname="GraphicTextEntity" class="signal" fill="black" font-style="normal" font-weight="normal" id="1M4" text-anchor="start" text-decoration="normal" x="1564" y="507"/>
</g>
<g cb-classname="SignalSegment" id="1Mb">
<line cb-classname="GraphicLineEntity" class="signalline" id="1MC" stroke="#1e12bf" stroke-dasharray="5,4" x1="1560" x2="2210" y1="510" y2="510"/>
<g cb-classname="SignalSegment" id="1MO">
<line cb-classname="GraphicLineEntity" class="signalline" id="1Mn" stroke="#1e12bf" stroke-dasharray="5,4" x1="2210" x2="2210" y1="510" y2="650"/>
<g cb-classname="SignalSegment" id="1MU">
<line cb-classname="GraphicLineEntity" class="signalline" id="1QG" stroke="#1e12bf" stroke-dasharray="5,4" x1="2210" x2="2500" y1="650" y2="650"/>
<g cb-classname="SignalConnection" cb-graphic-line="$120$" cb-input-pin="$Y0g$" id="1QF"/>
</g>
</g>
</g>
</g>
<g cb-classname="ControlPin" cb-pin-name="Ut-R6m-DNw" id="1Qw">
<line cb-classname="GraphicLineEntity" class="signalline" id="1Qr" x1="1550" x2="1560" y1="530" y2="530"/>
<g cb-classname="DynamicText" cb-source="ie-CJe-89PH" class="signal" id="1Q4" text-anchor="start">
<text cb-classname="GraphicTextEntity" class="signal" fill="black" font-style="normal" font-weight="normal" id="1Qb" text-anchor="start" text-decoration="normal" x="1564" y="527"/>
</g>
<g cb-classname="SignalSegment" id="1QC">
<line cb-classname="GraphicLineEntity" class="signalline" id="1QO" stroke="#1e12bf" stroke-dasharray="5,4" x1="1560" x2="2170" y1="530" y2="530"/>
<g cb-classname="SignalSegment" id="1Qn">
<line cb-classname="GraphicLineEntity" class="signalline" id="1QU" stroke="#1e12bf" stroke-dasharray="5,4" x1="2170" x2="2170" y1="530" y2="690"/>
<g cb-classname="SignalSegment" id="1UG">
<line cb-classname="GraphicLineEntity" class="signalline" id="1UF" stroke="#1e12bf" stroke-dasharray="5,4" x1="2170" x2="2500" y1="690" y2="690"/>
<g cb-classname="SignalConnection" cb-graphic-line="$131$" cb-input-pin="$Yml$" id="1Uw"/>
</g>
</g>
</g>
</g>
<g cb-classname="ControlPin" cb-pin-name="9E-xjF-CbX" id="1Ur">
<line cb-classname="GraphicLineEntity" class="signalline" id="1U4" x1="1550" x2="1560" y1="550" y2="550"/>
<g cb-classname="DynamicText" cb-source="Ut-6Xt-ePDq" class="signal" id="1Ub" text-anchor="start">
<text cb-classname="GraphicTextEntity" class="signal" fill="black" font-style="normal" font-weight="normal" id="1UC" text-anchor="start" text-decoration="normal" x="1564" y="547"/>
</g>
</g>
<g cb-classname="ControlPin" cb-pin-name="ie-fCp-PE4" id="1UO">
<line cb-classname="GraphicLineEntity" class="signalline" id="1Un" x1="1550" x2="1560" y1="570" y2="570"/>
<g cb-classname="DynamicText" cb-source="M8-Dj8-nU9B" class="signal" id="1UU" text-anchor="start">
<text cb-classname="GraphicTextEntity" class="signal" fill="black" font-style="normal" font-weight="normal" id="1YG" text-anchor="start" text-decoration="normal" x="1564" y="567"/>
</g>
</g>
<text cb-classname="GraphicTextEntity" class="annotation" fill="#000000" font-family="MS Shell Dlg 2" font-size="8" id="1YF" x="1450" y="500">
KEYBOARD
</text>
<g cb-classname="DynamicText" cb-labeled="false" cb-source="sn-gPJ-rU6" class="algorithm" id="1Qbr" text-anchor="start">
<text cb-classname="GraphicTextEntity" class="algorithm" fill="black" font-style="normal" font-weight="normal" id="1QC0" text-anchor="start" text-decoration="normal" x="1410" y="390"/>
</g>
<g cb-classname="ControlPin" cb-pin-name="1H-Dfa-gkZ" id="1BCj">
<line cb-classname="GraphicLineEntity" class="signalline" id="1BCh" x1="1550" x2="1560" y1="590" y2="590"/>
<g cb-classname="DynamicText" cb-source="FB-cxB-hr3n" class="signal" id="1BCr" text-anchor="start">
<text cb-classname="GraphicTextEntity" class="signal" fill="black" font-style="normal" font-weight="normal" id="1BO0" text-anchor="start" text-decoration="normal" x="1564" y="587"/>
</g>
<g cb-classname="SignalSegment" id="1BOs">
<line cb-classname="GraphicLineEntity" class="signalline" id="1BO2" stroke="#1e12bf" stroke-dasharray="5,4" x1="1560" x2="2130" y1="590" y2="590"/>
<g cb-classname="SignalSegment" id="1BOi">
<line cb-classname="GraphicLineEntity" class="signalline" id="1BOY" stroke="#1e12bf" stroke-dasharray="5,4" x1="2130" x2="2130" y1="590" y2="730"/>
<g cb-classname="SignalSegment" id="1BOT">
<line cb-classname="GraphicLineEntity" class="signalline" id="1BOf" stroke="#1e12bf" stroke-dasharray="5,4" x1="2130" x2="2510" y1="730" y2="730"/>
<g cb-classname="SignalConnection" cb-graphic-line="$1876$" cb-input-pin="$pT97$" id="1BOj"/>
</g>
</g>
</g>
</g>
</g>
<g cb-alg-djg7="69" cb-alg-vPcu="0" cb-algorithm-id="006" cb-classname="ControlAlgorithm" cb-function-name="DVALGEN" cb-modify-id="00000001" id="2QG">
<rect cb-classname="GraphicRectangleEntity" class="algorithm" height="100" id="2QF" width="140" x="1410" y="1240"/>
<text baseline-shift="-50%" cb-classname="GraphicTextEntity" class="algorithm" fill="#000000" font-family="MS Shell Dlg" font-size="18" id="2Qw" text-anchor="middle" x="1480" y="1290">
DVALGEN
</text>
<g cb-classname="ControlPin" cb-pin-name="gz-jOM-duT" id="2Qr">
<line cb-classname="GraphicLineEntity" class="signalline" id="2Q4" x1="1550" x2="1570" y1="1290" y2="1290"/>
<g cb-classname="DynamicText" cb-source="3k-xak-qcft" class="signal" id="2Qb" text-anchor="start">
<text cb-classname="GraphicTextEntity" class="signal" fill="black" font-style="normal" font-weight="normal" id="2QC" text-anchor="start" text-decoration="normal" x="1564" y="1287"/>
</g>
<g cb-classname="SignalSegment" id="2QO">
<line cb-classname="GraphicLineEntity" class="signalline" id="2Qn" stroke="#1e12bf" stroke-dasharray="5,4" x1="1570" x2="2340" y1="1290" y2="1290"/>
<g cb-classname="SignalSegment" id="2QU">
<line cb-classname="GraphicLineEntity" class="signalline" id="2UG" stroke="#1e12bf" stroke-dasharray="5,4" x1="2340" x2="2340" y1="1290" y2="1340"/>
<g cb-classname="SignalSegment" id="2UF">
<line cb-classname="GraphicLineEntity" class="signalline" id="2Uw" stroke="#1e12bf" stroke-dasharray="5,4" x1="2340" x2="2500" y1="1340" y2="1340"/>
<g cb-classname="SignalConnection" cb-graphic-line="$232$" cb-input-pin="$YJF$" id="2Ur"/>
<line cb-classname="GraphicLineEntity" class="signalline" id="1UUh" stroke="#1e12bf" stroke-dasharray="5,4" x1="2340" x2="2340" y1="1340" y2="1840"/>
<g cb-classname="SignalSegment" id="1UUr">
<line cb-classname="GraphicLineEntity" class="signalline" id="1YG0" stroke="#1e12bf" stroke-dasharray="5,4" x1="2340" x2="2500" y1="1840" y2="1840"/>
<g cb-classname="SignalConnection" cb-graphic-line="$1400$" cb-input-pin="$Y8x$" id="1YGs"/>
</g>
<ellipse cb-classname="GraphicEllipseEntity" class="signal" cx="2340" cy="1340" fill="#1e12bf" id="1YG2" rx="5" ry="5" stroke="#1e12bf" stroke-dasharray="5,4"/>
</g>
<g cb-classname="SignalConnection" cb-graphic-line="$235$" cb-input-pin="$Yrs$" id="2U4"/>
<line cb-classname="GraphicLineEntity" class="signalline" id="2Ub" stroke="#1e12bf" stroke-dasharray="5,4" x1="2340" x2="2500" y1="1290" y2="1290"/>
<ellipse cb-classname="GraphicEllipseEntity" class="signal" cx="2340" cy="1290" fill="#1e12bf" id="2UC" rx="5" ry="5" stroke="#1e12bf" stroke-dasharray="5,4"/>
<line cb-classname="GraphicLineEntity" class="signalline" id="1QFh" stroke="#1e12bf" stroke-dasharray="5,4" x1="2340" x2="2340" y1="1290" y2="1070"/>
<g cb-classname="SignalSegment" id="1QFr">
<line cb-classname="GraphicLineEntity" class="signalline" id="1Qw0" stroke="#1e12bf" stroke-dasharray="5,4" x1="2340" x2="2500" y1="1070" y2="1070"/>
<g cb-classname="SignalConnection" cb-graphic-line="$1220$" cb-input-pin="$YwR$" id="1Qws"/>
</g>
</g>
</g>
</g>
<g cb-classname="DynamicText" cb-labeled="true" cb-source="ie-fCp-A9gu" class="algorithm" id="1QbT" text-anchor="start">
<text cb-classname="GraphicTextEntity" class="algorithm" fill="black" font-style="normal" font-weight="normal" id="1Qbf" text-anchor="start" text-decoration="normal" x="1440" y="1230"/>
</g>
</g>
<g cb-alg-osj1="69" cb-alg-vOJu="1" cb-algorithm-id="007" cb-classname="ControlAlgorithm" cb-function-name="DVALGEN" cb-modify-id="00000001" id="2UO">
<rect cb-classname="GraphicRectangleEntity" class="algorithm" height="100" id="2Un" width="140" x="1410" y="1450"/>
<text baseline-shift="-50%" cb-classname="GraphicTextEntity" class="algorithm" fill="#000000" font-family="MS Shell Dlg" font-size="18" id="2UU" text-anchor="middle" x="1480" y="1500">
DVALGEN
</text>
<g cb-classname="ControlPin" cb-pin-name="rq-CRl-duk" id="2YG">
<line cb-classname="GraphicLineEntity" class="signalline" id="2YF" x1="1550" x2="1570" y1="1500" y2="1500"/>
<g cb-classname="DynamicText" cb-source="1H-fOH-B3g8" class="signal" id="2Yw" text-anchor="start">
<text cb-classname="GraphicTextEntity" class="signal" fill="black" font-style="normal" font-weight="normal" id="2Yr" text-anchor="start" text-decoration="normal" x="1564" y="1497"/>
</g>
<g cb-classname="SignalSegment" id="2Y4">
<line cb-classname="GraphicLineEntity" class="signalline" id="2Yb" stroke="#1e12bf" stroke-dasharray="5,4" x1="1570" x2="2370" y1="1500" y2="1500"/>
<g cb-classname="SignalSegment" id="2YC">
<line cb-classname="GraphicLineEntity" class="signalline" id="2YO" stroke="#1e12bf" stroke-dasharray="5,4" x1="2370" x2="2370" y1="1500" y2="1550"/>
<g cb-classname="SignalSegment" id="2Yn">
<line cb-classname="GraphicLineEntity" class="signalline" id="2YU" stroke="#1e12bf" stroke-dasharray="5,4" x1="2370" x2="2500" y1="1550" y2="1550"/>
<g cb-classname="SignalConnection" cb-graphic-line="$249$" cb-input-pin="$4YP$" id="2ZG"/>
</g>
<line cb-classname="GraphicLineEntity" class="signalline" id="2ZF" stroke="#1e12bf" stroke-dasharray="5,4" x1="2370" x2="2500" y1="1500" y2="1500"/>
<g cb-classname="SignalConnection" cb-graphic-line="$251$" cb-input-pin="$4YX$" id="2Zw"/>
<ellipse cb-classname="GraphicEllipseEntity" class="signal" cx="2370" cy="1500" fill="#1e12bf" id="2Zr" rx="5" ry="5" stroke="#1e12bf" stroke-dasharray="5,4"/>
</g>
</g>
</g>
<g cb-classname="DynamicText" cb-labeled="true" cb-source="M8-cDX-yU3u" class="algorithm" id="1Qbj" text-anchor="start">
<text cb-classname="GraphicTextEntity" class="algorithm" fill="black" font-style="normal" font-weight="normal" id="1Qbh" text-anchor="start" text-decoration="normal" x="1440" y="1440"/>
</g>
</g>
<g cb-alg-LMsi="NO" cb-alg-Lu8="01B0201D12-EPO" cb-algorithm-id="009" cb-classname="ExternalPointInterface" cb-function-name="INPUT" id="2Bn">
<ellipse cb-classname="GraphicEllipseEntity" class="algorithm" cx="620" cy="1820" id="2BU" rx="50" ry="50"/>
<rect cb-classname="GraphicRectangleEntity" class="algorithm" height="100" id="23G" width="40" x="530" y="1770"/>
<line cb-classname="GraphicLineEntity" class="algorithm" id="23F" x1="530" x2="570" y1="1820" y2="1820"/>
<g cb-classname="ControlPin" cb-pin-name="rq-CRl-duk" id="23w">
<line cb-classname="GraphicLineEntity" class="signalline" id="23r" x1="670" x2="700" y1="1820" y2="1820"/>
<g cb-classname="DynamicText" cb-source="1H-fOH-B3g8" class="signal" id="234" text-anchor="start">
<text cb-classname="GraphicTextEntity" class="signal" fill="black" font-style="normal" font-weight="normal" id="23b" text-anchor="start" text-decoration="normal" x="684" y="1817"/>
</g>
<g cb-classname="SignalSegment" id="23C">
<line cb-classname="GraphicLineEntity" class="signalline" id="23O" stroke="#1e12bf" stroke-dasharray="5,4" x1="700" x2="2020" y1="1820" y2="1820"/>
<g cb-classname="SignalSegment" id="23n">
<line cb-classname="GraphicLineEntity" class="signalline" id="23U" stroke="#1e12bf" stroke-dasharray="5,4" x1="2020" x2="2020" y1="1820" y2="1880"/>
<g cb-classname="SignalSegment" id="3IG">
<line cb-classname="GraphicLineEntity" class="signalline" id="3IF" stroke="#1e12bf" stroke-dasharray="5,4" x1="2020" x2="2510" y1="1880" y2="1880"/>
<g cb-classname="SignalConnection" cb-graphic-line="$301$" cb-input-pin="$4zP$" id="3Iw"/>
</g>
</g>
</g>
</g>
<g cb-classname="PointStatusIndicator" cb-indicator-type="Highway" cb-source="3k-6xs-Vuz" id="3Ir" visibility="hidden">
<line cb-classname="GraphicLineEntity" class="algorithmline" id="3I4" x1="570" x2="620" y1="1820" y2="1770"/>
<line cb-classname="GraphicLineEntity" class="algorithmline" id="3Ib" x1="620" x2="670" y1="1770" y2="1820"/>
<line cb-classname="GraphicLineEntity" class="algorithmline" id="3IC" x1="670" x2="620" y1="1820" y2="1870"/>
<line cb-classname="GraphicLineEntity" class="algorithmline" id="3IO" x1="620" x2="570" y1="1870" y2="1820"/>
</g>
<g cb-classname="PointStatusIndicator" cb-indicator-type="hardware" cb-source="M8-cDX-oue" id="3In" visibility="visible">
<line cb-classname="GraphicLineEntity" class="algorithmline" id="3IU" x1="570" x2="670" y1="1770" y2="1770"/>
<line cb-classname="GraphicLineEntity" class="algorithmline" id="3MG" x1="670" x2="670" y1="1770" y2="1870"/>
<line cb-classname="GraphicLineEntity" class="algorithmline" id="3MF" x1="670" x2="570" y1="1870" y2="1870"/>
</g>
<g cb-classname="PointStatusIndicator" cb-indicator-type="alarm" cb-source="cT-J7i-VuZ" id="3Mw" visibility="hidden">
<text cb-classname="GraphicTextEntity" class="algorithm" fill="#000000" font-family="arial" font-size="20" id="3Mr" x="540" y="1805">
A
</text>
</g>
<g cb-classname="PointStatusIndicator" cb-indicator-type="ingraphic" cb-source="gz-jOM-duT" id="3M4" visibility="visible">
<text cb-classname="GraphicTextEntity" class="algorithm" fill="#000000" font-family="Arial" font-size="20" id="3Mb" x="540" y="1855">
G
</text>
</g>
<g baseline-shift="-50%" cb-anchor-x="520" cb-anchor-y="1834" cb-classname="PointDescription" cb-content="extended" cb-labeled="false" cb-max-width="220" cb-source="3k-6xs-Vuz" class="algorithm" id="3MC" text-anchor="end">
<text baseline-shift="-50%" cb-classname="GraphicTextEntity" class="algorithm" id="3MO" text-anchor="end" x="520" y="1809">
DESC: Point not found in
</text>
<text baseline-shift="-50%" cb-classname="GraphicTextEntity" class="algorithm" id="3IFj" text-anchor="end" x="520" y="1834">
database
</text>
<text baseline-shift="-50%" cb-classname="GraphicTextEntity" class="algorithm" id="3IFh" text-anchor="end" x="520" y="1859">
(01B0201D12-EPO)
</text>
</g>
<g cb-classname="DynamicText" cb-labeled="false" cb-pin-name="fmH" cb-source="rq-CRl-duk" class="algorithm" id="3Mn" text-anchor="start">
<text baseline-shift="0%" cb-classname="GraphicTextEntity" class="algorithm" fill="black" font-family="arial" font-size="20" font-style="normal" font-weight="normal" id="3MU" text-anchor="start" text-decoration="normal" x="690" y="1790"/>
</g>
<g baseline-shift="-100%" cb-anchor-x="690" cb-anchor-y="1830" cb-classname="PointReferences" cb-max-width="230" cb-originator="true" cb-source="1H-Dfa-Vuq" class="signal" id="3QG" text-anchor="start">
<text baseline-shift="-100%" cb-classname="GraphicTextEntity" class="algorithm" id="3QF" text-anchor="start" x="690" y="1830">
REF: Point not found in
</text>
<text baseline-shift="-100%" cb-classname="GraphicTextEntity" class="algorithm" id="3IFr" text-anchor="start" x="690" y="1855">
database
</text>
<text baseline-shift="-100%" cb-classname="GraphicTextEntity" class="algorithm" id="3Iw0" text-anchor="start" x="690" y="1880">
(01B0201D12-EPO)
</text>
</g>
</g>
<g cb-alg-L7Oa="NO" cb-alg-LuN="01B0201D12-EPZ" cb-algorithm-id="00a" cb-classname="ExternalPointInterface" cb-function-name="INPUT" id="3Qw">
<ellipse cb-classname="GraphicEllipseEntity" class="algorithm" cx="620" cy="1970" id="3Qr" rx="50" ry="50"/>
<rect cb-classname="GraphicRectangleEntity" class="algorithm" height="100" id="3Q4" width="40" x="530" y="1920"/>
<line cb-classname="GraphicLineEntity" class="algorithm" id="3Qb" x1="530" x2="570" y1="1970" y2="1970"/>
<g cb-classname="ControlPin" cb-pin-name="PN-OJ1-oub" id="3QC">
<line cb-classname="GraphicLineEntity" class="signalline" id="3QO" x1="670" x2="700" y1="1970" y2="1970"/>
<g cb-classname="DynamicText" cb-source="9E-jpE-tDCk" class="signal" id="3Qn" text-anchor="start">
<text cb-classname="GraphicTextEntity" class="signal" fill="black" font-style="normal" font-weight="normal" id="3QU" text-anchor="start" text-decoration="normal" x="684" y="1967"/>
</g>
<g cb-classname="SignalSegment" id="3UG">
<line cb-classname="GraphicLineEntity" class="signalline" id="3UF" stroke="#1e12bf" stroke-dasharray="5,4" x1="700" x2="2070" y1="1970" y2="1970"/>
<g cb-classname="SignalSegment" id="3Uw">
<line cb-classname="GraphicLineEntity" class="signalline" id="3Ur" stroke="#1e12bf" stroke-dasharray="5,4" x1="2070" x2="2070" y1="1970" y2="1920"/>
<g cb-classname="SignalSegment" id="3U4">
<line cb-classname="GraphicLineEntity" class="signalline" id="3Ub" stroke="#1e12bf" stroke-dasharray="5,4" x1="2070" x2="2490" y1="1920" y2="1920"/>
<g cb-classname="SignalConnection" cb-graphic-line="$335$" cb-input-pin="$416$" id="3UC"/>
</g>
</g>
</g>
</g>
<g cb-classname="PointStatusIndicator" cb-indicator-type="Highway" cb-source="mh-9gO-VuB" id="3UO" visibility="hidden">
<line cb-classname="GraphicLineEntity" class="algorithmline" id="3Un" x1="570" x2="620" y1="1970" y2="1920"/>
<line cb-classname="GraphicLineEntity" class="algorithmline" id="3UU" x1="620" x2="670" y1="1920" y2="1970"/>
<line cb-classname="GraphicLineEntity" class="algorithmline" id="3YG" x1="670" x2="620" y1="1970" y2="2020"/>
<line cb-classname="GraphicLineEntity" class="algorithmline" id="3YF" x1="620" x2="570" y1="2020" y2="1970"/>
</g>
<g cb-classname="PointStatusIndicator" cb-indicator-type="hardware" cb-source="3k-6xs-Vuz" id="3Yw" visibility="visible">
<line cb-classname="GraphicLineEntity" class="algorithmline" id="3Yr" x1="570" x2="670" y1="1920" y2="1920"/>
<line cb-classname="GraphicLineEntity" class="algorithmline" id="3Y4" x1="670" x2="670" y1="1920" y2="2020"/>
<line cb-classname="GraphicLineEntity" class="algorithmline" id="3Yb" x1="670" x2="570" y1="2020" y2="2020"/>
</g>
<g cb-classname="PointStatusIndicator" cb-indicator-type="alarm" cb-source="1H-Dfa-Vuq" id="3YC" visibility="hidden">
<text cb-classname="GraphicTextEntity" class="algorithm" fill="#000000" font-family="arial" font-size="20" id="3YO" x="540" y="1955">
A
</text>
</g>
<g cb-classname="PointStatusIndicator" cb-indicator-type="ingraphic" cb-source="FB-Pc7-duH" id="3Yn" visibility="visible">
<text cb-classname="GraphicTextEntity" class="algorithm" fill="#000000" font-family="Arial" font-size="20" id="3YU" x="540" y="2005">
G
</text>
</g>
<g baseline-shift="-50%" cb-anchor-x="520" cb-anchor-y="1984" cb-classname="PointDescription" cb-content="extended" cb-labeled="false" cb-max-width="220" cb-source="mh-9gO-VuB" class="algorithm" id="3ZG" text-anchor="end">
<text baseline-shift="-50%" cb-classname="GraphicTextEntity" class="algorithm" id="3ZF" text-anchor="end" x="520" y="1959">
DESC: Point not found in
</text>
<text baseline-shift="-50%" cb-classname="GraphicTextEntity" class="algorithm" id="1Bbf" text-anchor="end" x="520" y="1984">
database
</text>
<text baseline-shift="-50%" cb-classname="GraphicTextEntity" class="algorithm" id="3Iws" text-anchor="end" x="520" y="2009">
(01B0201D12-EPZ)
</text>
</g>
<g cb-classname="DynamicText" cb-labeled="false" cb-pin-name="jiE" cb-source="PN-OJ1-oub" class="algorithm" id="3Zw" text-anchor="start">
<text baseline-shift="0%" cb-classname="GraphicTextEntity" class="algorithm" fill="black" font-family="arial" font-size="20" font-style="normal" font-weight="normal" id="3Zr" text-anchor="start" text-decoration="normal" x="690" y="1940"/>
</g>
<g baseline-shift="-100%" cb-anchor-x="690" cb-anchor-y="1980" cb-classname="PointReferences" cb-max-width="230" cb-originator="true" cb-source="9E-xjF-LuN" class="signal" id="3Z4" text-anchor="start">
<text baseline-shift="-100%" cb-classname="GraphicTextEntity" class="algorithm" id="3Zb" text-anchor="start" x="690" y="1980">
REF: Point not found in
</text>
<text baseline-shift="-100%" cb-classname="GraphicTextEntity" class="algorithm" id="3Iw2" text-anchor="start" x="690" y="2005">
database
</text>
<text baseline-shift="-100%" cb-classname="GraphicTextEntity" class="algorithm" id="3Iwi" text-anchor="start" x="690" y="2030">
(01B0201D12-EPZ)
</text>
</g>
</g>
<g cb-alg-VFm1="NO" cb-alg-VuB="01B0201D05-EPZ" cb-algorithm-id="012" cb-classname="ExternalPointInterface" cb-function-name="INPUT" id="6Zr">
<ellipse cb-classname="GraphicEllipseEntity" class="algorithm" cx="630" cy="1030" id="6Z4" rx="50" ry="50"/>
<rect cb-classname="GraphicRectangleEntity" class="algorithm" height="100" id="6Zb" width="40" x="540" y="980"/>
<line cb-classname="GraphicLineEntity" class="algorithm" id="6ZC" x1="540" x2="580" y1="1030" y2="1030"/>
<g cb-classname="ControlPin" cb-pin-name="ie-fCp-Lut" id="6ZO">
<line cb-classname="GraphicLineEntity" class="signalline" id="6Zn" x1="680" x2="710" y1="1030" y2="1030"/>
<g cb-classname="DynamicText" cb-source="M8-Dj8-nU9B" class="signal" id="6ZU" text-anchor="start">
<text cb-classname="GraphicTextEntity" class="signal" fill="black" font-style="normal" font-weight="normal" id="6RG" text-anchor="start" text-decoration="normal" x="694" y="1027"/>
</g>
<g cb-classname="SignalSegment" id="2IU2">
<line cb-classname="GraphicLineEntity" class="signalline" id="2IUj" stroke="#1e12bf" stroke-dasharray="5,4" x1="710" x2="1281" y1="1030" y2="1030"/>
<g cb-classname="SignalSegment" id="2IUh">
<line cb-classname="GraphicLineEntity" class="signalline" id="2IUr" stroke="#1e12bf" stroke-dasharray="5,4" x1="1281" x2="1281" y1="1030" y2="1110"/>
<g cb-classname="SignalSegment" id="2MG0">
<line cb-classname="GraphicLineEntity" class="signalline" id="2MGs" stroke="#1e12bf" stroke-dasharray="5,4" x1="1281" x2="1450" y1="1110" y2="1110"/>
<g cb-classname="SignalConnection" cb-graphic-line="$2101$" cb-input-pin="$QGt7$" id="2MG2"/>
</g>
<line cb-classname="GraphicLineEntity" class="signalline" id="2IUT" stroke="#1e12bf" stroke-dasharray="5,4" x1="1281" x2="2500" y1="1030" y2="1030"/>
<g cb-classname="SignalConnection" cb-graphic-line="$2095$" cb-input-pin="$4lP$" id="2IUf"/>
<ellipse cb-classname="GraphicEllipseEntity" class="signal" cx="1281" cy="1030" fill="#1e12bf" id="2MGi" rx="5" ry="5" stroke="#1e12bf" stroke-dasharray="5,4"/>
</g>
</g>
</g>
<g cb-classname="PointStatusIndicator" cb-indicator-type="Highway" cb-source="sn-gPJ-Lu8" id="6RF" visibility="hidden">
<line cb-classname="GraphicLineEntity" class="algorithmline" id="6Rw" x1="580" x2="630" y1="1030" y2="980"/>
<line cb-classname="GraphicLineEntity" class="algorithmline" id="6Rr" x1="630" x2="680" y1="980" y2="1030"/>
<line cb-classname="GraphicLineEntity" class="algorithmline" id="6R4" x1="680" x2="630" y1="1030" y2="1080"/>
<line cb-classname="GraphicLineEntity" class="algorithmline" id="6Rb" x1="630" x2="580" y1="1080" y2="1030"/>
</g>
<g cb-classname="PointStatusIndicator" cb-indicator-type="hardware" cb-source="9E-xjF-LuN" id="6RC" visibility="visible">
<line cb-classname="GraphicLineEntity" class="algorithmline" id="6RO" x1="580" x2="680" y1="980" y2="980"/>
<line cb-classname="GraphicLineEntity" class="algorithmline" id="6Rn" x1="680" x2="680" y1="980" y2="1080"/>
<line cb-classname="GraphicLineEntity" class="algorithmline" id="6RU" x1="680" x2="580" y1="1080" y2="1080"/>
</g>
<g cb-classname="PointStatusIndicator" cb-indicator-type="alarm" cb-source="ie-fCp-Lut" id="6JG" visibility="hidden">
<text cb-classname="GraphicTextEntity" class="algorithm" fill="#000000" font-family="arial" font-size="20" id="6JF" x="550" y="1015">
A
</text>
</g>
<g cb-classname="PointStatusIndicator" cb-indicator-type="ingraphic" cb-source="M8-cDX-oue" id="6Jw" visibility="visible">
<text cb-classname="GraphicTextEntity" class="algorithm" fill="#000000" font-family="Arial" font-size="20" id="6Jr" x="550" y="1065">
G
</text>
</g>
<g baseline-shift="-50%" cb-anchor-x="530" cb-anchor-y="1044" cb-classname="PointDescription" cb-content="extended" cb-labeled="false" cb-max-width="220" cb-source="sn-gPJ-Lu8" class="algorithm" id="6J4" text-anchor="end">
<text baseline-shift="-50%" cb-classname="GraphicTextEntity" class="algorithm" id="6Jb" text-anchor="end" x="530" y="1019">
DESC: Point not found in
</text>
<text baseline-shift="-50%" cb-classname="GraphicTextEntity" class="algorithm" id="1Bbj" text-anchor="end" x="530" y="1044">
database
</text>
<text baseline-shift="-50%" cb-classname="GraphicTextEntity" class="algorithm" id="3IwY" text-anchor="end" x="530" y="1069">
(01B0201D05-EPZ)
</text>
</g>
<g cb-classname="DynamicText" cb-labeled="false" cb-pin-name="Orz" cb-source="cT-J7i-VuZ" class="algorithm" id="6JC" text-anchor="start">
<text baseline-shift="0%" cb-classname="GraphicTextEntity" class="algorithm" fill="black" font-family="arial" font-size="20" font-style="normal" font-weight="normal" id="6JO" text-anchor="start" text-decoration="normal" x="700" y="1000"/>
</g>
<g baseline-shift="-100%" cb-anchor-x="700" cb-anchor-y="1040" cb-classname="PointReferences" cb-max-width="230" cb-originator="true" cb-source="gz-jOM-duT" class="signal" id="6Jn" text-anchor="start">
<text baseline-shift="-100%" cb-classname="GraphicTextEntity" class="algorithm" id="6JU" text-anchor="start" x="700" y="1040">
REF: Point not found in
</text>
<text baseline-shift="-100%" cb-classname="GraphicTextEntity" class="algorithm" id="3IwT" text-anchor="start" x="700" y="1065">
database
</text>
<text baseline-shift="-100%" cb-classname="GraphicTextEntity" class="algorithm" id="3Iwf" text-anchor="start" x="700" y="1090">
(01B0201D05-EPZ)
</text>
</g>
</g>
<g cb-alg-ihF="$653$cb-alg-out$" cb-algorithm-id="003" cb-classname="FastBooleanAlgorithm" cb-function-name="NOT" cb-modify-id="00000003" id="2In0">
<rect cb-classname="GraphicRectangleEntity" class="algorithm" height="40" id="2Ins" width="40" x="1470" y="1090"/>
<text baseline-shift="-50%" cb-classname="GraphicTextEntity" class="algorithm" font-size="28" id="2In2" text-anchor="middle" x="1489" y="1102">
N
</text>
<g cb-classname="ControlPin" cb-pin-name="9E-xjF-7qj" id="2Ini">
<line cb-classname="GraphicLineEntity" class="signalline" id="2InY" x1="1450" x2="1470" y1="1110" y2="1110"/>
<polygon cb-classname="GraphicPolygonEntity" class="signal" id="2InT" points="1470,1110 1459,1106 1459,1114"/>
<g cb-classname="DynamicText" cb-source="rq-R7q-Hgce" class="signal" id="2Inf" text-anchor="end">
<text baseline-shift="5%" cb-classname="GraphicTextEntity" class="signal" fill="black" font-style="normal" font-weight="normal" id="2Inj" text-anchor="end" text-decoration="normal" x="1465" y="1102"/>
</g>
</g>
<g cb-classname="ControlPin" cb-pin-name="1H-Dfa-Vuq" id="2Inh">
<line cb-classname="GraphicLineEntity" class="signalline" id="2Inr" x1="1510" x2="1530" y1="1110" y2="1110"/>
<g cb-classname="DynamicText" cb-source="FB-cxB-hr3n" class="signal" id="2IU0">
<text baseline-shift="5%" cb-classname="GraphicTextEntity" class="signal" fill="black" font-style="normal" font-weight="normal" id="2IUs" text-decoration="normal" x="1522" y="1102"/>
</g>
<g cb-classname="SignalSegment" id="2MGY">
<line cb-classname="GraphicLineEntity" class="signalline" id="2MGr" stroke="#1e12bf" stroke-dasharray="5,4" x1="1530" x2="1720" y1="1110" y2="1110"/>
<g cb-classname="SignalSegment" id="2MF0">
<line cb-classname="GraphicLineEntity" class="signalline" id="2MFs" stroke="#1e12bf" stroke-dasharray="5,4" x1="1720" x2="1720" y1="1110" y2="1130"/>
<g cb-classname="SignalSegment" id="2MF2">
<line cb-classname="GraphicLineEntity" class="signalline" id="2MFi" stroke="#1e12bf" stroke-dasharray="5,4" x1="1720" x2="1810" y1="1130" y2="1130"/>
<g cb-classname="SignalConnection" cb-graphic-line="$2113$" cb-input-pin="$DIP$" id="2MFY"/>
</g>
<line cb-classname="GraphicLineEntity" class="signalline" id="2MGj" stroke="#1e12bf" stroke-dasharray="5,4" x1="1720" x2="1810" y1="1110" y2="1110"/>
<g cb-classname="SignalConnection" cb-graphic-line="$2107$" cb-input-pin="$jIw$" id="2MGh"/>
<ellipse cb-classname="GraphicEllipseEntity" class="signal" cx="1720" cy="1110" fill="#1e12bf" id="2MFT" rx="5" ry="5" stroke="#1e12bf" stroke-dasharray="5,4"/>
</g>
</g>
</g>
</g>
<g cb-alg-Hf6E="1.000000" cb-alg-L7Dp="96" cb-alg-TtBf="$2080$cb-alg-out$" cb-alg-XtO="$2080$cb-alg-out$" cb-alg-Zf7p="300" cb-algorithm-id="013" cb-classname="ControlAlgorithm" cb-function-name="ONDELAY" cb-modify-id="00000001" id="63n">
<rect cb-classname="GraphicRectangleEntity" class="algorithm" height="40" id="63U" width="80" x="1830" y="1100"/>
<text baseline-shift="-50%" cb-classname="GraphicTextEntity" class="algorithm" fill="#000000" font-family="MS Shell Dlg" id="7IG" text-anchor="middle" x="1870" y="1107">
TD
</text>
<text baseline-shift="-50%" cb-classname="GraphicTextEntity" class="algorithm" fill="#000000" font-family="MS Shell Dlg" id="7IF" text-anchor="middle" x="1870" y="1123">
ON
</text>
<g cb-classname="ControlPin" cb-pin-name="cT-J7i-pE7" id="7Iw">
<line cb-classname="GraphicLineEntity" class="signalline" id="7Ir" x1="1810" x2="1830" y1="1110" y2="1110"/>
<polygon cb-classname="GraphicPolygonEntity" class="signal" id="7I4" points="1830,1110 1819,1104 1819,1115"/>
<g cb-classname="DynamicText" cb-source="9E-jpE-tDCk" class="signal" id="7Ib" text-anchor="end">
<text cb-classname="GraphicTextEntity" class="signal" fill="black" font-style="normal" font-weight="normal" id="7IC" text-anchor="end" text-decoration="normal" x="1815" y="1107"/>
</g>
</g>
<g cb-classname="ControlPin" cb-pin-name="Ut-R6m-EH5P" id="7IO">
<line cb-classname="GraphicLineEntity" class="signalline" id="7In" x1="1810" x2="1830" y1="1130" y2="1130"/>
<polygon cb-classname="GraphicPolygonEntity" class="signal" id="7IU" points="1830,1130 1819,1124 1819,1135"/>
<g cb-classname="DynamicText" cb-source="1H-fOH-B3g8" class="signal" id="7MG" text-anchor="end">
<text cb-classname="GraphicTextEntity" class="signal" fill="black" font-style="normal" font-weight="normal" id="7MF" text-anchor="end" text-decoration="normal" x="1815" y="1127"/>
</g>
</g>
<g cb-classname="ControlPin" cb-pin-name="FB-Pc7-duH" id="7Mw">
<line cb-classname="GraphicLineEntity" class="signalline" id="7Mr" x1="1910" x2="1930" y1="1120" y2="1120"/>
<g cb-classname="DynamicText" cb-source="mh-gRh-Z1r5" class="signal" id="7M4" text-anchor="start">
<text cb-classname="GraphicTextEntity" class="signal" fill="black" font-style="normal" font-weight="normal" id="7Mb" text-anchor="start" text-decoration="normal" x="1924" y="1117"/>
</g>
<g cb-classname="SignalSegment" id="7Qb">
<line cb-classname="GraphicLineEntity" class="signalline" id="7QC" stroke="#1e12bf" stroke-dasharray="5,4" x1="1930" x2="2500" y1="1120" y2="1120"/>
<g cb-classname="SignalConnection" cb-graphic-line="$726$" cb-input-pin="$YwF$" id="7QO"/>
</g>
</g>
<g cb-classname="DynamicText" cb-labeled="true" cb-source="Ut-R6m-NPj7" class="algorithm" id="1Qbi" text-anchor="start">
<text cb-classname="GraphicTextEntity" class="algorithm" fill="black" font-style="normal" font-weight="normal" id="1QbY" text-anchor="start" text-decoration="normal" x="1830" y="1090"/>
</g>
</g>
<g cb-alg-ACRu="60" cb-alg-dXfl="65" cb-algorithm-id="008" cb-classname="ControlAlgorithm" cb-function-name="AVALGEN" cb-modify-id="00000001" id="1RGj">
<polygon cb-classname="GraphicPolygonEntity" class="algorithm" id="1RGh" points="2040,2000 1980,2060 2040,2120 2100,2060"/>
<line cb-classname="GraphicLineEntity" class="algorithm" id="1RGr" x1="2040" x2="2030" y1="2040" y2="2070"/>
<line cb-classname="GraphicLineEntity" class="algorithm" id="1RF0" x1="2040" x2="2050" y1="2040" y2="2070"/>
<line cb-classname="GraphicLineEntity" class="algorithm" id="1RFs" x1="2034" x2="2046" y1="2060" y2="2060"/>
<g cb-classname="ControlPin" cb-pin-name="cT-J7i-VuZ" id="1RF2">
<line cb-classname="GraphicLineEntity" class="signalline" id="1RFi" x1="2040" x2="2040" y1="2120" y2="2140"/>
<g cb-classname="DynamicText" cb-source="gz-Olz-kfRE" class="signal" id="1RFY" text-anchor="end">
<text cb-classname="GraphicTextEntity" class="signal" fill="black" font-style="normal" font-weight="normal" id="1RFT" text-anchor="end" text-decoration="normal" transform="translate(2037,2134)rotate(-90)"/>
</g>
<g cb-classname="SignalSegment" id="1R4f">
<line cb-classname="GraphicLineEntity" class="signalline" id="1R4j" x1="2040" x2="2040" y1="2140" y2="2260"/>
<g cb-classname="SignalSegment" id="1R4h">
<line cb-classname="GraphicLineEntity" class="signalline" id="1R4r" x1="2040" x2="2510" y1="2260" y2="2260"/>
<g cb-classname="SignalConnection" cb-graphic-line="$1649$" cb-input-pin="$xMOs$" id="1Rb0"/>
</g>
</g>
</g>
<g cb-classname="DynamicText" cb-labeled="true" cb-source="3k-6xs-AcDu" class="algorithm" id="1RFf" text-anchor="start">
<text cb-classname="GraphicTextEntity" class="algorithm" fill="black" font-family="arial" font-size="20" font-style="normal" font-weight="normal" id="1RFj" text-anchor="start" text-decoration="normal" x="1900" y="2120"/>
</g>
</g>
<g cb-alg-VpRs="65" cb-alg-v6xu="60" cb-algorithm-id="00b" cb-classname="ControlAlgorithm" cb-function-name="AVALGEN" cb-modify-id="00000001" id="1RFh">
<polygon cb-classname="GraphicPolygonEntity" class="algorithm" id="1RFr" points="2200,2000 2140,2060 2200,2120 2260,2060"/>
<line cb-classname="GraphicLineEntity" class="algorithm" id="1Rw0" x1="2200" x2="2190" y1="2040" y2="2070"/>
<line cb-classname="GraphicLineEntity" class="algorithm" id="1Rws" x1="2200" x2="2210" y1="2040" y2="2070"/>
<line cb-classname="GraphicLineEntity" class="algorithm" id="1Rw2" x1="2194" x2="2206" y1="2060" y2="2060"/>
<g cb-classname="ControlPin" cb-pin-name="sn-gPJ-Lu8" id="1Rwi">
<line cb-classname="GraphicLineEntity" class="signalline" id="1RwY" x1="2200" x2="2200" y1="2120" y2="2140"/>
<g cb-classname="DynamicText" cb-source="cT-7sT-zRxN" class="signal" id="1RwT" text-anchor="end">
<text cb-classname="GraphicTextEntity" class="signal" fill="black" font-style="normal" font-weight="normal" id="1Rwf" text-anchor="end" text-decoration="normal" transform="translate(2197,2134)rotate(-90)"/>
</g>
<g cb-classname="SignalSegment" id="1R4s">
<line cb-classname="GraphicLineEntity" class="signalline" id="1R42" x1="2200" x2="2200" y1="2140" y2="2210"/>
<g cb-classname="SignalSegment" id="1R4i">
<line cb-classname="GraphicLineEntity" class="signalline" id="1R4Y" x1="2200" x2="2510" y1="2210" y2="2210"/>
<g cb-classname="SignalConnection" cb-graphic-line="$1644$" cb-input-pin="$X3pG$" id="1R4T"/>
</g>
</g>
</g>
<g cb-classname="DynamicText" cb-labeled="true" cb-source="gz-jOM-vfCu" class="algorithm" id="1Rwj" text-anchor="start">
<text cb-classname="GraphicTextEntity" class="algorithm" fill="black" font-family="arial" font-size="20" font-style="normal" font-weight="normal" id="1Rwh" text-anchor="start" text-decoration="normal" x="2230" y="2120"/>
</g>
</g>
<g cb-alg-oiMU="NO" cb-alg-oue="01B02SG01-LLK" cb-algorithm-id="00c" cb-classname="ExternalPointInterface" cb-function-name="INPUT" id="2IG2">
<ellipse cb-classname="GraphicEllipseEntity" class="algorithm" cx="630" cy="650" id="2IGi" rx="50" ry="50"/>
<rect cb-classname="GraphicRectangleEntity" class="algorithm" height="100" id="2IGY" width="40" x="540" y="600"/>
<line cb-classname="GraphicLineEntity" class="algorithm" id="2IGT" x1="540" x2="580" y1="650" y2="650"/>
<g cb-classname="ControlPin" cb-pin-name="3k-6xs-Vuz" id="2IGf">
<line cb-classname="GraphicLineEntity" class="signalline" id="2IGj" x1="680" x2="710" y1="650" y2="650"/>
<g cb-classname="DynamicText" cb-source="rq-R7q-Hgce" class="signal" id="2IGh" text-anchor="start">
<text cb-classname="GraphicTextEntity" class="signal" fill="black" font-style="normal" font-weight="normal" id="2IGr" text-anchor="start" text-decoration="normal" x="694" y="647"/>
</g>
<g cb-classname="SignalSegment" id="2I4i">
<line cb-classname="GraphicLineEntity" class="signalline" id="2I4Y" stroke="#1e12bf" stroke-dasharray="5,4" x1="710" x2="2080" y1="650" y2="650"/>
<g cb-classname="SignalSegment" id="2I4T">
<line cb-classname="GraphicLineEntity" class="signalline" id="2I4f" stroke="#1e12bf" stroke-dasharray="5,4" x1="2080" x2="2080" y1="650" y2="770"/>
<g cb-classname="SignalSegment" id="2I4j">
<line cb-classname="GraphicLineEntity" class="signalline" id="2I4h" stroke="#1e12bf" stroke-dasharray="5,4" x1="2080" x2="2250" y1="770" y2="770"/>
<g cb-classname="SignalConnection" cb-graphic-line="$2048$" cb-input-pin="$2Iaj$" id="2I4r"/>
<line cb-classname="GraphicLineEntity" class="signalline" id="2Ib0" stroke="#1e12bf" stroke-dasharray="5,4" x1="2080" x2="2080" y1="770" y2="810"/>
<g cb-classname="SignalSegment" id="2Ibs">
<line cb-classname="GraphicLineEntity" class="signalline" id="2Ib2" stroke="#1e12bf" stroke-dasharray="5,4" x1="2080" x2="2500" y1="810" y2="810"/>
<g cb-classname="SignalConnection" cb-graphic-line="$2052$" cb-input-pin="$YGR$" id="2Ibi"/>
</g>
<ellipse cb-classname="GraphicEllipseEntity" class="signal" cx="2080" cy="770" fill="#1e12bf" id="2IbY" rx="5" ry="5" stroke="#1e12bf" stroke-dasharray="5,4"/>
</g>
</g>
</g>
</g>
<g cb-classname="PointStatusIndicator" cb-indicator-type="Highway" cb-source="1H-Dfa-Vuq" id="2IF0" visibility="hidden">
<line cb-classname="GraphicLineEntity" class="algorithmline" id="2IFs" x1="580" x2="630" y1="650" y2="600"/>
<line cb-classname="GraphicLineEntity" class="algorithmline" id="2IF2" x1="630" x2="680" y1="600" y2="650"/>
<line cb-classname="GraphicLineEntity" class="algorithmline" id="2IFi" x1="680" x2="630" y1="650" y2="700"/>
<line cb-classname="GraphicLineEntity" class="algorithmline" id="2IFY" x1="630" x2="580" y1="700" y2="650"/>
</g>
<g cb-classname="PointStatusIndicator" cb-indicator-type="hardware" cb-source="cT-J7i-VuZ" id="2IFT" visibility="hidden">
<line cb-classname="GraphicLineEntity" class="algorithmline" id="2IFf" x1="580" x2="680" y1="600" y2="600"/>
<line cb-classname="GraphicLineEntity" class="algorithmline" id="2IFj" x1="680" x2="680" y1="600" y2="700"/>
<line cb-classname="GraphicLineEntity" class="algorithmline" id="2IFh" x1="680" x2="580" y1="700" y2="700"/>
</g>
<g cb-classname="PointStatusIndicator" cb-indicator-type="alarm" cb-source="3k-6xs-Vuz" id="2IFr" visibility="hidden">
<text cb-classname="GraphicTextEntity" class="algorithm" fill="#000000" font-family="arial" font-size="20" id="2Iw0" x="550" y="635">
A
</text>
</g>
<g cb-classname="PointStatusIndicator" cb-indicator-type="ingraphic" cb-source="rq-CRl-duk" id="2Iws" visibility="visible">
<text cb-classname="GraphicTextEntity" class="algorithm" fill="#000000" font-family="Arial" font-size="20" id="2Iw2" x="550" y="685">
G
</text>
</g>
<g baseline-shift="-50%" cb-anchor-x="530" cb-anchor-y="664" cb-classname="PointDescription" cb-content="extended" cb-labeled="false" cb-max-width="220" cb-source="1H-Dfa-Vuq" class="algorithm" id="2Iwi" text-anchor="end">
<text baseline-shift="-50%" cb-classname="GraphicTextEntity" class="algorithm" id="2IwY" text-anchor="end" x="530" y="652">
DESC: Point not found in
</text>
<text baseline-shift="-50%" cb-classname="GraphicTextEntity" class="algorithm" id="2IC0" text-anchor="end" x="530" y="677">
database (01B02SG01-LLK)
</text>
</g>
<g cb-classname="DynamicText" cb-labeled="false" cb-pin-name="gXh" cb-source="FB-Pc7-duH" class="algorithm" id="2IwT" text-anchor="start">
<text baseline-shift="0%" cb-classname="GraphicTextEntity" class="algorithm" fill="black" font-family="arial" font-size="20" font-style="normal" font-weight="normal" id="2Iwf" text-anchor="start" text-decoration="normal" x="700" y="620"/>
</g>
<g baseline-shift="-100%" cb-anchor-x="700" cb-anchor-y="660" cb-classname="PointReferences" cb-max-width="230" cb-originator="true" cb-source="mh-9gO-VuB" class="signal" id="2Iwj" text-anchor="start">
<text baseline-shift="-100%" cb-classname="GraphicTextEntity" class="algorithm" id="2Iwh" text-anchor="start" x="700" y="660">
REF: Point not found in
</text>
<text baseline-shift="-100%" cb-classname="GraphicTextEntity" class="algorithm" id="3Iwh" text-anchor="start" x="700" y="685">
database (01B02SG01-LLK)
</text>
</g>
</g>
<g cb-alg-15s="$2002$cb-alg-out$" cb-algorithm-id="014" cb-classname="FastBooleanAlgorithm" cb-function-name="NOT" cb-modify-id="00000002" id="2Iwr">
<rect cb-classname="GraphicRectangleEntity" class="algorithm" height="40" id="2Ir0" width="40" x="2270" y="750"/>
<g cb-classname="ControlPin" cb-pin-name="9E-xjF-7qj" id="2Irs">
<line cb-classname="GraphicLineEntity" class="signalline" id="2Ir2" x1="2250" x2="2270" y1="770" y2="770"/>
<polygon cb-classname="GraphicPolygonEntity" class="signal" id="2Iri" points="2270,770 2259,764 2259,775"/>
<g cb-classname="DynamicText" cb-source="rq-R7q-Hgce" class="signal" id="2IrY" text-anchor="end">
<text cb-classname="GraphicTextEntity" class="signal" fill="black" font-style="normal" font-weight="normal" id="2IrT" text-anchor="end" text-decoration="normal" x="2255" y="767"/>
</g>
</g>
<g cb-classname="ControlPin" cb-pin-name="1H-Dfa-Vuq" id="2Irf">
<line cb-classname="GraphicLineEntity" class="signalline" id="2Irj" x1="2310" x2="2330" y1="770" y2="770"/>
<g cb-classname="DynamicText" cb-source="FB-cxB-hr3n" class="signal" id="2Irh" text-anchor="start">
<text cb-classname="GraphicTextEntity" class="signal" fill="black" font-style="normal" font-weight="normal" id="2Irr" text-anchor="start" text-decoration="normal" x="2324" y="767"/>
</g>
<g cb-classname="SignalSegment" id="2IbT">
<g cb-classname="SignalConnection" cb-graphic-line="$2058$" cb-input-pin="$FF9$" id="2Ibr"/>
<line cb-classname="GraphicLineEntity" class="signalline" id="2Ibh" stroke="#1e12bf" stroke-dasharray="5,4" x1="2330" x2="2500" y1="770" y2="770"/>
</g>
</g>
<line cb-classname="GraphicLineEntity" class="algorithm" id="2I40" x1="2280" x2="2280" y1="760" y2="780"/>
<line cb-classname="GraphicLineEntity" class="algorithm" id="2I4s" x1="2280" x2="2300" y1="760" y2="780"/>
<line cb-classname="GraphicLineEntity" class="algorithm" id="2I42" x1="2300" x2="2300" y1="780" y2="760"/>
</g>
<g cb-alg-6B="$698$cb-alg-out$" cb-alg-6o="$653$cb-alg-out$" cb-alg-6x5="$220$cb-alg-out$" cb-alg-6xx="01B0201D12-ALM" cb-alg-EB="$65$cb-alg-clos$" cb-alg-EEC="$2002$cb-alg-out$" cb-alg-ER="$2029$cb-alg-out$" cb-alg-ER5="$65$cb-alg-pk5$" cb-alg-Eo="$65$cb-alg-open$" cb-alg-Ex5="$65$cb-alg-pk1$" cb-alg-Exa="$65$cb-alg-pk2$" cb-alg-J5j="01B0201D12-STS" cb-alg-V6Z67="$1618$cb-alg-out$" cb-alg-Z6d="$288$cb-alg-out$" cb-alg-Z6n="$322$cb-alg-out$" cb-alg-ZFH="$220$cb-alg-out$" cb-alg-hp="01B0201D12-TR" cb-alg-ixZ67="$1607$cb-alg-out$" cb-alg-je="01B0201D12-LB" cb-alg-l1d="$220$cb-alg-out$" cb-alg-l1n="$220$cb-alg-out$" cb-alg-x1d="$237$cb-alg-out$" cb-alg-x1n="$237$cb-alg-out$" cb-algorithm-id="001" cb-classname="ControlMacroReference" cb-function-name="PCMS1" cb-macro-crc="30660" cb-modify-id="00000001" id="3B4">
<rect cb-classname="GraphicRectangleEntity" class="annotation" height="1850" id="3Bb" width="750" x="2530" y="460"/>
<g cb-classname="ControlPin" cb-pin-name="M8-cDX-hd" id="3BC">
<line cb-classname="GraphicLineEntity" class="signalline" id="3BO" x1="2500" x2="2530" y1="490" y2="490"/>
<polygon cb-classname="GraphicPolygonEntity" class="signal" id="3Bn" points="2530,490 2519,484 2519,495"/>
<g cb-classname="DynamicText" cb-source="mh-gRh-Z1r5" class="signal" id="3BU" text-anchor="end">
<text cb-classname="GraphicTextEntity" class="signal" fill="black" font-style="normal" font-weight="normal" id="33G" text-anchor="end" text-decoration="normal" x="2515" y="487"/>
</g>
</g>
<g cb-classname="ControlPin" cb-pin-name="PN-OJ1-kn" id="33F">
<line cb-classname="GraphicLineEntity" class="signalline" id="33w" x1="2500" x2="2530" y1="530" y2="530"/>
<polygon cb-classname="GraphicPolygonEntity" class="signal" id="33r" points="2530,530 2519,524 2519,535"/>
<g cb-classname="DynamicText" cb-source="3k-xak-qcft" class="signal" id="334" text-anchor="end">
<text cb-classname="GraphicTextEntity" class="signal" fill="black" font-style="normal" font-weight="normal" id="33b" text-anchor="end" text-decoration="normal" x="2515" y="527"/>
</g>
</g>
<g cb-classname="ControlPin" cb-pin-name="rq-CRl-8g" id="33C">
<line cb-classname="GraphicLineEntity" class="signalline" id="33O" x1="2500" x2="2530" y1="770" y2="770"/>
<polygon cb-classname="GraphicPolygonEntity" class="signal" id="33n" points="2530,770 2519,764 2519,775"/>
<g cb-classname="DynamicText" cb-source="M8-Dj8-nU9B" class="signal" id="33U" text-anchor="end">
<text cb-classname="GraphicTextEntity" class="signal" fill="black" font-style="normal" font-weight="normal" id="4IG" text-anchor="end" text-decoration="normal" x="2515" y="767"/>
</g>
</g>
<g cb-classname="ControlPin" cb-pin-name="sn-gPJ-ZZ1" id="4IF">
<line cb-classname="GraphicLineEntity" class="signalline" id="4Iw" x1="2500" x2="2530" y1="810" y2="810"/>
<polygon cb-classname="GraphicPolygonEntity" class="signal" id="4Ir" points="2530,810 2519,804 2519,815"/>
<g cb-classname="DynamicText" cb-source="PN-JmN-EC6z" class="signal" id="4I4" text-anchor="end">
<text cb-classname="GraphicTextEntity" class="signal" fill="black" font-style="normal" font-weight="normal" id="4Ib" text-anchor="end" text-decoration="normal" x="2515" y="807"/>
</g>
</g>
<g cb-classname="ControlPin" cb-pin-name="9E-xjF-qCT" id="4IC">
<line cb-classname="GraphicLineEntity" class="signalline" id="4IO" x1="2500" x2="2530" y1="650" y2="650"/>
<polygon cb-classname="GraphicPolygonEntity" class="signal" id="4In" points="2530,650 2519,644 2519,655"/>
<g cb-classname="DynamicText" cb-source="rq-R7q-Hgce" class="signal" id="4IU" text-anchor="end">
<text cb-classname="GraphicTextEntity" class="signal" fill="black" font-style="normal" font-weight="normal" id="4MG" text-anchor="end" text-decoration="normal" x="2515" y="647"/>
</g>
</g>
<g cb-classname="ControlPin" cb-pin-name="1H-Dfa-ngR" id="4MF">
<line cb-classname="GraphicLineEntity" class="signalline" id="4Mw" x1="2500" x2="2530" y1="690" y2="690"/>
<polygon cb-classname="GraphicPolygonEntity" class="signal" id="4Mr" points="2530,690 2519,684 2519,695"/>
<g cb-classname="DynamicText" cb-source="sn-P6n-5iUh" class="signal" id="4M4" text-anchor="end">
<text cb-classname="GraphicTextEntity" class="signal" fill="black" font-style="normal" font-weight="normal" id="4Mb" text-anchor="end" text-decoration="normal" x="2515" y="687"/>
</g>
</g>
<g cb-classname="ControlPin" cb-pin-name="cT-J7i-6o" id="4MC">
<line cb-classname="GraphicLineEntity" class="signalline" id="4MO" x1="2500" x2="2530" y1="1030" y2="1030"/>
<polygon cb-classname="GraphicPolygonEntity" class="signal" id="4Mn" points="2530,1030 2519,1024 2519,1035"/>
<g cb-classname="DynamicText" cb-source="9E-jpE-tDCk" class="signal" id="4MU" text-anchor="end">
<text cb-classname="GraphicTextEntity" class="signal" fill="black" font-style="normal" font-weight="normal" id="4QG" text-anchor="end" text-decoration="normal" x="2515" y="1027"/>
</g>
</g>
<g cb-classname="ControlPin" cb-pin-name="Ut-R6m-cDz" id="4QF">
<line cb-classname="GraphicLineEntity" class="signalline" id="4Qw" x1="2500" x2="2530" y1="1070" y2="1070"/>
<polygon cb-classname="GraphicPolygonEntity" class="signal" id="4Qr" points="2530,1070 2519,1064 2519,1075"/>
<g cb-classname="DynamicText" cb-source="1H-fOH-B3g8" class="signal" id="4Q4" text-anchor="end">
<text cb-classname="GraphicTextEntity" class="signal" fill="black" font-style="normal" font-weight="normal" id="4Qb" text-anchor="end" text-decoration="normal" x="2515" y="1067"/>
</g>
</g>
<g cb-classname="ControlPin" cb-pin-name="FB-Pc7-Uk" id="4QC">
<line cb-classname="GraphicLineEntity" class="signalline" id="4QO" x1="2500" x2="2530" y1="1120" y2="1120"/>
<polygon cb-classname="GraphicPolygonEntity" class="signal" id="4Qn" points="2530,1120 2519,1114 2519,1125"/>
<g cb-classname="DynamicText" cb-source="cT-7sT-zRxN" class="signal" id="4QU" text-anchor="end">
<text cb-classname="GraphicTextEntity" class="signal" fill="black" font-style="normal" font-weight="normal" id="4UG" text-anchor="end" text-decoration="normal" x="2515" y="1117"/>
</g>
</g>
<g cb-classname="ControlPin" cb-pin-name="gz-jOM-aFV" id="4UF">
<line cb-classname="GraphicLineEntity" class="signalline" id="4Uw" x1="2500" x2="2530" y1="1290" y2="1290"/>
<polygon cb-classname="GraphicPolygonEntity" class="signal" id="4Ur" points="2530,1290 2519,1284 2519,1295"/>
<g cb-classname="DynamicText" cb-source="Ut-6Xt-ePDq" class="signal" id="4U4" text-anchor="end">
<text cb-classname="GraphicTextEntity" class="signal" fill="black" font-style="normal" font-weight="normal" id="4Ub" text-anchor="end" text-decoration="normal" x="2515" y="1287"/>
</g>
</g>
<g cb-classname="ControlPin" cb-pin-name="ie-fCp-jaz" id="4UC">
<line cb-classname="GraphicLineEntity" class="signalline" id="4UO" x1="2500" x2="2530" y1="1340" y2="1340"/>
<polygon cb-classname="GraphicPolygonEntity" class="signal" id="4Un" points="2530,1340 2519,1334 2519,1345"/>
<g cb-classname="DynamicText" cb-source="FB-cxB-hr3n" class="signal" id="4UU" text-anchor="end">
<text cb-classname="GraphicTextEntity" class="signal" fill="black" font-style="normal" font-weight="normal" id="4YG" text-anchor="end" text-decoration="normal" x="2515" y="1337"/>
</g>
</g>
<g cb-classname="ControlPin" cb-pin-name="mh-9gO-rjd" id="4YF">
<line cb-classname="GraphicLineEntity" class="signalline" id="4Yw" x1="2500" x2="2530" y1="1500" y2="1500"/>
<polygon cb-classname="GraphicPolygonEntity" class="signal" id="4Yr" points="2530,1500 2519,1494 2519,1505"/>
<g cb-classname="DynamicText" cb-source="gz-Olz-kfRE" class="signal" id="4Y4" text-anchor="end">
<text cb-classname="GraphicTextEntity" class="signal" fill="black" font-style="normal" font-weight="normal" id="4Yb" text-anchor="end" text-decoration="normal" x="2515" y="1497"/>
</g>
</g>
<g cb-classname="ControlPin" cb-pin-name="3k-6xs-fmb" id="4YC">
<line cb-classname="GraphicLineEntity" class="signalline" id="4YO" x1="2500" x2="2530" y1="1550" y2="1550"/>
<polygon cb-classname="GraphicPolygonEntity" class="signal" id="4Yn" points="2530,1550 2519,1544 2519,1555"/>
<g cb-classname="DynamicText" cb-source="ie-CJe-89PH" class="signal" id="4YU" text-anchor="end">
<text cb-classname="GraphicTextEntity" class="signal" fill="black" font-style="normal" font-weight="normal" id="4ZG" text-anchor="end" text-decoration="normal" x="2515" y="1547"/>
</g>
</g>
<g cb-classname="ControlPin" cb-pin-name="M8-cDX-eON" id="4ZF">
<line cb-classname="GraphicLineEntity" class="signalline" id="4Zw" x1="2500" x2="2530" y1="1840" y2="1840"/>
<polygon cb-classname="GraphicPolygonEntity" class="signal" id="4Zr" points="2530,1840 2519,1834 2519,1845"/>
<g cb-classname="DynamicText" cb-source="mh-gRh-Z1r5" class="signal" id="4Z4" text-anchor="end">
<text cb-classname="GraphicTextEntity" class="signal" fill="black" font-style="normal" font-weight="normal" id="4Zb" text-anchor="end" text-decoration="normal" x="2515" y="1837"/>
</g>
</g>
<g cb-classname="ControlPin" cb-pin-name="PN-OJ1-bRL" id="4ZC">
<line cb-classname="GraphicLineEntity" class="signalline" id="4ZO" x1="2510" x2="2530" y1="1880" y2="1880"/>
<polygon cb-classname="GraphicPolygonEntity" class="signal" id="4Zn" points="2530,1880 2519,1874 2519,1885"/>
<g cb-classname="DynamicText" cb-source="3k-xak-qcft" class="signal" id="4ZU" text-anchor="end">
<text cb-classname="GraphicTextEntity" class="signal" fill="black" font-style="normal" font-weight="normal" id="4RG" text-anchor="end" text-decoration="normal" x="2515" y="1877"/>
</g>
</g>
<g cb-classname="ControlPin" cb-pin-name="rq-CRl-kPN" id="4RF">
<line cb-classname="GraphicLineEntity" class="signalline" id="4Rw" x1="2490" x2="2530" y1="1920" y2="1920"/>
<polygon cb-classname="GraphicPolygonEntity" class="signal" id="4Rr" points="2530,1920 2519,1914 2519,1925"/>
<g cb-classname="DynamicText" cb-source="M8-Dj8-nU9B" class="signal" id="4R4" text-anchor="end">
<text cb-classname="GraphicTextEntity" class="signal" fill="black" font-style="normal" font-weight="normal" id="4Rb" text-anchor="end" text-decoration="normal" x="2515" y="1917"/>
</g>
</g>
<g cb-classname="ControlPin" cb-pin-name="sn-gPJ-gH3" id="4RC">
<line cb-classname="GraphicLineEntity" class="signalline" id="4RO" x1="3280" x2="3320" y1="1180" y2="1180"/>
<g cb-classname="DynamicText" cb-source="cT-7sT-zRxN" class="signal" id="4Rn" text-anchor="start">
<text cb-classname="GraphicTextEntity" class="signal" fill="black" font-style="normal" font-weight="normal" id="4RU" text-anchor="start" text-decoration="normal" x="3294" y="1177"/>
</g>
<g cb-classname="SignalSegment" id="4JG">
<line cb-classname="GraphicLineEntity" class="signalline" id="4JF" x1="3320" x2="4720" y1="1180" y2="1180"/>
<g cb-classname="SignalConnection" cb-graphic-line="$471$" cb-input-pin="$zpQ$" id="4Jw"/>
</g>
</g>
<g cb-classname="ControlPin" cb-pin-name="Ut-R6m-cDD" id="4Jr">
<line cb-classname="GraphicLineEntity" class="signalline" id="4J4" x1="3280" x2="3310" y1="1450" y2="1450"/>
<g cb-classname="DynamicText" cb-source="ie-CJe-89PH" class="signal" id="4Jb" text-anchor="start">
<text cb-classname="GraphicTextEntity" class="signal" fill="black" font-style="normal" font-weight="normal" id="4JC" text-anchor="start" text-decoration="normal" x="3294" y="1447"/>
</g>
<g cb-classname="SignalSegment" id="4JO">
<line cb-classname="GraphicLineEntity" class="signalline" id="4Jn" x1="3310" x2="4720" y1="1450" y2="1450"/>
<g cb-classname="SignalConnection" cb-graphic-line="$478$" cb-input-pin="$8Yw$" id="4JU"/>
</g>
</g>
<g cb-classname="ControlPin" cb-pin-name="mh-9gO-UE" id="4BG">
<line cb-classname="GraphicLineEntity" class="signalline" id="4BF" x1="3280" x2="3300" y1="1770" y2="1770"/>
<g cb-classname="DynamicText" cb-source="PN-JmN-EC6z" class="signal" id="4Bw" text-anchor="start">
<text cb-classname="GraphicTextEntity" class="signal" fill="black" font-style="normal" font-weight="normal" id="4Br" text-anchor="start" text-decoration="normal" x="3294" y="1767"/>
</g>
<g cb-classname="SignalSegment" id="4B4">
<line cb-classname="GraphicLineEntity" class="signalline" id="4Bb" stroke="#1e12bf" stroke-dasharray="5,4" x1="3300" x2="4720" y1="1770" y2="1770"/>
<g cb-classname="SignalConnection" cb-graphic-line="$485$" cb-input-pin="$ECw$" id="4BC"/>
</g>
</g>
<g cb-classname="ControlPin" cb-pin-name="rq-CRl-zj" id="4BO">
<line cb-classname="GraphicLineEntity" class="signalline" id="4Bn" x1="3280" x2="3300" y1="1830" y2="1830"/>
<g cb-classname="DynamicText" cb-source="1H-fOH-B3g8" class="signal" id="4BU" text-anchor="start">
<text cb-classname="GraphicTextEntity" class="signal" fill="black" font-style="normal" font-weight="normal" id="43G" text-anchor="start" text-decoration="normal" x="3294" y="1827"/>
</g>
<g cb-classname="SignalSegment" id="43F">
<line cb-classname="GraphicLineEntity" class="signalline" id="43w" stroke="#1e12bf" stroke-dasharray="5,4" x1="3300" x2="4470" y1="1830" y2="1830"/>
<g cb-classname="SignalSegment" id="43r">
<line cb-classname="GraphicLineEntity" class="signalline" id="434" stroke="#1e12bf" stroke-dasharray="5,4" x1="4470" x2="4470" y1="1830" y2="2040"/>
<g cb-classname="SignalSegment" id="43b">
<line cb-classname="GraphicLineEntity" class="signalline" id="43C" stroke="#1e12bf" stroke-dasharray="5,4" x1="4470" x2="4720" y1="2040" y2="2040"/>
<g cb-classname="SignalConnection" cb-graphic-line="$496$" cb-input-pin="$DGp$" id="43O"/>
</g>
</g>
</g>
</g>
<g cb-classname="ControlPin" cb-pin-name="Ut-R6m-ocEc6" id="1Rr0">
<line cb-classname="GraphicLineEntity" class="signalline" id="1Rrs" x1="2510" x2="2530" y1="2210" y2="2210"/>
<polygon cb-classname="GraphicPolygonEntity" class="signal" id="1Rr2" points="2530,2210 2519,2204 2519,2215"/>
<g cb-classname="DynamicText" cb-source="1H-fOH-B3g8" class="signal" id="1Rri" text-anchor="end">
<text cb-classname="GraphicTextEntity" class="signal" fill="black" font-style="normal" font-weight="normal" id="1RrY" text-anchor="end" text-decoration="normal" transform="translate(2515,2207)rotate(360)"/>
</g>
</g>
<g cb-classname="ControlPin" cb-pin-name="sn-gPJ-JU8rP" id="1Rrf">
<line cb-classname="GraphicLineEntity" class="signalline" id="1Rrj" x1="2510" x2="2530" y1="2260" y2="2260"/>
<polygon cb-classname="GraphicPolygonEntity" class="signal" id="1Rrh" points="2530,2260 2519,2254 2519,2265"/>
<g cb-classname="DynamicText" cb-source="PN-JmN-EC6z" class="signal" id="1Rrr" text-anchor="end">
<text cb-classname="GraphicTextEntity" class="signal" fill="black" font-style="normal" font-weight="normal" id="1R40" text-anchor="end" text-decoration="normal" transform="translate(2515,2257)rotate(360)"/>
</g>
</g>
<g cb-classname="ControlPin" cb-pin-name="gz-jOM-tfb" id="1BCs">
<line cb-classname="GraphicLineEntity" class="signalline" id="1BC2" x1="2510" x2="2530" y1="730" y2="730"/>
<polygon cb-classname="GraphicPolygonEntity" class="signal" id="1BCi" points="2530,730 2519,724 2519,735"/>
<g cb-classname="DynamicText" cb-source="Ut-6Xt-ePDq" class="signal" id="1BCY" text-anchor="end">
<text cb-classname="GraphicTextEntity" class="signal" fill="black" font-style="normal" font-weight="normal" id="1BCT" text-anchor="end" text-decoration="normal" x="2515" y="727"/>
</g>
</g>
</g>
<g cb-alg-15="$384$cb-alg-sts$" cb-algorithm-id="00d" cb-classname="ExternalPointInterface" cb-function-name="OUTPUT" id="5In">
<ellipse cb-classname="GraphicEllipseEntity" class="algorithm" cx="4800" cy="1180" id="5IU" rx="50" ry="50"/>
<rect cb-classname="GraphicRectangleEntity" class="algorithm" height="100" id="5MG" width="40" x="4850" y="1130"/>
<line cb-classname="GraphicLineEntity" class="algorithm" id="5MF" x1="4850" x2="4890" y1="1180" y2="1180"/>
<g cb-classname="ControlPin" cb-pin-name="Ut-R6m-OH" id="5Mw">
<line cb-classname="GraphicLineEntity" class="signalline" id="5Mr" x1="4720" x2="4750" y1="1180" y2="1180"/>
<polygon cb-classname="GraphicPolygonEntity" class="signal" id="5M4" points="4750,1180 4739,1174 4739,1185"/>
<g cb-classname="DynamicText" cb-source="1H-fOH-B3g8" class="signal" id="5Mb" text-anchor="end">
<text cb-classname="GraphicTextEntity" class="signal" fill="black" font-style="normal" font-weight="normal" id="5MC" text-anchor="end" text-decoration="normal" x="4735" y="1177"/>
</g>
</g>
<g cb-classname="PointStatusIndicator" cb-indicator-type="highway" cb-source="FB-Pc7-C5" id="5MO" visibility="hidden">
<line cb-classname="GraphicLineEntity" class="algorithmline" id="5Mn" x1="4750" x2="4800" y1="1180" y2="1130"/>
<line cb-classname="GraphicLineEntity" class="algorithmline" id="5MU" x1="4800" x2="4850" y1="1130" y2="1180"/>
<line cb-classname="GraphicLineEntity" class="algorithmline" id="5QG" x1="4850" x2="4800" y1="1180" y2="1230"/>
<line cb-classname="GraphicLineEntity" class="algorithmline" id="5QF" x1="4800" x2="4750" y1="1230" y2="1180"/>
</g>
<g cb-classname="PointStatusIndicator" cb-indicator-type="hardware" cb-source="gz-jOM-Xt" id="5Qw" visibility="hidden">
<line cb-classname="GraphicLineEntity" class="algorithmline" id="5Qr" x1="4850" x2="4750" y1="1130" y2="1130"/>
<line cb-classname="GraphicLineEntity" class="algorithmline" id="5Q4" x1="4750" x2="4750" y1="1130" y2="1230"/>
<line cb-classname="GraphicLineEntity" class="algorithmline" id="5Qb" x1="4750" x2="4850" y1="1230" y2="1230"/>
</g>
<g cb-classname="PointStatusIndicator" cb-indicator-type="alarm" cb-source="rq-CRl-j8" id="5QC" visibility="hidden">
<text cb-classname="GraphicTextEntity" class="algorithm" fill="#000000" font-family="Arial" font-size="20" id="5QO" x="4860" y="1215">
A
</text>
</g>
<g cb-classname="PointStatusIndicator" cb-indicator-type="ingraphic" cb-source="1H-Dfa-6n" id="5Qn" visibility="visible">
<text cb-classname="GraphicTextEntity" class="algorithm" fill="#000000" font-family="Arial" font-size="20" id="5QU" x="4860" y="1165">
G
</text>
</g>
<g cb-classname="DynamicText" cb-labeled="false" cb-pin-name="Gh" cb-source="FB-Pc7-C5" class="algorithm" id="5UG" text-anchor="end">
<text baseline-shift="0%" cb-classname="GraphicTextEntity" class="algorithm" fill="black" font-family="arial" font-size="20" font-style="normal" font-weight="normal" id="5UF" text-anchor="end" text-decoration="normal" x="4725" y="1155"/>
</g>
<g baseline-shift="-100%" cb-anchor-x="4725" cb-anchor-y="1190" cb-classname="PointReferences" cb-max-width="130" cb-originator="false" cb-source="mh-9gO-Db" class="signal" id="5Uw" text-anchor="end">
<text baseline-shift="-100%" cb-classname="GraphicTextEntity" class="algorithm" id="5Ur" text-anchor="end" x="4725" y="1190">
REF: Point not
</text>
<text baseline-shift="-100%" cb-classname="GraphicTextEntity" class="algorithm" id="3Ir0" text-anchor="end" x="4725" y="1215">
found in
</text>
<text baseline-shift="-100%" cb-classname="GraphicTextEntity" class="algorithm" id="3Irs" text-anchor="end" x="4725" y="1240">
database
</text>
<text baseline-shift="-100%" cb-classname="GraphicTextEntity" class="algorithm" id="3Ir2" text-anchor="end" x="4725" y="1265">
(01B0201D12-STS)
</text>
</g>
<g baseline-shift="-50%" cb-anchor-x="4905" cb-anchor-y="1195" cb-classname="PointDescription" cb-content="extended" cb-labeled="false" cb-max-width="240" cb-source="9E-xjF-7q" class="algorithm" id="5UC" text-anchor="start">
<text baseline-shift="-50%" cb-classname="GraphicTextEntity" class="algorithm" id="5UO" text-anchor="start" x="4905" y="1183">
DESC: Point not found in
</text>
<text baseline-shift="-50%" cb-classname="GraphicTextEntity" class="algorithm" id="3Iri" text-anchor="start" x="4905" y="1208">
database (01B0201D12-STS)
</text>
</g>
</g>
<g cb-alg-mN="$384$cb-alg-alm$" cb-algorithm-id="00e" cb-classname="ExternalPointInterface" cb-function-name="OUTPUT" id="5Un">
<ellipse cb-classname="GraphicEllipseEntity" class="algorithm" cx="4800" cy="1450" id="5UU" rx="50" ry="50"/>
<rect cb-classname="GraphicRectangleEntity" class="algorithm" height="100" id="5YG" width="40" x="4850" y="1400"/>
<line cb-classname="GraphicLineEntity" class="algorithm" id="5YF" x1="4850" x2="4890" y1="1450" y2="1450"/>
<g cb-classname="ControlPin" cb-pin-name="M8-cDX-Rh" id="5Yw">
<line cb-classname="GraphicLineEntity" class="signalline" id="5Yr" x1="4720" x2="4750" y1="1450" y2="1450"/>
<polygon cb-classname="GraphicPolygonEntity" class="signal" id="5Y4" points="4750,1450 4739,1444 4739,1455"/>
<g cb-classname="DynamicText" cb-source="mh-gRh-Z1r5" class="signal" id="5Yb" text-anchor="end">
<text cb-classname="GraphicTextEntity" class="signal" fill="black" font-style="normal" font-weight="normal" id="5YC" text-anchor="end" text-decoration="normal" x="4735" y="1447"/>
</g>
</g>
<g cb-classname="PointStatusIndicator" cb-indicator-type="highway" cb-source="PN-OJ1-ak" id="5YO" visibility="hidden">
<line cb-classname="GraphicLineEntity" class="algorithmline" id="5Yn" x1="4750" x2="4800" y1="1450" y2="1400"/>
<line cb-classname="GraphicLineEntity" class="algorithmline" id="5YU" x1="4800" x2="4850" y1="1400" y2="1450"/>
<line cb-classname="GraphicLineEntity" class="algorithmline" id="5ZG" x1="4850" x2="4800" y1="1450" y2="1500"/>
<line cb-classname="GraphicLineEntity" class="algorithmline" id="5ZF" x1="4800" x2="4750" y1="1500" y2="1450"/>
</g>
<g cb-classname="PointStatusIndicator" cb-indicator-type="hardware" cb-source="rq-CRl-j8" id="5Zw" visibility="hidden">
<line cb-classname="GraphicLineEntity" class="algorithmline" id="5Zr" x1="4850" x2="4750" y1="1400" y2="1400"/>
<line cb-classname="GraphicLineEntity" class="algorithmline" id="5Z4" x1="4750" x2="4750" y1="1400" y2="1500"/>
<line cb-classname="GraphicLineEntity" class="algorithmline" id="5Zb" x1="4750" x2="4850" y1="1500" y2="1500"/>
</g>
<g cb-classname="PointStatusIndicator" cb-indicator-type="alarm" cb-source="FB-Pc7-C5" id="5ZC" visibility="hidden">
<text cb-classname="GraphicTextEntity" class="algorithm" fill="#000000" font-family="Arial" font-size="20" id="5ZO" x="4860" y="1485">
A
</text>
</g>
<g cb-classname="PointStatusIndicator" cb-indicator-type="ingraphic" cb-source="mh-9gO-Db" id="5Zn" visibility="visible">
<text cb-classname="GraphicTextEntity" class="algorithm" fill="#000000" font-family="Arial" font-size="20" id="5ZU" x="4860" y="1435">
G
</text>
</g>
<g cb-classname="DynamicText" cb-labeled="false" cb-pin-name="GE" cb-source="PN-OJ1-ak" class="algorithm" id="5RG" text-anchor="end">
<text baseline-shift="0%" cb-classname="GraphicTextEntity" class="algorithm" fill="black" font-family="arial" font-size="20" font-style="normal" font-weight="normal" id="5RF" text-anchor="end" text-decoration="normal" x="4725" y="1425"/>
</g>
<g baseline-shift="-100%" cb-anchor-x="4725" cb-anchor-y="1460" cb-classname="PointReferences" cb-max-width="130" cb-originator="false" cb-source="9E-xjF-7q" class="signal" id="5Rw" text-anchor="end">
<text baseline-shift="-100%" cb-classname="GraphicTextEntity" class="algorithm" id="5Rr" text-anchor="end" x="4725" y="1460">
REF: Point not
</text>
<text baseline-shift="-100%" cb-classname="GraphicTextEntity" class="algorithm" id="3IrT" text-anchor="end" x="4725" y="1485">
found in
</text>
<text baseline-shift="-100%" cb-classname="GraphicTextEntity" class="algorithm" id="3Irf" text-anchor="end" x="4725" y="1510">
database
</text>
<text baseline-shift="-100%" cb-classname="GraphicTextEntity" class="algorithm" id="3Irj" text-anchor="end" x="4725" y="1535">
(01B0201D12-ALM)
</text>
</g>
<g baseline-shift="-50%" cb-anchor-x="4905" cb-anchor-y="1465" cb-classname="PointDescription" cb-content="extended" cb-labeled="false" cb-max-width="240" cb-source="ie-fCp-xB" class="algorithm" id="5RC" text-anchor="start">
<text baseline-shift="-50%" cb-classname="GraphicTextEntity" class="algorithm" id="5RO" text-anchor="start" x="4905" y="1453">
DESC: Point not found in
</text>
<text baseline-shift="-50%" cb-classname="GraphicTextEntity" class="algorithm" id="3Irh" text-anchor="start" x="4905" y="1478">
database (01B0201D12-ALM)
</text>
</g>
</g>
<g cb-alg-Xt="$384$cb-alg-lb$" cb-algorithm-id="00f" cb-classname="ExternalPointInterface" cb-function-name="OUTPUT" id="5Rn">
<ellipse cb-classname="GraphicEllipseEntity" class="algorithm" cx="4800" cy="1770" id="5RU" rx="50" ry="50"/>
<rect cb-classname="GraphicRectangleEntity" class="algorithm" height="100" id="5JG" width="40" x="4850" y="1720"/>
<line cb-classname="GraphicLineEntity" class="algorithm" id="5JF" x1="4850" x2="4890" y1="1770" y2="1770"/>
<g cb-classname="ControlPin" cb-pin-name="cT-J7i-pE" id="5Jw">
<line cb-classname="GraphicLineEntity" class="signalline" id="5Jr" x1="4720" x2="4750" y1="1770" y2="1770"/>
<polygon cb-classname="GraphicPolygonEntity" class="signal" id="5J4" points="4750,1770 4739,1764 4739,1775"/>
<g cb-classname="DynamicText" cb-source="9E-jpE-tDCk" class="signal" id="5Jb" text-anchor="end">
<text cb-classname="GraphicTextEntity" class="signal" fill="black" font-style="normal" font-weight="normal" id="5JC" text-anchor="end" text-decoration="normal" x="4735" y="1767"/>
</g>
</g>
<g cb-classname="PointStatusIndicator" cb-indicator-type="highway" cb-source="Ut-R6m-OH" id="5JO" visibility="hidden">
<line cb-classname="GraphicLineEntity" class="algorithmline" id="5Jn" x1="4750" x2="4800" y1="1770" y2="1720"/>
<line cb-classname="GraphicLineEntity" class="algorithmline" id="5JU" x1="4800" x2="4850" y1="1720" y2="1770"/>
<line cb-classname="GraphicLineEntity" class="algorithmline" id="5BG" x1="4850" x2="4800" y1="1770" y2="1820"/>
<line cb-classname="GraphicLineEntity" class="algorithmline" id="5BF" x1="4800" x2="4750" y1="1820" y2="1770"/>
</g>
<g cb-classname="PointStatusIndicator" cb-indicator-type="hardware" cb-source="FB-Pc7-C5" id="5Bw" visibility="hidden">
<line cb-classname="GraphicLineEntity" class="algorithmline" id="5Br" x1="4850" x2="4750" y1="1720" y2="1720"/>
<line cb-classname="GraphicLineEntity" class="algorithmline" id="5B4" x1="4750" x2="4750" y1="1720" y2="1820"/>
<line cb-classname="GraphicLineEntity" class="algorithmline" id="5Bb" x1="4750" x2="4850" y1="1820" y2="1820"/>
</g>
<g cb-classname="PointStatusIndicator" cb-indicator-type="alarm" cb-source="PN-OJ1-ak" id="5BC" visibility="hidden">
<text cb-classname="GraphicTextEntity" class="algorithm" fill="#000000" font-family="Arial" font-size="20" id="5BO" x="4860" y="1805">
A
</text>
</g>
<g cb-classname="PointStatusIndicator" cb-indicator-type="ingraphic" cb-source="9E-xjF-7q" id="5Bn" visibility="hidden">
<text cb-classname="GraphicTextEntity" class="algorithm" fill="#000000" font-family="Arial" font-size="20" id="5BU" x="4860" y="1755">
G
</text>
</g>
<g cb-classname="DynamicText" cb-labeled="false" cb-pin-name="0e" cb-source="Ut-R6m-OH" class="algorithm" id="53G" text-anchor="end">
<text baseline-shift="0%" cb-classname="GraphicTextEntity" class="algorithm" fill="black" font-family="arial" font-size="20" font-style="normal" font-weight="normal" id="53F" text-anchor="end" text-decoration="normal" x="4725" y="1745"/>
</g>
<g baseline-shift="-100%" cb-anchor-x="4725" cb-anchor-y="1780" cb-classname="PointReferences" cb-max-width="130" cb-originator="false" cb-source="ie-fCp-xB" class="signal" id="53w" text-anchor="end">
<text baseline-shift="-100%" cb-classname="GraphicTextEntity" class="algorithm" id="53r" text-anchor="end" x="4725" y="1780">
REF: Point not
</text>
<text baseline-shift="-100%" cb-classname="GraphicTextEntity" class="algorithm" id="3I40" text-anchor="end" x="4725" y="1805">
found in
</text>
<text baseline-shift="-100%" cb-classname="GraphicTextEntity" class="algorithm" id="3I4s" text-anchor="end" x="4725" y="1830">
database
</text>
<text baseline-shift="-100%" cb-classname="GraphicTextEntity" class="algorithm" id="3I42" text-anchor="end" x="4725" y="1855">
(01B0201D12-LB)
</text>
</g>
<g baseline-shift="-50%" cb-anchor-x="4905" cb-anchor-y="1785" cb-classname="PointDescription" cb-content="extended" cb-labeled="false" cb-max-width="240" cb-source="FB-Pc7-C5" class="algorithm" id="53b" text-anchor="start">
<text baseline-shift="-50%" cb-classname="GraphicTextEntity" class="algorithm" id="53C" text-anchor="start" x="4905" y="1773">
DESC: Point not found in
</text>
<text baseline-shift="-50%" cb-classname="GraphicTextEntity" class="algorithm" id="1Bbh" text-anchor="start" x="4905" y="1798">
database (01B0201D12-LB)
</text>
</g>
</g>
<g cb-alg-OH="$384$cb-alg-tr$" cb-algorithm-id="010" cb-classname="ExternalPointInterface" cb-function-name="OUTPUT" id="53O">
<ellipse cb-classname="GraphicEllipseEntity" class="algorithm" cx="4800" cy="2040" id="53n" rx="50" ry="50"/>
<rect cb-classname="GraphicRectangleEntity" class="algorithm" height="100" id="53U" width="40" x="4850" y="1990"/>
<line cb-classname="GraphicLineEntity" class="algorithm" id="6IG" x1="4850" x2="4890" y1="2040" y2="2040"/>
<g cb-classname="ControlPin" cb-pin-name="9E-xjF-7q" id="6IF">
<line cb-classname="GraphicLineEntity" class="signalline" id="6Iw" x1="4720" x2="4750" y1="2040" y2="2040"/>
<polygon cb-classname="GraphicPolygonEntity" class="signal" id="6Ir" points="4750,2040 4739,2034 4739,2045"/>
<g cb-classname="DynamicText" cb-source="rq-R7q-Hgce" class="signal" id="6I4" text-anchor="end">
<text cb-classname="GraphicTextEntity" class="signal" fill="black" font-style="normal" font-weight="normal" id="6Ib" text-anchor="end" text-decoration="normal" x="4735" y="2037"/>
</g>
</g>
<g cb-classname="PointStatusIndicator" cb-indicator-type="highway" cb-source="1H-Dfa-6n" id="6IC" visibility="hidden">
<line cb-classname="GraphicLineEntity" class="algorithmline" id="6IO" x1="4750" x2="4800" y1="2040" y2="1990"/>
<line cb-classname="GraphicLineEntity" class="algorithmline" id="6In" x1="4800" x2="4850" y1="1990" y2="2040"/>
<line cb-classname="GraphicLineEntity" class="algorithmline" id="6IU" x1="4850" x2="4800" y1="2040" y2="2090"/>
<line cb-classname="GraphicLineEntity" class="algorithmline" id="6MG" x1="4800" x2="4750" y1="2090" y2="2040"/>
</g>
<g cb-classname="PointStatusIndicator" cb-indicator-type="hardware" cb-source="cT-J7i-pE" id="6MF" visibility="hidden">
<line cb-classname="GraphicLineEntity" class="algorithmline" id="6Mw" x1="4850" x2="4750" y1="1990" y2="1990"/>
<line cb-classname="GraphicLineEntity" class="algorithmline" id="6Mr" x1="4750" x2="4750" y1="1990" y2="2090"/>
<line cb-classname="GraphicLineEntity" class="algorithmline" id="6M4" x1="4750" x2="4850" y1="2090" y2="2090"/>
</g>
<g cb-classname="PointStatusIndicator" cb-indicator-type="alarm" cb-source="3k-6xs-Je" id="6Mb" visibility="visible">
<text cb-classname="GraphicTextEntity" class="algorithm" fill="#000000" font-family="Arial" font-size="20" id="6MC" x="4860" y="2075">
A
</text>
</g>
<g cb-classname="PointStatusIndicator" cb-indicator-type="ingraphic" cb-source="rq-CRl-j8" id="6MO" visibility="hidden">
<text cb-classname="GraphicTextEntity" class="algorithm" fill="#000000" font-family="Arial" font-size="20" id="6Mn" x="4860" y="2025">
G
</text>
</g>
<g cb-classname="DynamicText" cb-labeled="false" cb-pin-name="0B" cb-source="1H-Dfa-6n" class="algorithm" id="6MU" text-anchor="end">
<text baseline-shift="0%" cb-classname="GraphicTextEntity" class="algorithm" fill="black" font-family="arial" font-size="20" font-style="normal" font-weight="normal" id="6QG" text-anchor="end" text-decoration="normal" x="4725" y="2015"/>
</g>
<g baseline-shift="-100%" cb-anchor-x="4725" cb-anchor-y="2050" cb-classname="PointReferences" cb-max-width="130" cb-originator="false" cb-source="FB-Pc7-C5" class="signal" id="6QF" text-anchor="end">
<text baseline-shift="-100%" cb-classname="GraphicTextEntity" class="algorithm" id="6Qw" text-anchor="end" x="4725" y="2050">
REF: Point not
</text>
<text baseline-shift="-100%" cb-classname="GraphicTextEntity" class="algorithm" id="3I4Y" text-anchor="end" x="4725" y="2075">
found in
</text>
<text baseline-shift="-100%" cb-classname="GraphicTextEntity" class="algorithm" id="3I4T" text-anchor="end" x="4725" y="2100">
database
</text>
<text baseline-shift="-100%" cb-classname="GraphicTextEntity" class="algorithm" id="3I4f" text-anchor="end" x="4725" y="2125">
(01B0201D12-TR)
</text>
</g>
<g baseline-shift="-50%" cb-anchor-x="4905" cb-anchor-y="2055" cb-classname="PointDescription" cb-content="extended" cb-labeled="false" cb-max-width="240" cb-source="cT-J7i-pE" class="algorithm" id="6Q4" text-anchor="start">
<text baseline-shift="-50%" cb-classname="GraphicTextEntity" class="algorithm" id="6Qb" text-anchor="start" x="4905" y="2043">
DESC: Point not found in
</text>
<text baseline-shift="-50%" cb-classname="GraphicTextEntity" class="algorithm" id="1Bbr" text-anchor="start" x="4905" y="2068">
database (01B0201D12-TR)
</text>
</g>
</g>
</g>
<g cb-classname="IncludeDocument" cb-modify-time="09/25/2018 01:40:30" cb-objectname="Frame" id="5">
<text cb-classname="GraphicTextEntity" class="frame" font-size="50" id="3MGh" x="3660" y="3146">
Project Title &lt;Edit in FRAME.SVG&gt;
</text>
<g baseline-shift="-50%" cb-classname="DynamicText" cb-source="gz-LmV6-7o" class="frame" id="3MGr">
<text cb-classname="GraphicTextEntity" class="frame" fill="black" font-family="arial" font-size="25" font-style="normal" font-weight="normal" id="3MF0" text-decoration="normal" x="4715" y="3325">
13
</text>
</g>
<g baseline-shift="-50%" cb-classname="DynamicText" cb-source="3k-opdC-OL" class="frame" id="3MFs" text-anchor="middle">
<text cb-classname="GraphicTextEntity" class="frame" fill="black" font-family="arial" font-size="48" font-style="normal" font-weight="normal" id="3MF2" text-anchor="middle" text-decoration="normal" x="4900" y="3320">
13
</text>
</g>
<g baseline-shift="-50%" cb-classname="DynamicText" cb-source="rq-Zf6T-xo" class="frame" id="3MFi" text-anchor="middle">
<text cb-classname="GraphicTextEntity" class="frame" fill="black" font-family="arial" font-size="48" font-style="normal" font-weight="normal" id="3MFY" text-anchor="middle" text-decoration="normal" x="5067" y="3324">
4
</text>
</g>
<g cb-classname="DynamicText" cb-source="1H-6Hktk-qfHrh" class="frame" id="3MFT">
<text cb-classname="GraphicTextEntity" class="frame" fill="black" font-family="arial" font-size="48" font-style="normal" font-weight="normal" id="3MFf" text-decoration="normal" x="3660" y="3224">
BFPT EXHAUST DRN VLV - B0201D12
</text>
</g>
<g baseline-shift="-50%" cb-classname="DynamicText" cb-source="FB-CBqeq-ZurtZ9" class="frame" id="3MFj" text-anchor="middle">
<text cb-classname="GraphicTextEntity" class="frame" fill="black" font-family="arial" font-size="48" font-style="normal" font-weight="normal" id="3MFh" text-anchor="middle" text-decoration="normal" x="5270" y="3324">
132
</text>
</g>
<g baseline-shift="0%" cb-classname="DynamicText" cb-source="mh-xeAf9cdN" class="frame" id="3MFr" text-anchor="middle">
<text cb-classname="GraphicTextEntity" class="frame" fill="black" font-family="arial" font-size="36" font-style="normal" font-weight="normal" id="3Mw0" text-anchor="middle" text-decoration="normal" x="5270" y="3150">
A
</text>
</g>
<g baseline-shift="0%" cb-classname="DynamicText" cb-source="PN-FhvpOXLq-zxce" class="frame" id="3Mws" text-anchor="middle">
<text cb-classname="GraphicTextEntity" class="frame" fill="black" font-family="arial" font-size="20" font-style="normal" font-weight="normal" id="3Mw2" text-anchor="middle" text-decoration="normal" x="5270" y="3230">
12/28/2010
</text>
</g>
<g baseline-shift="-50%" cb-classname="DynamicText" cb-source="9E-5zFXtzEO" class="frame" id="3Mwi" text-anchor="end">
<text cb-classname="GraphicTextEntity" class="frame" fill="black" font-family="arial" font-size="26" font-style="normal" font-weight="normal" id="3MwY" text-anchor="end" text-decoration="normal" x="4500" y="3420">
Heczko
</text>
</g>
<g baseline-shift="-50%" cb-classname="DynamicText" cb-source="Ut-pTyJE2tx" class="frame" id="3MwT" text-anchor="end">
<text cb-classname="GraphicTextEntity" class="frame" fill="black" font-family="arial" font-size="26" font-style="normal" font-weight="normal" id="3Mwf" text-anchor="end" text-decoration="normal" x="5353" y="3420">
Nemec
</text>
</g>
<g cb-classname="GraphicShape" cb-tag="BORDER" id="3Mwj">
<line cb-classname="GraphicLineEntity" class="frameline" id="3Mwh" x1="40" x2="40" y1="40" y2="3460"/>
<line cb-classname="GraphicLineEntity" class="frameline" id="3Mwr" x1="40" x2="5380" y1="3460" y2="3460"/>
<line cb-classname="GraphicLineEntity" class="frameline" id="3Mr0" x1="5380" x2="5380" y1="3460" y2="40"/>
<line cb-classname="GraphicLineEntity" class="frameline" id="3Mrs" x1="5380" x2="40" y1="40" y2="40"/>
<line cb-classname="GraphicLineEntity" class="frame" id="3Mr2" x1="5430" x2="5440" y1="3510" y2="3510"/>
</g>
<g cb-classname="GraphicShape" cb-tag="TITLE BOX" id="3Mri">
<line cb-classname="GraphicLineEntity" class="frameline" id="3MrY" x1="2340" x2="2340" y1="3080" y2="3460"/>
<line cb-classname="GraphicLineEntity" class="frameline" id="3MrT" x1="2340" x2="5380" y1="3080" y2="3080"/>
<line cb-classname="GraphicLineEntity" class="frameline" id="3Mrf" x1="3650" x2="3650" y1="3460" y2="3080"/>
<line cb-classname="GraphicLineEntity" class="frameline" id="3Mrj" x1="3650" x2="5380" y1="3240" y2="3240"/>
<line cb-classname="GraphicLineEntity" class="frameline" id="3Mrh" x1="3650" x2="5380" y1="3390" y2="3390"/>
<line cb-classname="GraphicLineEntity" class="frameline" id="3Mrr" x1="3650" x2="5380" y1="3160" y2="3160"/>
<line cb-classname="GraphicLineEntity" class="frameline" id="3M40" x1="3650" x2="4520" y1="3320" y2="3320"/>
<line cb-classname="GraphicLineEntity" class="frameline" id="3M4s" x1="4520" x2="5380" y1="3290" y2="3290"/>
<line cb-classname="GraphicLineEntity" class="frameline" id="3M42" x1="4520" x2="5380" y1="3240" y2="3240"/>
<line cb-classname="GraphicLineEntity" class="frameline" id="3M4i" x1="4520" x2="4520" y1="3240" y2="3460"/>
<line cb-classname="GraphicLineEntity" class="frameline" id="3M4Y" x1="4810" x2="4810" y1="3240" y2="3390"/>
<line cb-classname="GraphicLineEntity" class="frameline" id="3M4T" x1="4990" x2="4990" y1="3240" y2="3390"/>
<line cb-classname="GraphicLineEntity" class="frameline" id="3M4f" x1="5150" x2="5150" y1="3080" y2="3390"/>
</g>
<g cb-classname="GraphicShape" cb-tag="TEXT LABELS" id="3M4j">
<text baseline-shift="-50%" cb-classname="GraphicTextEntity" class="frame" font-size="25" id="3M4h" text-anchor="middle" x="4890" y="3252">
Drop
</text>
<text baseline-shift="-50%" cb-classname="GraphicTextEntity" class="frame" font-size="25" id="3M4r" text-anchor="middle" x="5075" y="3252">
Task
</text>
<text baseline-shift="-50%" cb-classname="GraphicTextEntity" class="frame" font-size="25" id="3Mb0" text-anchor="middle" x="5265" y="3252">
Sheet
</text>
<text cb-classname="GraphicTextEntity" class="frame" font-size="25" id="3Mbs" x="5152" y="3107">
Rev.
</text>
<text cb-classname="GraphicTextEntity" class="frame" font-size="25" id="3Mb2" x="3653" y="3418">
Engineer
</text>
<text cb-classname="GraphicTextEntity" class="frame" font-size="25" id="3Mbi" x="4528" y="3419">
Approved
</text>
<text cb-classname="GraphicTextEntity" class="frame" font-size="25" id="3MbY" x="5152" y="3187">
Date
</text>
<text baseline-shift="-50%" cb-classname="GraphicTextEntity" class="frame" font-size="25" id="3MbT" text-anchor="middle" x="4660" y="3252">
Drawing Number
</text>
<text baseline-shift="-50%" cb-classname="GraphicTextEntity" class="frame" font-size="25" id="3Mbf" text-anchor="middle" x="4680" y="3325">
CTL
</text>
</g>
<text baseline-shift="-50%" cb-classname="GraphicTextEntity" class="frame" font-size="48" id="3Mbj" text-anchor="middle" x="3000" y="3100">
EMERSON PROCESS MANAGEMENT
</text>
<g baseline-shift="-100%" cb-anchor-x="2360" cb-anchor-y="3140" cb-classname="GroupText" cb-max-width="1260" fill="black" id="3Mbh">
<text baseline-shift="-100%" cb-classname="GraphicTextEntity" class="frame" fill="black" font-family="arial" font-size="22" font-weight="normal" id="3Mbr" text-anchor="start" text-decoration="normal" x="2360" y="3140">
THIS DOCUMENT CONTAINS INFORMATION PROPRIETARY TO EMERSON PROCESS
</text>
<text baseline-shift="-100%" cb-classname="GraphicTextEntity" class="frame" fill="black" font-family="arial" font-size="22" font-weight="normal" id="3MC0" text-anchor="start" text-decoration="normal" x="2360" y="3176">
MANAGEMENT POWER &amp; WATER SOLUTIONS, INC. IT IS SUBMITTED IN CONFIDENCE AND
</text>
<text baseline-shift="-100%" cb-classname="GraphicTextEntity" class="frame" fill="black" font-family="arial" font-size="22" font-weight="normal" id="3MCs" text-anchor="start" text-decoration="normal" x="2360" y="3212">
TRUST, IS TO BE USED BY YOU SOLELY FOR THE PURPOSES FOR WHICH IT IS
</text>
<text baseline-shift="-100%" cb-classname="GraphicTextEntity" class="frame" fill="black" font-family="arial" font-size="22" font-weight="normal" id="3MC2" text-anchor="start" text-decoration="normal" x="2360" y="3248">
FURNISHED AND IS TO BE RETURNED UPON REQUEST. THIS DOCUMENT AND ANY
</text>
<text baseline-shift="-100%" cb-classname="GraphicTextEntity" class="frame" fill="black" font-family="arial" font-size="22" font-weight="normal" id="3MCi" text-anchor="start" text-decoration="normal" x="2360" y="3284">
OTHER INFORMATION PROVIDED TO YOU IS NOT TO BE REPRODUCED, TRANSMITTED,
</text>
<text baseline-shift="-100%" cb-classname="GraphicTextEntity" class="frame" fill="black" font-family="arial" font-size="22" font-weight="normal" id="3MCY" text-anchor="start" text-decoration="normal" x="2360" y="3320">
DISCLOSED, OR USED OTHERWISE IN WHOLE OR IN PART WITHOUT THE PRIOR
</text>
<text baseline-shift="-100%" cb-classname="GraphicTextEntity" class="frame" fill="black" font-family="arial" font-size="22" font-weight="normal" id="3MCT" text-anchor="start" text-decoration="normal" x="2360" y="3356">
WRITTEN AUTHORIZATION OF EMERSON PROCESS MANAGEMENT POWER &amp; WATER
</text>
<text baseline-shift="-100%" cb-classname="GraphicTextEntity" class="frame" fill="black" font-family="arial" font-size="22" font-weight="normal" id="3MCf" text-anchor="start" text-decoration="normal" x="2360" y="3392">
SOLUTIONS,INC.
</text>
</g>
</g>
</svg>