<?xml version="1.0" ?><svg cb-auto-time="06/22/2008 17:45:24" cb-classname="ControlFunction" cb-create-time="03/12/2008" cb-drop-id="13" cb-engineer="Heczko" cb-filename="Z:\OVATION\NET0\UNIT0\CONTROLFUNCTIONS\01A7.svg" cb-function-id="01A7" cb-key="433215255112" cb-modified-timestamp="1489320078" cb-modify-id="00000002" cb-ortho-mode="enabled" cb-path="Z:/OVATION/NET0/UNIT0/CONTROLFUNCTIONS" cb-reviewer="Nemec" cb-revision="A" cb-revision-time="12/28/2010" cb-sheet-number="133" cb-sheet-title="BFPT GLND STM STRNR DRN VLV-B0201D13" cb-snap-grid="10" cb-task-id="4" height="3707" id="1" width="5450" xmlns="http://www.w3.org/2000/svg">
<style cb-classname="EntityStyle" id="2" type="text/css">
	.algorithm { fill: white; stroke: black; stroke-linecap: round; stroke-width: 2 }
	.algorithm-function { fill: none; stroke: black; stroke-linecap: round; stroke-width: 2 }
	.algorithm-functionline { fill: none; stroke: black; stroke-linecap: round; stroke-width: 2 }
	.algorithm-name { fill: none; stroke: black; stroke-linecap: round; stroke-width: 2 }
	.algorithm-nameline { fill: none; stroke: black; stroke-linecap: round; stroke-width: 2 }
	.algorithm-sequence { fill: none; stroke: black; stroke-linecap: round; stroke-width: 2 }
	.algorithm-sequenceline { fill: none; stroke: black; stroke-linecap: round; stroke-width: 2 }
	.algorithmline { fill: none; stroke: black; stroke-linecap: round; stroke-width: 2 }
	.annotation { fill: none; stroke: black; stroke-linecap: round; stroke-width: 2 }
	.annotationline { fill: none; stroke: black; stroke-linecap: round; stroke-width: 2 }
	.frame { fill: none; stroke: black; stroke-linecap: round; stroke-width: 2 }
	.frameline { fill: none; stroke: black; stroke-linecap: round; stroke-width: 2 }
	.signal { fill: black; stroke: black; stroke-linecap: round; stroke-width: 2 }
	.signalline { fill: none; stroke: black; stroke-linecap: round; stroke-width: 2 }
	text.algorithm { fill: black; font-family: MS Shell Dlg 2; font-size: 14; stroke: none }
	text.algorithm-function { fill: black; font-family: MS Shell Dlg 2; font-size: 16; stroke: none }
	text.algorithm-name { fill: black; font-family: MS Shell Dlg 2; font-size: 16; stroke: none }
	text.algorithm-sequence { fill: black; font-family: MS Shell Dlg 2; font-size: 16; stroke: none }
	text.annotation { fill: black; font-family: MS Shell Dlg 2; font-size: 16; stroke: none }
	text.frame { fill: black; font-family: MS Shell Dlg 2; font-size: 16; stroke: none }
	text.signal { fill: black; font-family: MS Shell Dlg 2; font-size: 12; stroke: none }
</style>
<g cb-classname="NamedObject" cb-objectname="Comments" id="3">
<text cb-classname="GraphicTextEntity" class="annotation" fill="#000000" font-family="MS Shell Dlg 2" font-size="72" id="6gd" x="2720" y="1510">
PCMS1
</text>
</g>
<g cb-classname="AlgorithmContainer" cb-objectname="Algorithms" id="4">
<g cb-alg-a2B="01B0201D13-KB" cb-alg-diUT="128" cb-alg-lzMT="5" cb-algorithm-id="002" cb-classname="ControlAlgorithm" cb-function-name="KEYBOARD" cb-modify-id="00000001" id="6b">
<rect cb-classname="GraphicRectangleEntity" class="annotation" height="200" id="6g" stroke-width="1" width="140" x="1410" y="540"/>
<g cb-classname="ControlPin" cb-pin-name="rF-Qhw-brWM" id="6o">
<line cb-classname="GraphicLineEntity" class="signalline" id="6y" x1="1550" x2="1560" y1="550" y2="550"/>
<g cb-classname="DynamicText" cb-source="Xw-UXa-DtI6" class="signal" id="6G" text-anchor="start">
<text cb-classname="GraphicTextEntity" class="signal" fill="black" font-style="normal" font-weight="normal" id="7K" text-anchor="start" text-decoration="normal" x="1564" y="547"/>
</g>
<g cb-classname="SignalSegment" id="7Q">
<line cb-classname="GraphicLineEntity" class="signalline" id="7R" stroke="#1e12bf" stroke-dasharray="5,4" x1="1560" x2="2330" y1="550" y2="550"/>
<g cb-classname="SignalSegment" id="7H">
<line cb-classname="GraphicLineEntity" class="signalline" id="7x" stroke="#1e12bf" stroke-dasharray="5,4" x1="2330" x2="2330" y1="550" y2="620"/>
<g cb-classname="SignalSegment" id="7b">
<line cb-classname="GraphicLineEntity" class="signalline" id="7g" stroke="#1e12bf" stroke-dasharray="5,4" x1="2330" x2="2500" y1="620" y2="620"/>
<g cb-classname="SignalConnection" cb-graphic-line="$76$" cb-input-pin="$5oq$" id="7o"/>
</g>
</g>
</g>
</g>
<g cb-classname="ControlPin" cb-pin-name="cL-43Z-qjb4" id="7y">
<line cb-classname="GraphicLineEntity" class="signalline" id="7G" x1="1550" x2="1560" y1="570" y2="570"/>
<g cb-classname="DynamicText" cb-source="rF-iZt-alVS" class="signal" id="8K" text-anchor="start">
<text cb-classname="GraphicTextEntity" class="signal" fill="black" font-style="normal" font-weight="normal" id="8Q" text-anchor="start" text-decoration="normal" x="1564" y="567"/>
</g>
<g cb-classname="SignalSegment" id="8R">
<line cb-classname="GraphicLineEntity" class="signalline" id="8H" stroke="#1e12bf" stroke-dasharray="5,4" x1="1560" x2="2310" y1="570" y2="570"/>
<g cb-classname="SignalSegment" id="8x">
<line cb-classname="GraphicLineEntity" class="signalline" id="8b" stroke="#1e12bf" stroke-dasharray="5,4" x1="2310" x2="2310" y1="570" y2="660"/>
<g cb-classname="SignalSegment" id="8g">
<line cb-classname="GraphicLineEntity" class="signalline" id="8o" stroke="#1e12bf" stroke-dasharray="5,4" x1="2310" x2="2500" y1="660" y2="660"/>
<g cb-classname="SignalConnection" cb-graphic-line="$87$" cb-input-pin="$kF6$" id="8y"/>
</g>
</g>
</g>
</g>
<g cb-classname="ControlPin" cb-pin-name="Th-QWU-eFGh" id="8G">
<line cb-classname="GraphicLineEntity" class="signalline" id="9K" x1="1550" x2="1560" y1="590" y2="590"/>
<g cb-classname="DynamicText" cb-source="cL-5TN-t6ph" class="signal" id="9Q" text-anchor="start">
<text cb-classname="GraphicTextEntity" class="signal" fill="black" font-style="normal" font-weight="normal" id="9R" text-anchor="start" text-decoration="normal" x="1564" y="587"/>
</g>
</g>
<g cb-classname="ControlPin" cb-pin-name="AF-tzu-q6q" id="1Kd">
<line cb-classname="GraphicLineEntity" class="signalline" id="1K7" x1="1550" x2="1560" y1="610" y2="610"/>
<g cb-classname="DynamicText" cb-source="Th-ish-qIsQ" class="signal" id="1Kw" text-anchor="start">
<text cb-classname="GraphicTextEntity" class="signal" fill="black" font-style="normal" font-weight="normal" id="1KP" text-anchor="start" text-decoration="normal" x="1564" y="607"/>
</g>
</g>
<g cb-classname="ControlPin" cb-pin-name="qH-le8-iya" id="1Q7">
<line cb-classname="GraphicLineEntity" class="signalline" id="1Qw" x1="1550" x2="1560" y1="640" y2="640"/>
<g cb-classname="DynamicText" cb-source="AF-0fG-h6bm" class="signal" id="1QP" text-anchor="start">
<text cb-classname="GraphicTextEntity" class="signal" fill="black" font-style="normal" font-weight="normal" id="1QI" text-anchor="start" text-decoration="normal" x="1564" y="637"/>
</g>
<g cb-classname="SignalSegment" id="1Qe">
<line cb-classname="GraphicLineEntity" class="signalline" id="1QL" stroke="#1e12bf" stroke-dasharray="5,4" x1="1560" x2="2210" y1="640" y2="640"/>
<g cb-classname="SignalSegment" id="1QA">
<line cb-classname="GraphicLineEntity" class="signalline" id="1Qx" stroke="#1e12bf" stroke-dasharray="5,4" x1="2210" x2="2210" y1="640" y2="780"/>
<g cb-classname="SignalSegment" id="1QZ">
<line cb-classname="GraphicLineEntity" class="signalline" id="1Rd" stroke="#1e12bf" stroke-dasharray="5,4" x1="2210" x2="2500" y1="780" y2="780"/>
<g cb-classname="SignalConnection" cb-graphic-line="$120$" cb-input-pin="$J03$" id="1R7"/>
</g>
</g>
</g>
</g>
<g cb-classname="ControlPin" cb-pin-name="x3-6T9-0mW" id="1Rw">
<line cb-classname="GraphicLineEntity" class="signalline" id="1RP" x1="1550" x2="1560" y1="660" y2="660"/>
<g cb-classname="DynamicText" cb-source="qH-rLM-GkqY" class="signal" id="1RI" text-anchor="start">
<text cb-classname="GraphicTextEntity" class="signal" fill="black" font-style="normal" font-weight="normal" id="1Re" text-anchor="start" text-decoration="normal" x="1564" y="657"/>
</g>
<g cb-classname="SignalSegment" id="1RL">
<line cb-classname="GraphicLineEntity" class="signalline" id="1RA" stroke="#1e12bf" stroke-dasharray="5,4" x1="1560" x2="2170" y1="660" y2="660"/>
<g cb-classname="SignalSegment" id="1Rx">
<line cb-classname="GraphicLineEntity" class="signalline" id="1RZ" stroke="#1e12bf" stroke-dasharray="5,4" x1="2170" x2="2170" y1="660" y2="820"/>
<g cb-classname="SignalSegment" id="1Hd">
<line cb-classname="GraphicLineEntity" class="signalline" id="1H7" stroke="#1e12bf" stroke-dasharray="5,4" x1="2170" x2="2500" y1="820" y2="820"/>
<g cb-classname="SignalConnection" cb-graphic-line="$131$" cb-input-pin="$mJE$" id="1Hw"/>
</g>
</g>
</g>
</g>
<g cb-classname="ControlPin" cb-pin-name="0t-5gg-ron" id="1HP">
<line cb-classname="GraphicLineEntity" class="signalline" id="1HI" x1="1550" x2="1560" y1="680" y2="680"/>
<g cb-classname="DynamicText" cb-source="x3-IH2-MjUR" class="signal" id="1He" text-anchor="start">
<text cb-classname="GraphicTextEntity" class="signal" fill="black" font-style="normal" font-weight="normal" id="1HL" text-anchor="start" text-decoration="normal" x="1564" y="677"/>
</g>
</g>
<g cb-classname="ControlPin" cb-pin-name="qH-le8-iyi" id="1HA">
<line cb-classname="GraphicLineEntity" class="signalline" id="1Hx" x1="1550" x2="1560" y1="700" y2="700"/>
<g cb-classname="DynamicText" cb-source="AF-0fG-h6bm" class="signal" id="1HZ" text-anchor="start">
<text cb-classname="GraphicTextEntity" class="signal" fill="black" font-style="normal" font-weight="normal" id="1xd" text-anchor="start" text-decoration="normal" x="1564" y="697"/>
</g>
</g>
<text cb-classname="GraphicTextEntity" class="annotation" fill="#000000" font-family="MS Shell Dlg 2" font-size="8" id="1x7" x="1450" y="630">
KEYBOARD
</text>
<g cb-classname="DynamicText" cb-labeled="false" cb-source="0t-5gg-le8" class="algorithm" id="1QLi" text-anchor="start">
<text cb-classname="GraphicTextEntity" class="algorithm" fill="black" font-style="normal" font-weight="normal" id="1QLG" text-anchor="start" text-decoration="normal" x="1410" y="520"/>
</g>
<g cb-classname="ControlPin" cb-pin-name="rX-Lmp-Odi" id="1oLG">
<line cb-classname="GraphicLineEntity" class="signalline" id="1oL3" x1="1550" x2="1560" y1="720" y2="720"/>
<g cb-classname="DynamicText" cb-source="FK-3fv-Z1pL" class="signal" id="1oLP" text-anchor="start">
<text cb-classname="GraphicTextEntity" class="signal" fill="black" font-style="normal" font-weight="normal" id="1oLm" text-anchor="start" text-decoration="normal" x="1564" y="717"/>
</g>
<g cb-classname="SignalSegment" id="1oLW">
<line cb-classname="GraphicLineEntity" class="signalline" id="1oLv" stroke="#1e12bf" stroke-dasharray="5,4" x1="1560" x2="2140" y1="720" y2="720"/>
<g cb-classname="SignalSegment" id="1oLc">
<line cb-classname="GraphicLineEntity" class="signalline" id="1oLL" stroke="#1e12bf" stroke-dasharray="5,4" x1="2140" x2="2140" y1="720" y2="860"/>
<g cb-classname="SignalSegment" id="1oLD">
<line cb-classname="GraphicLineEntity" class="signalline" id="1oAi" stroke="#1e12bf" stroke-dasharray="5,4" x1="2140" x2="2500" y1="860" y2="860"/>
<g cb-classname="SignalConnection" cb-graphic-line="$1770$" cb-input-pin="$JriK$" id="1oAG"/>
</g>
</g>
</g>
</g>
</g>
<g cb-alg-d9Lp="NO" cb-alg-doG="01B0201D04-EPO" cb-algorithm-id="005" cb-classname="ExternalPointInterface" cb-function-name="INPUT" id="1Gd">
<ellipse cb-classname="GraphicEllipseEntity" class="algorithm" cx="630" cy="1240" id="1G7" rx="50" ry="50"/>
<rect cb-classname="GraphicRectangleEntity" class="algorithm" height="100" id="1Gw" width="40" x="540" y="1190"/>
<line cb-classname="GraphicLineEntity" class="algorithm" id="1GP" x1="540" x2="580" y1="1240" y2="1240"/>
<g cb-classname="ControlPin" cb-pin-name="Jl-knc-OMZ" id="1GI">
<line cb-classname="GraphicLineEntity" class="signalline" id="1Ge" x1="680" x2="710" y1="1240" y2="1240"/>
<g cb-classname="DynamicText" cb-source="Fv-ABv-ELQW" class="signal" id="1GL" text-anchor="start">
<text cb-classname="GraphicTextEntity" class="signal" fill="black" font-style="normal" font-weight="normal" id="1GA" text-anchor="start" text-decoration="normal" x="694" y="1237"/>
</g>
<g cb-classname="SignalSegment" id="1GxG">
<line cb-classname="GraphicLineEntity" class="signalline" id="1Gxv" stroke="#1e12bf" stroke-dasharray="5,4" x1="710" x2="1020" y1="1240" y2="1240"/>
<g cb-classname="SignalSegment" id="1Gxc">
<line cb-classname="GraphicLineEntity" class="signalline" id="1GxL" stroke="#1e12bf" stroke-dasharray="5,4" x1="1020" x2="1020" y1="1240" y2="1260"/>
<g cb-classname="SignalSegment" id="1GxD">
<line cb-classname="GraphicLineEntity" class="signalline" id="1GZi" stroke="#1e12bf" stroke-dasharray="5,4" x1="1020" x2="1090" y1="1260" y2="1260"/>
<g cb-classname="SignalConnection" cb-graphic-line="$1990$" cb-input-pin="$GlYf$" id="1GZG"/>
</g>
<line cb-classname="GraphicLineEntity" class="signalline" id="1Gxm" stroke="#1e12bf" stroke-dasharray="5,4" x1="1020" x2="1090" y1="1240" y2="1240"/>
<g cb-classname="SignalConnection" cb-graphic-line="$1984$" cb-input-pin="$ZUe7$" id="1GxW"/>
<ellipse cb-classname="GraphicEllipseEntity" class="signal" cx="1020" cy="1240" fill="#1e12bf" id="1GZ3" rx="5" ry="5" stroke="#1e12bf" stroke-dasharray="5,4"/>
</g>
</g>
</g>
<g cb-classname="PointStatusIndicator" cb-indicator-type="Highway" cb-source="rX-Lmp-Ly2" id="2K7" visibility="hidden">
<line cb-classname="GraphicLineEntity" class="algorithmline" id="2Kw" x1="580" x2="630" y1="1240" y2="1190"/>
<line cb-classname="GraphicLineEntity" class="algorithmline" id="2KP" x1="630" x2="680" y1="1190" y2="1240"/>
<line cb-classname="GraphicLineEntity" class="algorithmline" id="2KI" x1="680" x2="630" y1="1240" y2="1290"/>
<line cb-classname="GraphicLineEntity" class="algorithmline" id="2Ke" x1="630" x2="580" y1="1290" y2="1240"/>
</g>
<g cb-classname="PointStatusIndicator" cb-indicator-type="hardware" cb-source="Th-QWU-MFG" id="2KL" visibility="visible">
<line cb-classname="GraphicLineEntity" class="algorithmline" id="2KA" x1="580" x2="680" y1="1190" y2="1190"/>
<line cb-classname="GraphicLineEntity" class="algorithmline" id="2Kx" x1="680" x2="680" y1="1190" y2="1290"/>
<line cb-classname="GraphicLineEntity" class="algorithmline" id="2KZ" x1="680" x2="580" y1="1290" y2="1290"/>
</g>
<g cb-classname="PointStatusIndicator" cb-indicator-type="alarm" cb-source="rF-Qhw-b8X" id="2Qd" visibility="hidden">
<text cb-classname="GraphicTextEntity" class="algorithm" fill="#000000" font-family="arial" font-size="20" id="2Q7" x="550" y="1225">
A
</text>
</g>
<g cb-classname="PointStatusIndicator" cb-indicator-type="ingraphic" cb-source="Xw-AjP-fY0" id="2Qw" visibility="visible">
<text cb-classname="GraphicTextEntity" class="algorithm" fill="#000000" font-family="Arial" font-size="20" id="2QP" x="550" y="1275">
G
</text>
</g>
<g baseline-shift="-50%" cb-anchor-x="530" cb-anchor-y="1254" cb-classname="PointDescription" cb-content="extended" cb-labeled="false" cb-max-width="220" cb-source="rX-Lmp-Ly2" class="algorithm" id="2QI" text-anchor="end">
<text baseline-shift="-50%" cb-classname="GraphicTextEntity" class="algorithm" id="2Qe" text-anchor="end" x="530" y="1229">
DESC: Point not found in
</text>
<text baseline-shift="-50%" cb-classname="GraphicTextEntity" class="algorithm" id="2Rem" text-anchor="end" x="530" y="1254">
database
</text>
<text baseline-shift="-50%" cb-classname="GraphicTextEntity" class="algorithm" id="2yZi" text-anchor="end" x="530" y="1279">
(01B0201D04-EPO)
</text>
</g>
<g cb-classname="DynamicText" cb-labeled="false" cb-pin-name="Srd" cb-source="FK-jdT-5et" class="algorithm" id="2QL" text-anchor="start">
<text baseline-shift="0%" cb-classname="GraphicTextEntity" class="algorithm" fill="black" font-family="arial" font-size="20" font-style="normal" font-weight="normal" id="2QA" text-anchor="start" text-decoration="normal" x="700" y="1210"/>
</g>
<g baseline-shift="-100%" cb-anchor-x="700" cb-anchor-y="1250" cb-classname="PointReferences" cb-max-width="230" cb-originator="true" cb-source="Cq-jNj-vyd" class="signal" id="2Qx" text-anchor="start">
<text baseline-shift="-100%" cb-classname="GraphicTextEntity" class="algorithm" id="2QZ" text-anchor="start" x="700" y="1250">
REF: Point not found in
</text>
<text baseline-shift="-100%" cb-classname="GraphicTextEntity" class="algorithm" id="2yZG" text-anchor="start" x="700" y="1275">
database
</text>
<text baseline-shift="-100%" cb-classname="GraphicTextEntity" class="algorithm" id="2yZ3" text-anchor="start" x="700" y="1300">
(01B0201D04-EPO)
</text>
</g>
</g>
<g cb-alg-GQ9w="2.5" cb-alg-PB5w="96" cb-alg-TNG="$190$cb-alg-out$" cb-alg-jN3g="$190$cb-alg-out$" cb-alg-tQ1s="0.1" cb-algorithm-id="00C" cb-classname="ControlAlgorithm" cb-function-name="ONDELAY" cb-modify-id="00000002" id="1Gem">
<rect cb-classname="GraphicRectangleEntity" class="algorithm" height="60" id="1GeW" width="60" x="1110" y="1220"/>
<text baseline-shift="-50%" cb-classname="GraphicTextEntity" class="algorithm" font-size="18" id="1Gev" text-anchor="middle" x="1139" y="1232">
TD
</text>
<text cb-classname="GraphicTextEntity" class="algorithm" font-size="18" id="1Gec" text-anchor="middle" x="1139" y="1267">
ON
</text>
<g cb-classname="ControlPin" cb-pin-name="FK-jdT-shD" id="1GeL">
<line cb-classname="GraphicLineEntity" class="signalline" id="1GeD" x1="1090" x2="1110" y1="1240" y2="1240"/>
<polygon cb-classname="GraphicPolygonEntity" class="signal" id="1GLi" points="1110,1240 1099,1236 1099,1244"/>
<g cb-classname="DynamicText" cb-source="Th-ish-qIsQ" class="signal" id="1GLG" text-anchor="end">
<text baseline-shift="5%" cb-classname="GraphicTextEntity" class="signal" fill="black" font-style="normal" font-weight="normal" id="1GL3" text-anchor="end" text-decoration="normal" x="1074" y="1236"/>
</g>
</g>
<g cb-classname="ControlPin" cb-pin-name="cL-43Z-Sn8" id="1GLP">
<line cb-classname="GraphicLineEntity" class="signalline" id="1GLm" x1="1170" x2="1190" y1="1240" y2="1240"/>
<g cb-classname="DynamicText" cb-source="rF-iZt-alVS" class="signal" id="1GLW">
<text baseline-shift="5%" cb-classname="GraphicTextEntity" class="signal" fill="black" font-style="normal" font-weight="normal" id="1GLv" text-decoration="normal" x="1206" y="1236"/>
</g>
<g cb-classname="SignalSegment" id="1GZP">
<g cb-classname="SignalConnection" cb-graphic-line="$1996$" cb-input-pin="$Wel$" id="1GZc"/>
<line cb-classname="GraphicLineEntity" class="signalline" id="1GZv" stroke="#1e12bf" stroke-dasharray="5,4" x1="1190" x2="2500" y1="1240" y2="1240"/>
</g>
</g>
<g cb-classname="ControlPin" cb-pin-name="Xw-AjP-WMlN" id="1GLc">
<line cb-classname="GraphicLineEntity" class="signalline" id="1GLL" x1="1090" x2="1110" y1="1260" y2="1260"/>
<polygon cb-classname="GraphicPolygonEntity" class="signal" id="1GLD" points="1110,1260 1099,1256 1099,1264"/>
<g cb-classname="DynamicText" cb-source="qH-rLM-GkqY" class="signal" id="1GAi" text-anchor="end">
<text baseline-shift="5%" cb-classname="GraphicTextEntity" class="signal" fill="black" font-style="normal" font-weight="normal" id="1GAG" text-anchor="end" text-decoration="normal" x="1074" y="1256"/>
</g>
</g>
<g cb-classname="GraphicShape" id="1GA3">
<g cb-classname="DynamicText" cb-labeled="true" cb-source="Cq-jNj-WeNa" id="1GAP">
<text cb-classname="GraphicTextEntity" class="algorithm" id="1GAm" text-anchor="start" x="1090" y="1190"/>
</g>
</g>
<g cb-classname="GraphicShape" id="1GAL">
<g cb-classname="DynamicText" cb-labeled="true" cb-source="0t-5gg-GjsT" id="1GAD">
<text cb-classname="GraphicTextEntity" class="algorithm" id="1Gxi" text-anchor="start" x="1090" y="1170"/>
</g>
</g>
</g>
<g cb-alg-1fQj="69" cb-alg-qjN3="0" cb-algorithm-id="006" cb-classname="ControlAlgorithm" cb-function-name="DVALGEN" cb-modify-id="00000001" id="2Rd">
<rect cb-classname="GraphicRectangleEntity" class="algorithm" height="100" id="2R7" width="140" x="1410" y="1360"/>
<text baseline-shift="-50%" cb-classname="GraphicTextEntity" class="algorithm" fill="#000000" font-family="MS Shell Dlg" font-size="18" id="2Rw" text-anchor="middle" x="1480" y="1410">
DVALGEN
</text>
<g cb-classname="ControlPin" cb-pin-name="rF-Qhw-b8X" id="2RP">
<line cb-classname="GraphicLineEntity" class="signalline" id="2RI" x1="1550" x2="1570" y1="1410" y2="1410"/>
<g cb-classname="DynamicText" cb-source="Xw-UXa-DtI6" class="signal" id="2Re" text-anchor="start">
<text cb-classname="GraphicTextEntity" class="signal" fill="black" font-style="normal" font-weight="normal" id="2RL" text-anchor="start" text-decoration="normal" x="1564" y="1407"/>
</g>
<g cb-classname="SignalSegment" id="2RA">
<line cb-classname="GraphicLineEntity" class="signalline" id="2Rx" stroke="#1e12bf" stroke-dasharray="5,4" x1="1570" x2="2340" y1="1410" y2="1410"/>
<g cb-classname="SignalSegment" id="2RZ">
<line cb-classname="GraphicLineEntity" class="signalline" id="2Hd" stroke="#1e12bf" stroke-dasharray="5,4" x1="2340" x2="2340" y1="1410" y2="1460"/>
<g cb-classname="SignalSegment" id="2H7">
<line cb-classname="GraphicLineEntity" class="signalline" id="2Hw" stroke="#1e12bf" stroke-dasharray="5,4" x1="2340" x2="2500" y1="1460" y2="1460"/>
<g cb-classname="SignalConnection" cb-graphic-line="$232$" cb-input-pin="$ogq$" id="2HP"/>
<line cb-classname="GraphicLineEntity" class="signalline" id="1RZc" stroke="#1e12bf" stroke-dasharray="5,4" x1="2340" x2="2340" y1="1460" y2="1960"/>
<g cb-classname="SignalSegment" id="1RZL">
<line cb-classname="GraphicLineEntity" class="signalline" id="1RZD" stroke="#1e12bf" stroke-dasharray="5,4" x1="2340" x2="2500" y1="1960" y2="1960"/>
<g cb-classname="SignalConnection" cb-graphic-line="$1299$" cb-input-pin="$xeG$" id="1Hdi"/>
</g>
<ellipse cb-classname="GraphicEllipseEntity" class="signal" cx="2340" cy="1460" fill="#1e12bf" id="1HdG" rx="5" ry="5" stroke="#1e12bf" stroke-dasharray="5,4"/>
</g>
<g cb-classname="SignalConnection" cb-graphic-line="$235$" cb-input-pin="$xPG$" id="2HI"/>
<line cb-classname="GraphicLineEntity" class="signalline" id="2He" stroke="#1e12bf" stroke-dasharray="5,4" x1="2340" x2="2500" y1="1410" y2="1410"/>
<ellipse cb-classname="GraphicEllipseEntity" class="signal" cx="2340" cy="1410" fill="#1e12bf" id="2HL" rx="5" ry="5" stroke="#1e12bf" stroke-dasharray="5,4"/>
<line cb-classname="GraphicLineEntity" class="signalline" id="1QIc" stroke="#1e12bf" stroke-dasharray="5,4" x1="2340" x2="2340" y1="1410" y2="1190"/>
<g cb-classname="SignalSegment" id="1QIL">
<line cb-classname="GraphicLineEntity" class="signalline" id="1QID" stroke="#1e12bf" stroke-dasharray="5,4" x1="2340" x2="2500" y1="1190" y2="1190"/>
<g cb-classname="SignalConnection" cb-graphic-line="$1149$" cb-input-pin="$GTh$" id="1Qei"/>
<line cb-classname="GraphicLineEntity" class="signalline" id="1QeG" stroke="#1e12bf" stroke-dasharray="5,4" x1="2340" x2="2340" y1="1190" y2="1150"/>
<g cb-classname="SignalSegment" id="1Qe3">
<line cb-classname="GraphicLineEntity" class="signalline" id="1QeP" stroke="#1e12bf" stroke-dasharray="5,4" x1="2340" x2="2500" y1="1150" y2="1150"/>
<g cb-classname="SignalConnection" cb-graphic-line="$1153$" cb-input-pin="$ZH8$" id="1Qem"/>
</g>
<ellipse cb-classname="GraphicEllipseEntity" class="signal" cx="2340" cy="1190" fill="#1e12bf" id="1QeW" rx="5" ry="5" stroke="#1e12bf" stroke-dasharray="5,4"/>
</g>
</g>
</g>
</g>
<g cb-classname="DynamicText" cb-labeled="true" cb-source="Jl-knc-TVjZ" class="algorithm" id="1Qev" text-anchor="start">
<text cb-classname="GraphicTextEntity" class="algorithm" fill="black" font-style="normal" font-weight="normal" id="1Qec" text-anchor="start" text-decoration="normal" x="1440" y="1350"/>
</g>
</g>
<g cb-alg-Sd6N="1" cb-alg-ZTQD="69" cb-algorithm-id="007" cb-classname="ControlAlgorithm" cb-function-name="DVALGEN" cb-modify-id="00000001" id="2HA">
<rect cb-classname="GraphicRectangleEntity" class="algorithm" height="100" id="2Hx" width="140" x="1410" y="1570"/>
<text baseline-shift="-50%" cb-classname="GraphicTextEntity" class="algorithm" fill="#000000" font-family="MS Shell Dlg" font-size="18" id="2HZ" text-anchor="middle" x="1480" y="1620">
DVALGEN
</text>
<g cb-classname="ControlPin" cb-pin-name="rX-Lmp-Ly2" id="2xd">
<line cb-classname="GraphicLineEntity" class="signalline" id="2x7" x1="1550" x2="1570" y1="1620" y2="1620"/>
<g cb-classname="DynamicText" cb-source="FK-3fv-Z1pL" class="signal" id="2xw" text-anchor="start">
<text cb-classname="GraphicTextEntity" class="signal" fill="black" font-style="normal" font-weight="normal" id="2xP" text-anchor="start" text-decoration="normal" x="1564" y="1617"/>
</g>
<g cb-classname="SignalSegment" id="2xI">
<line cb-classname="GraphicLineEntity" class="signalline" id="2xe" stroke="#1e12bf" stroke-dasharray="5,4" x1="1570" x2="2370" y1="1620" y2="1620"/>
<g cb-classname="SignalSegment" id="2xL">
<line cb-classname="GraphicLineEntity" class="signalline" id="2xA" stroke="#1e12bf" stroke-dasharray="5,4" x1="2370" x2="2370" y1="1620" y2="1670"/>
<g cb-classname="SignalSegment" id="2xx">
<line cb-classname="GraphicLineEntity" class="signalline" id="2xZ" stroke="#1e12bf" stroke-dasharray="5,4" x1="2370" x2="2500" y1="1670" y2="1670"/>
<g cb-classname="SignalConnection" cb-graphic-line="$249$" cb-input-pin="$WJx$" id="2bd"/>
</g>
<line cb-classname="GraphicLineEntity" class="signalline" id="2b7" stroke="#1e12bf" stroke-dasharray="5,4" x1="2370" x2="2500" y1="1620" y2="1620"/>
<g cb-classname="SignalConnection" cb-graphic-line="$251$" cb-input-pin="$8Gk$" id="2bw"/>
<ellipse cb-classname="GraphicEllipseEntity" class="signal" cx="2370" cy="1620" fill="#1e12bf" id="2bP" rx="5" ry="5" stroke="#1e12bf" stroke-dasharray="5,4"/>
</g>
</g>
</g>
<g cb-classname="DynamicText" cb-labeled="true" cb-source="Fv-d6D-5Lm2" class="algorithm" id="1QeL" text-anchor="start">
<text cb-classname="GraphicTextEntity" class="algorithm" fill="black" font-style="normal" font-weight="normal" id="1QeD" text-anchor="start" text-decoration="normal" x="1440" y="1560"/>
</g>
</g>
<g cb-alg-cfG="01B0201D13-EPO" cb-alg-cjTZ="NO" cb-algorithm-id="009" cb-classname="ExternalPointInterface" cb-function-name="INPUT" id="2yx">
<ellipse cb-classname="GraphicEllipseEntity" class="algorithm" cx="620" cy="1940" id="2yZ" rx="50" ry="50"/>
<rect cb-classname="GraphicRectangleEntity" class="algorithm" height="100" id="2Gd" width="40" x="530" y="1890"/>
<line cb-classname="GraphicLineEntity" class="algorithm" id="2G7" x1="530" x2="570" y1="1940" y2="1940"/>
<g cb-classname="ControlPin" cb-pin-name="rX-Lmp-Ly2" id="2Gw">
<line cb-classname="GraphicLineEntity" class="signalline" id="2GP" x1="670" x2="700" y1="1940" y2="1940"/>
<g cb-classname="DynamicText" cb-source="FK-3fv-Z1pL" class="signal" id="2GI" text-anchor="start">
<text cb-classname="GraphicTextEntity" class="signal" fill="black" font-style="normal" font-weight="normal" id="2Ge" text-anchor="start" text-decoration="normal" x="684" y="1937"/>
</g>
<g cb-classname="SignalSegment" id="2GL">
<line cb-classname="GraphicLineEntity" class="signalline" id="2GA" stroke="#1e12bf" stroke-dasharray="5,4" x1="700" x2="2020" y1="1940" y2="1940"/>
<g cb-classname="SignalSegment" id="2Gx">
<line cb-classname="GraphicLineEntity" class="signalline" id="2GZ" stroke="#1e12bf" stroke-dasharray="5,4" x1="2020" x2="2020" y1="1940" y2="2000"/>
<g cb-classname="SignalSegment" id="3Kd">
<line cb-classname="GraphicLineEntity" class="signalline" id="3K7" stroke="#1e12bf" stroke-dasharray="5,4" x1="2020" x2="2510" y1="2000" y2="2000"/>
<g cb-classname="SignalConnection" cb-graphic-line="$301$" cb-input-pin="$W8x$" id="3Kw"/>
</g>
</g>
</g>
</g>
<g cb-classname="PointStatusIndicator" cb-indicator-type="Highway" cb-source="Xw-AjP-fY0" id="3KP" visibility="hidden">
<line cb-classname="GraphicLineEntity" class="algorithmline" id="3KI" x1="570" x2="620" y1="1940" y2="1890"/>
<line cb-classname="GraphicLineEntity" class="algorithmline" id="3Ke" x1="620" x2="670" y1="1890" y2="1940"/>
<line cb-classname="GraphicLineEntity" class="algorithmline" id="3KL" x1="670" x2="620" y1="1940" y2="1990"/>
<line cb-classname="GraphicLineEntity" class="algorithmline" id="3KA" x1="620" x2="570" y1="1990" y2="1940"/>
</g>
<g cb-classname="PointStatusIndicator" cb-indicator-type="hardware" cb-source="AF-tzu-K5K" id="3Kx" visibility="visible">
<line cb-classname="GraphicLineEntity" class="algorithmline" id="3KZ" x1="570" x2="670" y1="1890" y2="1890"/>
<line cb-classname="GraphicLineEntity" class="algorithmline" id="3Qd" x1="670" x2="670" y1="1890" y2="1990"/>
<line cb-classname="GraphicLineEntity" class="algorithmline" id="3Q7" x1="670" x2="570" y1="1990" y2="1990"/>
</g>
<g cb-classname="PointStatusIndicator" cb-indicator-type="alarm" cb-source="cL-43Z-Sn8" id="3Qw" visibility="hidden">
<text cb-classname="GraphicTextEntity" class="algorithm" fill="#000000" font-family="arial" font-size="20" id="3QP" x="540" y="1925">
A
</text>
</g>
<g cb-classname="PointStatusIndicator" cb-indicator-type="ingraphic" cb-source="rF-Qhw-b8X" id="3QI" visibility="visible">
<text cb-classname="GraphicTextEntity" class="algorithm" fill="#000000" font-family="Arial" font-size="20" id="3Qe" x="540" y="1975">
G
</text>
</g>
<g baseline-shift="-50%" cb-anchor-x="520" cb-anchor-y="1954" cb-classname="PointDescription" cb-content="extended" cb-labeled="false" cb-max-width="220" cb-source="Xw-AjP-fY0" class="algorithm" id="3QL" text-anchor="end">
<text baseline-shift="-50%" cb-classname="GraphicTextEntity" class="algorithm" id="3QA" text-anchor="end" x="520" y="1929">
DESC: Point not found in
</text>
<text baseline-shift="-50%" cb-classname="GraphicTextEntity" class="algorithm" id="1oID" text-anchor="end" x="520" y="1954">
database
</text>
<text baseline-shift="-50%" cb-classname="GraphicTextEntity" class="algorithm" id="2yZP" text-anchor="end" x="520" y="1979">
(01B0201D13-EPO)
</text>
</g>
<g cb-classname="DynamicText" cb-labeled="false" cb-pin-name="eLK" cb-source="rX-Lmp-Ly2" class="algorithm" id="3Qx" text-anchor="start">
<text baseline-shift="0%" cb-classname="GraphicTextEntity" class="algorithm" fill="black" font-family="arial" font-size="20" font-style="normal" font-weight="normal" id="3QZ" text-anchor="start" text-decoration="normal" x="690" y="1910"/>
</g>
<g baseline-shift="-100%" cb-anchor-x="690" cb-anchor-y="1950" cb-classname="PointReferences" cb-max-width="230" cb-originator="true" cb-source="FK-jdT-5et" class="signal" id="3Rd" text-anchor="start">
<text baseline-shift="-100%" cb-classname="GraphicTextEntity" class="algorithm" id="3R7" text-anchor="start" x="690" y="1950">
REF: Point not found in
</text>
<text baseline-shift="-100%" cb-classname="GraphicTextEntity" class="algorithm" id="2yZm" text-anchor="start" x="690" y="1975">
database
</text>
<text baseline-shift="-100%" cb-classname="GraphicTextEntity" class="algorithm" id="2yZW" text-anchor="start" x="690" y="2000">
(01B0201D13-EPO)
</text>
</g>
</g>
<g cb-alg-02C="01B0201D13-EPZ" cb-alg-0vfT="NO" cb-algorithm-id="00a" cb-classname="ExternalPointInterface" cb-function-name="INPUT" id="3Rw">
<ellipse cb-classname="GraphicEllipseEntity" class="algorithm" cx="620" cy="2090" id="3RP" rx="50" ry="50"/>
<rect cb-classname="GraphicRectangleEntity" class="algorithm" height="100" id="3RI" width="40" x="530" y="2040"/>
<line cb-classname="GraphicLineEntity" class="algorithm" id="3Re" x1="530" x2="570" y1="2090" y2="2090"/>
<g cb-classname="ControlPin" cb-pin-name="Fv-d6D-doG" id="3RL">
<line cb-classname="GraphicLineEntity" class="signalline" id="3RA" x1="670" x2="700" y1="2090" y2="2090"/>
<g cb-classname="DynamicText" cb-source="0t-VDE-2jbK" class="signal" id="3Rx" text-anchor="start">
<text cb-classname="GraphicTextEntity" class="signal" fill="black" font-style="normal" font-weight="normal" id="3RZ" text-anchor="start" text-decoration="normal" x="684" y="2087"/>
</g>
<g cb-classname="SignalSegment" id="3Hd">
<line cb-classname="GraphicLineEntity" class="signalline" id="3H7" stroke="#1e12bf" stroke-dasharray="5,4" x1="700" x2="2070" y1="2090" y2="2090"/>
<g cb-classname="SignalSegment" id="3Hw">
<line cb-classname="GraphicLineEntity" class="signalline" id="3HP" stroke="#1e12bf" stroke-dasharray="5,4" x1="2070" x2="2070" y1="2090" y2="2040"/>
<g cb-classname="SignalSegment" id="3HI">
<line cb-classname="GraphicLineEntity" class="signalline" id="3He" stroke="#1e12bf" stroke-dasharray="5,4" x1="2070" x2="2490" y1="2040" y2="2040"/>
<g cb-classname="SignalConnection" cb-graphic-line="$335$" cb-input-pin="$k82$" id="3HL"/>
</g>
</g>
</g>
</g>
<g cb-classname="PointStatusIndicator" cb-indicator-type="Highway" cb-source="Jl-knc-OMZ" id="3HA" visibility="hidden">
<line cb-classname="GraphicLineEntity" class="algorithmline" id="3Hx" x1="570" x2="620" y1="2090" y2="2040"/>
<line cb-classname="GraphicLineEntity" class="algorithmline" id="3HZ" x1="620" x2="670" y1="2040" y2="2090"/>
<line cb-classname="GraphicLineEntity" class="algorithmline" id="3xd" x1="670" x2="620" y1="2090" y2="2140"/>
<line cb-classname="GraphicLineEntity" class="algorithmline" id="3x7" x1="620" x2="570" y1="2140" y2="2090"/>
</g>
<g cb-classname="PointStatusIndicator" cb-indicator-type="hardware" cb-source="Xw-AjP-fY0" id="3xw" visibility="visible">
<line cb-classname="GraphicLineEntity" class="algorithmline" id="3xP" x1="570" x2="670" y1="2040" y2="2040"/>
<line cb-classname="GraphicLineEntity" class="algorithmline" id="3xI" x1="670" x2="670" y1="2040" y2="2140"/>
<line cb-classname="GraphicLineEntity" class="algorithmline" id="3xe" x1="670" x2="570" y1="2140" y2="2140"/>
</g>
<g cb-classname="PointStatusIndicator" cb-indicator-type="alarm" cb-source="FK-jdT-5et" id="3xL" visibility="hidden">
<text cb-classname="GraphicTextEntity" class="algorithm" fill="#000000" font-family="arial" font-size="20" id="3xA" x="540" y="2075">
A
</text>
</g>
<g cb-classname="PointStatusIndicator" cb-indicator-type="ingraphic" cb-source="Cq-jNj-vyd" id="3xx" visibility="visible">
<text cb-classname="GraphicTextEntity" class="algorithm" fill="#000000" font-family="Arial" font-size="20" id="3xZ" x="540" y="2125">
G
</text>
</g>
<g baseline-shift="-50%" cb-anchor-x="520" cb-anchor-y="2104" cb-classname="PointDescription" cb-content="extended" cb-labeled="false" cb-max-width="220" cb-source="Jl-knc-OMZ" class="algorithm" id="3bd" text-anchor="end">
<text baseline-shift="-50%" cb-classname="GraphicTextEntity" class="algorithm" id="3b7" text-anchor="end" x="520" y="2079">
DESC: Point not found in
</text>
<text baseline-shift="-50%" cb-classname="GraphicTextEntity" class="algorithm" id="1oei" text-anchor="end" x="520" y="2104">
database
</text>
<text baseline-shift="-50%" cb-classname="GraphicTextEntity" class="algorithm" id="1oeG" text-anchor="end" x="520" y="2129">
(01B0201D13-EPZ)
</text>
</g>
<g cb-classname="DynamicText" cb-labeled="false" cb-pin-name="k5y" cb-source="Fv-d6D-doG" class="algorithm" id="3bw" text-anchor="start">
<text baseline-shift="0%" cb-classname="GraphicTextEntity" class="algorithm" fill="black" font-family="arial" font-size="20" font-style="normal" font-weight="normal" id="3bP" text-anchor="start" text-decoration="normal" x="690" y="2060"/>
</g>
<g baseline-shift="-100%" cb-anchor-x="690" cb-anchor-y="2100" cb-classname="PointReferences" cb-max-width="230" cb-originator="true" cb-source="0t-5gg-02C" class="signal" id="3bI" text-anchor="start">
<text baseline-shift="-100%" cb-classname="GraphicTextEntity" class="algorithm" id="3be" text-anchor="start" x="690" y="2100">
REF: Point not found in
</text>
<text baseline-shift="-100%" cb-classname="GraphicTextEntity" class="algorithm" id="2yZv" text-anchor="start" x="690" y="2125">
database
</text>
<text baseline-shift="-100%" cb-classname="GraphicTextEntity" class="algorithm" id="2yZc" text-anchor="start" x="690" y="2150">
(01B0201D13-EPZ)
</text>
</g>
</g>
<g cb-alg-5Lm2="60" cb-alg-fHlp="65" cb-algorithm-id="003" cb-classname="ControlAlgorithm" cb-function-name="AVALGEN" cb-modify-id="00000001" id="1bdP">
<polygon cb-classname="GraphicPolygonEntity" class="algorithm" id="1bdm" points="2000,2120 1940,2180 2000,2240 2060,2180"/>
<line cb-classname="GraphicLineEntity" class="algorithm" id="1bdW" x1="2000" x2="1990" y1="2160" y2="2190"/>
<line cb-classname="GraphicLineEntity" class="algorithm" id="1bdv" x1="2000" x2="2010" y1="2160" y2="2190"/>
<line cb-classname="GraphicLineEntity" class="algorithm" id="1bdc" x1="1994" x2="2006" y1="2180" y2="2180"/>
<g cb-classname="ControlPin" cb-pin-name="cL-43Z-Sn8" id="1bdL">
<line cb-classname="GraphicLineEntity" class="signalline" id="1bdD" x1="2000" x2="2000" y1="2240" y2="2260"/>
<g cb-classname="DynamicText" cb-source="rF-iZt-alVS" class="signal" id="1b7i" text-anchor="end">
<text cb-classname="GraphicTextEntity" class="signal" fill="black" font-style="normal" font-weight="normal" id="1b7G" text-anchor="end" text-decoration="normal" transform="translate(1997,2254)rotate(-90)"/>
</g>
<g cb-classname="SignalSegment" id="1bI3">
<line cb-classname="GraphicLineEntity" class="signalline" id="1bIP" x1="2000" x2="2000" y1="2260" y2="2380"/>
<g cb-classname="SignalSegment" id="1bIm">
<line cb-classname="GraphicLineEntity" class="signalline" id="1bIW" x1="2000" x2="2510" y1="2380" y2="2380"/>
<g cb-classname="SignalConnection" cb-graphic-line="$1545$" cb-input-pin="$6SgV$" id="1bIv"/>
</g>
</g>
</g>
<g cb-classname="DynamicText" cb-labeled="true" cb-source="Xw-AjP-Ctzy" class="algorithm" id="1b73" text-anchor="start">
<text cb-classname="GraphicTextEntity" class="algorithm" fill="black" font-family="arial" font-size="20" font-style="normal" font-weight="normal" id="1b7P" text-anchor="start" text-decoration="normal" x="1860" y="2240"/>
</g>
</g>
<g cb-alg-bAjo="60" cb-alg-yD6P="65" cb-algorithm-id="004" cb-classname="ControlAlgorithm" cb-function-name="AVALGEN" cb-modify-id="00000001" id="1b7m">
<polygon cb-classname="GraphicPolygonEntity" class="algorithm" id="1b7W" points="2160,2120 2100,2180 2160,2240 2220,2180"/>
<line cb-classname="GraphicLineEntity" class="algorithm" id="1b7v" x1="2160" x2="2150" y1="2160" y2="2190"/>
<line cb-classname="GraphicLineEntity" class="algorithm" id="1b7c" x1="2160" x2="2170" y1="2160" y2="2190"/>
<line cb-classname="GraphicLineEntity" class="algorithm" id="1b7L" x1="2154" x2="2166" y1="2180" y2="2180"/>
<g cb-classname="ControlPin" cb-pin-name="Th-QWU-MFG" id="1b7D">
<line cb-classname="GraphicLineEntity" class="signalline" id="1bwi" x1="2160" x2="2160" y1="2240" y2="2260"/>
<g cb-classname="DynamicText" cb-source="cL-5TN-t6ph" class="signal" id="1bwG" text-anchor="end">
<text cb-classname="GraphicTextEntity" class="signal" fill="black" font-style="normal" font-weight="normal" id="1bw3" text-anchor="end" text-decoration="normal" transform="translate(2157,2254)rotate(-90)"/>
</g>
<g cb-classname="SignalSegment" id="1bPc">
<line cb-classname="GraphicLineEntity" class="signalline" id="1bPL" x1="2160" x2="2160" y1="2260" y2="2330"/>
<g cb-classname="SignalSegment" id="1bPD">
<line cb-classname="GraphicLineEntity" class="signalline" id="1bIi" x1="2160" x2="2510" y1="2330" y2="2330"/>
<g cb-classname="SignalConnection" cb-graphic-line="$1540$" cb-input-pin="$kuel$" id="1bIG"/>
</g>
</g>
</g>
<g cb-classname="DynamicText" cb-labeled="true" cb-source="rF-Qhw-IleY" class="algorithm" id="1bwP" text-anchor="start">
<text cb-classname="GraphicTextEntity" class="algorithm" fill="black" font-family="arial" font-size="20" font-style="normal" font-weight="normal" id="1bwm" text-anchor="start" text-decoration="normal" x="2190" y="2240"/>
</g>
</g>
<g cb-alg-02C="01B02SG01-LLK" cb-alg-0vfT="NO" cb-algorithm-id="008" cb-classname="ExternalPointInterface" cb-function-name="INPUT" id="1yZW">
<ellipse cb-classname="GraphicEllipseEntity" class="algorithm" cx="630" cy="900" id="1yZv" rx="50" ry="50"/>
<rect cb-classname="GraphicRectangleEntity" class="algorithm" height="100" id="1yZc" width="40" x="540" y="850"/>
<line cb-classname="GraphicLineEntity" class="algorithm" id="1yZL" x1="540" x2="580" y1="900" y2="900"/>
<g cb-classname="ControlPin" cb-pin-name="Fv-d6D-doG" id="1yZD">
<line cb-classname="GraphicLineEntity" class="signalline" id="1Gdi" x1="680" x2="710" y1="900" y2="900"/>
<g cb-classname="DynamicText" cb-source="0t-VDE-2jbK" class="signal" id="1GdG" text-anchor="start">
<text cb-classname="GraphicTextEntity" class="signal" fill="black" font-style="normal" font-weight="normal" id="1Gd3" text-anchor="start" text-decoration="normal" x="694" y="897"/>
</g>
<g cb-classname="SignalSegment" id="1GPv">
<line cb-classname="GraphicLineEntity" class="signalline" id="1GIv" stroke="#1e12bf" stroke-dasharray="5,4" x1="710" x2="2140" y1="900" y2="900"/>
<g cb-classname="SignalSegment" id="1GIc">
<line cb-classname="GraphicLineEntity" class="signalline" id="1GIL" stroke="#1e12bf" stroke-dasharray="5,4" x1="2140" x2="2140" y1="900" y2="940"/>
<g cb-classname="SignalSegment" id="1GID">
<line cb-classname="GraphicLineEntity" class="signalline" id="1Gei" stroke="#1e12bf" stroke-dasharray="5,4" x1="2140" x2="2500" y1="940" y2="940"/>
<g cb-classname="SignalConnection" cb-graphic-line="$1950$" cb-input-pin="$IiJ$" id="1GeG"/>
</g>
<line cb-classname="GraphicLineEntity" class="signalline" id="1GPD" stroke="#1e12bf" stroke-dasharray="5,4" x1="2140" x2="2250" y1="900" y2="900"/>
<g cb-classname="SignalConnection" cb-graphic-line="$1939$" cb-input-pin="$JkgG$" id="1GIi"/>
<ellipse cb-classname="GraphicEllipseEntity" class="signal" cx="2140" cy="900" fill="#1e12bf" id="1Ge3" rx="5" ry="5" stroke="#1e12bf" stroke-dasharray="5,4"/>
</g>
</g>
</g>
<g cb-classname="PointStatusIndicator" cb-indicator-type="Highway" cb-source="x3-6T9-Bd3" id="1GdP" visibility="hidden">
<line cb-classname="GraphicLineEntity" class="algorithmline" id="1Gdm" x1="580" x2="630" y1="900" y2="850"/>
<line cb-classname="GraphicLineEntity" class="algorithmline" id="1GdW" x1="630" x2="680" y1="850" y2="900"/>
<line cb-classname="GraphicLineEntity" class="algorithmline" id="1Gdv" x1="680" x2="630" y1="900" y2="950"/>
<line cb-classname="GraphicLineEntity" class="algorithmline" id="1Gdc" x1="630" x2="580" y1="950" y2="900"/>
</g>
<g cb-classname="PointStatusIndicator" cb-indicator-type="hardware" cb-source="Cq-jNj-vyd" id="1GdL" visibility="hidden">
<line cb-classname="GraphicLineEntity" class="algorithmline" id="1GdD" x1="580" x2="680" y1="850" y2="850"/>
<line cb-classname="GraphicLineEntity" class="algorithmline" id="1G7i" x1="680" x2="680" y1="850" y2="950"/>
<line cb-classname="GraphicLineEntity" class="algorithmline" id="1G7G" x1="680" x2="580" y1="950" y2="950"/>
</g>
<g cb-classname="PointStatusIndicator" cb-indicator-type="alarm" cb-source="Fv-d6D-doG" id="1G73" visibility="hidden">
<text cb-classname="GraphicTextEntity" class="algorithm" fill="#000000" font-family="arial" font-size="20" id="1G7P" x="550" y="885">
A
</text>
</g>
<g cb-classname="PointStatusIndicator" cb-indicator-type="ingraphic" cb-source="0t-5gg-02C" id="1G7m" visibility="visible">
<text cb-classname="GraphicTextEntity" class="algorithm" fill="#000000" font-family="Arial" font-size="20" id="1G7W" x="550" y="935">
G
</text>
</g>
<g baseline-shift="-50%" cb-anchor-x="530" cb-anchor-y="914" cb-classname="PointDescription" cb-content="extended" cb-labeled="false" cb-max-width="220" cb-source="x3-6T9-Bd3" class="algorithm" id="1G7v" text-anchor="end">
<text baseline-shift="-50%" cb-classname="GraphicTextEntity" class="algorithm" id="1G7c" text-anchor="end" x="530" y="902">
DESC: Point not found in
</text>
<text baseline-shift="-50%" cb-classname="GraphicTextEntity" class="algorithm" id="1GeP" text-anchor="end" x="530" y="927">
database (01B02SG01-LLK)
</text>
</g>
<g cb-classname="DynamicText" cb-labeled="false" cb-pin-name="xse" cb-source="qH-le8-J3E" class="algorithm" id="1G7L" text-anchor="start">
<text baseline-shift="0%" cb-classname="GraphicTextEntity" class="algorithm" fill="black" font-family="arial" font-size="20" font-style="normal" font-weight="normal" id="1G7D" text-anchor="start" text-decoration="normal" x="700" y="870"/>
</g>
<g baseline-shift="-100%" cb-anchor-x="700" cb-anchor-y="910" cb-classname="PointReferences" cb-max-width="230" cb-originator="true" cb-source="AF-tzu-K5K" class="signal" id="1Gwi" text-anchor="start">
<text baseline-shift="-100%" cb-classname="GraphicTextEntity" class="algorithm" id="1GwG" text-anchor="start" x="700" y="910">
REF: Point not found in
</text>
<text baseline-shift="-100%" cb-classname="GraphicTextEntity" class="algorithm" id="2yZD" text-anchor="start" x="700" y="935">
database (01B02SG01-LLK)
</text>
</g>
</g>
<g cb-alg-LM6="$1895$cb-alg-out$" cb-algorithm-id="00b" cb-classname="FastBooleanAlgorithm" cb-function-name="NOT" cb-modify-id="00000001" id="1Gw3">
<rect cb-classname="GraphicRectangleEntity" class="algorithm" height="40" id="1GwP" width="40" x="2270" y="880"/>
<g cb-classname="ControlPin" cb-pin-name="cL-43Z-DEh" id="1Gwm">
<line cb-classname="GraphicLineEntity" class="signalline" id="1GwW" x1="2250" x2="2270" y1="900" y2="900"/>
<polygon cb-classname="GraphicPolygonEntity" class="signal" id="1Gwv" points="2270,900 2259,894 2259,905"/>
<g cb-classname="DynamicText" cb-source="0t-VDE-2jbK" class="signal" id="1Gwc" text-anchor="end">
<text cb-classname="GraphicTextEntity" class="signal" fill="black" font-style="normal" font-weight="normal" id="1GwL" text-anchor="end" text-decoration="normal" x="2255" y="897"/>
</g>
</g>
<g cb-classname="ControlPin" cb-pin-name="x3-6T9-Bd3" id="1GwD">
<line cb-classname="GraphicLineEntity" class="signalline" id="1GPi" x1="2310" x2="2330" y1="900" y2="900"/>
<g cb-classname="DynamicText" cb-source="qH-rLM-GkqY" class="signal" id="1GPG" text-anchor="start">
<text cb-classname="GraphicTextEntity" class="signal" fill="black" font-style="normal" font-weight="normal" id="1GP3" text-anchor="start" text-decoration="normal" x="2324" y="897"/>
</g>
<g cb-classname="SignalSegment" id="1GIG">
<g cb-classname="SignalConnection" cb-graphic-line="$1944$" cb-input-pin="$Ggl$" id="1GIW"/>
<line cb-classname="GraphicLineEntity" class="signalline" id="1GIm" stroke="#1e12bf" stroke-dasharray="5,4" x1="2330" x2="2500" y1="900" y2="900"/>
</g>
</g>
<line cb-classname="GraphicLineEntity" class="algorithm" id="1GPP" x1="2280" x2="2280" y1="890" y2="910"/>
<line cb-classname="GraphicLineEntity" class="algorithm" id="1GPm" x1="2280" x2="2300" y1="890" y2="910"/>
<line cb-classname="GraphicLineEntity" class="algorithm" id="1GPW" x1="2300" x2="2300" y1="910" y2="890"/>
</g>
<g cb-alg-56="$1922$cb-alg-out$" cb-alg-56z="$65$cb-alg-pk5$" cb-alg-5EL="$1895$cb-alg-out$" cb-alg-5d="$65$cb-alg-open$" cb-alg-5j9="$65$cb-alg-pk2$" cb-alg-5jz="$65$cb-alg-pk1$" cb-alg-5o="$65$cb-alg-clos$" cb-alg-Ad="$220$cb-alg-out$" cb-alg-Ajp="01B0201D13-ALM" cb-alg-Ajz="$220$cb-alg-out$" cb-alg-Ao="$1954$cb-alg-out$" cb-alg-RMi="01B0201D13-STS" cb-alg-SI8Qv="$1514$cb-alg-out$" cb-alg-UF3="$237$cb-alg-out$" cb-alg-UFb="$237$cb-alg-out$" cb-alg-YF3="$220$cb-alg-out$" cb-alg-YFb="$220$cb-alg-out$" cb-alg-gH="01B0201D13-LB" cb-alg-lP="01B0201D13-TR" cb-alg-qj8Qv="$1503$cb-alg-out$" cb-alg-sI3="$322$cb-alg-out$" cb-alg-sIb="$288$cb-alg-out$" cb-alg-sgK="$220$cb-alg-out$" cb-algorithm-id="001" cb-classname="ControlMacroReference" cb-function-name="PCMS1" cb-macro-crc="30660" cb-modify-id="00000001" id="3yI">
<rect cb-classname="GraphicRectangleEntity" class="annotation" height="1850" id="3ye" width="750" x="2530" y="580"/>
<g cb-classname="ControlPin" cb-pin-name="AF-tzu-cv" id="3yL">
<line cb-classname="GraphicLineEntity" class="signalline" id="3yA" x1="2500" x2="2530" y1="620" y2="620"/>
<polygon cb-classname="GraphicPolygonEntity" class="signal" id="3yx" points="2530,620 2519,614 2519,625"/>
<g cb-classname="DynamicText" cb-source="Jl-ejy-CV0T" class="signal" id="3yZ" text-anchor="end">
<text cb-classname="GraphicTextEntity" class="signal" fill="black" font-style="normal" font-weight="normal" id="3Gd" text-anchor="end" text-decoration="normal" x="2515" y="617"/>
</g>
</g>
<g cb-classname="ControlPin" cb-pin-name="Fv-d6D-V3" id="3G7">
<line cb-classname="GraphicLineEntity" class="signalline" id="3Gw" x1="2500" x2="2530" y1="660" y2="660"/>
<polygon cb-classname="GraphicPolygonEntity" class="signal" id="3GP" points="2530,660 2519,654 2519,665"/>
<g cb-classname="DynamicText" cb-source="Xw-UXa-DtI6" class="signal" id="3GI" text-anchor="end">
<text cb-classname="GraphicTextEntity" class="signal" fill="black" font-style="normal" font-weight="normal" id="3Ge" text-anchor="end" text-decoration="normal" x="2515" y="657"/>
</g>
</g>
<g cb-classname="ControlPin" cb-pin-name="rX-Lmp-SQ" id="3GL">
<line cb-classname="GraphicLineEntity" class="signalline" id="3GA" x1="2500" x2="2530" y1="900" y2="900"/>
<polygon cb-classname="GraphicPolygonEntity" class="signal" id="3Gx" points="2530,900 2519,894 2519,905"/>
<g cb-classname="DynamicText" cb-source="AF-0fG-h6bm" class="signal" id="3GZ" text-anchor="end">
<text cb-classname="GraphicTextEntity" class="signal" fill="black" font-style="normal" font-weight="normal" id="4Kd" text-anchor="end" text-decoration="normal" x="2515" y="897"/>
</g>
</g>
<g cb-classname="ControlPin" cb-pin-name="Th-QWU-WCV" id="4K7">
<line cb-classname="GraphicLineEntity" class="signalline" id="4Kw" x1="2500" x2="2530" y1="940" y2="940"/>
<polygon cb-classname="GraphicPolygonEntity" class="signal" id="4KP" points="2530,940 2519,934 2519,945"/>
<g cb-classname="DynamicText" cb-source="Fv-ABv-ELQW" class="signal" id="4KI" text-anchor="end">
<text cb-classname="GraphicTextEntity" class="signal" fill="black" font-style="normal" font-weight="normal" id="4Ke" text-anchor="end" text-decoration="normal" x="2515" y="937"/>
</g>
</g>
<g cb-classname="ControlPin" cb-pin-name="0t-5gg-Re9" id="4KL">
<line cb-classname="GraphicLineEntity" class="signalline" id="4KA" x1="2500" x2="2530" y1="780" y2="780"/>
<polygon cb-classname="GraphicPolygonEntity" class="signal" id="4Kx" points="2530,780 2519,774 2519,785"/>
<g cb-classname="DynamicText" cb-source="rX-vLD-vQow" class="signal" id="4KZ" text-anchor="end">
<text cb-classname="GraphicTextEntity" class="signal" fill="black" font-style="normal" font-weight="normal" id="4Qd" text-anchor="end" text-decoration="normal" x="2515" y="777"/>
</g>
</g>
<g cb-classname="ControlPin" cb-pin-name="FK-jdT-Bnl" id="4Q7">
<line cb-classname="GraphicLineEntity" class="signalline" id="4Qw" x1="2500" x2="2530" y1="820" y2="820"/>
<polygon cb-classname="GraphicPolygonEntity" class="signal" id="4QP" points="2530,820 2519,814 2519,825"/>
<g cb-classname="DynamicText" cb-source="Th-ish-qIsQ" class="signal" id="4QI" text-anchor="end">
<text cb-classname="GraphicTextEntity" class="signal" fill="black" font-style="normal" font-weight="normal" id="4Qe" text-anchor="end" text-decoration="normal" x="2515" y="817"/>
</g>
</g>
<g cb-classname="ControlPin" cb-pin-name="cL-43Z-Ad" id="4QL">
<line cb-classname="GraphicLineEntity" class="signalline" id="4QA" x1="2500" x2="2530" y1="1150" y2="1150"/>
<polygon cb-classname="GraphicPolygonEntity" class="signal" id="4Qx" points="2530,1150 2519,1144 2519,1155"/>
<g cb-classname="DynamicText" cb-source="0t-VDE-2jbK" class="signal" id="4QZ" text-anchor="end">
<text cb-classname="GraphicTextEntity" class="signal" fill="black" font-style="normal" font-weight="normal" id="4Rd" text-anchor="end" text-decoration="normal" x="2515" y="1147"/>
</g>
</g>
<g cb-classname="ControlPin" cb-pin-name="x3-6T9-tzd" id="4R7">
<line cb-classname="GraphicLineEntity" class="signalline" id="4Rw" x1="2500" x2="2530" y1="1190" y2="1190"/>
<polygon cb-classname="GraphicPolygonEntity" class="signal" id="4RP" points="2530,1190 2519,1184 2519,1195"/>
<g cb-classname="DynamicText" cb-source="FK-3fv-Z1pL" class="signal" id="4RI" text-anchor="end">
<text cb-classname="GraphicTextEntity" class="signal" fill="black" font-style="normal" font-weight="normal" id="4Re" text-anchor="end" text-decoration="normal" x="2515" y="1187"/>
</g>
</g>
<g cb-classname="ControlPin" cb-pin-name="Cq-jNj-6m" id="4RL">
<line cb-classname="GraphicLineEntity" class="signalline" id="4RA" x1="2500" x2="2530" y1="1240" y2="1240"/>
<polygon cb-classname="GraphicPolygonEntity" class="signal" id="4Rx" points="2530,1240 2519,1234 2519,1245"/>
<g cb-classname="DynamicText" cb-source="cL-5TN-t6ph" class="signal" id="4RZ" text-anchor="end">
<text cb-classname="GraphicTextEntity" class="signal" fill="black" font-style="normal" font-weight="normal" id="4Hd" text-anchor="end" text-decoration="normal" x="2515" y="1237"/>
</g>
</g>
<g cb-classname="ControlPin" cb-pin-name="rF-Qhw-9Cf" id="4H7">
<line cb-classname="GraphicLineEntity" class="signalline" id="4Hw" x1="2500" x2="2530" y1="1410" y2="1410"/>
<polygon cb-classname="GraphicPolygonEntity" class="signal" id="4HP" points="2530,1410 2519,1404 2519,1415"/>
<g cb-classname="DynamicText" cb-source="x3-IH2-MjUR" class="signal" id="4HI" text-anchor="end">
<text cb-classname="GraphicTextEntity" class="signal" fill="black" font-style="normal" font-weight="normal" id="4He" text-anchor="end" text-decoration="normal" x="2515" y="1407"/>
</g>
</g>
<g cb-classname="ControlPin" cb-pin-name="qH-le8-YPr" id="4HL">
<line cb-classname="GraphicLineEntity" class="signalline" id="4HA" x1="2500" x2="2530" y1="1460" y2="1460"/>
<polygon cb-classname="GraphicPolygonEntity" class="signal" id="4Hx" points="2530,1460 2519,1454 2519,1465"/>
<g cb-classname="DynamicText" cb-source="Cq-OKZ-yeYa" class="signal" id="4HZ" text-anchor="end">
<text cb-classname="GraphicTextEntity" class="signal" fill="black" font-style="normal" font-weight="normal" id="4xd" text-anchor="end" text-decoration="normal" x="2515" y="1457"/>
</g>
</g>
<g cb-classname="ControlPin" cb-pin-name="Jl-knc-QAh" id="4x7">
<line cb-classname="GraphicLineEntity" class="signalline" id="4xw" x1="2500" x2="2530" y1="1620" y2="1620"/>
<polygon cb-classname="GraphicPolygonEntity" class="signal" id="4xP" points="2530,1620 2519,1614 2519,1625"/>
<g cb-classname="DynamicText" cb-source="rF-iZt-alVS" class="signal" id="4xI" text-anchor="end">
<text cb-classname="GraphicTextEntity" class="signal" fill="black" font-style="normal" font-weight="normal" id="4xe" text-anchor="end" text-decoration="normal" x="2515" y="1617"/>
</g>
</g>
<g cb-classname="ControlPin" cb-pin-name="Xw-AjP-3Jx" id="4xL">
<line cb-classname="GraphicLineEntity" class="signalline" id="4xA" x1="2500" x2="2530" y1="1670" y2="1670"/>
<polygon cb-classname="GraphicPolygonEntity" class="signal" id="4xx" points="2530,1670 2519,1664 2519,1675"/>
<g cb-classname="DynamicText" cb-source="qH-rLM-GkqY" class="signal" id="4xZ" text-anchor="end">
<text cb-classname="GraphicTextEntity" class="signal" fill="black" font-style="normal" font-weight="normal" id="4bd" text-anchor="end" text-decoration="normal" x="2515" y="1667"/>
</g>
</g>
<g cb-classname="ControlPin" cb-pin-name="AF-tzu-wcn" id="4b7">
<line cb-classname="GraphicLineEntity" class="signalline" id="4bw" x1="2500" x2="2530" y1="1960" y2="1960"/>
<polygon cb-classname="GraphicPolygonEntity" class="signal" id="4bP" points="2530,1960 2519,1954 2519,1965"/>
<g cb-classname="DynamicText" cb-source="Jl-ejy-CV0T" class="signal" id="4bI" text-anchor="end">
<text cb-classname="GraphicTextEntity" class="signal" fill="black" font-style="normal" font-weight="normal" id="4be" text-anchor="end" text-decoration="normal" x="2515" y="1957"/>
</g>
</g>
<g cb-classname="ControlPin" cb-pin-name="Fv-d6D-Jv0" id="4bL">
<line cb-classname="GraphicLineEntity" class="signalline" id="4bA" x1="2510" x2="2530" y1="2000" y2="2000"/>
<polygon cb-classname="GraphicPolygonEntity" class="signal" id="4bx" points="2530,2000 2519,1994 2519,2005"/>
<g cb-classname="DynamicText" cb-source="Xw-UXa-DtI6" class="signal" id="4bZ" text-anchor="end">
<text cb-classname="GraphicTextEntity" class="signal" fill="black" font-style="normal" font-weight="normal" id="4gd" text-anchor="end" text-decoration="normal" x="2515" y="1997"/>
</g>
</g>
<g cb-classname="ControlPin" cb-pin-name="rX-Lmp-Kiv" id="4g7">
<line cb-classname="GraphicLineEntity" class="signalline" id="4gw" x1="2490" x2="2530" y1="2040" y2="2040"/>
<polygon cb-classname="GraphicPolygonEntity" class="signal" id="4gP" points="2530,2040 2519,2034 2519,2045"/>
<g cb-classname="DynamicText" cb-source="AF-0fG-h6bm" class="signal" id="4gI" text-anchor="end">
<text cb-classname="GraphicTextEntity" class="signal" fill="black" font-style="normal" font-weight="normal" id="4ge" text-anchor="end" text-decoration="normal" x="2515" y="2037"/>
</g>
</g>
<g cb-classname="ControlPin" cb-pin-name="Th-QWU-Hd2" id="4gL">
<line cb-classname="GraphicLineEntity" class="signalline" id="4gA" x1="3280" x2="3320" y1="1300" y2="1300"/>
<g cb-classname="DynamicText" cb-source="cL-5TN-t6ph" class="signal" id="4gx" text-anchor="start">
<text cb-classname="GraphicTextEntity" class="signal" fill="black" font-style="normal" font-weight="normal" id="4gZ" text-anchor="start" text-decoration="normal" x="3294" y="1297"/>
</g>
<g cb-classname="SignalSegment" id="4od">
<line cb-classname="GraphicLineEntity" class="signalline" id="4o7" x1="3320" x2="4720" y1="1300" y2="1300"/>
<g cb-classname="SignalConnection" cb-graphic-line="$471$" cb-input-pin="$8Gj$" id="4ow"/>
</g>
</g>
<g cb-classname="ControlPin" cb-pin-name="x3-6T9-tzU" id="4oP">
<line cb-classname="GraphicLineEntity" class="signalline" id="4oI" x1="3280" x2="3310" y1="1570" y2="1570"/>
<g cb-classname="DynamicText" cb-source="qH-rLM-GkqY" class="signal" id="4oe" text-anchor="start">
<text cb-classname="GraphicTextEntity" class="signal" fill="black" font-style="normal" font-weight="normal" id="4oL" text-anchor="start" text-decoration="normal" x="3294" y="1567"/>
</g>
<g cb-classname="SignalSegment" id="4oA">
<line cb-classname="GraphicLineEntity" class="signalline" id="4ox" x1="3310" x2="4720" y1="1570" y2="1570"/>
<g cb-classname="SignalConnection" cb-graphic-line="$478$" cb-input-pin="$eoW$" id="4oZ"/>
</g>
</g>
<g cb-classname="ControlPin" cb-pin-name="Jl-knc-85" id="4yd">
<line cb-classname="GraphicLineEntity" class="signalline" id="4y7" x1="3280" x2="3300" y1="1890" y2="1890"/>
<g cb-classname="DynamicText" cb-source="Fv-ABv-ELQW" class="signal" id="4yw" text-anchor="start">
<text cb-classname="GraphicTextEntity" class="signal" fill="black" font-style="normal" font-weight="normal" id="4yP" text-anchor="start" text-decoration="normal" x="3294" y="1887"/>
</g>
<g cb-classname="SignalSegment" id="4yI">
<line cb-classname="GraphicLineEntity" class="signalline" id="4ye" stroke="#1e12bf" stroke-dasharray="5,4" x1="3300" x2="4720" y1="1890" y2="1890"/>
<g cb-classname="SignalConnection" cb-graphic-line="$485$" cb-input-pin="$iZT$" id="4yL"/>
</g>
</g>
<g cb-classname="ControlPin" cb-pin-name="rX-Lmp-0Y" id="4yA">
<line cb-classname="GraphicLineEntity" class="signalline" id="4yx" x1="3280" x2="3300" y1="1950" y2="1950"/>
<g cb-classname="DynamicText" cb-source="FK-3fv-Z1pL" class="signal" id="4yZ" text-anchor="start">
<text cb-classname="GraphicTextEntity" class="signal" fill="black" font-style="normal" font-weight="normal" id="4Gd" text-anchor="start" text-decoration="normal" x="3294" y="1947"/>
</g>
<g cb-classname="SignalSegment" id="4G7">
<line cb-classname="GraphicLineEntity" class="signalline" id="4Gw" stroke="#1e12bf" stroke-dasharray="5,4" x1="3300" x2="4470" y1="1950" y2="1950"/>
<g cb-classname="SignalSegment" id="4GP">
<line cb-classname="GraphicLineEntity" class="signalline" id="4GI" stroke="#1e12bf" stroke-dasharray="5,4" x1="4470" x2="4470" y1="1950" y2="2160"/>
<g cb-classname="SignalSegment" id="4Ge">
<line cb-classname="GraphicLineEntity" class="signalline" id="4GL" stroke="#1e12bf" stroke-dasharray="5,4" x1="4470" x2="4720" y1="2160" y2="2160"/>
<g cb-classname="SignalConnection" cb-graphic-line="$496$" cb-input-pin="$4UG$" id="4GA"/>
</g>
</g>
</g>
</g>
<g cb-classname="ControlPin" cb-pin-name="x3-6T9-BO3oY" id="1bwv">
<line cb-classname="GraphicLineEntity" class="signalline" id="1bwc" x1="2510" x2="2530" y1="2330" y2="2330"/>
<polygon cb-classname="GraphicPolygonEntity" class="signal" id="1bwL" points="2530,2330 2519,2324 2519,2335"/>
<g cb-classname="DynamicText" cb-source="FK-3fv-Z1pL" class="signal" id="1bwD" text-anchor="end">
<text cb-classname="GraphicTextEntity" class="signal" fill="black" font-style="normal" font-weight="normal" id="1bPi" text-anchor="end" text-decoration="normal" transform="translate(2515,2327)rotate(360)"/>
</g>
</g>
<g cb-classname="ControlPin" cb-pin-name="Th-QWU-s8G0H" id="1bP3">
<line cb-classname="GraphicLineEntity" class="signalline" id="1bPP" x1="2510" x2="2530" y1="2380" y2="2380"/>
<polygon cb-classname="GraphicPolygonEntity" class="signal" id="1bPm" points="2530,2380 2519,2374 2519,2385"/>
<g cb-classname="DynamicText" cb-source="Fv-ABv-ELQW" class="signal" id="1bPW" text-anchor="end">
<text cb-classname="GraphicTextEntity" class="signal" fill="black" font-style="normal" font-weight="normal" id="1bPv" text-anchor="end" text-decoration="normal" transform="translate(2515,2377)rotate(360)"/>
</g>
</g>
<g cb-classname="ControlPin" cb-pin-name="cL-43Z-56z" id="1oeW">
<line cb-classname="GraphicLineEntity" class="signalline" id="1oev" x1="2500" x2="2530" y1="860" y2="860"/>
<polygon cb-classname="GraphicPolygonEntity" class="signal" id="1oec" points="2530,860 2519,854 2519,865"/>
<g cb-classname="DynamicText" cb-source="0t-VDE-2jbK" class="signal" id="1oeL" text-anchor="end">
<text cb-classname="GraphicTextEntity" class="signal" fill="black" font-style="normal" font-weight="normal" id="1oeD" text-anchor="end" text-decoration="normal" x="2515" y="857"/>
</g>
</g>
</g>
<g cb-alg-iM="$384$cb-alg-sts$" cb-algorithm-id="00d" cb-classname="ExternalPointInterface" cb-function-name="OUTPUT" id="5Kx">
<ellipse cb-classname="GraphicEllipseEntity" class="algorithm" cx="4800" cy="1300" id="5KZ" rx="50" ry="50"/>
<rect cb-classname="GraphicRectangleEntity" class="algorithm" height="100" id="5Qd" width="40" x="4850" y="1250"/>
<line cb-classname="GraphicLineEntity" class="algorithm" id="5Q7" x1="4850" x2="4890" y1="1300" y2="1300"/>
<g cb-classname="ControlPin" cb-pin-name="x3-6T9-fv" id="5Qw">
<line cb-classname="GraphicLineEntity" class="signalline" id="5QP" x1="4720" x2="4750" y1="1300" y2="1300"/>
<polygon cb-classname="GraphicPolygonEntity" class="signal" id="5QI" points="4750,1300 4739,1294 4739,1305"/>
<g cb-classname="DynamicText" cb-source="FK-3fv-Z1pL" class="signal" id="5Qe" text-anchor="end">
<text cb-classname="GraphicTextEntity" class="signal" fill="black" font-style="normal" font-weight="normal" id="5QL" text-anchor="end" text-decoration="normal" x="4735" y="1297"/>
</g>
</g>
<g cb-classname="PointStatusIndicator" cb-indicator-type="highway" cb-source="Cq-jNj-uq" id="5QA" visibility="hidden">
<line cb-classname="GraphicLineEntity" class="algorithmline" id="5Qx" x1="4750" x2="4800" y1="1300" y2="1250"/>
<line cb-classname="GraphicLineEntity" class="algorithmline" id="5QZ" x1="4800" x2="4850" y1="1250" y2="1300"/>
<line cb-classname="GraphicLineEntity" class="algorithmline" id="5Rd" x1="4850" x2="4800" y1="1300" y2="1350"/>
<line cb-classname="GraphicLineEntity" class="algorithmline" id="5R7" x1="4800" x2="4750" y1="1350" y2="1300"/>
</g>
<g cb-classname="PointStatusIndicator" cb-indicator-type="hardware" cb-source="rF-Qhw-H2" id="5Rw" visibility="hidden">
<line cb-classname="GraphicLineEntity" class="algorithmline" id="5RP" x1="4850" x2="4750" y1="1250" y2="1250"/>
<line cb-classname="GraphicLineEntity" class="algorithmline" id="5RI" x1="4750" x2="4750" y1="1250" y2="1350"/>
<line cb-classname="GraphicLineEntity" class="algorithmline" id="5Re" x1="4750" x2="4850" y1="1350" y2="1350"/>
</g>
<g cb-classname="PointStatusIndicator" cb-indicator-type="alarm" cb-source="rX-Lmp-fG" id="5RL" visibility="hidden">
<text cb-classname="GraphicTextEntity" class="algorithm" fill="#000000" font-family="Arial" font-size="20" id="5RA" x="4860" y="1335">
A
</text>
</g>
<g cb-classname="PointStatusIndicator" cb-indicator-type="ingraphic" cb-source="FK-jdT-sh" id="5Rx" visibility="visible">
<text cb-classname="GraphicTextEntity" class="algorithm" fill="#000000" font-family="Arial" font-size="20" id="5RZ" x="4860" y="1285">
G
</text>
</g>
<g cb-classname="DynamicText" cb-labeled="false" cb-pin-name="Di" cb-source="Cq-jNj-uq" class="algorithm" id="5Hd" text-anchor="end">
<text baseline-shift="0%" cb-classname="GraphicTextEntity" class="algorithm" fill="black" font-family="arial" font-size="20" font-style="normal" font-weight="normal" id="5H7" text-anchor="end" text-decoration="normal" x="4725" y="1275"/>
</g>
<g baseline-shift="-100%" cb-anchor-x="4725" cb-anchor-y="1310" cb-classname="PointReferences" cb-max-width="130" cb-originator="false" cb-source="Jl-knc-XD" class="signal" id="5Hw" text-anchor="end">
<text baseline-shift="-100%" cb-classname="GraphicTextEntity" class="algorithm" id="5HP" text-anchor="end" x="4725" y="1310">
REF: Point not
</text>
<text baseline-shift="-100%" cb-classname="GraphicTextEntity" class="algorithm" id="2GdG" text-anchor="end" x="4725" y="1335">
found in
</text>
<text baseline-shift="-100%" cb-classname="GraphicTextEntity" class="algorithm" id="2Gd3" text-anchor="end" x="4725" y="1360">
database
</text>
<text baseline-shift="-100%" cb-classname="GraphicTextEntity" class="algorithm" id="2GdP" text-anchor="end" x="4725" y="1385">
(01B0201D13-STS)
</text>
</g>
<g baseline-shift="-50%" cb-anchor-x="4905" cb-anchor-y="1315" cb-classname="PointDescription" cb-content="extended" cb-labeled="false" cb-max-width="240" cb-source="0t-5gg-LD" class="algorithm" id="5HL" text-anchor="start">
<text baseline-shift="-50%" cb-classname="GraphicTextEntity" class="algorithm" id="5HA" text-anchor="start" x="4905" y="1303">
DESC: Point not found in
</text>
<text baseline-shift="-50%" cb-classname="GraphicTextEntity" class="algorithm" id="1GZD" text-anchor="start" x="4905" y="1328">
database (01B0201D13-STS)
</text>
</g>
</g>
<g cb-alg-Bv="$384$cb-alg-alm$" cb-algorithm-id="00e" cb-classname="ExternalPointInterface" cb-function-name="OUTPUT" id="5Hx">
<ellipse cb-classname="GraphicEllipseEntity" class="algorithm" cx="4800" cy="1570" id="5HZ" rx="50" ry="50"/>
<rect cb-classname="GraphicRectangleEntity" class="algorithm" height="100" id="5xd" width="40" x="4850" y="1520"/>
<line cb-classname="GraphicLineEntity" class="algorithm" id="5x7" x1="4850" x2="4890" y1="1570" y2="1570"/>
<g cb-classname="ControlPin" cb-pin-name="AF-tzu-jy" id="5xw">
<line cb-classname="GraphicLineEntity" class="signalline" id="5xP" x1="4720" x2="4750" y1="1570" y2="1570"/>
<polygon cb-classname="GraphicPolygonEntity" class="signal" id="5xI" points="4750,1570 4739,1564 4739,1575"/>
<g cb-classname="DynamicText" cb-source="Jl-ejy-CV0T" class="signal" id="5xe" text-anchor="end">
<text cb-classname="GraphicTextEntity" class="signal" fill="black" font-style="normal" font-weight="normal" id="5xL" text-anchor="end" text-decoration="normal" x="4735" y="1567"/>
</g>
</g>
<g cb-classname="PointStatusIndicator" cb-indicator-type="highway" cb-source="Fv-d6D-Xa" id="5xA" visibility="hidden">
<line cb-classname="GraphicLineEntity" class="algorithmline" id="5xx" x1="4750" x2="4800" y1="1570" y2="1520"/>
<line cb-classname="GraphicLineEntity" class="algorithmline" id="5xZ" x1="4800" x2="4850" y1="1520" y2="1570"/>
<line cb-classname="GraphicLineEntity" class="algorithmline" id="5bd" x1="4850" x2="4800" y1="1570" y2="1620"/>
<line cb-classname="GraphicLineEntity" class="algorithmline" id="5b7" x1="4800" x2="4750" y1="1620" y2="1570"/>
</g>
<g cb-classname="PointStatusIndicator" cb-indicator-type="hardware" cb-source="rX-Lmp-fG" id="5bw" visibility="hidden">
<line cb-classname="GraphicLineEntity" class="algorithmline" id="5bP" x1="4850" x2="4750" y1="1520" y2="1520"/>
<line cb-classname="GraphicLineEntity" class="algorithmline" id="5bI" x1="4750" x2="4750" y1="1520" y2="1620"/>
<line cb-classname="GraphicLineEntity" class="algorithmline" id="5be" x1="4750" x2="4850" y1="1620" y2="1620"/>
</g>
<g cb-classname="PointStatusIndicator" cb-indicator-type="alarm" cb-source="Cq-jNj-uq" id="5bL" visibility="hidden">
<text cb-classname="GraphicTextEntity" class="algorithm" fill="#000000" font-family="Arial" font-size="20" id="5bA" x="4860" y="1605">
A
</text>
</g>
<g cb-classname="PointStatusIndicator" cb-indicator-type="ingraphic" cb-source="Jl-knc-XD" id="5bx" visibility="visible">
<text cb-classname="GraphicTextEntity" class="algorithm" fill="#000000" font-family="Arial" font-size="20" id="5bZ" x="4860" y="1555">
G
</text>
</g>
<g cb-classname="DynamicText" cb-labeled="false" cb-pin-name="13" cb-source="Fv-d6D-Xa" class="algorithm" id="5gd" text-anchor="end">
<text baseline-shift="0%" cb-classname="GraphicTextEntity" class="algorithm" fill="black" font-family="arial" font-size="20" font-style="normal" font-weight="normal" id="5g7" text-anchor="end" text-decoration="normal" x="4725" y="1545"/>
</g>
<g baseline-shift="-100%" cb-anchor-x="4725" cb-anchor-y="1580" cb-classname="PointReferences" cb-max-width="130" cb-originator="false" cb-source="0t-5gg-LD" class="signal" id="5gw" text-anchor="end">
<text baseline-shift="-100%" cb-classname="GraphicTextEntity" class="algorithm" id="5gP" text-anchor="end" x="4725" y="1580">
REF: Point not
</text>
<text baseline-shift="-100%" cb-classname="GraphicTextEntity" class="algorithm" id="2GdW" text-anchor="end" x="4725" y="1605">
found in
</text>
<text baseline-shift="-100%" cb-classname="GraphicTextEntity" class="algorithm" id="2Gdv" text-anchor="end" x="4725" y="1630">
database
</text>
<text baseline-shift="-100%" cb-classname="GraphicTextEntity" class="algorithm" id="2Gdc" text-anchor="end" x="4725" y="1655">
(01B0201D13-ALM)
</text>
</g>
<g baseline-shift="-50%" cb-anchor-x="4905" cb-anchor-y="1585" cb-classname="PointDescription" cb-content="extended" cb-labeled="false" cb-max-width="240" cb-source="qH-le8-KZ" class="algorithm" id="5gL" text-anchor="start">
<text baseline-shift="-50%" cb-classname="GraphicTextEntity" class="algorithm" id="5gA" text-anchor="start" x="4905" y="1573">
DESC: Point not found in
</text>
<text baseline-shift="-50%" cb-classname="GraphicTextEntity" class="algorithm" id="2Kdi" text-anchor="start" x="4905" y="1598">
database (01B0201D13-ALM)
</text>
</g>
</g>
<g cb-alg-H2="$384$cb-alg-lb$" cb-algorithm-id="00f" cb-classname="ExternalPointInterface" cb-function-name="OUTPUT" id="5gx">
<ellipse cb-classname="GraphicEllipseEntity" class="algorithm" cx="4800" cy="1890" id="5gZ" rx="50" ry="50"/>
<rect cb-classname="GraphicRectangleEntity" class="algorithm" height="100" id="5od" width="40" x="4850" y="1840"/>
<line cb-classname="GraphicLineEntity" class="algorithm" id="5o7" x1="4850" x2="4890" y1="1890" y2="1890"/>
<g cb-classname="ControlPin" cb-pin-name="cL-43Z-DE" id="5ow">
<line cb-classname="GraphicLineEntity" class="signalline" id="5oP" x1="4720" x2="4750" y1="1890" y2="1890"/>
<polygon cb-classname="GraphicPolygonEntity" class="signal" id="5oI" points="4750,1890 4739,1884 4739,1895"/>
<g cb-classname="DynamicText" cb-source="0t-VDE-2jbK" class="signal" id="5oe" text-anchor="end">
<text cb-classname="GraphicTextEntity" class="signal" fill="black" font-style="normal" font-weight="normal" id="5oL" text-anchor="end" text-decoration="normal" x="4735" y="1887"/>
</g>
</g>
<g cb-classname="PointStatusIndicator" cb-indicator-type="highway" cb-source="x3-6T9-fv" id="5oA" visibility="hidden">
<line cb-classname="GraphicLineEntity" class="algorithmline" id="5ox" x1="4750" x2="4800" y1="1890" y2="1840"/>
<line cb-classname="GraphicLineEntity" class="algorithmline" id="5oZ" x1="4800" x2="4850" y1="1840" y2="1890"/>
<line cb-classname="GraphicLineEntity" class="algorithmline" id="5yd" x1="4850" x2="4800" y1="1890" y2="1940"/>
<line cb-classname="GraphicLineEntity" class="algorithmline" id="5y7" x1="4800" x2="4750" y1="1940" y2="1890"/>
</g>
<g cb-classname="PointStatusIndicator" cb-indicator-type="hardware" cb-source="Cq-jNj-uq" id="5yw" visibility="hidden">
<line cb-classname="GraphicLineEntity" class="algorithmline" id="5yP" x1="4850" x2="4750" y1="1840" y2="1840"/>
<line cb-classname="GraphicLineEntity" class="algorithmline" id="5yI" x1="4750" x2="4750" y1="1840" y2="1940"/>
<line cb-classname="GraphicLineEntity" class="algorithmline" id="5ye" x1="4750" x2="4850" y1="1940" y2="1940"/>
</g>
<g cb-classname="PointStatusIndicator" cb-indicator-type="alarm" cb-source="Fv-d6D-Xa" id="5yL" visibility="hidden">
<text cb-classname="GraphicTextEntity" class="algorithm" fill="#000000" font-family="Arial" font-size="20" id="5yA" x="4860" y="1925">
A
</text>
</g>
<g cb-classname="PointStatusIndicator" cb-indicator-type="ingraphic" cb-source="0t-5gg-LD" id="5yx" visibility="hidden">
<text cb-classname="GraphicTextEntity" class="algorithm" fill="#000000" font-family="Arial" font-size="20" id="5yZ" x="4860" y="1875">
G
</text>
</g>
<g cb-classname="DynamicText" cb-labeled="false" cb-pin-name="Sd" cb-source="x3-6T9-fv" class="algorithm" id="5Gd" text-anchor="end">
<text baseline-shift="0%" cb-classname="GraphicTextEntity" class="algorithm" fill="black" font-family="arial" font-size="20" font-style="normal" font-weight="normal" id="5G7" text-anchor="end" text-decoration="normal" x="4725" y="1865"/>
</g>
<g baseline-shift="-100%" cb-anchor-x="4725" cb-anchor-y="1900" cb-classname="PointReferences" cb-max-width="130" cb-originator="false" cb-source="qH-le8-KZ" class="signal" id="5Gw" text-anchor="end">
<text baseline-shift="-100%" cb-classname="GraphicTextEntity" class="algorithm" id="5GP" text-anchor="end" x="4725" y="1900">
REF: Point not
</text>
<text baseline-shift="-100%" cb-classname="GraphicTextEntity" class="algorithm" id="2GdD" text-anchor="end" x="4725" y="1925">
found in
</text>
<text baseline-shift="-100%" cb-classname="GraphicTextEntity" class="algorithm" id="2G7i" text-anchor="end" x="4725" y="1950">
database
</text>
<text baseline-shift="-100%" cb-classname="GraphicTextEntity" class="algorithm" id="2G7G" text-anchor="end" x="4725" y="1975">
(01B0201D13-LB)
</text>
</g>
<g baseline-shift="-50%" cb-anchor-x="4905" cb-anchor-y="1905" cb-classname="PointDescription" cb-content="extended" cb-labeled="false" cb-max-width="240" cb-source="Cq-jNj-uq" class="algorithm" id="5Ge" text-anchor="start">
<text baseline-shift="-50%" cb-classname="GraphicTextEntity" class="algorithm" id="5GL" text-anchor="start" x="4905" y="1893">
DESC: Point not found in
</text>
<text baseline-shift="-50%" cb-classname="GraphicTextEntity" class="algorithm" id="1oe3" text-anchor="start" x="4905" y="1918">
database (01B0201D13-LB)
</text>
</g>
</g>
<g cb-alg-fv="$384$cb-alg-tr$" cb-algorithm-id="010" cb-classname="ExternalPointInterface" cb-function-name="OUTPUT" id="5GA">
<ellipse cb-classname="GraphicEllipseEntity" class="algorithm" cx="4800" cy="2160" id="5Gx" rx="50" ry="50"/>
<rect cb-classname="GraphicRectangleEntity" class="algorithm" height="100" id="5GZ" width="40" x="4850" y="2110"/>
<line cb-classname="GraphicLineEntity" class="algorithm" id="6Kd" x1="4850" x2="4890" y1="2160" y2="2160"/>
<g cb-classname="ControlPin" cb-pin-name="0t-5gg-LD" id="6K7">
<line cb-classname="GraphicLineEntity" class="signalline" id="6Kw" x1="4720" x2="4750" y1="2160" y2="2160"/>
<polygon cb-classname="GraphicPolygonEntity" class="signal" id="6KP" points="4750,2160 4739,2154 4739,2165"/>
<g cb-classname="DynamicText" cb-source="rX-vLD-vQow" class="signal" id="6KI" text-anchor="end">
<text cb-classname="GraphicTextEntity" class="signal" fill="black" font-style="normal" font-weight="normal" id="6Ke" text-anchor="end" text-decoration="normal" x="4735" y="2157"/>
</g>
</g>
<g cb-classname="PointStatusIndicator" cb-indicator-type="highway" cb-source="FK-jdT-sh" id="6KL" visibility="hidden">
<line cb-classname="GraphicLineEntity" class="algorithmline" id="6KA" x1="4750" x2="4800" y1="2160" y2="2110"/>
<line cb-classname="GraphicLineEntity" class="algorithmline" id="6Kx" x1="4800" x2="4850" y1="2110" y2="2160"/>
<line cb-classname="GraphicLineEntity" class="algorithmline" id="6KZ" x1="4850" x2="4800" y1="2160" y2="2210"/>
<line cb-classname="GraphicLineEntity" class="algorithmline" id="6Qd" x1="4800" x2="4750" y1="2210" y2="2160"/>
</g>
<g cb-classname="PointStatusIndicator" cb-indicator-type="hardware" cb-source="cL-43Z-DE" id="6Q7" visibility="hidden">
<line cb-classname="GraphicLineEntity" class="algorithmline" id="6Qw" x1="4850" x2="4750" y1="2110" y2="2110"/>
<line cb-classname="GraphicLineEntity" class="algorithmline" id="6QP" x1="4750" x2="4750" y1="2110" y2="2210"/>
<line cb-classname="GraphicLineEntity" class="algorithmline" id="6QI" x1="4750" x2="4850" y1="2210" y2="2210"/>
</g>
<g cb-classname="PointStatusIndicator" cb-indicator-type="alarm" cb-source="Xw-AjP-LM" id="6Qe" visibility="visible">
<text cb-classname="GraphicTextEntity" class="algorithm" fill="#000000" font-family="Arial" font-size="20" id="6QL" x="4860" y="2195">
A
</text>
</g>
<g cb-classname="PointStatusIndicator" cb-indicator-type="ingraphic" cb-source="rX-Lmp-fG" id="6QA" visibility="hidden">
<text cb-classname="GraphicTextEntity" class="algorithm" fill="#000000" font-family="Arial" font-size="20" id="6Qx" x="4860" y="2145">
G
</text>
</g>
<g cb-classname="DynamicText" cb-labeled="false" cb-pin-name="N1" cb-source="FK-jdT-sh" class="algorithm" id="6QZ" text-anchor="end">
<text baseline-shift="0%" cb-classname="GraphicTextEntity" class="algorithm" fill="black" font-family="arial" font-size="20" font-style="normal" font-weight="normal" id="6Rd" text-anchor="end" text-decoration="normal" x="4725" y="2135"/>
</g>
<g baseline-shift="-100%" cb-anchor-x="4725" cb-anchor-y="2170" cb-classname="PointReferences" cb-max-width="130" cb-originator="false" cb-source="Cq-jNj-uq" class="signal" id="6R7" text-anchor="end">
<text baseline-shift="-100%" cb-classname="GraphicTextEntity" class="algorithm" id="6Rw" text-anchor="end" x="4725" y="2170">
REF: Point not
</text>
<text baseline-shift="-100%" cb-classname="GraphicTextEntity" class="algorithm" id="2G7P" text-anchor="end" x="4725" y="2195">
found in
</text>
<text baseline-shift="-100%" cb-classname="GraphicTextEntity" class="algorithm" id="2G7m" text-anchor="end" x="4725" y="2220">
database
</text>
<text baseline-shift="-100%" cb-classname="GraphicTextEntity" class="algorithm" id="2G7W" text-anchor="end" x="4725" y="2245">
(01B0201D13-TR)
</text>
</g>
<g baseline-shift="-50%" cb-anchor-x="4905" cb-anchor-y="2175" cb-classname="PointDescription" cb-content="extended" cb-labeled="false" cb-max-width="240" cb-source="cL-43Z-DE" class="algorithm" id="6RI" text-anchor="start">
<text baseline-shift="-50%" cb-classname="GraphicTextEntity" class="algorithm" id="6Re" text-anchor="start" x="4905" y="2163">
DESC: Point not found in
</text>
<text baseline-shift="-50%" cb-classname="GraphicTextEntity" class="algorithm" id="1oeP" text-anchor="start" x="4905" y="2188">
database (01B0201D13-TR)
</text>
</g>
</g>
</g>
<g cb-classname="IncludeDocument" cb-modify-time="09/25/2018 01:40:30" cb-objectname="Frame" id="5">
<text cb-classname="GraphicTextEntity" class="frame" font-size="50" id="2GAc" x="3660" y="3146">
Project Title &lt;Edit in FRAME.SVG&gt;
</text>
<g baseline-shift="-50%" cb-classname="DynamicText" cb-source="Fv-PLnU-HN" class="frame" id="2GAL">
<text cb-classname="GraphicTextEntity" class="frame" fill="black" font-family="arial" font-size="25" font-style="normal" font-weight="normal" id="2GAD" text-decoration="normal" x="4715" y="3325">
13
</text>
</g>
<g baseline-shift="-50%" cb-classname="DynamicText" cb-source="0t-yYdv-L1" class="frame" id="2Gxi" text-anchor="middle">
<text cb-classname="GraphicTextEntity" class="frame" fill="black" font-family="arial" font-size="48" font-style="normal" font-weight="normal" id="2GxG" text-anchor="middle" text-decoration="normal" x="4900" y="3320">
13
</text>
</g>
<g baseline-shift="-50%" cb-classname="DynamicText" cb-source="x3-ML4o-fB" class="frame" id="2Gx3" text-anchor="middle">
<text cb-classname="GraphicTextEntity" class="frame" fill="black" font-family="arial" font-size="48" font-style="normal" font-weight="normal" id="2GxP" text-anchor="middle" text-decoration="normal" x="5067" y="3324">
4
</text>
</g>
<g cb-classname="DynamicText" cb-source="qH-4NSK3-EuK8a" class="frame" id="2Gxm">
<text cb-classname="GraphicTextEntity" class="frame" fill="black" font-family="arial" font-size="48" font-style="normal" font-weight="normal" id="2GxW" text-decoration="normal" x="3660" y="3224">
BFPT GLND STM STRNR DRN VLV-B0201D13
</text>
</g>
<g baseline-shift="-50%" cb-classname="DynamicText" cb-source="AF-mS6RE-qFspTq" class="frame" id="2Gxv" text-anchor="middle">
<text cb-classname="GraphicTextEntity" class="frame" fill="black" font-family="arial" font-size="48" font-style="normal" font-weight="normal" id="2Gxc" text-anchor="middle" text-decoration="normal" x="5270" y="3324">
133
</text>
</g>
<g baseline-shift="0%" cb-classname="DynamicText" cb-source="Th-YRAuHX1t" class="frame" id="2GxL" text-anchor="middle">
<text cb-classname="GraphicTextEntity" class="frame" fill="black" font-family="arial" font-size="36" font-style="normal" font-weight="normal" id="2GxD" text-anchor="middle" text-decoration="normal" x="5270" y="3150">
A
</text>
</g>
<g baseline-shift="0%" cb-classname="DynamicText" cb-source="cL-jjdZRXb2-CfUR" class="frame" id="2GZi" text-anchor="middle">
<text cb-classname="GraphicTextEntity" class="frame" fill="black" font-family="arial" font-size="20" font-style="normal" font-weight="normal" id="2GZG" text-anchor="middle" text-decoration="normal" x="5270" y="3230">
12/28/2010
</text>
</g>
<g baseline-shift="-50%" cb-classname="DynamicText" cb-source="rF-uvwXahWs" class="frame" id="2GZ3" text-anchor="end">
<text cb-classname="GraphicTextEntity" class="frame" fill="black" font-family="arial" font-size="26" font-style="normal" font-weight="normal" id="2GZP" text-anchor="end" text-decoration="normal" x="4500" y="3420">
Heczko
</text>
</g>
<g baseline-shift="-50%" cb-classname="DynamicText" cb-source="Xw-YJILWWKY" class="frame" id="2GZm" text-anchor="end">
<text cb-classname="GraphicTextEntity" class="frame" fill="black" font-family="arial" font-size="26" font-style="normal" font-weight="normal" id="2GZW" text-anchor="end" text-decoration="normal" x="5353" y="3420">
Nemec
</text>
</g>
<g cb-classname="GraphicShape" cb-tag="BORDER" id="2GZv">
<line cb-classname="GraphicLineEntity" class="frameline" id="2GZc" x1="40" x2="40" y1="40" y2="3460"/>
<line cb-classname="GraphicLineEntity" class="frameline" id="2GZL" x1="40" x2="5380" y1="3460" y2="3460"/>
<line cb-classname="GraphicLineEntity" class="frameline" id="2GZD" x1="5380" x2="5380" y1="3460" y2="40"/>
<line cb-classname="GraphicLineEntity" class="frameline" id="3Kdi" x1="5380" x2="40" y1="40" y2="40"/>
<line cb-classname="GraphicLineEntity" class="frame" id="3KdG" x1="5430" x2="5440" y1="3510" y2="3510"/>
</g>
<g cb-classname="GraphicShape" cb-tag="TITLE BOX" id="3Kd3">
<line cb-classname="GraphicLineEntity" class="frameline" id="3KdP" x1="2340" x2="2340" y1="3080" y2="3460"/>
<line cb-classname="GraphicLineEntity" class="frameline" id="3Kdm" x1="2340" x2="5380" y1="3080" y2="3080"/>
<line cb-classname="GraphicLineEntity" class="frameline" id="3KdW" x1="3650" x2="3650" y1="3460" y2="3080"/>
<line cb-classname="GraphicLineEntity" class="frameline" id="3Kdv" x1="3650" x2="5380" y1="3240" y2="3240"/>
<line cb-classname="GraphicLineEntity" class="frameline" id="3Kdc" x1="3650" x2="5380" y1="3390" y2="3390"/>
<line cb-classname="GraphicLineEntity" class="frameline" id="3KdL" x1="3650" x2="5380" y1="3160" y2="3160"/>
<line cb-classname="GraphicLineEntity" class="frameline" id="3KdD" x1="3650" x2="4520" y1="3320" y2="3320"/>
<line cb-classname="GraphicLineEntity" class="frameline" id="3K7i" x1="4520" x2="5380" y1="3290" y2="3290"/>
<line cb-classname="GraphicLineEntity" class="frameline" id="3K7G" x1="4520" x2="5380" y1="3240" y2="3240"/>
<line cb-classname="GraphicLineEntity" class="frameline" id="3K73" x1="4520" x2="4520" y1="3240" y2="3460"/>
<line cb-classname="GraphicLineEntity" class="frameline" id="3K7P" x1="4810" x2="4810" y1="3240" y2="3390"/>
<line cb-classname="GraphicLineEntity" class="frameline" id="3K7m" x1="4990" x2="4990" y1="3240" y2="3390"/>
<line cb-classname="GraphicLineEntity" class="frameline" id="3K7W" x1="5150" x2="5150" y1="3080" y2="3390"/>
</g>
<g cb-classname="GraphicShape" cb-tag="TEXT LABELS" id="3K7v">
<text baseline-shift="-50%" cb-classname="GraphicTextEntity" class="frame" font-size="25" id="3K7c" text-anchor="middle" x="4890" y="3252">
Drop
</text>
<text baseline-shift="-50%" cb-classname="GraphicTextEntity" class="frame" font-size="25" id="3K7L" text-anchor="middle" x="5075" y="3252">
Task
</text>
<text baseline-shift="-50%" cb-classname="GraphicTextEntity" class="frame" font-size="25" id="3K7D" text-anchor="middle" x="5265" y="3252">
Sheet
</text>
<text cb-classname="GraphicTextEntity" class="frame" font-size="25" id="3Kwi" x="5152" y="3107">
Rev.
</text>
<text cb-classname="GraphicTextEntity" class="frame" font-size="25" id="3KwG" x="3653" y="3418">
Engineer
</text>
<text cb-classname="GraphicTextEntity" class="frame" font-size="25" id="3Kw3" x="4528" y="3419">
Approved
</text>
<text cb-classname="GraphicTextEntity" class="frame" font-size="25" id="3KwP" x="5152" y="3187">
Date
</text>
<text baseline-shift="-50%" cb-classname="GraphicTextEntity" class="frame" font-size="25" id="3Kwm" text-anchor="middle" x="4660" y="3252">
Drawing Number
</text>
<text baseline-shift="-50%" cb-classname="GraphicTextEntity" class="frame" font-size="25" id="3KwW" text-anchor="middle" x="4680" y="3325">
CTL
</text>
</g>
<text baseline-shift="-50%" cb-classname="GraphicTextEntity" class="frame" font-size="48" id="3Kwv" text-anchor="middle" x="3000" y="3100">
EMERSON PROCESS MANAGEMENT
</text>
<g baseline-shift="-100%" cb-anchor-x="2360" cb-anchor-y="3140" cb-classname="GroupText" cb-max-width="1260" fill="black" id="3Kwc">
<text baseline-shift="-100%" cb-classname="GraphicTextEntity" class="frame" fill="black" font-family="arial" font-size="22" font-weight="normal" id="3KwL" text-anchor="start" text-decoration="normal" x="2360" y="3140">
THIS DOCUMENT CONTAINS INFORMATION PROPRIETARY TO EMERSON PROCESS
</text>
<text baseline-shift="-100%" cb-classname="GraphicTextEntity" class="frame" fill="black" font-family="arial" font-size="22" font-weight="normal" id="3KwD" text-anchor="start" text-decoration="normal" x="2360" y="3176">
MANAGEMENT POWER &amp; WATER SOLUTIONS, INC. IT IS SUBMITTED IN CONFIDENCE AND
</text>
<text baseline-shift="-100%" cb-classname="GraphicTextEntity" class="frame" fill="black" font-family="arial" font-size="22" font-weight="normal" id="3KPi" text-anchor="start" text-decoration="normal" x="2360" y="3212">
TRUST, IS TO BE USED BY YOU SOLELY FOR THE PURPOSES FOR WHICH IT IS
</text>
<text baseline-shift="-100%" cb-classname="GraphicTextEntity" class="frame" fill="black" font-family="arial" font-size="22" font-weight="normal" id="3KPG" text-anchor="start" text-decoration="normal" x="2360" y="3248">
FURNISHED AND IS TO BE RETURNED UPON REQUEST. THIS DOCUMENT AND ANY
</text>
<text baseline-shift="-100%" cb-classname="GraphicTextEntity" class="frame" fill="black" font-family="arial" font-size="22" font-weight="normal" id="3KP3" text-anchor="start" text-decoration="normal" x="2360" y="3284">
OTHER INFORMATION PROVIDED TO YOU IS NOT TO BE REPRODUCED, TRANSMITTED,
</text>
<text baseline-shift="-100%" cb-classname="GraphicTextEntity" class="frame" fill="black" font-family="arial" font-size="22" font-weight="normal" id="3KPP" text-anchor="start" text-decoration="normal" x="2360" y="3320">
DISCLOSED, OR USED OTHERWISE IN WHOLE OR IN PART WITHOUT THE PRIOR
</text>
<text baseline-shift="-100%" cb-classname="GraphicTextEntity" class="frame" fill="black" font-family="arial" font-size="22" font-weight="normal" id="3KPm" text-anchor="start" text-decoration="normal" x="2360" y="3356">
WRITTEN AUTHORIZATION OF EMERSON PROCESS MANAGEMENT POWER &amp; WATER
</text>
<text baseline-shift="-100%" cb-classname="GraphicTextEntity" class="frame" fill="black" font-family="arial" font-size="22" font-weight="normal" id="3KPW" text-anchor="start" text-decoration="normal" x="2360" y="3392">
SOLUTIONS,INC.
</text>
</g>
</g>
</svg>