<?xml version="1.0" ?><svg cb-auto-time="12/22/2010 13:47:08" cb-classname="ControlFunction" cb-create-time="03/12/2008" cb-drop-id="13" cb-engineer="Heczko" cb-filename="Z:\OVATION\NET0\UNIT0\CONTROLFUNCTIONS\01B7.svg" cb-function-id="01B7" cb-key="525511234244" cb-modified-timestamp="1489319116" cb-modify-id="00000003" cb-ortho-mode="enabled" cb-path="Z:/OVATION/NET0/UNIT0/CONTROLFUNCTIONS" cb-reviewer="Nemec" cb-revision="A" cb-revision-time="12/28/2010" cb-sheet-number="142" cb-sheet-title="BFPT LUB OIL TNK HTR - B0202D20" cb-snap-grid="10" cb-task-id="4" height="3707" id="1" width="5450" xmlns="http://www.w3.org/2000/svg">
<style cb-classname="EntityStyle" id="2" type="text/css">
	.algorithm { fill: white; stroke: black; stroke-linecap: round; stroke-width: 2 }
	.algorithm-function { fill: none; stroke: black; stroke-linecap: round; stroke-width: 2 }
	.algorithm-functionline { fill: none; stroke: black; stroke-linecap: round; stroke-width: 2 }
	.algorithm-name { fill: none; stroke: black; stroke-linecap: round; stroke-width: 2 }
	.algorithm-nameline { fill: none; stroke: black; stroke-linecap: round; stroke-width: 2 }
	.algorithm-sequence { fill: none; stroke: black; stroke-linecap: round; stroke-width: 2 }
	.algorithm-sequenceline { fill: none; stroke: black; stroke-linecap: round; stroke-width: 2 }
	.algorithmline { fill: none; stroke: black; stroke-linecap: round; stroke-width: 2 }
	.annotation { fill: none; stroke: black; stroke-linecap: round; stroke-width: 2 }
	.annotationline { fill: none; stroke: black; stroke-linecap: round; stroke-width: 2 }
	.frame { fill: none; stroke: black; stroke-linecap: round; stroke-width: 2 }
	.frameline { fill: none; stroke: black; stroke-linecap: round; stroke-width: 2 }
	.signal { fill: black; stroke: black; stroke-linecap: round; stroke-width: 2 }
	.signalline { fill: none; stroke: black; stroke-linecap: round; stroke-width: 2 }
	text.algorithm { fill: black; font-family: MS Shell Dlg 2; font-size: 14; stroke: none }
	text.algorithm-function { fill: black; font-family: MS Shell Dlg 2; font-size: 16; stroke: none }
	text.algorithm-name { fill: black; font-family: MS Shell Dlg 2; font-size: 16; stroke: none }
	text.algorithm-sequence { fill: black; font-family: MS Shell Dlg 2; font-size: 16; stroke: none }
	text.annotation { fill: black; font-family: MS Shell Dlg 2; font-size: 16; stroke: none }
	text.frame { fill: black; font-family: MS Shell Dlg 2; font-size: 16; stroke: none }
	text.signal { fill: black; font-family: MS Shell Dlg 2; font-size: 12; stroke: none }
</style>
<g cb-classname="NamedObject" cb-objectname="Comments" id="3"/>
<g cb-classname="AlgorithmContainer" cb-objectname="Algorithms" id="4">
<g cb-alg-L4r="01TI113-NC" cb-alg-LK0g="NO" cb-algorithm-id="006" cb-classname="ExternalPointInterface" cb-function-name="INPUT" id="2QV">
<ellipse cb-classname="GraphicEllipseEntity" class="algorithm" cx="750" cy="1420" id="2Ql" rx="50" ry="50"/>
<rect cb-classname="GraphicRectangleEntity" class="algorithm" height="100" id="2Qu" width="40" x="660" y="1370"/>
<line cb-classname="GraphicLineEntity" class="algorithm" id="2QK" x1="660" x2="700" y1="1420" y2="1420"/>
<g cb-classname="ControlPin" cb-pin-name="NA-mbp-szN" id="2QF">
<line cb-classname="GraphicLineEntity" class="signalline" id="2Qh" x1="800" x2="830" y1="1420" y2="1420"/>
<g cb-classname="DynamicText" cb-source="zD-luk-Bdah" class="signal" id="2NO" text-anchor="start">
<text cb-classname="GraphicTextEntity" class="signal" fill="black" font-style="normal" font-weight="normal" id="2N4" text-anchor="start" text-decoration="normal" x="814" y="1417"/>
</g>
<g cb-classname="SignalSegment" id="4mK">
<line cb-classname="GraphicLineEntity" class="signalline" id="5du" stroke="#1e12bf" stroke-dasharray="5,4" x1="830" x2="1130" y1="1420" y2="1420"/>
<g cb-classname="SignalSegment" id="5dK">
<line cb-classname="GraphicLineEntity" class="signalline" id="4mF" stroke="#1e12bf" stroke-dasharray="5,4" x1="1130" x2="1390" y1="1420" y2="1420"/>
<g cb-classname="SignalConnection" cb-graphic-line="$458$" cb-input-pin="$vWI$" id="4mh"/>
<g cb-classname="SignalSegment" id="5m4">
<line cb-classname="GraphicLineEntity" class="signalline" id="5ml" stroke="#1e12bf" stroke-dasharray="5,4" x1="1130" x2="1290" y1="1620" y2="1620"/>
<g cb-classname="SignalSegment" id="5mu">
<line cb-classname="GraphicLineEntity" class="signalline" id="5mK" stroke="#1e12bf" stroke-dasharray="5,4" x1="1290" x2="1290" y1="1620" y2="1640"/>
<g cb-classname="SignalSegment" id="5mF">
<line cb-classname="GraphicLineEntity" class="signalline" id="5mh" stroke="#1e12bf" stroke-dasharray="5,4" x1="1290" x2="1370" y1="1640" y2="1640"/>
<g cb-classname="SignalConnection" cb-graphic-line="$559$" cb-input-pin="$VcH$" id="5wO"/>
</g>
<line cb-classname="GraphicLineEntity" class="signalline" id="5mC" stroke="#1e12bf" stroke-dasharray="5,4" x1="1290" x2="1370" y1="1620" y2="1620"/>
<g cb-classname="SignalConnection" cb-graphic-line="$552$" cb-input-pin="$WvC$" id="5mn"/>
<ellipse cb-classname="GraphicEllipseEntity" class="signal" cx="1290" cy="1620" fill="#1e12bf" id="5w4" rx="5" ry="5" stroke="#1e12bf" stroke-dasharray="5,4"/>
</g>
</g>
<line cb-classname="GraphicLineEntity" class="signalline" id="5mO" stroke="#1e12bf" stroke-dasharray="5,4" x1="1130" x2="1130" y1="1420" y2="1620"/>
<ellipse cb-classname="GraphicEllipseEntity" class="signal" cx="1130" cy="1420" fill="#1e12bf" id="5mV" rx="5" ry="5" stroke="#1e12bf" stroke-dasharray="5,4"/>
</g>
</g>
</g>
<g cb-classname="PointStatusIndicator" cb-indicator-type="Highway" cb-source="EU-zj3-ez3" id="2NC" visibility="hidden">
<line cb-classname="GraphicLineEntity" class="algorithmline" id="2Nn" x1="700" x2="750" y1="1420" y2="1370"/>
<line cb-classname="GraphicLineEntity" class="algorithmline" id="2NV" x1="750" x2="800" y1="1370" y2="1420"/>
<line cb-classname="GraphicLineEntity" class="algorithmline" id="2Nl" x1="800" x2="750" y1="1420" y2="1470"/>
<line cb-classname="GraphicLineEntity" class="algorithmline" id="2Nu" x1="750" x2="700" y1="1470" y2="1420"/>
</g>
<g cb-classname="PointStatusIndicator" cb-indicator-type="hardware" cb-source="4g-wO9-Ooc" id="2NK" visibility="visible">
<line cb-classname="GraphicLineEntity" class="algorithmline" id="2NF" x1="700" x2="800" y1="1370" y2="1370"/>
<line cb-classname="GraphicLineEntity" class="algorithmline" id="2Nh" x1="800" x2="800" y1="1370" y2="1470"/>
<line cb-classname="GraphicLineEntity" class="algorithmline" id="3HO" x1="800" x2="700" y1="1470" y2="1470"/>
</g>
<g cb-classname="PointStatusIndicator" cb-indicator-type="alarm" cb-source="NA-mbp-szN" id="3H4" visibility="hidden">
<text cb-classname="GraphicTextEntity" class="algorithm" fill="#000000" font-family="arial" font-size="20" id="3HC" x="670" y="1405">
A
</text>
</g>
<g cb-classname="PointStatusIndicator" cb-indicator-type="ingraphic" cb-source="zD-LCl-L4r" id="3Hn" visibility="visible">
<text cb-classname="GraphicTextEntity" class="algorithm" fill="#000000" font-family="Arial" font-size="20" id="3HV" x="670" y="1455">
G
</text>
</g>
<g baseline-shift="-50%" cb-anchor-x="650" cb-anchor-y="1434" cb-classname="PointDescription" cb-content="extended" cb-labeled="false" cb-max-width="220" cb-source="EU-zj3-ez3" class="algorithm" id="3Hl" text-anchor="end">
<text baseline-shift="-50%" cb-classname="GraphicTextEntity" class="algorithm" id="3Hu" text-anchor="end" x="650" y="1422">
DESC: Point not found in
</text>
<text baseline-shift="-50%" cb-classname="GraphicTextEntity" class="algorithm" id="2QCO" text-anchor="end" x="650" y="1447">
database (01TI113-NC)
</text>
</g>
<g cb-classname="DynamicText" cb-labeled="false" cb-pin-name="cNX" cb-source="tD-J55-GcY" class="algorithm" id="3HK" text-anchor="start">
<text baseline-shift="0%" cb-classname="GraphicTextEntity" class="algorithm" fill="black" font-family="arial" font-size="20" font-style="normal" font-weight="normal" id="3HF" text-anchor="start" text-decoration="normal" x="820" y="1390"/>
</g>
<g baseline-shift="-100%" cb-anchor-x="820" cb-anchor-y="1430" cb-classname="PointReferences" cb-max-width="230" cb-originator="true" cb-source="98-UiW-3L6" class="signal" id="3Hh" text-anchor="start">
<text baseline-shift="-100%" cb-classname="GraphicTextEntity" class="algorithm" id="3BO" text-anchor="start" x="820" y="1430">
REF: Point not found in
</text>
<text baseline-shift="-100%" cb-classname="GraphicTextEntity" class="algorithm" id="2QCT" text-anchor="start" x="820" y="1455">
database (01TI113-NC)
</text>
</g>
</g>
<g cb-alg-esM="$284$cb-alg-out$" cb-algorithm-id="00c" cb-classname="FastBooleanAlgorithm" cb-function-name="NOT" id="4dn">
<rect cb-classname="GraphicRectangleEntity" class="algorithm" height="40" id="4dV" width="40" x="1410" y="1400"/>
<g cb-classname="ControlPin" cb-pin-name="ij-4wo-rBC" id="4dl">
<line cb-classname="GraphicLineEntity" class="signalline" id="4du" x1="1390" x2="1410" y1="1420" y2="1420"/>
<polygon cb-classname="GraphicPolygonEntity" class="signal" id="4dK" points="1410,1420 1399,1414 1399,1425"/>
<g cb-classname="DynamicText" cb-source="EU-PrB-OwL0" class="signal" id="4dF" text-anchor="end">
<text cb-classname="GraphicTextEntity" class="signal" fill="black" font-style="normal" font-weight="normal" id="4dh" text-anchor="end" text-decoration="normal" x="1395" y="1417"/>
</g>
</g>
<g cb-classname="ControlPin" cb-pin-name="tD-J55-GcY" id="4mO">
<line cb-classname="GraphicLineEntity" class="signalline" id="4m4" x1="1450" x2="1470" y1="1420" y2="1420"/>
<g cb-classname="DynamicText" cb-source="98-Y0B-l8e5" class="signal" id="4mC" text-anchor="start">
<text cb-classname="GraphicTextEntity" class="signal" fill="black" font-style="normal" font-weight="normal" id="4mn" text-anchor="start" text-decoration="normal" x="1464" y="1417"/>
</g>
<g cb-classname="SignalSegment" id="4wO">
<g cb-classname="SignalConnection" cb-graphic-line="$1882$" cb-input-pin="$8Lm$" id="1QFU"/>
<line cb-classname="GraphicLineEntity" class="signalline" id="1QFK" stroke="#1e12bf" stroke-dasharray="5,4" x1="1470" x2="1950" y1="1420" y2="1420"/>
</g>
</g>
<line cb-classname="GraphicLineEntity" class="algorithm" id="4mV" x1="1420" x2="1420" y1="1410" y2="1430"/>
<line cb-classname="GraphicLineEntity" class="algorithm" id="4ml" x1="1420" x2="1440" y1="1410" y2="1430"/>
<line cb-classname="GraphicLineEntity" class="algorithm" id="4mu" x1="1440" x2="1440" y1="1430" y2="1410"/>
</g>
<g cb-alg-0zIj="1.000000" cb-alg-Azh3="60" cb-alg-lktn="$284$cb-alg-out$" cb-alg-qBe3="96" cb-alg-uka="$284$cb-alg-out$" cb-algorithm-id="00d" cb-classname="ControlAlgorithm" cb-function-name="ONDELAY" cb-modify-id="00000001" id="4wn">
<rect cb-classname="GraphicRectangleEntity" class="algorithm" height="40" id="4wV" width="80" x="1390" y="1610"/>
<text baseline-shift="-50%" cb-classname="GraphicTextEntity" class="algorithm" fill="#000000" font-family="MS Shell Dlg" id="4wl" text-anchor="middle" x="1430" y="1617">
TD
</text>
<text baseline-shift="-50%" cb-classname="GraphicTextEntity" class="algorithm" fill="#000000" font-family="MS Shell Dlg" id="4wu" text-anchor="middle" x="1430" y="1633">
ON
</text>
<g cb-classname="ControlPin" cb-pin-name="H1-nCL-NOU" id="4wK">
<line cb-classname="GraphicLineEntity" class="signalline" id="4wF" x1="1370" x2="1390" y1="1620" y2="1620"/>
<polygon cb-classname="GraphicPolygonEntity" class="signal" id="4wh" points="1390,1620 1379,1614 1379,1625"/>
<g cb-classname="DynamicText" cb-source="NA-MKx-keQ0" class="signal" id="4CO" text-anchor="end">
<text cb-classname="GraphicTextEntity" class="signal" fill="black" font-style="normal" font-weight="normal" id="4C4" text-anchor="end" text-decoration="normal" x="1375" y="1617"/>
</g>
</g>
<g cb-classname="ControlPin" cb-pin-name="zD-LCl-jr1i" id="4CC">
<line cb-classname="GraphicLineEntity" class="signalline" id="4Cn" x1="1370" x2="1390" y1="1640" y2="1640"/>
<polygon cb-classname="GraphicPolygonEntity" class="signal" id="4CV" points="1390,1640 1379,1634 1379,1645"/>
<g cb-classname="DynamicText" cb-source="o0-62r-Wn4m" class="signal" id="4Cl" text-anchor="end">
<text cb-classname="GraphicTextEntity" class="signal" fill="black" font-style="normal" font-weight="normal" id="4Cu" text-anchor="end" text-decoration="normal" x="1375" y="1637"/>
</g>
</g>
<g cb-classname="ControlPin" cb-pin-name="Zt-dcg-EAc" id="4CK">
<line cb-classname="GraphicLineEntity" class="signalline" id="4CF" x1="1470" x2="1490" y1="1630" y2="1630"/>
<g cb-classname="DynamicText" cb-source="4g-3gT-nyFc" class="signal" id="4Ch" text-anchor="start">
<text cb-classname="GraphicTextEntity" class="signal" fill="black" font-style="normal" font-weight="normal" id="4QO" text-anchor="start" text-decoration="normal" x="1484" y="1627"/>
</g>
<g cb-classname="SignalSegment" id="5wh">
<line cb-classname="GraphicLineEntity" class="signalline" id="5CO" stroke="#1e12bf" stroke-dasharray="5,4" x1="1490" x2="1950" y1="1630" y2="1630"/>
<g cb-classname="SignalConnection" cb-graphic-line="$570$" cb-input-pin="$Tmj$" id="5C4"/>
</g>
</g>
<g cb-classname="DynamicText" cb-labeled="true" cb-source="4g-wO9-cy05" class="algorithm" id="1Hho" text-anchor="start">
<text cb-classname="GraphicTextEntity" class="algorithm" fill="black" font-style="normal" font-weight="normal" id="1HhM" text-anchor="start" text-decoration="normal" x="1390" y="1600"/>
</g>
</g>
<g cb-alg-H2q="01B0202D20-HFO" cb-alg-HeBZ="NO" cb-algorithm-id="001" cb-classname="ExternalPointInterface" cb-function-name="INPUT" id="1CVH">
<ellipse cb-classname="GraphicEllipseEntity" class="algorithm" cx="750" cy="660" id="1Clo" rx="50" ry="50"/>
<rect cb-classname="GraphicRectangleEntity" class="algorithm" height="100" id="1ClM" width="40" x="660" y="610"/>
<line cb-classname="GraphicLineEntity" class="algorithm" id="1ClK" x1="660" x2="700" y1="660" y2="660"/>
<g cb-classname="ControlPin" cb-pin-name="4g-wO9-Ooc" id="1ClU">
<line cb-classname="GraphicLineEntity" class="signalline" id="1ClJ" x1="800" x2="830" y1="660" y2="660"/>
<g cb-classname="DynamicText" cb-source="cJ-gsY-x1rk" class="signal" id="1Cle" text-anchor="start">
<text cb-classname="GraphicTextEntity" class="signal" fill="black" font-style="normal" font-weight="normal" id="1ClO" text-anchor="start" text-decoration="normal" x="814" y="657"/>
</g>
<g cb-classname="SignalSegment" id="1Qno">
<g cb-classname="SignalConnection" cb-graphic-line="$1833$" cb-input-pin="$CJ0$" id="1QnJ"/>
<line cb-classname="GraphicLineEntity" class="signalline" id="1QnU" stroke="#1e12bf" stroke-dasharray="5,4" x1="830" x2="1950" y1="660" y2="660"/>
</g>
</g>
<g cb-classname="PointStatusIndicator" cb-indicator-type="Highway" cb-source="NA-mbp-szN" id="1Clc" visibility="hidden">
<line cb-classname="GraphicLineEntity" class="algorithmline" id="1ClT" x1="700" x2="750" y1="660" y2="610"/>
<line cb-classname="GraphicLineEntity" class="algorithmline" id="1ClH" x1="750" x2="800" y1="610" y2="660"/>
<line cb-classname="GraphicLineEntity" class="algorithmline" id="1Cuo" x1="800" x2="750" y1="660" y2="710"/>
<line cb-classname="GraphicLineEntity" class="algorithmline" id="1CuM" x1="750" x2="700" y1="710" y2="660"/>
</g>
<g cb-classname="PointStatusIndicator" cb-indicator-type="hardware" cb-source="o0-en9-dZJ" id="1CuK" visibility="visible">
<line cb-classname="GraphicLineEntity" class="algorithmline" id="1CuU" x1="700" x2="800" y1="610" y2="610"/>
<line cb-classname="GraphicLineEntity" class="algorithmline" id="1CuJ" x1="800" x2="800" y1="610" y2="710"/>
<line cb-classname="GraphicLineEntity" class="algorithmline" id="1Cue" x1="800" x2="700" y1="710" y2="710"/>
</g>
<g cb-classname="PointStatusIndicator" cb-indicator-type="alarm" cb-source="4g-wO9-Ooc" id="1CuO" visibility="hidden">
<text cb-classname="GraphicTextEntity" class="algorithm" fill="#000000" font-family="arial" font-size="20" id="1Cuc" x="670" y="645">
A
</text>
</g>
<g cb-classname="PointStatusIndicator" cb-indicator-type="ingraphic" cb-source="cJ-t15-H2q" id="1CuT" visibility="visible">
<text cb-classname="GraphicTextEntity" class="algorithm" fill="#000000" font-family="Arial" font-size="20" id="1CuH" x="670" y="695">
G
</text>
</g>
<g baseline-shift="-50%" cb-anchor-x="650" cb-anchor-y="674" cb-classname="PointDescription" cb-content="extended" cb-labeled="false" cb-max-width="220" cb-source="NA-mbp-szN" class="algorithm" id="1CKo" text-anchor="end">
<text baseline-shift="-50%" cb-classname="GraphicTextEntity" class="algorithm" id="1CKM" text-anchor="end" x="650" y="649">
DESC: Point not found in
</text>
<text baseline-shift="-50%" cb-classname="GraphicTextEntity" class="algorithm" id="2Qno" text-anchor="end" x="650" y="674">
database
</text>
<text baseline-shift="-50%" cb-classname="GraphicTextEntity" class="algorithm" id="2QnM" text-anchor="end" x="650" y="699">
(01B0202D20-HFO)
</text>
</g>
<g cb-classname="DynamicText" cb-labeled="false" cb-pin-name="LGL" cb-source="zD-LCl-L4r" class="algorithm" id="1CKK" text-anchor="start">
<text baseline-shift="0%" cb-classname="GraphicTextEntity" class="algorithm" fill="black" font-family="arial" font-size="20" font-style="normal" font-weight="normal" id="1CKU" text-anchor="start" text-decoration="normal" x="820" y="630"/>
</g>
<g baseline-shift="-100%" cb-anchor-x="820" cb-anchor-y="670" cb-classname="PointReferences" cb-max-width="230" cb-originator="true" cb-source="EU-zj3-ez3" class="signal" id="1CKJ" text-anchor="start">
<text baseline-shift="-100%" cb-classname="GraphicTextEntity" class="algorithm" id="1CKe" text-anchor="start" x="820" y="670">
REF: Point not found in
</text>
<text baseline-shift="-100%" cb-classname="GraphicTextEntity" class="algorithm" id="2QnK" text-anchor="start" x="820" y="695">
database
</text>
<text baseline-shift="-100%" cb-classname="GraphicTextEntity" class="algorithm" id="2QnU" text-anchor="start" x="820" y="720">
(01B0202D20-HFO)
</text>
</g>
</g>
<g cb-alg-N1u="01B0202D20-HFZ" cb-alg-Nhr3="NO" cb-algorithm-id="002" cb-classname="ExternalPointInterface" cb-function-name="INPUT" id="1CKO">
<ellipse cb-classname="GraphicEllipseEntity" class="algorithm" cx="750" cy="800" id="1CKc" rx="50" ry="50"/>
<rect cb-classname="GraphicRectangleEntity" class="algorithm" height="100" id="1CKT" width="40" x="660" y="750"/>
<line cb-classname="GraphicLineEntity" class="algorithm" id="1CKH" x1="660" x2="700" y1="800" y2="800"/>
<g cb-classname="ControlPin" cb-pin-name="H1-nCL-tNk" id="1CFo">
<line cb-classname="GraphicLineEntity" class="signalline" id="1CFM" x1="800" x2="830" y1="800" y2="800"/>
<g cb-classname="DynamicText" cb-source="76-yst-SzGj" class="signal" id="1CFK" text-anchor="start">
<text cb-classname="GraphicTextEntity" class="signal" fill="black" font-style="normal" font-weight="normal" id="1CFU" text-anchor="start" text-decoration="normal" x="814" y="797"/>
</g>
<g cb-classname="SignalSegment" id="1Qne">
<line cb-classname="GraphicLineEntity" class="signalline" id="1QnO" stroke="#1e12bf" stroke-dasharray="5,4" x1="830" x2="1720" y1="800" y2="800"/>
<g cb-classname="SignalSegment" id="1Qnc">
<line cb-classname="GraphicLineEntity" class="signalline" id="1QnT" stroke="#1e12bf" stroke-dasharray="5,4" x1="1720" x2="1720" y1="800" y2="910"/>
<g cb-classname="SignalSegment" id="1QnH">
<line cb-classname="GraphicLineEntity" class="signalline" id="1QVo" stroke="#1e12bf" stroke-dasharray="5,4" x1="1720" x2="1950" y1="910" y2="910"/>
<g cb-classname="SignalConnection" cb-graphic-line="$1840$" cb-input-pin="$yat$" id="1QVM"/>
</g>
</g>
</g>
</g>
<g cb-classname="PointStatusIndicator" cb-indicator-type="Highway" cb-source="ij-4wo-Ten" id="1CFJ" visibility="hidden">
<line cb-classname="GraphicLineEntity" class="algorithmline" id="1CFe" x1="700" x2="750" y1="800" y2="750"/>
<line cb-classname="GraphicLineEntity" class="algorithmline" id="1CFO" x1="750" x2="800" y1="750" y2="800"/>
<line cb-classname="GraphicLineEntity" class="algorithmline" id="1CFc" x1="800" x2="750" y1="800" y2="850"/>
<line cb-classname="GraphicLineEntity" class="algorithmline" id="1CFT" x1="750" x2="700" y1="850" y2="800"/>
</g>
<g cb-classname="PointStatusIndicator" cb-indicator-type="hardware" cb-source="tD-J55-GcY" id="1CFH" visibility="visible">
<line cb-classname="GraphicLineEntity" class="algorithmline" id="1Cho" x1="700" x2="800" y1="750" y2="750"/>
<line cb-classname="GraphicLineEntity" class="algorithmline" id="1ChM" x1="800" x2="800" y1="750" y2="850"/>
<line cb-classname="GraphicLineEntity" class="algorithmline" id="1ChK" x1="800" x2="700" y1="850" y2="850"/>
</g>
<g cb-classname="PointStatusIndicator" cb-indicator-type="alarm" cb-source="H1-nCL-tNk" id="1ChU" visibility="hidden">
<text cb-classname="GraphicTextEntity" class="algorithm" fill="#000000" font-family="arial" font-size="20" id="1ChJ" x="670" y="785">
A
</text>
</g>
<g cb-classname="PointStatusIndicator" cb-indicator-type="ingraphic" cb-source="76-lqD-N1u" id="1Che" visibility="visible">
<text cb-classname="GraphicTextEntity" class="algorithm" fill="#000000" font-family="Arial" font-size="20" id="1ChO" x="670" y="835">
G
</text>
</g>
<g baseline-shift="-50%" cb-anchor-x="650" cb-anchor-y="814" cb-classname="PointDescription" cb-content="extended" cb-labeled="false" cb-max-width="220" cb-source="ij-4wo-Ten" class="algorithm" id="1Chc" text-anchor="end">
<text baseline-shift="-50%" cb-classname="GraphicTextEntity" class="algorithm" id="1ChT" text-anchor="end" x="650" y="789">
DESC: Point not found in
</text>
<text baseline-shift="-50%" cb-classname="GraphicTextEntity" class="algorithm" id="2QnJ" text-anchor="end" x="650" y="814">
database
</text>
<text baseline-shift="-50%" cb-classname="GraphicTextEntity" class="algorithm" id="2Qne" text-anchor="end" x="650" y="839">
(01B0202D20-HFZ)
</text>
</g>
<g cb-classname="DynamicText" cb-labeled="false" cb-pin-name="teY" cb-source="Wp-1IZ-sBY" class="algorithm" id="1ChH" text-anchor="start">
<text baseline-shift="0%" cb-classname="GraphicTextEntity" class="algorithm" fill="black" font-family="arial" font-size="20" font-style="normal" font-weight="normal" id="1QOo" text-anchor="start" text-decoration="normal" x="820" y="770"/>
</g>
<g baseline-shift="-100%" cb-anchor-x="820" cb-anchor-y="810" cb-classname="PointReferences" cb-max-width="230" cb-originator="true" cb-source="o0-en9-dZJ" class="signal" id="1QOM" text-anchor="start">
<text baseline-shift="-100%" cb-classname="GraphicTextEntity" class="algorithm" id="1QOK" text-anchor="start" x="820" y="810">
REF: Point not found in
</text>
<text baseline-shift="-100%" cb-classname="GraphicTextEntity" class="algorithm" id="2QnO" text-anchor="start" x="820" y="835">
database
</text>
<text baseline-shift="-100%" cb-classname="GraphicTextEntity" class="algorithm" id="2Qnc" text-anchor="start" x="820" y="860">
(01B0202D20-HFZ)
</text>
</g>
</g>
<g cb-alg-sh29="NO" cb-alg-szN="01B0202D20-HFA" cb-algorithm-id="004" cb-classname="ExternalPointInterface" cb-function-name="INPUT" id="1QOU">
<ellipse cb-classname="GraphicEllipseEntity" class="algorithm" cx="750" cy="930" id="1QOJ" rx="50" ry="50"/>
<rect cb-classname="GraphicRectangleEntity" class="algorithm" height="100" id="1QOe" width="40" x="660" y="880"/>
<line cb-classname="GraphicLineEntity" class="algorithm" id="1QOO" x1="660" x2="700" y1="930" y2="930"/>
<g cb-classname="ControlPin" cb-pin-name="cJ-t15-H2q" id="1QOc">
<line cb-classname="GraphicLineEntity" class="signalline" id="1QOT" x1="800" x2="830" y1="930" y2="930"/>
<g cb-classname="DynamicText" cb-source="NA-MKx-keQ0" class="signal" id="1QOH" text-anchor="start">
<text cb-classname="GraphicTextEntity" class="signal" fill="black" font-style="normal" font-weight="normal" id="1Q4o" text-anchor="start" text-decoration="normal" x="814" y="927"/>
</g>
<g cb-classname="SignalSegment" id="1QVc">
<line cb-classname="GraphicLineEntity" class="signalline" id="1QVT" stroke="#1e12bf" stroke-dasharray="5,4" x1="830" x2="1290" y1="930" y2="930"/>
<g cb-classname="SignalSegment" id="1QVH">
<line cb-classname="GraphicLineEntity" class="signalline" id="1Qlo" stroke="#1e12bf" stroke-dasharray="5,4" x1="1290" x2="1290" y1="930" y2="1150"/>
<g cb-classname="SignalSegment" id="1QlM">
<line cb-classname="GraphicLineEntity" class="signalline" id="1QlK" stroke="#1e12bf" stroke-dasharray="5,4" x1="1290" x2="1390" y1="1150" y2="1150"/>
<g cb-classname="SignalConnection" cb-graphic-line="$1852$" cb-input-pin="$625$" id="1QlU"/>
<line cb-classname="GraphicLineEntity" class="signalline" id="1QlJ" stroke="#1e12bf" stroke-dasharray="5,4" x1="1290" x2="1290" y1="1150" y2="1290"/>
<g cb-classname="SignalSegment" id="1Qle">
<line cb-classname="GraphicLineEntity" class="signalline" id="1QlO" stroke="#1e12bf" stroke-dasharray="5,4" x1="1290" x2="1630" y1="1290" y2="1290"/>
<g cb-classname="SignalSegment" id="1Qlc">
<line cb-classname="GraphicLineEntity" class="signalline" id="1QKM" stroke="#1e12bf" stroke-dasharray="5,4" x1="1630" x2="1630" y1="1290" y2="1380"/>
<g cb-classname="SignalSegment" id="1QKK">
<g cb-classname="SignalConnection" cb-graphic-line="$1875$" cb-input-pin="$vnQ$" id="1QKO"/>
<line cb-classname="GraphicLineEntity" class="signalline" id="1QKe" stroke="#1e12bf" stroke-dasharray="5,4" x1="1630" x2="1950" y1="1380" y2="1380"/>
<ellipse cb-classname="GraphicEllipseEntity" class="signal" cx="1630" cy="1380" fill="#1e12bf" id="1QKc" rx="5" ry="5" stroke="#1e12bf" stroke-dasharray="5,4"/>
<g cb-classname="SignalSegment" id="1QuO">
<line cb-classname="GraphicLineEntity" class="signalline" id="1Quc" stroke="#1e12bf" stroke-dasharray="5,4" x1="1630" x2="1950" y1="1670" y2="1670"/>
<g cb-classname="SignalConnection" cb-graphic-line="$1867$" cb-input-pin="$YiD$" id="1QuT"/>
</g>
<line cb-classname="GraphicLineEntity" class="signalline" id="1Que" stroke="#1e12bf" stroke-dasharray="5,4" x1="1630" x2="1630" y1="1380" y2="1670"/>
</g>
</g>
</g>
<ellipse cb-classname="GraphicEllipseEntity" class="signal" cx="1290" cy="1150" fill="#1e12bf" id="1QuK" rx="5" ry="5" stroke="#1e12bf" stroke-dasharray="5,4"/>
</g>
</g>
</g>
</g>
<g cb-classname="PointStatusIndicator" cb-indicator-type="Highway" cb-source="zD-LCl-L4r" id="1Q4M" visibility="hidden">
<line cb-classname="GraphicLineEntity" class="algorithmline" id="1Q4K" x1="700" x2="750" y1="930" y2="880"/>
<line cb-classname="GraphicLineEntity" class="algorithmline" id="1Q4U" x1="750" x2="800" y1="880" y2="930"/>
<line cb-classname="GraphicLineEntity" class="algorithmline" id="1Q4J" x1="800" x2="750" y1="930" y2="980"/>
<line cb-classname="GraphicLineEntity" class="algorithmline" id="1Q4e" x1="750" x2="700" y1="980" y2="930"/>
</g>
<g cb-classname="PointStatusIndicator" cb-indicator-type="hardware" cb-source="Zt-dcg-EAc" id="1Q4O" visibility="visible">
<line cb-classname="GraphicLineEntity" class="algorithmline" id="1Q4c" x1="700" x2="800" y1="880" y2="880"/>
<line cb-classname="GraphicLineEntity" class="algorithmline" id="1Q4T" x1="800" x2="800" y1="880" y2="980"/>
<line cb-classname="GraphicLineEntity" class="algorithmline" id="1Q4H" x1="800" x2="700" y1="980" y2="980"/>
</g>
<g cb-classname="PointStatusIndicator" cb-indicator-type="alarm" cb-source="cJ-t15-H2q" id="1QCo" visibility="hidden">
<text cb-classname="GraphicTextEntity" class="algorithm" fill="#000000" font-family="arial" font-size="20" id="1QCM" x="670" y="915">
A
</text>
</g>
<g cb-classname="PointStatusIndicator" cb-indicator-type="ingraphic" cb-source="NA-mbp-szN" id="1QCK" visibility="visible">
<text cb-classname="GraphicTextEntity" class="algorithm" fill="#000000" font-family="Arial" font-size="20" id="1QCU" x="670" y="965">
G
</text>
</g>
<g baseline-shift="-50%" cb-anchor-x="650" cb-anchor-y="944" cb-classname="PointDescription" cb-content="extended" cb-labeled="false" cb-max-width="220" cb-source="zD-LCl-L4r" class="algorithm" id="1QCJ" text-anchor="end">
<text baseline-shift="-50%" cb-classname="GraphicTextEntity" class="algorithm" id="1QCe" text-anchor="end" x="650" y="919">
DESC: Point not found in
</text>
<text baseline-shift="-50%" cb-classname="GraphicTextEntity" class="algorithm" id="2QnT" text-anchor="end" x="650" y="944">
database
</text>
<text baseline-shift="-50%" cb-classname="GraphicTextEntity" class="algorithm" id="2QnH" text-anchor="end" x="650" y="969">
(01B0202D20-HFA)
</text>
</g>
<g cb-classname="DynamicText" cb-labeled="false" cb-pin-name="VJM" cb-source="EU-zj3-ez3" class="algorithm" id="1QCO" text-anchor="start">
<text baseline-shift="0%" cb-classname="GraphicTextEntity" class="algorithm" fill="black" font-family="arial" font-size="20" font-style="normal" font-weight="normal" id="1QCc" text-anchor="start" text-decoration="normal" x="820" y="900"/>
</g>
<g baseline-shift="-100%" cb-anchor-x="820" cb-anchor-y="940" cb-classname="PointReferences" cb-max-width="230" cb-originator="true" cb-source="tD-J55-GcY" class="signal" id="1QCT" text-anchor="start">
<text baseline-shift="-100%" cb-classname="GraphicTextEntity" class="algorithm" id="1QCH" text-anchor="start" x="820" y="940">
REF: Point not found in
</text>
<text baseline-shift="-100%" cb-classname="GraphicTextEntity" class="algorithm" id="2QVo" text-anchor="start" x="820" y="965">
database
</text>
<text baseline-shift="-100%" cb-classname="GraphicTextEntity" class="algorithm" id="2QVM" text-anchor="start" x="820" y="990">
(01B0202D20-HFA)
</text>
</g>
</g>
<g cb-alg-stq="$1803$cb-alg-out$" cb-algorithm-id="008" cb-classname="FastBooleanAlgorithm" cb-function-name="NOT" id="3dn">
<rect cb-classname="GraphicRectangleEntity" class="algorithm" height="40" id="3dV" width="40" x="1410" y="1130"/>
<g cb-classname="ControlPin" cb-pin-name="o0-en9-0BV" id="3dl">
<line cb-classname="GraphicLineEntity" class="signalline" id="3du" x1="1390" x2="1410" y1="1150" y2="1150"/>
<polygon cb-classname="GraphicPolygonEntity" class="signal" id="3dK" points="1410,1150 1399,1144 1399,1155"/>
<g cb-classname="DynamicText" cb-source="98-Y0B-l8e5" class="signal" id="3dF" text-anchor="end">
<text cb-classname="GraphicTextEntity" class="signal" fill="black" font-style="normal" font-weight="normal" id="3dh" text-anchor="end" text-decoration="normal" x="1395" y="1147"/>
</g>
</g>
<g cb-classname="ControlPin" cb-pin-name="H1-nCL-tNk" id="3mO">
<line cb-classname="GraphicLineEntity" class="signalline" id="3m4" x1="1450" x2="1470" y1="1150" y2="1150"/>
<g cb-classname="DynamicText" cb-source="76-yst-SzGj" class="signal" id="3mC" text-anchor="start">
<text cb-classname="GraphicTextEntity" class="signal" fill="black" font-style="normal" font-weight="normal" id="3mn" text-anchor="start" text-decoration="normal" x="1464" y="1147"/>
</g>
<g cb-classname="SignalSegment" id="3wO">
<g cb-classname="SignalSegment" id="7ru">
<line cb-classname="GraphicLineEntity" class="signalline" id="3wn" stroke="#1e12bf" stroke-dasharray="5,4" x1="1820" x2="1820" y1="1150" y2="950"/>
<g cb-classname="SignalSegment" id="3wV">
<line cb-classname="GraphicLineEntity" class="signalline" id="3wl" stroke="#1e12bf" stroke-dasharray="5,4" x1="1820" x2="1950" y1="950" y2="950"/>
<g cb-classname="SignalConnection" cb-graphic-line="$365$" cb-input-pin="$U0k$" id="3wu"/>
<line cb-classname="GraphicLineEntity" class="signalline" id="7rK" stroke="#1e12bf" stroke-dasharray="5,4" x1="1820" x2="1820" y1="950" y2="700"/>
<g cb-classname="SignalSegment" id="7rF">
<line cb-classname="GraphicLineEntity" class="signalline" id="7rh" stroke="#1e12bf" stroke-dasharray="5,4" x1="1820" x2="1950" y1="700" y2="700"/>
<g cb-classname="SignalConnection" cb-graphic-line="$739$" cb-input-pin="$LUo$" id="7dO"/>
</g>
<ellipse cb-classname="GraphicEllipseEntity" class="signal" cx="1820" cy="950" fill="#1e12bf" id="1HhJ" rx="5" ry="5" stroke="#1e12bf" stroke-dasharray="5,4"/>
</g>
</g>
<line cb-classname="GraphicLineEntity" class="signalline" id="7rl" stroke="#1e12bf" stroke-dasharray="5,4" x1="1470" x2="1820" y1="1150" y2="1150"/>
</g>
</g>
<line cb-classname="GraphicLineEntity" class="algorithm" id="3mV" x1="1420" x2="1420" y1="1140" y2="1160"/>
<line cb-classname="GraphicLineEntity" class="algorithm" id="3ml" x1="1420" x2="1440" y1="1140" y2="1160"/>
<line cb-classname="GraphicLineEntity" class="algorithm" id="3mu" x1="1440" x2="1440" y1="1160" y2="1140"/>
</g>
<g cb-alg-std="$343$cb-alg-out$" cb-alg-stq="$1749$cb-alg-out$" cb-algorithm-id="003" cb-classname="FastBooleanAlgorithm" cb-function-name="AND" id="2rh">
<rect cb-classname="GraphicRectangleEntity" class="algorithm" height="60" id="2dO" width="60" x="1970" y="650"/>
<g cb-classname="ControlPin" cb-pin-name="o0-en9-0BV" id="2d4">
<line cb-classname="GraphicLineEntity" class="signalline" id="2dC" x1="1950" x2="1970" y1="660" y2="660"/>
<polygon cb-classname="GraphicPolygonEntity" class="signal" id="2dn" points="1970,660 1959,654 1959,665"/>
<g cb-classname="DynamicText" cb-source="98-Y0B-l8e5" class="signal" id="2dV" text-anchor="end">
<text cb-classname="GraphicTextEntity" class="signal" fill="black" font-style="normal" font-weight="normal" id="2dl" text-anchor="end" text-decoration="normal" x="1955" y="657"/>
</g>
</g>
<g cb-classname="ControlPin" cb-pin-name="H1-nCL-NOB" id="2du">
<line cb-classname="GraphicLineEntity" class="signalline" id="2dK" x1="1950" x2="1970" y1="700" y2="700"/>
<polygon cb-classname="GraphicPolygonEntity" class="signal" id="2dF" points="1970,700 1959,694 1959,705"/>
<g cb-classname="DynamicText" cb-source="NA-MKx-keQ0" class="signal" id="2dh" text-anchor="end">
<text cb-classname="GraphicTextEntity" class="signal" fill="black" font-style="normal" font-weight="normal" id="2mO" text-anchor="end" text-decoration="normal" x="1955" y="697"/>
</g>
</g>
<line cb-classname="GraphicLineEntity" class="algorithm" id="2m4" x1="1970" x2="1970" y1="640" y2="720"/>
<g cb-classname="ControlPin" cb-pin-name="Wp-1IZ-sBY" id="2mC">
<line cb-classname="GraphicLineEntity" class="signalline" id="2mn" x1="2030" x2="2050" y1="680" y2="680"/>
<g cb-classname="DynamicText" cb-source="o0-62r-Wn4m" class="signal" id="2mV" text-anchor="start">
<text cb-classname="GraphicTextEntity" class="signal" fill="black" font-style="normal" font-weight="normal" id="2ml" text-anchor="start" text-decoration="normal" x="2044" y="677"/>
</g>
<g cb-classname="SignalSegment" id="3NC">
<line cb-classname="GraphicLineEntity" class="signalline" id="3Nn" stroke="#1e12bf" stroke-dasharray="5,4" x1="2050" x2="2330" y1="680" y2="680"/>
<g cb-classname="SignalConnection" cb-graphic-line="$393$" cb-input-pin="$nCh$" id="3NV"/>
</g>
</g>
<text baseline-shift="-50%" cb-classname="GraphicTextEntity" class="algorithm" fill="#000000" font-family="MS Shell Dlg" id="2mu" text-anchor="middle" x="2001" y="676">
AND
</text>
</g>
<g cb-alg-xO8="$1776$cb-alg-out$" cb-alg-xOP="$343$cb-alg-out$" cb-algorithm-id="007" cb-classname="FastBooleanAlgorithm" cb-function-name="AND" id="3B4">
<rect cb-classname="GraphicRectangleEntity" class="algorithm" height="60" id="3BC" width="60" x="1970" y="900"/>
<g cb-classname="ControlPin" cb-pin-name="76-lqD-uka" id="3Bn">
<line cb-classname="GraphicLineEntity" class="signalline" id="3BV" x1="1950" x2="1970" y1="910" y2="910"/>
<polygon cb-classname="GraphicPolygonEntity" class="signal" id="3Bl" points="1970,910 1959,904 1959,915"/>
<g cb-classname="DynamicText" cb-source="zD-luk-Bdah" class="signal" id="3Bu" text-anchor="end">
<text cb-classname="GraphicTextEntity" class="signal" fill="black" font-style="normal" font-weight="normal" id="3BK" text-anchor="end" text-decoration="normal" x="1955" y="907"/>
</g>
</g>
<g cb-classname="ControlPin" cb-pin-name="EU-zj3-0Wv" id="3BF">
<line cb-classname="GraphicLineEntity" class="signalline" id="3Bh" x1="1950" x2="1970" y1="950" y2="950"/>
<polygon cb-classname="GraphicPolygonEntity" class="signal" id="35O" points="1970,950 1959,944 1959,955"/>
<g cb-classname="DynamicText" cb-source="Zt-70W-TSoc" class="signal" id="354" text-anchor="end">
<text cb-classname="GraphicTextEntity" class="signal" fill="black" font-style="normal" font-weight="normal" id="35C" text-anchor="end" text-decoration="normal" x="1955" y="947"/>
</g>
</g>
<line cb-classname="GraphicLineEntity" class="algorithm" id="35n" x1="1970" x2="1970" y1="890" y2="970"/>
<g cb-classname="ControlPin" cb-pin-name="H1-nCL-tNk" id="35V">
<line cb-classname="GraphicLineEntity" class="signalline" id="35l" x1="2030" x2="2050" y1="930" y2="930"/>
<g cb-classname="DynamicText" cb-source="76-yst-SzGj" class="signal" id="35u" text-anchor="start">
<text cb-classname="GraphicTextEntity" class="signal" fill="black" font-style="normal" font-weight="normal" id="35K" text-anchor="start" text-decoration="normal" x="2044" y="927"/>
</g>
<g cb-classname="SignalSegment" id="55h">
<line cb-classname="GraphicLineEntity" class="signalline" id="5rO" stroke="#1e12bf" stroke-dasharray="5,4" x1="2050" x2="2190" y1="930" y2="930"/>
<g cb-classname="SignalSegment" id="5r4">
<line cb-classname="GraphicLineEntity" class="signalline" id="5rC" stroke="#1e12bf" stroke-dasharray="5,4" x1="2190" x2="2190" y1="930" y2="1610"/>
<g cb-classname="SignalSegment" id="5rn">
<line cb-classname="GraphicLineEntity" class="signalline" id="5rV" stroke="#1e12bf" stroke-dasharray="5,4" x1="2190" x2="2330" y1="1610" y2="1610"/>
<g cb-classname="SignalConnection" cb-graphic-line="$534$" cb-input-pin="$eIn$" id="5rl"/>
</g>
</g>
</g>
</g>
<text baseline-shift="-50%" cb-classname="GraphicTextEntity" class="algorithm" fill="#000000" font-family="MS Shell Dlg" id="35F" text-anchor="middle" x="2001" y="926">
AND
</text>
</g>
<g cb-alg-xO8="$1803$cb-alg-out$" cb-alg-xOP="$443$cb-alg-out$" cb-algorithm-id="00b" cb-classname="FastBooleanAlgorithm" cb-function-name="AND" id="4Bl">
<rect cb-classname="GraphicRectangleEntity" class="algorithm" height="60" id="4Bu" width="60" x="1970" y="1370"/>
<line cb-classname="GraphicLineEntity" class="algorithm" id="4BK" x1="1970" x2="1970" y1="1360" y2="1440"/>
<g cb-classname="ControlPin" cb-pin-name="NA-mbp-szN" id="4BF">
<line cb-classname="GraphicLineEntity" class="signalline" id="4Bh" x1="2030" x2="2050" y1="1400" y2="1400"/>
<g cb-classname="DynamicText" cb-source="zD-luk-Bdah" class="signal" id="45O" text-anchor="start">
<text cb-classname="GraphicTextEntity" class="signal" fill="black" font-style="normal" font-weight="normal" id="454" text-anchor="start" text-decoration="normal" x="2044" y="1397"/>
</g>
<g cb-classname="SignalSegment" id="5BK">
<line cb-classname="GraphicLineEntity" class="signalline" id="55n" stroke="#1e12bf" stroke-dasharray="5,4" x1="2050" x2="2220" y1="1400" y2="1400"/>
<g cb-classname="SignalSegment" id="55V">
<line cb-classname="GraphicLineEntity" class="signalline" id="55l" stroke="#1e12bf" stroke-dasharray="5,4" x1="2220" x2="2220" y1="1400" y2="720"/>
<g cb-classname="SignalSegment" id="55u">
<line cb-classname="GraphicLineEntity" class="signalline" id="55K" stroke="#1e12bf" stroke-dasharray="5,4" x1="2220" x2="2330" y1="720" y2="720"/>
<g cb-classname="SignalConnection" cb-graphic-line="$527$" cb-input-pin="$yct$" id="55F"/>
</g>
</g>
</g>
</g>
<text baseline-shift="-50%" cb-classname="GraphicTextEntity" class="algorithm" fill="#000000" font-family="MS Shell Dlg" id="45C" text-anchor="middle" x="2000" y="1395">
AND
</text>
<g cb-classname="ControlPin" cb-pin-name="o0-en9-0BV" id="45n">
<line cb-classname="GraphicLineEntity" class="signalline" id="45V" x1="1950" x2="1970" y1="1380" y2="1380"/>
<polygon cb-classname="GraphicPolygonEntity" class="signal" id="45l" points="1970,1380 1959,1374 1959,1385"/>
<g cb-classname="DynamicText" cb-source="98-Y0B-l8e5" class="signal" id="45u" text-anchor="end">
<text cb-classname="GraphicTextEntity" class="signal" fill="black" font-style="normal" font-weight="normal" id="45K" text-anchor="end" text-decoration="normal" x="1955" y="1377"/>
</g>
</g>
<g cb-classname="ControlPin" cb-pin-name="H1-nCL-NOB" id="45F">
<line cb-classname="GraphicLineEntity" class="signalline" id="45h" x1="1950" x2="1970" y1="1420" y2="1420"/>
<polygon cb-classname="GraphicPolygonEntity" class="signal" id="4rO" points="1970,1420 1959,1414 1959,1425"/>
<g cb-classname="DynamicText" cb-source="NA-MKx-keQ0" class="signal" id="4r4" text-anchor="end">
<text cb-classname="GraphicTextEntity" class="signal" fill="black" font-style="normal" font-weight="normal" id="4rC" text-anchor="end" text-decoration="normal" x="1955" y="1417"/>
</g>
</g>
</g>
<g cb-alg-rBC="$239$cb-alg-out$" cb-alg-rBN="$415$cb-alg-out$" cb-algorithm-id="009" cb-classname="FastBooleanAlgorithm" cb-function-name="OR" id="3CV">
<ellipse cb-classname="GraphicEllipseEntity" class="algorithm" cx="2380" cy="700" id="3Cl" rx="30" ry="30"/>
<line cb-classname="GraphicLineEntity" class="algorithm" id="3Cu" x1="2350" x2="2350" y1="660" y2="740"/>
<text baseline-shift="-50%" cb-classname="GraphicTextEntity" class="algorithm" fill="#000000" font-family="MS Shell Dlg" font-size="18" id="3CK" text-anchor="middle" x="2379" y="695">
OR
</text>
<g cb-classname="ControlPin" cb-pin-name="76-lqD-uka" id="3CF">
<line cb-classname="GraphicLineEntity" class="signalline" id="3Ch" x1="2330" x2="2350" y1="680" y2="680"/>
<polygon cb-classname="GraphicPolygonEntity" class="signal" id="3QO" points="2350,680 2339,674 2339,685"/>
<g cb-classname="DynamicText" cb-source="zD-luk-Bdah" class="signal" id="3Q4" text-anchor="end">
<text cb-classname="GraphicTextEntity" class="signal" fill="black" font-style="normal" font-weight="normal" id="3QC" text-anchor="end" text-decoration="normal" x="2335" y="677"/>
</g>
</g>
<g cb-classname="ControlPin" cb-pin-name="EU-zj3-0Wv" id="3Qn">
<line cb-classname="GraphicLineEntity" class="signalline" id="3QV" x1="2330" x2="2350" y1="720" y2="720"/>
<polygon cb-classname="GraphicPolygonEntity" class="signal" id="3Ql" points="2350,720 2339,714 2339,725"/>
<g cb-classname="DynamicText" cb-source="Zt-70W-TSoc" class="signal" id="3Qu" text-anchor="end">
<text cb-classname="GraphicTextEntity" class="signal" fill="black" font-style="normal" font-weight="normal" id="3QK" text-anchor="end" text-decoration="normal" x="2335" y="717"/>
</g>
</g>
<g cb-classname="ControlPin" cb-pin-name="4g-wO9-Ooc" id="3QF">
<line cb-classname="GraphicLineEntity" class="signalline" id="3Qh" x1="2410" x2="2430" y1="700" y2="700"/>
<g cb-classname="DynamicText" cb-source="cJ-gsY-x1rk" class="signal" id="3NO" text-anchor="start">
<text cb-classname="GraphicTextEntity" class="signal" fill="black" font-style="normal" font-weight="normal" id="3N4" text-anchor="start" text-decoration="normal" x="2424" y="697"/>
</g>
<g cb-classname="SignalSegment" id="5dn">
<line cb-classname="GraphicLineEntity" class="signalline" id="5dV" stroke="#1e12bf" stroke-dasharray="5,4" x1="2430" x2="2980" y1="700" y2="700"/>
<g cb-classname="SignalConnection" cb-graphic-line="$544$" cb-input-pin="$KJH$" id="5dl"/>
</g>
</g>
</g>
<g cb-alg-iS4="$463$cb-alg-out$" cb-alg-iSC="$1803$cb-alg-out$" cb-algorithm-id="00e" cb-classname="FastBooleanAlgorithm" cb-function-name="AND" id="4Q4">
<rect cb-classname="GraphicRectangleEntity" class="algorithm" height="60" id="4QC" width="60" x="1970" y="1620"/>
<g cb-classname="ControlPin" cb-pin-name="NA-mbp-BNC" id="4Qn">
<line cb-classname="GraphicLineEntity" class="signalline" id="4QV" x1="1950" x2="1970" y1="1630" y2="1630"/>
<polygon cb-classname="GraphicPolygonEntity" class="signal" id="4Ql" points="1970,1630 1959,1624 1959,1635"/>
<g cb-classname="DynamicText" cb-source="Wp-nBN-rUkr" class="signal" id="4Qu" text-anchor="end">
<text cb-classname="GraphicTextEntity" class="signal" fill="black" font-style="normal" font-weight="normal" id="4QK" text-anchor="end" text-decoration="normal" x="1955" y="1627"/>
</g>
</g>
<g cb-classname="ControlPin" cb-pin-name="o0-en9-0Bt" id="4QF">
<line cb-classname="GraphicLineEntity" class="signalline" id="4Qh" x1="1950" x2="1970" y1="1670" y2="1670"/>
<polygon cb-classname="GraphicPolygonEntity" class="signal" id="4NO" points="1970,1670 1959,1664 1959,1675"/>
<g cb-classname="DynamicText" cb-source="98-Y0B-l8e5" class="signal" id="4N4" text-anchor="end">
<text cb-classname="GraphicTextEntity" class="signal" fill="black" font-style="normal" font-weight="normal" id="4NC" text-anchor="end" text-decoration="normal" x="1955" y="1667"/>
</g>
</g>
<line cb-classname="GraphicLineEntity" class="algorithm" id="4Nn" x1="1970" x2="1970" y1="1610" y2="1690"/>
<g cb-classname="ControlPin" cb-pin-name="cJ-t15-H2q" id="4NV">
<line cb-classname="GraphicLineEntity" class="signalline" id="4Nl" x1="2030" x2="2050" y1="1650" y2="1650"/>
<g cb-classname="DynamicText" cb-source="NA-MKx-keQ0" class="signal" id="4Nu" text-anchor="start">
<text cb-classname="GraphicTextEntity" class="signal" fill="black" font-style="normal" font-weight="normal" id="4NK" text-anchor="start" text-decoration="normal" x="2044" y="1647"/>
</g>
<g cb-classname="SignalSegment" id="55O">
<line cb-classname="GraphicLineEntity" class="signalline" id="554" stroke="#1e12bf" stroke-dasharray="5,4" x1="2050" x2="2330" y1="1650" y2="1650"/>
<g cb-classname="SignalConnection" cb-graphic-line="$521$" cb-input-pin="$eIk$" id="55C"/>
</g>
</g>
<text baseline-shift="-50%" cb-classname="GraphicTextEntity" class="algorithm" fill="#000000" font-family="MS Shell Dlg" id="4NF" text-anchor="middle" x="2001" y="1646">
AND
</text>
</g>
<g cb-alg-std="$481$cb-alg-out$" cb-alg-stq="$311$cb-alg-out$" cb-algorithm-id="00f" cb-classname="FastBooleanAlgorithm" cb-function-name="OR" id="4Nh">
<ellipse cb-classname="GraphicEllipseEntity" class="algorithm" cx="2380" cy="1630" id="5HO" rx="30" ry="30"/>
<line cb-classname="GraphicLineEntity" class="algorithm" id="5H4" x1="2350" x2="2350" y1="1590" y2="1670"/>
<text baseline-shift="-50%" cb-classname="GraphicTextEntity" class="algorithm" fill="#000000" font-family="MS Shell Dlg" font-size="18" id="5HC" text-anchor="middle" x="2379" y="1625">
OR
</text>
<g cb-classname="ControlPin" cb-pin-name="Zt-dcg-WlT" id="5Hn">
<line cb-classname="GraphicLineEntity" class="signalline" id="5HV" x1="2330" x2="2350" y1="1610" y2="1610"/>
<polygon cb-classname="GraphicPolygonEntity" class="signal" id="5Hl" points="2350,1610 2339,1604 2339,1615"/>
<g cb-classname="DynamicText" cb-source="H1-9Wl-iCKw" class="signal" id="5Hu" text-anchor="end">
<text cb-classname="GraphicTextEntity" class="signal" fill="black" font-style="normal" font-weight="normal" id="5HK" text-anchor="end" text-decoration="normal" x="2335" y="1607"/>
</g>
</g>
<g cb-classname="ControlPin" cb-pin-name="76-lqD-ukd" id="5HF">
<line cb-classname="GraphicLineEntity" class="signalline" id="5Hh" x1="2330" x2="2350" y1="1650" y2="1650"/>
<polygon cb-classname="GraphicPolygonEntity" class="signal" id="5BO" points="2350,1650 2339,1644 2339,1655"/>
<g cb-classname="DynamicText" cb-source="zD-luk-Bdah" class="signal" id="5B4" text-anchor="end">
<text cb-classname="GraphicTextEntity" class="signal" fill="black" font-style="normal" font-weight="normal" id="5BC" text-anchor="end" text-decoration="normal" x="2335" y="1647"/>
</g>
</g>
<g cb-classname="ControlPin" cb-pin-name="EU-zj3-ez3" id="5Bn">
<line cb-classname="GraphicLineEntity" class="signalline" id="5BV" x1="2410" x2="2430" y1="1630" y2="1630"/>
<g cb-classname="DynamicText" cb-source="tD-OxO-B51I" class="signal" id="5Bl" text-anchor="start">
<text cb-classname="GraphicTextEntity" class="signal" fill="black" font-style="normal" font-weight="normal" id="5Bu" text-anchor="start" text-decoration="normal" x="2424" y="1627"/>
</g>
<g cb-classname="SignalSegment" id="5ru">
<line cb-classname="GraphicLineEntity" class="signalline" id="5rK" stroke="#1e12bf" stroke-dasharray="5,4" x1="2430" x2="2740" y1="1630" y2="1630"/>
<g cb-classname="SignalSegment" id="5rF">
<line cb-classname="GraphicLineEntity" class="signalline" id="5rh" stroke="#1e12bf" stroke-dasharray="5,4" x1="2740" x2="2740" y1="1630" y2="740"/>
<g cb-classname="SignalSegment" id="5dO">
<line cb-classname="GraphicLineEntity" class="signalline" id="5d4" stroke="#1e12bf" stroke-dasharray="5,4" x1="2740" x2="2980" y1="740" y2="740"/>
<g cb-classname="SignalConnection" cb-graphic-line="$541$" cb-input-pin="$YwN$" id="5dC"/>
</g>
</g>
</g>
</g>
</g>
<g cb-alg-PIll="RESET" cb-alg-TN9="$374$cb-alg-out$" cb-alg-X59="01B0202D20-WCOI" cb-alg-ffAA="$499$cb-alg-out$" cb-algorithm-id="00a" cb-classname="FastBooleanAlgorithm" cb-function-name="FLIPFLOP" id="3Nl">
<rect cb-classname="GraphicRectangleEntity" class="algorithm" height="100" id="3Nu" width="140" x="3000" y="670"/>
<g cb-classname="ControlPin" cb-pin-name="o0-en9-DrJ" id="3NK">
<line cb-classname="GraphicLineEntity" class="signalline" id="3NF" x1="2980" x2="3000" y1="700" y2="700"/>
<polygon cb-classname="GraphicPolygonEntity" class="signal" id="3Nh" points="3000,700 2989,694 2989,705"/>
<g cb-classname="DynamicText" cb-source="98-Y0B-l8e5" class="signal" id="4HO" text-anchor="end">
<text cb-classname="GraphicTextEntity" class="signal" fill="black" font-style="normal" font-weight="normal" id="4H4" text-anchor="end" text-decoration="normal" x="2985" y="697"/>
</g>
</g>
<g cb-classname="ControlPin" cb-pin-name="H1-nCL-9Rc4" id="4HC">
<line cb-classname="GraphicLineEntity" class="signalline" id="4Hn" x1="2980" x2="3000" y1="740" y2="740"/>
<polygon cb-classname="GraphicPolygonEntity" class="signal" id="4HV" points="3000,740 2989,734 2989,745"/>
<g cb-classname="DynamicText" cb-source="NA-MKx-keQ0" class="signal" id="4Hl" text-anchor="end">
<text cb-classname="GraphicTextEntity" class="signal" fill="black" font-style="normal" font-weight="normal" id="4Hu" text-anchor="end" text-decoration="normal" x="2985" y="737"/>
</g>
</g>
<g cb-classname="ControlPin" cb-pin-name="zD-LCl-L4r" id="4HK">
<line cb-classname="GraphicLineEntity" class="signalline" id="4HF" x1="3140" x2="3160" y1="700" y2="700"/>
<g cb-classname="DynamicText" cb-source="EU-PrB-OwL0" class="signal" id="4Hh" text-anchor="start">
<text cb-classname="GraphicTextEntity" class="signal" fill="black" font-style="normal" font-weight="normal" id="4BO" text-anchor="start" text-decoration="normal" x="3154" y="697"/>
</g>
<g cb-classname="SignalSegment" id="2Buc">
<line cb-classname="GraphicLineEntity" class="signalline" id="2BKK" stroke="#1e12bf" stroke-dasharray="5,4" x1="3160" x2="3660" y1="700" y2="700"/>
<g cb-classname="SignalSegment" id="2BKU">
<line cb-classname="GraphicLineEntity" class="signalline" id="2BKJ" stroke="#1e12bf" stroke-dasharray="5,4" x1="3660" x2="3660" y1="700" y2="1020"/>
<g cb-classname="SignalSegment" id="2BKe">
<line cb-classname="GraphicLineEntity" class="signalline" id="2BKH" stroke="#1e12bf" stroke-dasharray="5,4" x1="3660" x2="3770" y1="1020" y2="1020"/>
<g cb-classname="SignalSegment" id="2BFo">
<line cb-classname="GraphicLineEntity" class="signalline" id="2BFM" stroke="#1e12bf" stroke-dasharray="5,4" x1="3770" x2="3770" y1="1020" y2="1040"/>
<g cb-classname="SignalSegment" id="2BFK">
<line cb-classname="GraphicLineEntity" class="signalline" id="2BFU" stroke="#1e12bf" stroke-dasharray="5,4" x1="3770" x2="3820" y1="1040" y2="1040"/>
<g cb-classname="SignalConnection" cb-graphic-line="$2183$" cb-input-pin="$54Ub$" id="2BFJ"/>
</g>
<line cb-classname="GraphicLineEntity" class="signalline" id="2BKO" stroke="#1e12bf" stroke-dasharray="5,4" x1="3770" x2="3820" y1="1020" y2="1020"/>
<g cb-classname="SignalConnection" cb-graphic-line="$2176$" cb-input-pin="$dfff$" id="2BKc"/>
<ellipse cb-classname="GraphicEllipseEntity" class="signal" cx="3770" cy="1020" fill="#1e12bf" id="2BFe" rx="5" ry="5" stroke="#1e12bf" stroke-dasharray="5,4"/>
</g>
</g>
<line cb-classname="GraphicLineEntity" class="signalline" id="2BKo" stroke="#1e12bf" stroke-dasharray="5,4" x1="3660" x2="4680" y1="700" y2="700"/>
<g cb-classname="SignalConnection" cb-graphic-line="$2170$" cb-input-pin="$mhK$" id="2BKM"/>
<ellipse cb-classname="GraphicEllipseEntity" class="signal" cx="3660" cy="700" fill="#1e12bf" id="2BKT" rx="5" ry="5" stroke="#1e12bf" stroke-dasharray="5,4"/>
</g>
</g>
</g>
<text baseline-shift="-50%" cb-classname="GraphicTextEntity" class="algorithm" fill="#000000" font-family="MS Shell Dlg" font-size="18" id="4B4" text-anchor="middle" x="3020" y="690">
S
</text>
<text baseline-shift="-50%" cb-classname="GraphicTextEntity" class="algorithm" fill="#000000" font-family="MS Shell Dlg" font-size="18" id="4BC" text-anchor="middle" x="3020" y="730">
R
</text>
<text baseline-shift="-50%" cb-classname="GraphicTextEntity" class="algorithm" fill="#000000" font-family="MS Shell Dlg" font-size="18" id="4Bn" text-anchor="middle" x="3120" y="690">
1
</text>
<text baseline-shift="-50%" cb-classname="GraphicTextEntity" class="algorithm" fill="#000000" font-family="MS Shell Dlg" font-size="18" id="4BV" text-anchor="middle" x="3120" y="730">
0
</text>
</g>
<g cb-alg-bd="$395$cb-alg-out$" cb-algorithm-id="005" cb-classname="ExternalPointInterface" cb-function-name="OUTPUT" id="5QF">
<ellipse cb-classname="GraphicEllipseEntity" class="algorithm" cx="4760" cy="700" id="5Qh" rx="50" ry="50"/>
<rect cb-classname="GraphicRectangleEntity" class="algorithm" height="100" id="5NO" width="40" x="4810" y="650"/>
<line cb-classname="GraphicLineEntity" class="algorithm" id="5N4" x1="4810" x2="4850" y1="700" y2="700"/>
<g cb-classname="ControlPin" cb-pin-name="o0-en9-0B" id="5NC">
<line cb-classname="GraphicLineEntity" class="signalline" id="5Nn" x1="4680" x2="4710" y1="700" y2="700"/>
<polygon cb-classname="GraphicPolygonEntity" class="signal" id="5NV" points="4710,700 4699,694 4699,705"/>
<g cb-classname="DynamicText" cb-source="98-Y0B-l8e5" class="signal" id="5Nl" text-anchor="end">
<text cb-classname="GraphicTextEntity" class="signal" fill="black" font-style="normal" font-weight="normal" id="5Nu" text-anchor="end" text-decoration="normal" x="4695" y="697"/>
</g>
</g>
<g cb-classname="PointStatusIndicator" cb-indicator-type="highway" cb-source="H1-nCL-NO" id="5NK" visibility="hidden">
<line cb-classname="GraphicLineEntity" class="algorithmline" id="5NF" x1="4710" x2="4760" y1="700" y2="650"/>
<line cb-classname="GraphicLineEntity" class="algorithmline" id="5Nh" x1="4760" x2="4810" y1="650" y2="700"/>
<line cb-classname="GraphicLineEntity" class="algorithmline" id="6HO" x1="4810" x2="4760" y1="700" y2="750"/>
<line cb-classname="GraphicLineEntity" class="algorithmline" id="6H4" x1="4760" x2="4710" y1="750" y2="700"/>
</g>
<g cb-classname="PointStatusIndicator" cb-indicator-type="hardware" cb-source="zD-LCl-2r" id="6HC" visibility="hidden">
<line cb-classname="GraphicLineEntity" class="algorithmline" id="6Hn" x1="4810" x2="4710" y1="650" y2="650"/>
<line cb-classname="GraphicLineEntity" class="algorithmline" id="6HV" x1="4710" x2="4710" y1="650" y2="750"/>
<line cb-classname="GraphicLineEntity" class="algorithmline" id="6Hl" x1="4710" x2="4810" y1="750" y2="750"/>
</g>
<g cb-classname="PointStatusIndicator" cb-indicator-type="alarm" cb-source="tD-J55-gT" id="6Hu" visibility="hidden">
<text cb-classname="GraphicTextEntity" class="algorithm" fill="#000000" font-family="Arial" font-size="20" id="6HK" x="4820" y="735">
A
</text>
</g>
<g cb-classname="PointStatusIndicator" cb-indicator-type="ingraphic" cb-source="98-UiW-Wn" id="6HF" visibility="visible">
<text cb-classname="GraphicTextEntity" class="algorithm" fill="#000000" font-family="Arial" font-size="20" id="6Hh" x="4820" y="685">
G
</text>
</g>
<g cb-classname="DynamicText" cb-labeled="false" cb-pin-name="Ql" cb-source="H1-nCL-NO" class="algorithm" id="6BO" text-anchor="end">
<text baseline-shift="0%" cb-classname="GraphicTextEntity" class="algorithm" fill="black" font-family="arial" font-size="20" font-style="normal" font-weight="normal" id="6B4" text-anchor="end" text-decoration="normal" x="4685" y="675"/>
</g>
<g baseline-shift="-100%" cb-anchor-x="4685" cb-anchor-y="710" cb-classname="PointReferences" cb-max-width="130" cb-originator="false" cb-source="76-lqD-uk" class="signal" id="6BC" text-anchor="end">
<text baseline-shift="-100%" cb-classname="GraphicTextEntity" class="algorithm" id="6Bn" text-anchor="end" x="4685" y="710">
REF: Point not
</text>
<text baseline-shift="-100%" cb-classname="GraphicTextEntity" class="algorithm" id="2QVK" text-anchor="end" x="4685" y="735">
found in
</text>
<text baseline-shift="-100%" cb-classname="GraphicTextEntity" class="algorithm" id="2QVU" text-anchor="end" x="4685" y="760">
database
</text>
<text baseline-shift="-100%" cb-classname="GraphicTextEntity" class="algorithm" id="2QVJ" text-anchor="end" x="4685" y="785">
(01B0202D20-WCOI)
</text>
</g>
<g baseline-shift="-50%" cb-anchor-x="4865" cb-anchor-y="715" cb-classname="PointDescription" cb-content="extended" cb-labeled="false" cb-max-width="240" cb-source="ij-4wo-rB" class="algorithm" id="6BV" text-anchor="start">
<text baseline-shift="-50%" cb-classname="GraphicTextEntity" class="algorithm" id="6Bl" text-anchor="start" x="4865" y="690">
DESC: Point not found in
</text>
<text baseline-shift="-50%" cb-classname="GraphicTextEntity" class="algorithm" id="2QVe" text-anchor="start" x="4865" y="715">
database
</text>
<text baseline-shift="-50%" cb-classname="GraphicTextEntity" class="algorithm" id="2QVO" text-anchor="start" x="4865" y="740">
(01B0202D20-WCOI)
</text>
</g>
</g>
<g cb-alg-AlTN="1.000000" cb-alg-GsmD="96" cb-alg-XlfD="0.5" cb-alg-bdi="$395$cb-alg-out$" cb-alg-ndDb="$395$cb-alg-out$" cb-algorithm-id="012" cb-classname="ControlAlgorithm" cb-function-name="ONDELAY" cb-modify-id="00000003" id="2BCK">
<rect cb-classname="GraphicRectangleEntity" class="algorithm" height="60" id="2BCU" width="60" x="3840" y="1000"/>
<text baseline-shift="-50%" cb-classname="GraphicTextEntity" class="algorithm" font-size="18" id="2BCJ" text-anchor="middle" x="3869" y="1012">
TD
</text>
<text cb-classname="GraphicTextEntity" class="algorithm" font-size="18" id="2BCe" text-anchor="middle" x="3869" y="1047">
ON
</text>
<g cb-classname="ControlPin" cb-pin-name="o0-en9-0BV" id="2BCO">
<line cb-classname="GraphicLineEntity" class="signalline" id="2BCc" x1="3820" x2="3840" y1="1020" y2="1020"/>
<polygon cb-classname="GraphicPolygonEntity" class="signal" id="2BCT" points="3840,1020 3829,1016 3829,1024"/>
<g cb-classname="DynamicText" cb-source="98-Y0B-l8e5" class="signal" id="2BCH" text-anchor="end">
<text baseline-shift="5%" cb-classname="GraphicTextEntity" class="signal" fill="black" font-style="normal" font-weight="normal" id="2Bno" text-anchor="end" text-decoration="normal" x="3804" y="1016"/>
</g>
</g>
<g cb-classname="ControlPin" cb-pin-name="H1-nCL-tNk" id="2BnM">
<line cb-classname="GraphicLineEntity" class="signalline" id="2BnK" x1="3900" x2="3920" y1="1020" y2="1020"/>
<g cb-classname="DynamicText" cb-source="76-yst-SzGj" class="signal" id="2BnU">
<text baseline-shift="5%" cb-classname="GraphicTextEntity" class="signal" fill="black" font-style="normal" font-weight="normal" id="2BnJ" text-decoration="normal" x="3936" y="1016"/>
</g>
<g cb-classname="SignalSegment" id="2BlH">
<g cb-classname="SignalConnection" cb-graphic-line="$2162$" cb-input-pin="$rIf$" id="2BuU"/>
<line cb-classname="GraphicLineEntity" class="signalline" id="2BuK" stroke="#1e12bf" stroke-dasharray="5,4" x1="3920" x2="4090" y1="1020" y2="1020"/>
</g>
</g>
<g cb-classname="ControlPin" cb-pin-name="ij-4wo-kBgc" id="2Bne">
<line cb-classname="GraphicLineEntity" class="signalline" id="2BnO" x1="3820" x2="3840" y1="1040" y2="1040"/>
<polygon cb-classname="GraphicPolygonEntity" class="signal" id="2Bnc" points="3840,1040 3829,1036 3829,1044"/>
<g cb-classname="DynamicText" cb-source="EU-PrB-OwL0" class="signal" id="2BnT" text-anchor="end">
<text baseline-shift="5%" cb-classname="GraphicTextEntity" class="signal" fill="black" font-style="normal" font-weight="normal" id="2BnH" text-anchor="end" text-decoration="normal" x="3804" y="1036"/>
</g>
</g>
</g>
<g cb-alg-sBY="01B0202D20-WCZI" cb-alg-xO8="$2122$cb-alg-out$" cb-algorithm-id="011" cb-classname="FastBooleanAlgorithm" cb-function-name="NOT" id="6dh">
<rect cb-classname="GraphicRectangleEntity" class="algorithm" height="40" id="6mO" width="40" x="4110" y="1000"/>
<g cb-classname="ControlPin" cb-pin-name="76-lqD-uka" id="6m4">
<line cb-classname="GraphicLineEntity" class="signalline" id="6mC" x1="4090" x2="4110" y1="1020" y2="1020"/>
<polygon cb-classname="GraphicPolygonEntity" class="signal" id="6mn" points="4110,1020 4099,1014 4099,1025"/>
<g cb-classname="DynamicText" cb-source="zD-luk-Bdah" class="signal" id="6mV" text-anchor="end">
<text cb-classname="GraphicTextEntity" class="signal" fill="black" font-style="normal" font-weight="normal" id="6ml" text-anchor="end" text-decoration="normal" x="4095" y="1017"/>
</g>
</g>
<g cb-classname="ControlPin" cb-pin-name="EU-zj3-ez3" id="6mu">
<line cb-classname="GraphicLineEntity" class="signalline" id="6mK" x1="4150" x2="4170" y1="1020" y2="1020"/>
<g cb-classname="DynamicText" cb-source="tD-OxO-B51I" class="signal" id="6mF" text-anchor="start">
<text cb-classname="GraphicTextEntity" class="signal" fill="black" font-style="normal" font-weight="normal" id="6mh" text-anchor="start" text-decoration="normal" x="4164" y="1017"/>
</g>
<g cb-classname="SignalSegment" id="6CO">
<line cb-classname="GraphicLineEntity" class="signalline" id="6C4" stroke="#1e12bf" stroke-dasharray="5,4" x1="4170" x2="4680" y1="1020" y2="1020"/>
<g cb-classname="SignalConnection" cb-graphic-line="$671$" cb-input-pin="$f1z$" id="6CC"/>
</g>
</g>
<line cb-classname="GraphicLineEntity" class="algorithm" id="6wO" x1="4120" x2="4120" y1="1010" y2="1030"/>
<line cb-classname="GraphicLineEntity" class="algorithm" id="6w4" x1="4120" x2="4140" y1="1010" y2="1030"/>
<line cb-classname="GraphicLineEntity" class="algorithm" id="6wC" x1="4140" x2="4140" y1="1030" y2="1010"/>
</g>
<g cb-alg-uk="$649$cb-alg-out$" cb-algorithm-id="010" cb-classname="ExternalPointInterface" cb-function-name="OUTPUT" id="6Bh">
<ellipse cb-classname="GraphicEllipseEntity" class="algorithm" cx="4760" cy="1020" id="65O" rx="50" ry="50"/>
<rect cb-classname="GraphicRectangleEntity" class="algorithm" height="100" id="654" width="40" x="4810" y="970"/>
<line cb-classname="GraphicLineEntity" class="algorithm" id="65C" x1="4810" x2="4850" y1="1020" y2="1020"/>
<g cb-classname="ControlPin" cb-pin-name="H1-nCL-NO" id="65n">
<line cb-classname="GraphicLineEntity" class="signalline" id="65V" x1="4680" x2="4710" y1="1020" y2="1020"/>
<polygon cb-classname="GraphicPolygonEntity" class="signal" id="65l" points="4710,1020 4699,1014 4699,1025"/>
<g cb-classname="DynamicText" cb-source="NA-MKx-keQ0" class="signal" id="65u" text-anchor="end">
<text cb-classname="GraphicTextEntity" class="signal" fill="black" font-style="normal" font-weight="normal" id="65K" text-anchor="end" text-decoration="normal" x="4695" y="1017"/>
</g>
</g>
<g cb-classname="PointStatusIndicator" cb-indicator-type="highway" cb-source="zD-LCl-2r" id="65F" visibility="hidden">
<line cb-classname="GraphicLineEntity" class="algorithmline" id="65h" x1="4710" x2="4760" y1="1020" y2="970"/>
<line cb-classname="GraphicLineEntity" class="algorithmline" id="6rO" x1="4760" x2="4810" y1="970" y2="1020"/>
<line cb-classname="GraphicLineEntity" class="algorithmline" id="6r4" x1="4810" x2="4760" y1="1020" y2="1070"/>
<line cb-classname="GraphicLineEntity" class="algorithmline" id="6rC" x1="4760" x2="4710" y1="1070" y2="1020"/>
</g>
<g cb-classname="PointStatusIndicator" cb-indicator-type="hardware" cb-source="Zt-dcg-Wl" id="6rn" visibility="hidden">
<line cb-classname="GraphicLineEntity" class="algorithmline" id="6rV" x1="4810" x2="4710" y1="970" y2="970"/>
<line cb-classname="GraphicLineEntity" class="algorithmline" id="6rl" x1="4710" x2="4710" y1="970" y2="1070"/>
<line cb-classname="GraphicLineEntity" class="algorithmline" id="6ru" x1="4710" x2="4810" y1="1070" y2="1070"/>
</g>
<g cb-classname="PointStatusIndicator" cb-indicator-type="alarm" cb-source="cJ-t15-2S" id="6rK" visibility="hidden">
<text cb-classname="GraphicTextEntity" class="algorithm" fill="#000000" font-family="Arial" font-size="20" id="6rF" x="4820" y="1055">
A
</text>
</g>
<g cb-classname="PointStatusIndicator" cb-indicator-type="ingraphic" cb-source="NA-mbp-BN" id="6rh" visibility="visible">
<text cb-classname="GraphicTextEntity" class="algorithm" fill="#000000" font-family="Arial" font-size="20" id="6dO" x="4820" y="1005">
G
</text>
</g>
<g cb-classname="DynamicText" cb-labeled="false" cb-pin-name="4p" cb-source="zD-LCl-2r" class="algorithm" id="6d4" text-anchor="end">
<text baseline-shift="0%" cb-classname="GraphicTextEntity" class="algorithm" fill="black" font-family="arial" font-size="20" font-style="normal" font-weight="normal" id="6dC" text-anchor="end" text-decoration="normal" x="4685" y="995"/>
</g>
<g baseline-shift="-100%" cb-anchor-x="4685" cb-anchor-y="1030" cb-classname="PointReferences" cb-max-width="130" cb-originator="false" cb-source="EU-zj3-0W" class="signal" id="6dn" text-anchor="end">
<text baseline-shift="-100%" cb-classname="GraphicTextEntity" class="algorithm" id="6dV" text-anchor="end" x="4685" y="1030">
REF: Point not
</text>
<text baseline-shift="-100%" cb-classname="GraphicTextEntity" class="algorithm" id="2QVc" text-anchor="end" x="4685" y="1055">
found in
</text>
<text baseline-shift="-100%" cb-classname="GraphicTextEntity" class="algorithm" id="2QVT" text-anchor="end" x="4685" y="1080">
database
</text>
<text baseline-shift="-100%" cb-classname="GraphicTextEntity" class="algorithm" id="2QVH" text-anchor="end" x="4685" y="1105">
(01B0202D20-WCZI)
</text>
</g>
<g baseline-shift="-50%" cb-anchor-x="4865" cb-anchor-y="1035" cb-classname="PointDescription" cb-content="extended" cb-labeled="false" cb-max-width="240" cb-source="tD-J55-gT" class="algorithm" id="6dl" text-anchor="start">
<text baseline-shift="-50%" cb-classname="GraphicTextEntity" class="algorithm" id="6du" text-anchor="start" x="4865" y="1010">
DESC: Point not found in
</text>
<text baseline-shift="-50%" cb-classname="GraphicTextEntity" class="algorithm" id="2Qlo" text-anchor="start" x="4865" y="1035">
database
</text>
<text baseline-shift="-50%" cb-classname="GraphicTextEntity" class="algorithm" id="2QlM" text-anchor="start" x="4865" y="1060">
(01B0202D20-WCZI)
</text>
</g>
</g>
</g>
<g cb-classname="IncludeDocument" cb-modify-time="09/25/2018 01:40:30" cb-objectname="Frame" id="5">
<text cb-classname="GraphicTextEntity" class="frame" font-size="50" id="2N4U" x="3660" y="3146">
Project Title &lt;Edit in FRAME.SVG&gt;
</text>
<g baseline-shift="-50%" cb-classname="DynamicText" cb-source="NA-cuHn-rF" class="frame" id="2N4J">
<text cb-classname="GraphicTextEntity" class="frame" fill="black" font-family="arial" font-size="25" font-style="normal" font-weight="normal" id="2N4e" text-decoration="normal" x="4715" y="3325">
13
</text>
</g>
<g baseline-shift="-50%" cb-classname="DynamicText" cb-source="zD-Mes6-xz" class="frame" id="2N4O" text-anchor="middle">
<text cb-classname="GraphicTextEntity" class="frame" fill="black" font-family="arial" font-size="48" font-style="normal" font-weight="normal" id="2N4c" text-anchor="middle" text-decoration="normal" x="4900" y="3320">
13
</text>
</g>
<g baseline-shift="-50%" cb-classname="DynamicText" cb-source="EU-qeuw-0a" class="frame" id="2N4T" text-anchor="middle">
<text cb-classname="GraphicTextEntity" class="frame" fill="black" font-family="arial" font-size="48" font-style="normal" font-weight="normal" id="2N4H" text-anchor="middle" text-decoration="normal" x="5067" y="3324">
4
</text>
</g>
<g cb-classname="DynamicText" cb-source="tD-uJph3-Yv6Pc" class="frame" id="2NCo">
<text cb-classname="GraphicTextEntity" class="frame" fill="black" font-family="arial" font-size="48" font-style="normal" font-weight="normal" id="2NCM" text-decoration="normal" x="3660" y="3224">
BFPT LUB OIL TNK HTR - B0202D20
</text>
</g>
<g baseline-shift="-50%" cb-classname="DynamicText" cb-source="98-C1r0Y-iNKnAv" class="frame" id="2NCK" text-anchor="middle">
<text cb-classname="GraphicTextEntity" class="frame" fill="black" font-family="arial" font-size="48" font-style="normal" font-weight="normal" id="2NCU" text-anchor="middle" text-decoration="normal" x="5270" y="3324">
142
</text>
</g>
<g baseline-shift="0%" cb-classname="DynamicText" cb-source="H1-J0Ev44WI" class="frame" id="2NCJ" text-anchor="middle">
<text cb-classname="GraphicTextEntity" class="frame" fill="black" font-family="arial" font-size="36" font-style="normal" font-weight="normal" id="2NCe" text-anchor="middle" text-decoration="normal" x="5270" y="3150">
A
</text>
</g>
<g baseline-shift="0%" cb-classname="DynamicText" cb-source="76-wFj2wBTB-r0L0" class="frame" id="2NCO" text-anchor="middle">
<text cb-classname="GraphicTextEntity" class="frame" fill="black" font-family="arial" font-size="20" font-style="normal" font-weight="normal" id="2NCc" text-anchor="middle" text-decoration="normal" x="5270" y="3230">
12/28/2010
</text>
</g>
<g baseline-shift="-50%" cb-classname="DynamicText" cb-source="ij-NxoBNj0b" class="frame" id="2NCT" text-anchor="end">
<text cb-classname="GraphicTextEntity" class="frame" fill="black" font-family="arial" font-size="26" font-style="normal" font-weight="normal" id="2NCH" text-anchor="end" text-decoration="normal" x="4500" y="3420">
Heczko
</text>
</g>
<g baseline-shift="-50%" cb-classname="DynamicText" cb-source="Wp-eAs204hJ" class="frame" id="2Nno" text-anchor="end">
<text cb-classname="GraphicTextEntity" class="frame" fill="black" font-family="arial" font-size="26" font-style="normal" font-weight="normal" id="2NnM" text-anchor="end" text-decoration="normal" x="5353" y="3420">
Nemec
</text>
</g>
<g cb-classname="GraphicShape" cb-tag="BORDER" id="2NnK">
<line cb-classname="GraphicLineEntity" class="frameline" id="2NnU" x1="40" x2="40" y1="40" y2="3460"/>
<line cb-classname="GraphicLineEntity" class="frameline" id="2NnJ" x1="40" x2="5380" y1="3460" y2="3460"/>
<line cb-classname="GraphicLineEntity" class="frameline" id="2Nne" x1="5380" x2="5380" y1="3460" y2="40"/>
<line cb-classname="GraphicLineEntity" class="frameline" id="2NnO" x1="5380" x2="40" y1="40" y2="40"/>
<line cb-classname="GraphicLineEntity" class="frame" id="2Nnc" x1="5430" x2="5440" y1="3510" y2="3510"/>
</g>
<g cb-classname="GraphicShape" cb-tag="TITLE BOX" id="2NnT">
<line cb-classname="GraphicLineEntity" class="frameline" id="2NnH" x1="2340" x2="2340" y1="3080" y2="3460"/>
<line cb-classname="GraphicLineEntity" class="frameline" id="2NVo" x1="2340" x2="5380" y1="3080" y2="3080"/>
<line cb-classname="GraphicLineEntity" class="frameline" id="2NVM" x1="3650" x2="3650" y1="3460" y2="3080"/>
<line cb-classname="GraphicLineEntity" class="frameline" id="2NVK" x1="3650" x2="5380" y1="3240" y2="3240"/>
<line cb-classname="GraphicLineEntity" class="frameline" id="2NVU" x1="3650" x2="5380" y1="3390" y2="3390"/>
<line cb-classname="GraphicLineEntity" class="frameline" id="2NVJ" x1="3650" x2="5380" y1="3160" y2="3160"/>
<line cb-classname="GraphicLineEntity" class="frameline" id="2NVe" x1="3650" x2="4520" y1="3320" y2="3320"/>
<line cb-classname="GraphicLineEntity" class="frameline" id="2NVO" x1="4520" x2="5380" y1="3290" y2="3290"/>
<line cb-classname="GraphicLineEntity" class="frameline" id="2NVc" x1="4520" x2="5380" y1="3240" y2="3240"/>
<line cb-classname="GraphicLineEntity" class="frameline" id="2NVT" x1="4520" x2="4520" y1="3240" y2="3460"/>
<line cb-classname="GraphicLineEntity" class="frameline" id="2NVH" x1="4810" x2="4810" y1="3240" y2="3390"/>
<line cb-classname="GraphicLineEntity" class="frameline" id="2Nlo" x1="4990" x2="4990" y1="3240" y2="3390"/>
<line cb-classname="GraphicLineEntity" class="frameline" id="2NlM" x1="5150" x2="5150" y1="3080" y2="3390"/>
</g>
<g cb-classname="GraphicShape" cb-tag="TEXT LABELS" id="2NlK">
<text baseline-shift="-50%" cb-classname="GraphicTextEntity" class="frame" font-size="25" id="2NlU" text-anchor="middle" x="4890" y="3252">
Drop
</text>
<text baseline-shift="-50%" cb-classname="GraphicTextEntity" class="frame" font-size="25" id="2NlJ" text-anchor="middle" x="5075" y="3252">
Task
</text>
<text baseline-shift="-50%" cb-classname="GraphicTextEntity" class="frame" font-size="25" id="2Nle" text-anchor="middle" x="5265" y="3252">
Sheet
</text>
<text cb-classname="GraphicTextEntity" class="frame" font-size="25" id="2NlO" x="5152" y="3107">
Rev.
</text>
<text cb-classname="GraphicTextEntity" class="frame" font-size="25" id="2Nlc" x="3653" y="3418">
Engineer
</text>
<text cb-classname="GraphicTextEntity" class="frame" font-size="25" id="2NlT" x="4528" y="3419">
Approved
</text>
<text cb-classname="GraphicTextEntity" class="frame" font-size="25" id="2NlH" x="5152" y="3187">
Date
</text>
<text baseline-shift="-50%" cb-classname="GraphicTextEntity" class="frame" font-size="25" id="2Nuo" text-anchor="middle" x="4660" y="3252">
Drawing Number
</text>
<text baseline-shift="-50%" cb-classname="GraphicTextEntity" class="frame" font-size="25" id="2NuM" text-anchor="middle" x="4680" y="3325">
CTL
</text>
</g>
<text baseline-shift="-50%" cb-classname="GraphicTextEntity" class="frame" font-size="48" id="2NuK" text-anchor="middle" x="3000" y="3100">
EMERSON PROCESS MANAGEMENT
</text>
<g baseline-shift="-100%" cb-anchor-x="2360" cb-anchor-y="3140" cb-classname="GroupText" cb-max-width="1260" fill="black" id="2NuU">
<text baseline-shift="-100%" cb-classname="GraphicTextEntity" class="frame" fill="black" font-family="arial" font-size="22" font-weight="normal" id="2NuJ" text-anchor="start" text-decoration="normal" x="2360" y="3140">
THIS DOCUMENT CONTAINS INFORMATION PROPRIETARY TO EMERSON PROCESS
</text>
<text baseline-shift="-100%" cb-classname="GraphicTextEntity" class="frame" fill="black" font-family="arial" font-size="22" font-weight="normal" id="2Nue" text-anchor="start" text-decoration="normal" x="2360" y="3176">
MANAGEMENT POWER &amp; WATER SOLUTIONS, INC. IT IS SUBMITTED IN CONFIDENCE AND
</text>
<text baseline-shift="-100%" cb-classname="GraphicTextEntity" class="frame" fill="black" font-family="arial" font-size="22" font-weight="normal" id="2NuO" text-anchor="start" text-decoration="normal" x="2360" y="3212">
TRUST, IS TO BE USED BY YOU SOLELY FOR THE PURPOSES FOR WHICH IT IS
</text>
<text baseline-shift="-100%" cb-classname="GraphicTextEntity" class="frame" fill="black" font-family="arial" font-size="22" font-weight="normal" id="2Nuc" text-anchor="start" text-decoration="normal" x="2360" y="3248">
FURNISHED AND IS TO BE RETURNED UPON REQUEST. THIS DOCUMENT AND ANY
</text>
<text baseline-shift="-100%" cb-classname="GraphicTextEntity" class="frame" fill="black" font-family="arial" font-size="22" font-weight="normal" id="2NuT" text-anchor="start" text-decoration="normal" x="2360" y="3284">
OTHER INFORMATION PROVIDED TO YOU IS NOT TO BE REPRODUCED, TRANSMITTED,
</text>
<text baseline-shift="-100%" cb-classname="GraphicTextEntity" class="frame" fill="black" font-family="arial" font-size="22" font-weight="normal" id="2NuH" text-anchor="start" text-decoration="normal" x="2360" y="3320">
DISCLOSED, OR USED OTHERWISE IN WHOLE OR IN PART WITHOUT THE PRIOR
</text>
<text baseline-shift="-100%" cb-classname="GraphicTextEntity" class="frame" fill="black" font-family="arial" font-size="22" font-weight="normal" id="2NKo" text-anchor="start" text-decoration="normal" x="2360" y="3356">
WRITTEN AUTHORIZATION OF EMERSON PROCESS MANAGEMENT POWER &amp; WATER
</text>
<text baseline-shift="-100%" cb-classname="GraphicTextEntity" class="frame" fill="black" font-family="arial" font-size="22" font-weight="normal" id="2NKM" text-anchor="start" text-decoration="normal" x="2360" y="3392">
SOLUTIONS,INC.
</text>
</g>
</g>
</svg>