<?xml version="1.0" ?><svg cb-auto-time="06/27/2008 10:18:49" cb-classname="ControlFunction" cb-create-time="03/12/2008" cb-drop-id="13" cb-engineer="Heczko" cb-filename="Z:\OVATION\NET0\UNIT0\CONTROLFUNCTIONS\01BC.svg" cb-function-id="01BC" cb-key="215255112342" cb-modified-timestamp="1489320108" cb-modify-id="00000003" cb-ortho-mode="enabled" cb-path="Z:/OVATION/NET0/UNIT0/CONTROLFUNCTIONS" cb-reviewer="Nemec" cb-revision="A" cb-revision-time="12/28/2010" cb-sheet-number="172" cb-sheet-title="ATOMIZING STM DSH DUMP VLV-B0500D03" cb-snap-grid="10" cb-task-id="4" height="3707" id="1" width="5450" xmlns="http://www.w3.org/2000/svg">
<style cb-classname="EntityStyle" id="2" type="text/css">
	.algorithm { fill: white; stroke: black; stroke-linecap: round; stroke-width: 2 }
	.algorithm-function { fill: none; stroke: black; stroke-linecap: round; stroke-width: 2 }
	.algorithm-functionline { fill: none; stroke: black; stroke-linecap: round; stroke-width: 2 }
	.algorithm-name { fill: none; stroke: black; stroke-linecap: round; stroke-width: 2 }
	.algorithm-nameline { fill: none; stroke: black; stroke-linecap: round; stroke-width: 2 }
	.algorithm-sequence { fill: none; stroke: black; stroke-linecap: round; stroke-width: 2 }
	.algorithm-sequenceline { fill: none; stroke: black; stroke-linecap: round; stroke-width: 2 }
	.algorithmline { fill: none; stroke: black; stroke-linecap: round; stroke-width: 2 }
	.annotation { fill: none; stroke: black; stroke-linecap: round; stroke-width: 2 }
	.annotationline { fill: none; stroke: black; stroke-linecap: round; stroke-width: 2 }
	.frame { fill: none; stroke: black; stroke-linecap: round; stroke-width: 2 }
	.frameline { fill: none; stroke: black; stroke-linecap: round; stroke-width: 2 }
	.signal { fill: black; stroke: black; stroke-linecap: round; stroke-width: 2 }
	.signalline { fill: none; stroke: black; stroke-linecap: round; stroke-width: 2 }
	text.algorithm { fill: black; font-family: MS Shell Dlg 2; font-size: 14; stroke: none }
	text.algorithm-function { fill: black; font-family: MS Shell Dlg 2; font-size: 16; stroke: none }
	text.algorithm-name { fill: black; font-family: MS Shell Dlg 2; font-size: 16; stroke: none }
	text.algorithm-sequence { fill: black; font-family: MS Shell Dlg 2; font-size: 16; stroke: none }
	text.annotation { fill: black; font-family: MS Shell Dlg 2; font-size: 16; stroke: none }
	text.frame { fill: black; font-family: MS Shell Dlg 2; font-size: 16; stroke: none }
	text.signal { fill: black; font-family: MS Shell Dlg 2; font-size: 12; stroke: none }
</style>
<g cb-classname="NamedObject" cb-objectname="Comments" id="3">
<text cb-classname="GraphicTextEntity" class="annotation" fill="#000000" font-family="MS Shell Dlg 2" font-size="72" id="6z" x="3040" y="1440">
PCMS1
</text>
</g>
<g cb-classname="AlgorithmContainer" cb-objectname="Algorithms" id="4">
<g cb-alg-0Jq1="5" cb-alg-3uL1="128" cb-alg-XCC="01B0500D03-KB" cb-algorithm-id="002" cb-classname="ControlAlgorithm" cb-function-name="KEYBOARD" cb-modify-id="00000001" id="6l">
<rect cb-classname="GraphicRectangleEntity" class="annotation" height="200" id="6k" stroke-width="1" width="140" x="1380" y="540"/>
<g cb-classname="ControlPin" cb-pin-name="MK-iqq-1Ofy" id="6w">
<line cb-classname="GraphicLineEntity" class="signalline" id="68" x1="1520" x2="1530" y1="550" y2="550"/>
<g cb-classname="DynamicText" cb-source="jD-GCv-sjO5" class="signal" id="7C" text-anchor="start">
<text cb-classname="GraphicTextEntity" class="signal" fill="black" font-style="normal" font-weight="normal" id="7S" text-anchor="start" text-decoration="normal" x="1534" y="547"/>
</g>
<g cb-classname="SignalSegment" id="7R">
<line cb-classname="GraphicLineEntity" class="signalline" id="7H" stroke="#1e12bf" stroke-dasharray="5,4" x1="1530" x2="2630" y1="550" y2="550"/>
<g cb-classname="SignalSegment" id="79">
<line cb-classname="GraphicLineEntity" class="signalline" id="7z" stroke="#1e12bf" stroke-dasharray="5,4" x1="2630" x2="2630" y1="550" y2="620"/>
<g cb-classname="SignalSegment" id="7l">
<line cb-classname="GraphicLineEntity" class="signalline" id="7k" stroke="#1e12bf" stroke-dasharray="5,4" x1="2630" x2="2780" y1="620" y2="620"/>
<g cb-classname="SignalConnection" cb-graphic-line="$77$" cb-input-pin="$97D$" id="7w"/>
</g>
</g>
</g>
</g>
<g cb-classname="ControlPin" cb-pin-name="F1-EUP-V41t" id="78">
<line cb-classname="GraphicLineEntity" class="signalline" id="8C" x1="1520" x2="1530" y1="570" y2="570"/>
<g cb-classname="DynamicText" cb-source="MK-CDj-vVaA" class="signal" id="8S" text-anchor="start">
<text cb-classname="GraphicTextEntity" class="signal" fill="black" font-style="normal" font-weight="normal" id="8R" text-anchor="start" text-decoration="normal" x="1534" y="567"/>
</g>
<g cb-classname="SignalSegment" id="8H">
<line cb-classname="GraphicLineEntity" class="signalline" id="89" stroke="#1e12bf" stroke-dasharray="5,4" x1="1530" x2="2600" y1="570" y2="570"/>
<g cb-classname="SignalSegment" id="8z">
<line cb-classname="GraphicLineEntity" class="signalline" id="8l" stroke="#1e12bf" stroke-dasharray="5,4" x1="2600" x2="2600" y1="570" y2="660"/>
<g cb-classname="SignalSegment" id="8k">
<line cb-classname="GraphicLineEntity" class="signalline" id="8w" stroke="#1e12bf" stroke-dasharray="5,4" x1="2600" x2="2780" y1="660" y2="660"/>
<g cb-classname="SignalConnection" cb-graphic-line="$88$" cb-input-pin="$xRn$" id="88"/>
</g>
</g>
</g>
</g>
<g cb-classname="ControlPin" cb-pin-name="cP-P6R-mTiK" id="9C">
<line cb-classname="GraphicLineEntity" class="signalline" id="9S" x1="1520" x2="1530" y1="590" y2="590"/>
<g cb-classname="DynamicText" cb-source="F1-kel-jrc5" class="signal" id="9R" text-anchor="start">
<text cb-classname="GraphicTextEntity" class="signal" fill="black" font-style="normal" font-weight="normal" id="9H" text-anchor="start" text-decoration="normal" x="1534" y="587"/>
</g>
</g>
<g cb-classname="ControlPin" cb-pin-name="03-jUU-ZD0" id="1CU">
<line cb-classname="GraphicLineEntity" class="signalline" id="1Cc" x1="1520" x2="1530" y1="610" y2="610"/>
<g cb-classname="DynamicText" cb-source="cP-H5m-0C6h" class="signal" id="1Cs" text-anchor="start">
<text cb-classname="GraphicTextEntity" class="signal" fill="black" font-style="normal" font-weight="normal" id="1Cz" text-anchor="start" text-decoration="normal" x="1534" y="607"/>
</g>
</g>
<g cb-classname="ControlPin" cb-pin-name="V7-Vnl-Hzg" id="1Sc">
<line cb-classname="GraphicLineEntity" class="signalline" id="1Ss" x1="1520" x2="1530" y1="640" y2="640"/>
<g cb-classname="DynamicText" cb-source="03-9bI-mDPo" class="signal" id="1Sz" text-anchor="start">
<text cb-classname="GraphicTextEntity" class="signal" fill="black" font-style="normal" font-weight="normal" id="1S7" text-anchor="start" text-decoration="normal" x="1534" y="637"/>
</g>
<g cb-classname="SignalSegment" id="1SF">
<line cb-classname="GraphicLineEntity" class="signalline" id="1SM" stroke="#1e12bf" stroke-dasharray="5,4" x1="1530" x2="2510" y1="640" y2="640"/>
<g cb-classname="SignalSegment" id="1Sm">
<line cb-classname="GraphicLineEntity" class="signalline" id="1Sl" stroke="#1e12bf" stroke-dasharray="5,4" x1="2510" x2="2510" y1="640" y2="780"/>
<g cb-classname="SignalSegment" id="1Rt">
<line cb-classname="GraphicLineEntity" class="signalline" id="1RU" stroke="#1e12bf" stroke-dasharray="5,4" x1="2510" x2="2780" y1="780" y2="780"/>
<g cb-classname="SignalConnection" cb-graphic-line="$121$" cb-input-pin="$LFA$" id="1Rc"/>
</g>
</g>
</g>
</g>
<g cb-classname="ControlPin" cb-pin-name="F3-raJ-9M7" id="1Rs">
<line cb-classname="GraphicLineEntity" class="signalline" id="1Rz" x1="1520" x2="1530" y1="660" y2="660"/>
<g cb-classname="DynamicText" cb-source="V7-ODy-IVZw" class="signal" id="1R7" text-anchor="start">
<text cb-classname="GraphicTextEntity" class="signal" fill="black" font-style="normal" font-weight="normal" id="1RF" text-anchor="start" text-decoration="normal" x="1534" y="657"/>
</g>
<g cb-classname="SignalSegment" id="1RM">
<line cb-classname="GraphicLineEntity" class="signalline" id="1Rm" stroke="#1e12bf" stroke-dasharray="5,4" x1="1530" x2="2480" y1="660" y2="660"/>
<g cb-classname="SignalSegment" id="1Rl">
<line cb-classname="GraphicLineEntity" class="signalline" id="1Ht" stroke="#1e12bf" stroke-dasharray="5,4" x1="2480" x2="2480" y1="660" y2="820"/>
<g cb-classname="SignalSegment" id="1HU">
<line cb-classname="GraphicLineEntity" class="signalline" id="1Hc" stroke="#1e12bf" stroke-dasharray="5,4" x1="2480" x2="2780" y1="820" y2="820"/>
<g cb-classname="SignalConnection" cb-graphic-line="$132$" cb-input-pin="$vc7$" id="1Hs"/>
</g>
</g>
</g>
</g>
<g cb-classname="ControlPin" cb-pin-name="cW-8tt-Odk" id="1Hz">
<line cb-classname="GraphicLineEntity" class="signalline" id="1H7" x1="1520" x2="1530" y1="680" y2="680"/>
<g cb-classname="DynamicText" cb-source="F3-kCX-yZ1a" class="signal" id="1HF" text-anchor="start">
<text cb-classname="GraphicTextEntity" class="signal" fill="black" font-style="normal" font-weight="normal" id="1HM" text-anchor="start" text-decoration="normal" x="1534" y="677"/>
</g>
</g>
<g cb-classname="ControlPin" cb-pin-name="V7-Vnl-Hzp" id="1Hm">
<line cb-classname="GraphicLineEntity" class="signalline" id="1Hl" x1="1520" x2="1530" y1="700" y2="700"/>
<g cb-classname="DynamicText" cb-source="03-9bI-mDPo" class="signal" id="19t" text-anchor="start">
<text cb-classname="GraphicTextEntity" class="signal" fill="black" font-style="normal" font-weight="normal" id="19U" text-anchor="start" text-decoration="normal" x="1534" y="697"/>
</g>
</g>
<text cb-classname="GraphicTextEntity" class="annotation" fill="#000000" font-family="MS Shell Dlg 2" font-size="8" id="19c" x="1420" y="630">
KEYBOARD
</text>
<g cb-classname="ControlPin" cb-pin-name="03-jUU-ht9" id="1w7P">
<line cb-classname="GraphicLineEntity" class="signalline" id="1w7O" x1="1520" x2="1530" y1="720" y2="720"/>
<g cb-classname="DynamicText" cb-source="cP-H5m-0C6h" class="signal" id="1w7d" text-anchor="start">
<text cb-classname="GraphicTextEntity" class="signal" fill="black" font-style="normal" font-weight="normal" id="1w7c" text-anchor="start" text-decoration="normal" x="1534" y="717"/>
</g>
<g cb-classname="SignalSegment" id="1wFI">
<line cb-classname="GraphicLineEntity" class="signalline" id="1wFH" stroke="#1e12bf" stroke-dasharray="5,4" x1="1530" x2="2440" y1="720" y2="720"/>
<g cb-classname="SignalSegment" id="1wFB">
<line cb-classname="GraphicLineEntity" class="signalline" id="1wFv" stroke="#1e12bf" stroke-dasharray="5,4" x1="2440" x2="2440" y1="720" y2="860"/>
<g cb-classname="SignalSegment" id="1wFD">
<line cb-classname="GraphicLineEntity" class="signalline" id="1wFe" stroke="#1e12bf" stroke-dasharray="5,4" x1="2440" x2="2780" y1="860" y2="860"/>
<g cb-classname="SignalConnection" cb-graphic-line="$1865$" cb-input-pin="$gEHn$" id="1wFP"/>
</g>
</g>
</g>
</g>
</g>
<g cb-alg-oJuC="NO" cb-alg-oxS="01LS101-NO" cb-algorithm-id="003" cb-classname="ExternalPointInterface" cb-function-name="INPUT" id="19s">
<ellipse cb-classname="GraphicEllipseEntity" class="algorithm" cx="600" cy="1150" id="19z" rx="50" ry="50"/>
<rect cb-classname="GraphicRectangleEntity" class="algorithm" height="100" id="197" width="40" x="510" y="1100"/>
<line cb-classname="GraphicLineEntity" class="algorithm" id="19F" x1="510" x2="550" y1="1150" y2="1150"/>
<g cb-classname="ControlPin" cb-pin-name="cW-8tt-WbJ" id="19M">
<line cb-classname="GraphicLineEntity" class="signalline" id="19m" x1="650" x2="680" y1="1150" y2="1150"/>
<g cb-classname="DynamicText" cb-source="F3-kCX-yZ1a" class="signal" id="19l" text-anchor="start">
<text cb-classname="GraphicTextEntity" class="signal" fill="black" font-style="normal" font-weight="normal" id="1zt" text-anchor="start" text-decoration="normal" x="664" y="1147"/>
</g>
<g cb-classname="SignalSegment" id="2CmB">
<line cb-classname="GraphicLineEntity" class="signalline" id="2Cme" stroke="#1e12bf" stroke-dasharray="5,4" x1="680" x2="1470" y1="1150" y2="1150"/>
<g cb-classname="SignalSegment" id="2CmP">
<line cb-classname="GraphicLineEntity" class="signalline" id="2CmO" stroke="#1e12bf" stroke-dasharray="5,4" x1="1470" x2="1470" y1="1150" y2="1230"/>
<g cb-classname="SignalSegment" id="2Cmd">
<line cb-classname="GraphicLineEntity" class="signalline" id="2Cmc" stroke="#1e12bf" stroke-dasharray="5,4" x1="1470" x2="1790" y1="1230" y2="1230"/>
<g cb-classname="SignalConnection" cb-graphic-line="$2089$" cb-input-pin="$GKd$" id="2ClI"/>
</g>
<line cb-classname="GraphicLineEntity" class="signalline" id="2Cmv" stroke="#1e12bf" stroke-dasharray="5,4" x1="1470" x2="2780" y1="1150" y2="1150"/>
<g cb-classname="SignalConnection" cb-graphic-line="$2083$" cb-input-pin="$ZtJ$" id="2CmD"/>
<ellipse cb-classname="GraphicEllipseEntity" class="signal" cx="1470" cy="1150" fill="#1e12bf" id="2ClH" rx="5" ry="5" stroke="#1e12bf" stroke-dasharray="5,4"/>
</g>
</g>
</g>
<g cb-classname="PointStatusIndicator" cb-indicator-type="Highway" cb-source="D2-ZqK-629" id="1zz" visibility="hidden">
<line cb-classname="GraphicLineEntity" class="algorithmline" id="1z7" x1="550" x2="600" y1="1150" y2="1100"/>
<line cb-classname="GraphicLineEntity" class="algorithmline" id="1zF" x1="600" x2="650" y1="1100" y2="1150"/>
<line cb-classname="GraphicLineEntity" class="algorithmline" id="1zM" x1="650" x2="600" y1="1150" y2="1200"/>
<line cb-classname="GraphicLineEntity" class="algorithmline" id="1zm" x1="600" x2="550" y1="1200" y2="1150"/>
</g>
<g cb-classname="PointStatusIndicator" cb-indicator-type="hardware" cb-source="MK-iqq-1dq" id="1zl" visibility="visible">
<line cb-classname="GraphicLineEntity" class="algorithmline" id="1lt" x1="550" x2="650" y1="1100" y2="1100"/>
<line cb-classname="GraphicLineEntity" class="algorithmline" id="1lU" x1="650" x2="650" y1="1100" y2="1200"/>
<line cb-classname="GraphicLineEntity" class="algorithmline" id="1lc" x1="650" x2="550" y1="1200" y2="1200"/>
</g>
<g cb-classname="PointStatusIndicator" cb-indicator-type="alarm" cb-source="cz-G8Q-tzk" id="1ls" visibility="visible">
<text cb-classname="GraphicTextEntity" class="algorithm" fill="#000000" font-family="arial" font-size="20" id="1lz" x="520" y="1135">
A
</text>
</g>
<g cb-classname="PointStatusIndicator" cb-indicator-type="ingraphic" cb-source="BQ-MYT-LHY" id="1l7" visibility="visible">
<text cb-classname="GraphicTextEntity" class="algorithm" fill="#000000" font-family="Arial" font-size="20" id="1lF" x="520" y="1185">
G
</text>
</g>
<g baseline-shift="-50%" cb-anchor-x="500" cb-anchor-y="1164" cb-classname="PointDescription" cb-content="extended" cb-labeled="false" cb-max-width="220" cb-source="D2-ZqK-629" class="algorithm" id="1lM" text-anchor="end">
<text baseline-shift="-50%" cb-classname="GraphicTextEntity" class="algorithm" id="1lm" text-anchor="end" x="500" y="1152">
DESC: Point not found in
</text>
<text baseline-shift="-50%" cb-classname="GraphicTextEntity" class="algorithm" id="1wzv" text-anchor="end" x="500" y="1177">
database (01LS101-NO)
</text>
</g>
<g cb-classname="DynamicText" cb-labeled="false" cb-pin-name="Oyv" cb-source="cL-LIz-sdJ" class="algorithm" id="1ll" text-anchor="start">
<text baseline-shift="0%" cb-classname="GraphicTextEntity" class="algorithm" fill="black" font-family="arial" font-size="20" font-style="normal" font-weight="normal" id="1kt" text-anchor="start" text-decoration="normal" x="670" y="1120"/>
</g>
<g baseline-shift="-100%" cb-anchor-x="670" cb-anchor-y="1160" cb-classname="PointReferences" cb-max-width="230" cb-originator="true" cb-source="k6-dX0-KUF" class="signal" id="1kU" text-anchor="start">
<text baseline-shift="-100%" cb-classname="GraphicTextEntity" class="algorithm" id="1kc" text-anchor="start" x="670" y="1160">
REF: Point not found in
</text>
<text baseline-shift="-100%" cb-classname="GraphicTextEntity" class="algorithm" id="28mB" text-anchor="start" x="670" y="1185">
database (01LS101-NO)
</text>
</g>
</g>
<g cb-alg-iGU="$143$cb-alg-out$" cb-algorithm-id="004" cb-classname="FastBooleanAlgorithm" cb-function-name="NOT" cb-modify-id="00000001" id="7S7">
<rect cb-classname="GraphicRectangleEntity" class="algorithm" height="40" id="7SF" width="40" x="1810" y="1210"/>
<g cb-classname="ControlPin" cb-pin-name="k6-dX0-Cvx" id="7SM">
<line cb-classname="GraphicLineEntity" class="signalline" id="7Sm" x1="1790" x2="1810" y1="1230" y2="1230"/>
<polygon cb-classname="GraphicPolygonEntity" class="signal" id="7Sl" points="1810,1230 1799,1224 1799,1235"/>
<g cb-classname="DynamicText" cb-source="jD-GCv-sjO5" class="signal" id="7Rt" text-anchor="end">
<text cb-classname="GraphicTextEntity" class="signal" fill="black" font-style="normal" font-weight="normal" id="7RU" text-anchor="end" text-decoration="normal" x="1795" y="1227"/>
</g>
</g>
<g cb-classname="ControlPin" cb-pin-name="cz-G8Q-tzk" id="7Rc">
<line cb-classname="GraphicLineEntity" class="signalline" id="7Rs" x1="1850" x2="1870" y1="1230" y2="1230"/>
<g cb-classname="DynamicText" cb-source="BQ-hfp-RTpV" class="signal" id="7Rz" text-anchor="start">
<text cb-classname="GraphicTextEntity" class="signal" fill="black" font-style="normal" font-weight="normal" id="7R7" text-anchor="start" text-decoration="normal" x="1864" y="1227"/>
</g>
<g cb-classname="SignalSegment" id="7zz">
<line cb-classname="GraphicLineEntity" class="signalline" id="7zM" stroke="#1e12bf" stroke-dasharray="5,4" x1="1870" x2="1950" y1="1230" y2="1230"/>
<g cb-classname="SignalSegment" id="7zm">
<line cb-classname="GraphicLineEntity" class="signalline" id="7zl" stroke="#1e12bf" stroke-dasharray="5,4" x1="1950" x2="1950" y1="1230" y2="1250"/>
<g cb-classname="SignalSegment" id="7lt">
<line cb-classname="GraphicLineEntity" class="signalline" id="7lU" stroke="#1e12bf" stroke-dasharray="5,4" x1="1950" x2="2040" y1="1250" y2="1250"/>
<g cb-classname="SignalConnection" cb-graphic-line="$761$" cb-input-pin="$R51$" id="7lc"/>
</g>
<line cb-classname="GraphicLineEntity" class="signalline" id="7z7" stroke="#1e12bf" stroke-dasharray="5,4" x1="1950" x2="2040" y1="1230" y2="1230"/>
<g cb-classname="SignalConnection" cb-graphic-line="$755$" cb-input-pin="$Oru$" id="7zF"/>
<ellipse cb-classname="GraphicEllipseEntity" class="signal" cx="1950" cy="1230" fill="#1e12bf" id="7ls" rx="5" ry="5" stroke="#1e12bf" stroke-dasharray="5,4"/>
</g>
</g>
</g>
<line cb-classname="GraphicLineEntity" class="algorithm" id="7RF" x1="1820" x2="1820" y1="1220" y2="1240"/>
<line cb-classname="GraphicLineEntity" class="algorithm" id="7RM" x1="1820" x2="1840" y1="1220" y2="1240"/>
<line cb-classname="GraphicLineEntity" class="algorithm" id="7Rm" x1="1840" x2="1840" y1="1240" y2="1220"/>
</g>
<g cb-alg-3uL1="96" cb-alg-7OY1="10" cb-alg-LOAm="1.000000" cb-alg-eZH="$715$cb-alg-out$" cb-alg-rZ6I="$715$cb-alg-out$" cb-algorithm-id="005" cb-classname="ControlAlgorithm" cb-function-name="ONDELAY" cb-modify-id="00000001" id="7Rl">
<rect cb-classname="GraphicRectangleEntity" class="algorithm" height="40" id="7Ht" width="80" x="2060" y="1220"/>
<text baseline-shift="-50%" cb-classname="GraphicTextEntity" class="algorithm" fill="#000000" font-family="MS Shell Dlg" id="7HU" text-anchor="middle" x="2100" y="1227">
TD
</text>
<text baseline-shift="-50%" cb-classname="GraphicTextEntity" class="algorithm" fill="#000000" font-family="MS Shell Dlg" id="7Hc" text-anchor="middle" x="2100" y="1243">
ON
</text>
<g cb-classname="ControlPin" cb-pin-name="jD-646-DyW" id="7Hs">
<line cb-classname="GraphicLineEntity" class="signalline" id="7Hz" x1="2040" x2="2060" y1="1230" y2="1230"/>
<polygon cb-classname="GraphicPolygonEntity" class="signal" id="7H7" points="2060,1230 2049,1224 2049,1235"/>
<g cb-classname="DynamicText" cb-source="V7-ODy-IVZw" class="signal" id="7HF" text-anchor="end">
<text cb-classname="GraphicTextEntity" class="signal" fill="black" font-style="normal" font-weight="normal" id="7HM" text-anchor="end" text-decoration="normal" x="2045" y="1227"/>
</g>
</g>
<g cb-classname="ControlPin" cb-pin-name="03-jUU-Anzq" id="7Hm">
<line cb-classname="GraphicLineEntity" class="signalline" id="7Hl" x1="2040" x2="2060" y1="1250" y2="1250"/>
<polygon cb-classname="GraphicPolygonEntity" class="signal" id="79t" points="2060,1250 2049,1244 2049,1255"/>
<g cb-classname="DynamicText" cb-source="cL-2w8-K6Ip" class="signal" id="79U" text-anchor="end">
<text cb-classname="GraphicTextEntity" class="signal" fill="black" font-style="normal" font-weight="normal" id="79c" text-anchor="end" text-decoration="normal" x="2045" y="1247"/>
</g>
</g>
<g cb-classname="ControlPin" cb-pin-name="k6-dX0-KUF" id="79s">
<line cb-classname="GraphicLineEntity" class="signalline" id="79z" x1="2140" x2="2160" y1="1240" y2="1240"/>
<g cb-classname="DynamicText" cb-source="cW-d0U-XMxi" class="signal" id="797" text-anchor="start">
<text cb-classname="GraphicTextEntity" class="signal" fill="black" font-style="normal" font-weight="normal" id="79F" text-anchor="start" text-decoration="normal" x="2154" y="1237"/>
</g>
<g cb-classname="SignalSegment" id="7lz">
<g cb-classname="SignalConnection" cb-graphic-line="$767$" cb-input-pin="$zcv$" id="7lm"/>
<line cb-classname="GraphicLineEntity" class="signalline" id="7lM" stroke="#1e12bf" stroke-dasharray="5,4" x1="2160" x2="2780" y1="1240" y2="1240"/>
</g>
</g>
<g cb-classname="DynamicText" cb-labeled="true" cb-source="MK-iqq-NVAl" class="algorithm" id="1RFD" text-anchor="start">
<text cb-classname="GraphicTextEntity" class="algorithm" fill="black" font-style="normal" font-weight="normal" id="1RFe" text-anchor="start" text-decoration="normal" x="2060" y="1210"/>
</g>
</g>
<g cb-alg-EDjT="69" cb-alg-bMYY="0" cb-algorithm-id="006" cb-classname="ControlAlgorithm" cb-function-name="DVALGEN" cb-modify-id="00000001" id="2Hc">
<rect cb-classname="GraphicRectangleEntity" class="algorithm" height="100" id="2Hs" width="140" x="1380" y="1410"/>
<text baseline-shift="-50%" cb-classname="GraphicTextEntity" class="algorithm" fill="#000000" font-family="MS Shell Dlg" font-size="18" id="2Hz" text-anchor="middle" x="1450" y="1460">
DVALGEN
</text>
<g cb-classname="ControlPin" cb-pin-name="F1-EUP-leN" id="2H7">
<line cb-classname="GraphicLineEntity" class="signalline" id="2HF" x1="1520" x2="1540" y1="1460" y2="1460"/>
<g cb-classname="DynamicText" cb-source="MK-CDj-vVaA" class="signal" id="2HM" text-anchor="start">
<text cb-classname="GraphicTextEntity" class="signal" fill="black" font-style="normal" font-weight="normal" id="2Hm" text-anchor="start" text-decoration="normal" x="1534" y="1457"/>
</g>
<g cb-classname="SignalSegment" id="2Hl">
<line cb-classname="GraphicLineEntity" class="signalline" id="7Ct" stroke="#1e12bf" stroke-dasharray="5,4" x1="1540" x2="2620" y1="1460" y2="1460"/>
<g cb-classname="SignalSegment" id="7CU">
<line cb-classname="GraphicLineEntity" class="signalline" id="7Cc" stroke="#1e12bf" stroke-dasharray="5,4" x1="2620" x2="2620" y1="1460" y2="1410"/>
<g cb-classname="SignalSegment" id="7Cs">
<line cb-classname="GraphicLineEntity" class="signalline" id="7Cz" stroke="#1e12bf" stroke-dasharray="5,4" x1="2620" x2="2780" y1="1410" y2="1410"/>
<g cb-classname="SignalConnection" cb-graphic-line="$704$" cb-input-pin="$vS7$" id="7C7"/>
<line cb-classname="GraphicLineEntity" class="signalline" id="7CM" stroke="#1e12bf" stroke-dasharray="5,4" x1="2620" x2="2620" y1="1410" y2="1190"/>
<g cb-classname="SignalSegment" id="7Cm">
<line cb-classname="GraphicLineEntity" class="signalline" id="7Cl" stroke="#1e12bf" stroke-dasharray="5,4" x1="2620" x2="2780" y1="1190" y2="1190"/>
<g cb-classname="SignalConnection" cb-graphic-line="$709$" cb-input-pin="$ueT$" id="7St"/>
</g>
<ellipse cb-classname="GraphicEllipseEntity" class="signal" cx="2620" cy="1410" fill="#1e12bf" id="7SU" rx="5" ry="5" stroke="#1e12bf" stroke-dasharray="5,4"/>
</g>
<line cb-classname="GraphicLineEntity" class="signalline" id="29t" stroke="#1e12bf" stroke-dasharray="5,4" x1="2620" x2="2780" y1="1460" y2="1460"/>
<g cb-classname="SignalConnection" cb-graphic-line="$240$" cb-input-pin="$Tan$" id="29U"/>
<ellipse cb-classname="GraphicEllipseEntity" class="signal" cx="2620" cy="1460" fill="#1e12bf" id="7CF" rx="5" ry="5" stroke="#1e12bf" stroke-dasharray="5,4"/>
<line cb-classname="GraphicLineEntity" class="signalline" id="19UB" stroke="#1e12bf" stroke-dasharray="5,4" x1="2620" x2="2620" y1="1460" y2="1960"/>
<g cb-classname="SignalSegment" id="19Uv">
<line cb-classname="GraphicLineEntity" class="signalline" id="19UD" stroke="#1e12bf" stroke-dasharray="5,4" x1="2620" x2="2780" y1="1960" y2="1960"/>
<g cb-classname="SignalConnection" cb-graphic-line="$1414$" cb-input-pin="$Fun$" id="19Ue"/>
</g>
</g>
</g>
</g>
<g cb-classname="DynamicText" cb-labeled="true" cb-source="jD-646-XjUz" class="algorithm" id="1RFP" text-anchor="start">
<text cb-classname="GraphicTextEntity" class="algorithm" fill="black" font-style="normal" font-weight="normal" id="1RFO" text-anchor="start" text-decoration="normal" x="1410" y="1400"/>
</g>
</g>
<g cb-alg-20Ml="69" cb-alg-wVnr="1" cb-algorithm-id="007" cb-classname="ControlAlgorithm" cb-function-name="DVALGEN" cb-modify-id="00000001" id="29z">
<rect cb-classname="GraphicRectangleEntity" class="algorithm" height="100" id="297" width="140" x="1380" y="1570"/>
<text baseline-shift="-50%" cb-classname="GraphicTextEntity" class="algorithm" fill="#000000" font-family="MS Shell Dlg" font-size="18" id="29F" text-anchor="middle" x="1450" y="1620">
DVALGEN
</text>
<g cb-classname="ControlPin" cb-pin-name="cL-LIz-sdJ" id="29M">
<line cb-classname="GraphicLineEntity" class="signalline" id="29m" x1="1520" x2="1540" y1="1620" y2="1620"/>
<g cb-classname="DynamicText" cb-source="k6-poK-UGrf" class="signal" id="29l" text-anchor="start">
<text cb-classname="GraphicTextEntity" class="signal" fill="black" font-style="normal" font-weight="normal" id="2zt" text-anchor="start" text-decoration="normal" x="1534" y="1617"/>
</g>
<g cb-classname="SignalSegment" id="2zU">
<line cb-classname="GraphicLineEntity" class="signalline" id="2zc" stroke="#1e12bf" stroke-dasharray="5,4" x1="1540" x2="2650" y1="1620" y2="1620"/>
<g cb-classname="SignalSegment" id="2zs">
<line cb-classname="GraphicLineEntity" class="signalline" id="2zz" stroke="#1e12bf" stroke-dasharray="5,4" x1="2650" x2="2650" y1="1620" y2="1670"/>
<g cb-classname="SignalSegment" id="2z7">
<line cb-classname="GraphicLineEntity" class="signalline" id="2zF" stroke="#1e12bf" stroke-dasharray="5,4" x1="2650" x2="2780" y1="1670" y2="1670"/>
<g cb-classname="SignalConnection" cb-graphic-line="$256$" cb-input-pin="$NKo$" id="2zM"/>
</g>
<line cb-classname="GraphicLineEntity" class="signalline" id="2zm" stroke="#1e12bf" stroke-dasharray="5,4" x1="2650" x2="2780" y1="1620" y2="1620"/>
<g cb-classname="SignalConnection" cb-graphic-line="$258$" cb-input-pin="$Rqc$" id="2zl"/>
<ellipse cb-classname="GraphicEllipseEntity" class="signal" cx="2650" cy="1620" fill="#1e12bf" id="2lt" rx="5" ry="5" stroke="#1e12bf" stroke-dasharray="5,4"/>
</g>
</g>
</g>
<g cb-classname="DynamicText" cb-labeled="true" cb-source="cz-G8Q-zP6H" class="algorithm" id="1RFd" text-anchor="start">
<text cb-classname="GraphicTextEntity" class="algorithm" fill="black" font-style="normal" font-weight="normal" id="1RFc" text-anchor="start" text-decoration="normal" x="1410" y="1560"/>
</g>
</g>
<g cb-alg-WAfT="NO" cb-alg-WbJ="01B0500D03-EPO" cb-algorithm-id="009" cb-classname="ExternalPointInterface" cb-function-name="INPUT" id="28M">
<ellipse cb-classname="GraphicEllipseEntity" class="algorithm" cx="590" cy="1940" id="28m" rx="50" ry="50"/>
<rect cb-classname="GraphicRectangleEntity" class="algorithm" height="100" id="28l" width="40" x="500" y="1890"/>
<line cb-classname="GraphicLineEntity" class="algorithm" id="3Ct" x1="500" x2="540" y1="1940" y2="1940"/>
<g cb-classname="ControlPin" cb-pin-name="k6-dX0-KUF" id="3CU">
<line cb-classname="GraphicLineEntity" class="signalline" id="3Cc" x1="640" x2="670" y1="1940" y2="1940"/>
<g cb-classname="DynamicText" cb-source="cW-d0U-XMxi" class="signal" id="3Cs" text-anchor="start">
<text cb-classname="GraphicTextEntity" class="signal" fill="black" font-style="normal" font-weight="normal" id="3Cz" text-anchor="start" text-decoration="normal" x="654" y="1937"/>
</g>
<g cb-classname="SignalSegment" id="3C7">
<line cb-classname="GraphicLineEntity" class="signalline" id="3CF" stroke="#1e12bf" stroke-dasharray="5,4" x1="670" x2="2380" y1="1940" y2="1940"/>
<g cb-classname="SignalSegment" id="3CM">
<line cb-classname="GraphicLineEntity" class="signalline" id="3Cm" stroke="#1e12bf" stroke-dasharray="5,4" x1="2380" x2="2380" y1="1940" y2="2000"/>
<g cb-classname="SignalSegment" id="3Cl">
<line cb-classname="GraphicLineEntity" class="signalline" id="3St" stroke="#1e12bf" stroke-dasharray="5,4" x1="2380" x2="2790" y1="2000" y2="2000"/>
<g cb-classname="SignalConnection" cb-graphic-line="$310$" cb-input-pin="$RcN$" id="3SU"/>
</g>
</g>
</g>
</g>
<g cb-classname="PointStatusIndicator" cb-indicator-type="Highway" cb-source="cL-LIz-sdJ" id="3Sc" visibility="hidden">
<line cb-classname="GraphicLineEntity" class="algorithmline" id="3Ss" x1="540" x2="590" y1="1940" y2="1890"/>
<line cb-classname="GraphicLineEntity" class="algorithmline" id="3Sz" x1="590" x2="640" y1="1890" y2="1940"/>
<line cb-classname="GraphicLineEntity" class="algorithmline" id="3S7" x1="640" x2="590" y1="1940" y2="1990"/>
<line cb-classname="GraphicLineEntity" class="algorithmline" id="3SF" x1="590" x2="540" y1="1990" y2="1940"/>
</g>
<g cb-classname="PointStatusIndicator" cb-indicator-type="hardware" cb-source="jD-646-eru" id="3SM" visibility="visible">
<line cb-classname="GraphicLineEntity" class="algorithmline" id="3Sm" x1="540" x2="640" y1="1890" y2="1890"/>
<line cb-classname="GraphicLineEntity" class="algorithmline" id="3Sl" x1="640" x2="640" y1="1890" y2="1990"/>
<line cb-classname="GraphicLineEntity" class="algorithmline" id="3Rt" x1="640" x2="540" y1="1990" y2="1990"/>
</g>
<g cb-classname="PointStatusIndicator" cb-indicator-type="alarm" cb-source="BQ-MYT-LHY" id="3RU" visibility="hidden">
<text cb-classname="GraphicTextEntity" class="algorithm" fill="#000000" font-family="arial" font-size="20" id="3Rc" x="510" y="1925">
A
</text>
</g>
<g cb-classname="PointStatusIndicator" cb-indicator-type="ingraphic" cb-source="D2-ZqK-629" id="3Rs" visibility="visible">
<text cb-classname="GraphicTextEntity" class="algorithm" fill="#000000" font-family="Arial" font-size="20" id="3Rz" x="510" y="1975">
G
</text>
</g>
<g baseline-shift="-50%" cb-anchor-x="490" cb-anchor-y="1954" cb-classname="PointDescription" cb-content="extended" cb-labeled="false" cb-max-width="220" cb-source="cL-LIz-sdJ" class="algorithm" id="3R7" text-anchor="end">
<text baseline-shift="-50%" cb-classname="GraphicTextEntity" class="algorithm" id="3RF" text-anchor="end" x="490" y="1929">
DESC: Point not found in
</text>
<text baseline-shift="-50%" cb-classname="GraphicTextEntity" class="algorithm" id="1wzD" text-anchor="end" x="490" y="1954">
database
</text>
<text baseline-shift="-50%" cb-classname="GraphicTextEntity" class="algorithm" id="28mD" text-anchor="end" x="490" y="1979">
(01B0500D03-EPO)
</text>
</g>
<g cb-classname="DynamicText" cb-labeled="false" cb-pin-name="x0V" cb-source="k6-dX0-KUF" class="algorithm" id="3RM" text-anchor="start">
<text baseline-shift="0%" cb-classname="GraphicTextEntity" class="algorithm" fill="black" font-family="arial" font-size="20" font-style="normal" font-weight="normal" id="3Rm" text-anchor="start" text-decoration="normal" x="660" y="1910"/>
</g>
<g baseline-shift="-100%" cb-anchor-x="660" cb-anchor-y="1950" cb-classname="PointReferences" cb-max-width="230" cb-originator="true" cb-source="cW-8tt-WbJ" class="signal" id="3Rl" text-anchor="start">
<text baseline-shift="-100%" cb-classname="GraphicTextEntity" class="algorithm" id="3Ht" text-anchor="start" x="660" y="1950">
REF: Point not found in
</text>
<text baseline-shift="-100%" cb-classname="GraphicTextEntity" class="algorithm" id="28me" text-anchor="start" x="660" y="1975">
database
</text>
<text baseline-shift="-100%" cb-classname="GraphicTextEntity" class="algorithm" id="28mP" text-anchor="start" x="660" y="2000">
(01B0500D03-EPO)
</text>
</g>
</g>
<g cb-alg-Ia0t="NO" cb-alg-IbY="01B0500D03-EPZ" cb-algorithm-id="00a" cb-classname="ExternalPointInterface" cb-function-name="INPUT" id="3HU">
<ellipse cb-classname="GraphicEllipseEntity" class="algorithm" cx="590" cy="2090" id="3Hc" rx="50" ry="50"/>
<rect cb-classname="GraphicRectangleEntity" class="algorithm" height="100" id="3Hs" width="40" x="500" y="2040"/>
<line cb-classname="GraphicLineEntity" class="algorithm" id="3Hz" x1="500" x2="540" y1="2090" y2="2090"/>
<g cb-classname="ControlPin" cb-pin-name="03-jUU-tgr" id="3H7">
<line cb-classname="GraphicLineEntity" class="signalline" id="3HF" x1="640" x2="670" y1="2090" y2="2090"/>
<g cb-classname="DynamicText" cb-source="cP-H5m-0C6h" class="signal" id="3HM" text-anchor="start">
<text cb-classname="GraphicTextEntity" class="signal" fill="black" font-style="normal" font-weight="normal" id="3Hm" text-anchor="start" text-decoration="normal" x="654" y="2087"/>
</g>
<g cb-classname="SignalSegment" id="3Hl">
<line cb-classname="GraphicLineEntity" class="signalline" id="39t" stroke="#1e12bf" stroke-dasharray="5,4" x1="670" x2="2380" y1="2090" y2="2090"/>
<g cb-classname="SignalSegment" id="39U">
<line cb-classname="GraphicLineEntity" class="signalline" id="39c" stroke="#1e12bf" stroke-dasharray="5,4" x1="2380" x2="2380" y1="2090" y2="2040"/>
<g cb-classname="SignalSegment" id="39s">
<line cb-classname="GraphicLineEntity" class="signalline" id="39z" stroke="#1e12bf" stroke-dasharray="5,4" x1="2380" x2="2770" y1="2040" y2="2040"/>
<g cb-classname="SignalConnection" cb-graphic-line="$344$" cb-input-pin="$TDE$" id="397"/>
</g>
</g>
</g>
</g>
<g cb-classname="PointStatusIndicator" cb-indicator-type="Highway" cb-source="V7-Vnl-8JB" id="39F" visibility="hidden">
<line cb-classname="GraphicLineEntity" class="algorithmline" id="39M" x1="540" x2="590" y1="2090" y2="2040"/>
<line cb-classname="GraphicLineEntity" class="algorithmline" id="39m" x1="590" x2="640" y1="2040" y2="2090"/>
<line cb-classname="GraphicLineEntity" class="algorithmline" id="39l" x1="640" x2="590" y1="2090" y2="2140"/>
<line cb-classname="GraphicLineEntity" class="algorithmline" id="3zt" x1="590" x2="540" y1="2140" y2="2090"/>
</g>
<g cb-classname="PointStatusIndicator" cb-indicator-type="hardware" cb-source="cL-LIz-sdJ" id="3zU" visibility="visible">
<line cb-classname="GraphicLineEntity" class="algorithmline" id="3zc" x1="540" x2="640" y1="2040" y2="2040"/>
<line cb-classname="GraphicLineEntity" class="algorithmline" id="3zs" x1="640" x2="640" y1="2040" y2="2140"/>
<line cb-classname="GraphicLineEntity" class="algorithmline" id="3zz" x1="640" x2="540" y1="2140" y2="2140"/>
</g>
<g cb-classname="PointStatusIndicator" cb-indicator-type="alarm" cb-source="cW-8tt-WbJ" id="3z7" visibility="hidden">
<text cb-classname="GraphicTextEntity" class="algorithm" fill="#000000" font-family="arial" font-size="20" id="3zF" x="510" y="2075">
A
</text>
</g>
<g cb-classname="PointStatusIndicator" cb-indicator-type="ingraphic" cb-source="F3-raJ-4YJ" id="3zM" visibility="visible">
<text cb-classname="GraphicTextEntity" class="algorithm" fill="#000000" font-family="Arial" font-size="20" id="3zm" x="510" y="2125">
G
</text>
</g>
<g baseline-shift="-50%" cb-anchor-x="490" cb-anchor-y="2104" cb-classname="PointDescription" cb-content="extended" cb-labeled="false" cb-max-width="220" cb-source="V7-Vnl-8JB" class="algorithm" id="3zl" text-anchor="end">
<text baseline-shift="-50%" cb-classname="GraphicTextEntity" class="algorithm" id="3lt" text-anchor="end" x="490" y="2079">
DESC: Point not found in
</text>
<text baseline-shift="-50%" cb-classname="GraphicTextEntity" class="algorithm" id="1wze" text-anchor="end" x="490" y="2104">
database
</text>
<text baseline-shift="-50%" cb-classname="GraphicTextEntity" class="algorithm" id="1wzP" text-anchor="end" x="490" y="2129">
(01B0500D03-EPZ)
</text>
</g>
<g cb-classname="DynamicText" cb-labeled="false" cb-pin-name="k7g" cb-source="03-jUU-tgr" class="algorithm" id="3lU" text-anchor="start">
<text baseline-shift="0%" cb-classname="GraphicTextEntity" class="algorithm" fill="black" font-family="arial" font-size="20" font-style="normal" font-weight="normal" id="3lc" text-anchor="start" text-decoration="normal" x="660" y="2060"/>
</g>
<g baseline-shift="-100%" cb-anchor-x="660" cb-anchor-y="2100" cb-classname="PointReferences" cb-max-width="230" cb-originator="true" cb-source="cP-P6R-GTi" class="signal" id="3ls" text-anchor="start">
<text baseline-shift="-100%" cb-classname="GraphicTextEntity" class="algorithm" id="3lz" text-anchor="start" x="660" y="2100">
REF: Point not found in
</text>
<text baseline-shift="-100%" cb-classname="GraphicTextEntity" class="algorithm" id="28mO" text-anchor="start" x="660" y="2125">
database
</text>
<text baseline-shift="-100%" cb-classname="GraphicTextEntity" class="algorithm" id="28md" text-anchor="start" x="660" y="2150">
(01B0500D03-EPZ)
</text>
</g>
</g>
<g cb-alg-3uL1="65" cb-alg-hOt7="60" cb-algorithm-id="00b" cb-classname="ControlAlgorithm" cb-function-name="AVALGEN" cb-modify-id="00000001" id="3l7">
<polygon cb-classname="GraphicPolygonEntity" class="algorithm" id="3lF" points="1380,2120 1320,2180 1380,2240 1440,2180"/>
<line cb-classname="GraphicLineEntity" class="algorithm" id="3lM" x1="1380" x2="1370" y1="2160" y2="2190"/>
<line cb-classname="GraphicLineEntity" class="algorithm" id="3lm" x1="1380" x2="1390" y1="2160" y2="2190"/>
<line cb-classname="GraphicLineEntity" class="algorithm" id="3ll" x1="1374" x2="1386" y1="2180" y2="2180"/>
<g cb-classname="ControlPin" cb-pin-name="F3-raJ-4YJ" id="3kt">
<line cb-classname="GraphicLineEntity" class="signalline" id="3kU" x1="1380" x2="1380" y1="2240" y2="2260"/>
<g cb-classname="DynamicText" cb-source="V7-ODy-IVZw" class="signal" id="3kc" text-anchor="end">
<text cb-classname="GraphicTextEntity" class="signal" fill="black" font-style="normal" font-weight="normal" id="3ks" text-anchor="end" text-decoration="normal" transform="translate(1377,2254)rotate(-90)"/>
</g>
<g cb-classname="SignalSegment" id="1lse">
<line cb-classname="GraphicLineEntity" class="signalline" id="1lsP" x1="1380" x2="1380" y1="2260" y2="2370"/>
<g cb-classname="SignalSegment" id="1lsO">
<line cb-classname="GraphicLineEntity" class="signalline" id="1lsd" x1="1380" x2="2790" y1="2370" y2="2370"/>
<g cb-classname="SignalConnection" cb-graphic-line="$1638$" cb-input-pin="$UPxR$" id="1lsc"/>
</g>
</g>
</g>
<g cb-classname="DynamicText" cb-labeled="true" cb-source="k6-dX0-oG8b" class="algorithm" id="3kl" text-anchor="start">
<text cb-classname="GraphicTextEntity" class="algorithm" fill="black" font-family="arial" font-size="20" font-style="normal" font-weight="normal" id="3wt" text-anchor="start" text-decoration="normal" x="1240" y="2240"/>
</g>
</g>
<g cb-alg-eei0="65" cb-alg-qdXb="60" cb-algorithm-id="00c" cb-classname="ControlAlgorithm" cb-function-name="AVALGEN" cb-modify-id="00000001" id="3wU">
<polygon cb-classname="GraphicPolygonEntity" class="algorithm" id="3wc" points="1550,2120 1490,2180 1550,2240 1610,2180"/>
<line cb-classname="GraphicLineEntity" class="algorithm" id="3ws" x1="1550" x2="1540" y1="2160" y2="2190"/>
<line cb-classname="GraphicLineEntity" class="algorithm" id="3wz" x1="1550" x2="1560" y1="2160" y2="2190"/>
<line cb-classname="GraphicLineEntity" class="algorithm" id="3w7" x1="1544" x2="1556" y1="2180" y2="2180"/>
<g cb-classname="ControlPin" cb-pin-name="BQ-MYT-LHY" id="3wF">
<line cb-classname="GraphicLineEntity" class="signalline" id="3wM" x1="1550" x2="1550" y1="2240" y2="2260"/>
<g cb-classname="DynamicText" cb-source="D2-giR-nmUB" class="signal" id="3wm" text-anchor="end">
<text cb-classname="GraphicTextEntity" class="signal" fill="black" font-style="normal" font-weight="normal" id="3wl" text-anchor="end" text-decoration="normal" transform="translate(1547,2254)rotate(-90)"/>
</g>
<g cb-classname="SignalSegment" id="1lsI">
<line cb-classname="GraphicLineEntity" class="signalline" id="1lsH" x1="1550" x2="1550" y1="2260" y2="2330"/>
<g cb-classname="SignalSegment" id="1lsB">
<line cb-classname="GraphicLineEntity" class="signalline" id="1lsv" x1="1550" x2="2790" y1="2330" y2="2330"/>
<g cb-classname="SignalConnection" cb-graphic-line="$1633$" cb-input-pin="$FaKm$" id="1lsD"/>
</g>
</g>
</g>
<g cb-classname="DynamicText" cb-labeled="true" cb-source="jD-646-XjUz" class="algorithm" id="387" text-anchor="start">
<text cb-classname="GraphicTextEntity" class="algorithm" fill="black" font-family="arial" font-size="20" font-style="normal" font-weight="normal" id="38F" text-anchor="start" text-decoration="normal" x="1570" y="2250"/>
</g>
</g>
<g cb-alg-y3H="01B05G01-LLK" cb-alg-yYwz="NO" cb-algorithm-id="011" cb-classname="ExternalPointInterface" cb-function-name="INPUT" id="2CtD">
<ellipse cb-classname="GraphicEllipseEntity" class="algorithm" cx="600" cy="900" id="2Cte" rx="50" ry="50"/>
<rect cb-classname="GraphicRectangleEntity" class="algorithm" height="100" id="2CtP" width="40" x="510" y="850"/>
<line cb-classname="GraphicLineEntity" class="algorithm" id="2CtO" x1="510" x2="550" y1="900" y2="900"/>
<g cb-classname="ControlPin" cb-pin-name="F3-raJ-4YJ" id="2Ctd">
<line cb-classname="GraphicLineEntity" class="signalline" id="2Ctc" x1="650" x2="680" y1="900" y2="900"/>
<g cb-classname="DynamicText" cb-source="V7-ODy-IVZw" class="signal" id="2CUI" text-anchor="start">
<text cb-classname="GraphicTextEntity" class="signal" fill="black" font-style="normal" font-weight="normal" id="2CUH" text-anchor="start" text-decoration="normal" x="664" y="897"/>
</g>
<g cb-classname="SignalSegment" id="2CsH">
<line cb-classname="GraphicLineEntity" class="signalline" id="2CsP" stroke="#1e12bf" stroke-dasharray="5,4" x1="680" x2="2270" y1="900" y2="900"/>
<g cb-classname="SignalSegment" id="2CsO">
<line cb-classname="GraphicLineEntity" class="signalline" id="2Csd" stroke="#1e12bf" stroke-dasharray="5,4" x1="2270" x2="2270" y1="900" y2="940"/>
<g cb-classname="SignalSegment" id="2Csc">
<line cb-classname="GraphicLineEntity" class="signalline" id="2CzI" stroke="#1e12bf" stroke-dasharray="5,4" x1="2270" x2="2780" y1="940" y2="940"/>
<g cb-classname="SignalConnection" cb-graphic-line="$2040$" cb-input-pin="$9Fc$" id="2CzH"/>
</g>
<line cb-classname="GraphicLineEntity" class="signalline" id="2CsD" stroke="#1e12bf" stroke-dasharray="5,4" x1="2270" x2="2340" y1="900" y2="900"/>
<g cb-classname="SignalConnection" cb-graphic-line="$2034$" cb-input-pin="$gAEm$" id="2Cse"/>
<ellipse cb-classname="GraphicEllipseEntity" class="signal" cx="2270" cy="900" fill="#1e12bf" id="2CzB" rx="5" ry="5" stroke="#1e12bf" stroke-dasharray="5,4"/>
</g>
</g>
</g>
<g cb-classname="PointStatusIndicator" cb-indicator-type="Highway" cb-source="03-jUU-tgr" id="2CUB" visibility="hidden">
<line cb-classname="GraphicLineEntity" class="algorithmline" id="2CUv" x1="550" x2="600" y1="900" y2="850"/>
<line cb-classname="GraphicLineEntity" class="algorithmline" id="2CUD" x1="600" x2="650" y1="850" y2="900"/>
<line cb-classname="GraphicLineEntity" class="algorithmline" id="2CUe" x1="650" x2="600" y1="900" y2="950"/>
<line cb-classname="GraphicLineEntity" class="algorithmline" id="2CUP" x1="600" x2="550" y1="950" y2="900"/>
</g>
<g cb-classname="PointStatusIndicator" cb-indicator-type="hardware" cb-source="k6-dX0-KUF" id="2CUO" visibility="hidden">
<line cb-classname="GraphicLineEntity" class="algorithmline" id="2CUd" x1="550" x2="650" y1="850" y2="850"/>
<line cb-classname="GraphicLineEntity" class="algorithmline" id="2CUc" x1="650" x2="650" y1="850" y2="950"/>
<line cb-classname="GraphicLineEntity" class="algorithmline" id="2CcI" x1="650" x2="550" y1="950" y2="950"/>
</g>
<g cb-classname="PointStatusIndicator" cb-indicator-type="alarm" cb-source="F3-raJ-4YJ" id="2CcH" visibility="hidden">
<text cb-classname="GraphicTextEntity" class="algorithm" fill="#000000" font-family="arial" font-size="20" id="2CcB" x="520" y="885">
A
</text>
</g>
<g cb-classname="PointStatusIndicator" cb-indicator-type="ingraphic" cb-source="V7-Vnl-8JB" id="2Ccv" visibility="visible">
<text cb-classname="GraphicTextEntity" class="algorithm" fill="#000000" font-family="Arial" font-size="20" id="2CcD" x="520" y="935">
G
</text>
</g>
<g baseline-shift="-50%" cb-anchor-x="500" cb-anchor-y="914" cb-classname="PointDescription" cb-content="extended" cb-labeled="false" cb-max-width="220" cb-source="03-jUU-tgr" class="algorithm" id="2Cce" text-anchor="end">
<text baseline-shift="-50%" cb-classname="GraphicTextEntity" class="algorithm" id="2CcP" text-anchor="end" x="500" y="902">
DESC: Point not found in
</text>
<text baseline-shift="-50%" cb-classname="GraphicTextEntity" class="algorithm" id="28mc" text-anchor="end" x="500" y="927">
database (01B05G01-LLK)
</text>
</g>
<g cb-classname="DynamicText" cb-labeled="false" cb-pin-name="ZtX" cb-source="cP-P6R-GTi" class="algorithm" id="2CcO" text-anchor="start">
<text baseline-shift="0%" cb-classname="GraphicTextEntity" class="algorithm" fill="black" font-family="arial" font-size="20" font-style="normal" font-weight="normal" id="2Ccd" text-anchor="start" text-decoration="normal" x="670" y="870"/>
</g>
<g baseline-shift="-100%" cb-anchor-x="670" cb-anchor-y="910" cb-classname="PointReferences" cb-max-width="230" cb-originator="true" cb-source="F1-EUP-leN" class="signal" id="2Ccc" text-anchor="start">
<text baseline-shift="-100%" cb-classname="GraphicTextEntity" class="algorithm" id="2CsI" text-anchor="start" x="670" y="910">
REF: Point not found in
</text>
<text baseline-shift="-100%" cb-classname="GraphicTextEntity" class="algorithm" id="28lH" text-anchor="start" x="670" y="935">
database (01B05G01-LLK)
</text>
</g>
</g>
<g cb-alg-eZH="$2004$cb-alg-out$" cb-algorithm-id="008" cb-classname="FastBooleanAlgorithm" cb-function-name="NOT" cb-modify-id="00000002" id="18lI">
<rect cb-classname="GraphicRectangleEntity" class="algorithm" height="40" id="18lH" width="40" x="2360" y="880"/>
<g cb-classname="ControlPin" cb-pin-name="MK-iqq-CXK" id="18lB">
<line cb-classname="GraphicLineEntity" class="signalline" id="18lv" x1="2340" x2="2360" y1="900" y2="900"/>
<polygon cb-classname="GraphicPolygonEntity" class="signal" id="18lD" points="2360,900 2349,894 2349,905"/>
<g cb-classname="DynamicText" cb-source="F3-kCX-yZ1a" class="signal" id="18le" text-anchor="end">
<text cb-classname="GraphicTextEntity" class="signal" fill="black" font-style="normal" font-weight="normal" id="18lP" text-anchor="end" text-decoration="normal" x="2345" y="897"/>
</g>
</g>
<g cb-classname="ControlPin" cb-pin-name="V7-Vnl-8JB" id="18lO">
<line cb-classname="GraphicLineEntity" class="signalline" id="18ld" x1="2400" x2="2420" y1="900" y2="900"/>
<g cb-classname="DynamicText" cb-source="03-9bI-mDPo" class="signal" id="18lc" text-anchor="start">
<text cb-classname="GraphicTextEntity" class="signal" fill="black" font-style="normal" font-weight="normal" id="2CtI" text-anchor="start" text-decoration="normal" x="2414" y="897"/>
</g>
<g cb-classname="SignalSegment" id="2Czv">
<g cb-classname="SignalConnection" cb-graphic-line="$2046$" cb-input-pin="$Jpu$" id="2CzO"/>
<line cb-classname="GraphicLineEntity" class="signalline" id="2CzP" stroke="#1e12bf" stroke-dasharray="5,4" x1="2420" x2="2780" y1="900" y2="900"/>
</g>
</g>
<line cb-classname="GraphicLineEntity" class="algorithm" id="2CtH" x1="2370" x2="2370" y1="890" y2="910"/>
<line cb-classname="GraphicLineEntity" class="algorithm" id="2CtB" x1="2370" x2="2390" y1="890" y2="910"/>
<line cb-classname="GraphicLineEntity" class="algorithm" id="2Ctv" x1="2390" x2="2390" y1="910" y2="890"/>
</g>
<g cb-alg-08qx0="$365$cb-alg-out$" cb-alg-1Oqx0="$381$cb-alg-out$" cb-alg-G8a="01B0500D03-ALM" cb-alg-G8d="$232$cb-alg-out$" cb-alg-GW="$143$cb-alg-out$" cb-alg-Gi="$729$cb-alg-out$" cb-alg-Ng="01B0500D03-TR" cb-alg-P8A="$66$cb-alg-pk2$" cb-alg-P8d="$66$cb-alg-pk1$" cb-alg-PV="$1990$cb-alg-out$" cb-alg-PVd="$66$cb-alg-pk5$" cb-alg-PW="$66$cb-alg-open$" cb-alg-PXM="$2004$cb-alg-out$" cb-alg-Pi="$66$cb-alg-clos$" cb-alg-RFG="01B0500D03-STS" cb-alg-ZDR="$232$cb-alg-out$" cb-alg-ZDe="$232$cb-alg-out$" cb-alg-a3="01B0500D03-LB" cb-alg-bDR="$244$cb-alg-out$" cb-alg-bDe="$244$cb-alg-out$" cb-alg-pJ2="$232$cb-alg-out$" cb-alg-pOR="$331$cb-alg-out$" cb-alg-pOe="$297$cb-alg-out$" cb-algorithm-id="001" cb-classname="ControlMacroReference" cb-function-name="PCMS1" cb-macro-crc="30660" cb-modify-id="00000001" id="4zc">
<rect cb-classname="GraphicRectangleEntity" class="annotation" height="1850" id="4zs" width="750" x="2810" y="580"/>
<g cb-classname="ControlPin" cb-pin-name="cP-P6R-hn" id="4zz">
<line cb-classname="GraphicLineEntity" class="signalline" id="4z7" x1="2780" x2="2810" y1="620" y2="620"/>
<polygon cb-classname="GraphicPolygonEntity" class="signal" id="4zF" points="2810,620 2799,614 2799,625"/>
<g cb-classname="DynamicText" cb-source="k6-poK-UGrf" class="signal" id="4zM" text-anchor="end">
<text cb-classname="GraphicTextEntity" class="signal" fill="black" font-style="normal" font-weight="normal" id="4zm" text-anchor="end" text-decoration="normal" x="2795" y="617"/>
</g>
</g>
<g cb-classname="ControlPin" cb-pin-name="cW-8tt-QR" id="4zl">
<line cb-classname="GraphicLineEntity" class="signalline" id="4lt" x1="2780" x2="2810" y1="660" y2="660"/>
<polygon cb-classname="GraphicPolygonEntity" class="signal" id="4lU" points="2810,660 2799,654 2799,665"/>
<g cb-classname="DynamicText" cb-source="cz-b0s-pPnA" class="signal" id="4lc" text-anchor="end">
<text cb-classname="GraphicTextEntity" class="signal" fill="black" font-style="normal" font-weight="normal" id="4ls" text-anchor="end" text-decoration="normal" x="2795" y="657"/>
</g>
</g>
<g cb-classname="ControlPin" cb-pin-name="BQ-MYT-CT" id="4lz">
<line cb-classname="GraphicLineEntity" class="signalline" id="4l7" x1="2780" x2="2810" y1="900" y2="900"/>
<polygon cb-classname="GraphicPolygonEntity" class="signal" id="4lF" points="2810,900 2799,894 2799,905"/>
<g cb-classname="DynamicText" cb-source="cP-H5m-0C6h" class="signal" id="4lM" text-anchor="end">
<text cb-classname="GraphicTextEntity" class="signal" fill="black" font-style="normal" font-weight="normal" id="4lm" text-anchor="end" text-decoration="normal" x="2795" y="897"/>
</g>
</g>
<g cb-classname="ControlPin" cb-pin-name="F1-EUP-OUG" id="4ll">
<line cb-classname="GraphicLineEntity" class="signalline" id="4kt" x1="2780" x2="2810" y1="940" y2="940"/>
<polygon cb-classname="GraphicPolygonEntity" class="signal" id="4kU" points="2810,940 2799,934 2799,945"/>
<g cb-classname="DynamicText" cb-source="cW-d0U-XMxi" class="signal" id="4kc" text-anchor="end">
<text cb-classname="GraphicTextEntity" class="signal" fill="black" font-style="normal" font-weight="normal" id="4ks" text-anchor="end" text-decoration="normal" x="2795" y="937"/>
</g>
</g>
<g cb-classname="ControlPin" cb-pin-name="F3-raJ-TUt" id="4kz">
<line cb-classname="GraphicLineEntity" class="signalline" id="4k7" x1="2780" x2="2810" y1="780" y2="780"/>
<polygon cb-classname="GraphicPolygonEntity" class="signal" id="4kF" points="2810,780 2799,774 2799,785"/>
<g cb-classname="DynamicText" cb-source="BQ-hfp-RTpV" class="signal" id="4kM" text-anchor="end">
<text cb-classname="GraphicTextEntity" class="signal" fill="black" font-style="normal" font-weight="normal" id="4km" text-anchor="end" text-decoration="normal" x="2795" y="777"/>
</g>
</g>
<g cb-classname="ControlPin" cb-pin-name="D2-ZqK-hIk" id="4kl">
<line cb-classname="GraphicLineEntity" class="signalline" id="4wt" x1="2780" x2="2810" y1="820" y2="820"/>
<polygon cb-classname="GraphicPolygonEntity" class="signal" id="4wU" points="2810,820 2799,814 2799,825"/>
<g cb-classname="DynamicText" cb-source="F1-kel-jrc5" class="signal" id="4wc" text-anchor="end">
<text cb-classname="GraphicTextEntity" class="signal" fill="black" font-style="normal" font-weight="normal" id="4ws" text-anchor="end" text-decoration="normal" x="2795" y="817"/>
</g>
</g>
<g cb-classname="ControlPin" cb-pin-name="MK-iqq-GW" id="4wz">
<line cb-classname="GraphicLineEntity" class="signalline" id="4w7" x1="2780" x2="2810" y1="1150" y2="1150"/>
<polygon cb-classname="GraphicPolygonEntity" class="signal" id="4wF" points="2810,1150 2799,1144 2799,1155"/>
<g cb-classname="DynamicText" cb-source="F3-kCX-yZ1a" class="signal" id="4wM" text-anchor="end">
<text cb-classname="GraphicTextEntity" class="signal" fill="black" font-style="normal" font-weight="normal" id="4wm" text-anchor="end" text-decoration="normal" x="2795" y="1147"/>
</g>
</g>
<g cb-classname="ControlPin" cb-pin-name="V7-Vnl-P6L" id="4wl">
<line cb-classname="GraphicLineEntity" class="signalline" id="48t" x1="2780" x2="2810" y1="1190" y2="1190"/>
<polygon cb-classname="GraphicPolygonEntity" class="signal" id="48U" points="2810,1190 2799,1184 2799,1195"/>
<g cb-classname="DynamicText" cb-source="D2-giR-nmUB" class="signal" id="48c" text-anchor="end">
<text cb-classname="GraphicTextEntity" class="signal" fill="black" font-style="normal" font-weight="normal" id="48s" text-anchor="end" text-decoration="normal" x="2795" y="1187"/>
</g>
</g>
<g cb-classname="ControlPin" cb-pin-name="cL-LIz-8J" id="48z">
<line cb-classname="GraphicLineEntity" class="signalline" id="487" x1="2780" x2="2810" y1="1240" y2="1240"/>
<polygon cb-classname="GraphicPolygonEntity" class="signal" id="48F" points="2810,1240 2799,1234 2799,1245"/>
<g cb-classname="DynamicText" cb-source="MK-CDj-vVaA" class="signal" id="48M" text-anchor="end">
<text cb-classname="GraphicTextEntity" class="signal" fill="black" font-style="normal" font-weight="normal" id="48m" text-anchor="end" text-decoration="normal" x="2795" y="1237"/>
</g>
</g>
<g cb-classname="ControlPin" cb-pin-name="jD-646-A1t" id="48l">
<line cb-classname="GraphicLineEntity" class="signalline" id="5Ct" x1="2780" x2="2810" y1="1410" y2="1410"/>
<polygon cb-classname="GraphicPolygonEntity" class="signal" id="5CU" points="2810,1410 2799,1404 2799,1415"/>
<g cb-classname="DynamicText" cb-source="V7-ODy-IVZw" class="signal" id="5Cc" text-anchor="end">
<text cb-classname="GraphicTextEntity" class="signal" fill="black" font-style="normal" font-weight="normal" id="5Cs" text-anchor="end" text-decoration="normal" x="2795" y="1407"/>
</g>
</g>
<g cb-classname="ControlPin" cb-pin-name="03-jUU-O1g" id="5Cz">
<line cb-classname="GraphicLineEntity" class="signalline" id="5C7" x1="2780" x2="2810" y1="1460" y2="1460"/>
<polygon cb-classname="GraphicPolygonEntity" class="signal" id="5CF" points="2810,1460 2799,1454 2799,1465"/>
<g cb-classname="DynamicText" cb-source="cL-2w8-K6Ip" class="signal" id="5CM" text-anchor="end">
<text cb-classname="GraphicTextEntity" class="signal" fill="black" font-style="normal" font-weight="normal" id="5Cm" text-anchor="end" text-decoration="normal" x="2795" y="1457"/>
</g>
</g>
<g cb-classname="ControlPin" cb-pin-name="k6-dX0-k0W" id="5Cl">
<line cb-classname="GraphicLineEntity" class="signalline" id="5St" x1="2780" x2="2810" y1="1620" y2="1620"/>
<polygon cb-classname="GraphicPolygonEntity" class="signal" id="5SU" points="2810,1620 2799,1614 2799,1625"/>
<g cb-classname="DynamicText" cb-source="jD-GCv-sjO5" class="signal" id="5Sc" text-anchor="end">
<text cb-classname="GraphicTextEntity" class="signal" fill="black" font-style="normal" font-weight="normal" id="5Ss" text-anchor="end" text-decoration="normal" x="2795" y="1617"/>
</g>
</g>
<g cb-classname="ControlPin" cb-pin-name="cz-G8Q-g4w" id="5Sz">
<line cb-classname="GraphicLineEntity" class="signalline" id="5S7" x1="2780" x2="2810" y1="1670" y2="1670"/>
<polygon cb-classname="GraphicPolygonEntity" class="signal" id="5SF" points="2810,1670 2799,1664 2799,1675"/>
<g cb-classname="DynamicText" cb-source="03-9bI-mDPo" class="signal" id="5SM" text-anchor="end">
<text cb-classname="GraphicTextEntity" class="signal" fill="black" font-style="normal" font-weight="normal" id="5Sm" text-anchor="end" text-decoration="normal" x="2795" y="1667"/>
</g>
</g>
<g cb-classname="ControlPin" cb-pin-name="cP-P6R-VIJ" id="5Sl">
<line cb-classname="GraphicLineEntity" class="signalline" id="5Rt" x1="2780" x2="2810" y1="1960" y2="1960"/>
<polygon cb-classname="GraphicPolygonEntity" class="signal" id="5RU" points="2810,1960 2799,1954 2799,1965"/>
<g cb-classname="DynamicText" cb-source="k6-poK-UGrf" class="signal" id="5Rc" text-anchor="end">
<text cb-classname="GraphicTextEntity" class="signal" fill="black" font-style="normal" font-weight="normal" id="5Rs" text-anchor="end" text-decoration="normal" x="2795" y="1957"/>
</g>
</g>
<g cb-classname="ControlPin" cb-pin-name="cW-8tt-5h4" id="5Rz">
<line cb-classname="GraphicLineEntity" class="signalline" id="5R7" x1="2790" x2="2810" y1="2000" y2="2000"/>
<polygon cb-classname="GraphicPolygonEntity" class="signal" id="5RF" points="2810,2000 2799,1994 2799,2005"/>
<g cb-classname="DynamicText" cb-source="cz-b0s-pPnA" class="signal" id="5RM" text-anchor="end">
<text cb-classname="GraphicTextEntity" class="signal" fill="black" font-style="normal" font-weight="normal" id="5Rm" text-anchor="end" text-decoration="normal" x="2795" y="1997"/>
</g>
</g>
<g cb-classname="ControlPin" cb-pin-name="BQ-MYT-ah9" id="5Rl">
<line cb-classname="GraphicLineEntity" class="signalline" id="5Ht" x1="2770" x2="2810" y1="2040" y2="2040"/>
<polygon cb-classname="GraphicPolygonEntity" class="signal" id="5HU" points="2810,2040 2799,2034 2799,2045"/>
<g cb-classname="DynamicText" cb-source="cP-H5m-0C6h" class="signal" id="5Hc" text-anchor="end">
<text cb-classname="GraphicTextEntity" class="signal" fill="black" font-style="normal" font-weight="normal" id="5Hs" text-anchor="end" text-decoration="normal" x="2795" y="2037"/>
</g>
</g>
<g cb-classname="ControlPin" cb-pin-name="F1-EUP-iJR" id="5Hz">
<line cb-classname="GraphicLineEntity" class="signalline" id="5H7" x1="3560" x2="3600" y1="1300" y2="1300"/>
<g cb-classname="DynamicText" cb-source="MK-CDj-vVaA" class="signal" id="5HF" text-anchor="start">
<text cb-classname="GraphicTextEntity" class="signal" fill="black" font-style="normal" font-weight="normal" id="5HM" text-anchor="start" text-decoration="normal" x="3574" y="1297"/>
</g>
<g cb-classname="SignalSegment" id="5Hm">
<line cb-classname="GraphicLineEntity" class="signalline" id="5Hl" x1="3600" x2="4690" y1="1300" y2="1300"/>
<g cb-classname="SignalConnection" cb-graphic-line="$539$" cb-input-pin="$TE8$" id="59t"/>
</g>
</g>
<g cb-classname="ControlPin" cb-pin-name="V7-Vnl-P6Z" id="59U">
<line cb-classname="GraphicLineEntity" class="signalline" id="59c" x1="3560" x2="3590" y1="1570" y2="1570"/>
<g cb-classname="DynamicText" cb-source="03-9bI-mDPo" class="signal" id="59s" text-anchor="start">
<text cb-classname="GraphicTextEntity" class="signal" fill="black" font-style="normal" font-weight="normal" id="59z" text-anchor="start" text-decoration="normal" x="3574" y="1567"/>
</g>
<g cb-classname="SignalSegment" id="597">
<line cb-classname="GraphicLineEntity" class="signalline" id="59F" x1="3590" x2="4690" y1="1570" y2="1570"/>
<g cb-classname="SignalConnection" cb-graphic-line="$546$" cb-input-pin="$FHU$" id="59M"/>
</g>
</g>
<g cb-classname="ControlPin" cb-pin-name="k6-dX0-4Q" id="59m">
<line cb-classname="GraphicLineEntity" class="signalline" id="59l" x1="3560" x2="3580" y1="1890" y2="1890"/>
<g cb-classname="DynamicText" cb-source="cW-d0U-XMxi" class="signal" id="5zt" text-anchor="start">
<text cb-classname="GraphicTextEntity" class="signal" fill="black" font-style="normal" font-weight="normal" id="5zU" text-anchor="start" text-decoration="normal" x="3574" y="1887"/>
</g>
<g cb-classname="SignalSegment" id="5zc">
<line cb-classname="GraphicLineEntity" class="signalline" id="5zs" stroke="#1e12bf" stroke-dasharray="5,4" x1="3580" x2="4690" y1="1890" y2="1890"/>
<g cb-classname="SignalConnection" cb-graphic-line="$553$" cb-input-pin="$9nn$" id="5zz"/>
</g>
</g>
<g cb-classname="ControlPin" cb-pin-name="BQ-MYT-kO" id="5z7">
<line cb-classname="GraphicLineEntity" class="signalline" id="5zF" x1="3560" x2="3580" y1="1950" y2="1950"/>
<g cb-classname="DynamicText" cb-source="D2-giR-nmUB" class="signal" id="5zM" text-anchor="start">
<text cb-classname="GraphicTextEntity" class="signal" fill="black" font-style="normal" font-weight="normal" id="5zm" text-anchor="start" text-decoration="normal" x="3574" y="1947"/>
</g>
<g cb-classname="SignalSegment" id="5zl">
<line cb-classname="GraphicLineEntity" class="signalline" id="5lt" stroke="#1e12bf" stroke-dasharray="5,4" x1="3580" x2="4360" y1="1950" y2="1950"/>
<g cb-classname="SignalSegment" id="5lU">
<line cb-classname="GraphicLineEntity" class="signalline" id="5lc" stroke="#1e12bf" stroke-dasharray="5,4" x1="4360" x2="4360" y1="1950" y2="2160"/>
<g cb-classname="SignalSegment" id="5ls">
<line cb-classname="GraphicLineEntity" class="signalline" id="5lz" stroke="#1e12bf" stroke-dasharray="5,4" x1="4360" x2="4690" y1="2160" y2="2160"/>
<g cb-classname="SignalConnection" cb-graphic-line="$564$" cb-input-pin="$CpA$" id="5l7"/>
</g>
</g>
</g>
</g>
<g cb-classname="ControlPin" cb-pin-name="cz-G8Q-tHkZa" id="1lUc">
<line cb-classname="GraphicLineEntity" class="signalline" id="1lcI" x1="2790" x2="2810" y1="2330" y2="2330"/>
<polygon cb-classname="GraphicPolygonEntity" class="signal" id="1lcH" points="2810,2330 2799,2324 2799,2335"/>
<g cb-classname="DynamicText" cb-source="03-9bI-mDPo" class="signal" id="1lcB" text-anchor="end">
<text cb-classname="GraphicTextEntity" class="signal" fill="black" font-style="normal" font-weight="normal" id="1lcv" text-anchor="end" text-decoration="normal" transform="translate(2795,2327)rotate(360)"/>
</g>
</g>
<g cb-classname="ControlPin" cb-pin-name="cL-LIz-ctJcg" id="1lce">
<line cb-classname="GraphicLineEntity" class="signalline" id="1lcP" x1="2790" x2="2810" y1="2370" y2="2370"/>
<polygon cb-classname="GraphicPolygonEntity" class="signal" id="1lcO" points="2810,2370 2799,2364 2799,2375"/>
<g cb-classname="DynamicText" cb-source="MK-CDj-vVaA" class="signal" id="1lcd" text-anchor="end">
<text cb-classname="GraphicTextEntity" class="signal" fill="black" font-style="normal" font-weight="normal" id="1lcc" text-anchor="end" text-decoration="normal" transform="translate(2795,2367)rotate(360)"/>
</g>
</g>
<g cb-classname="ControlPin" cb-pin-name="cW-8tt-QMb" id="1w7I">
<line cb-classname="GraphicLineEntity" class="signalline" id="1w7H" x1="2780" x2="2810" y1="860" y2="860"/>
<polygon cb-classname="GraphicPolygonEntity" class="signal" id="1w7B" points="2810,860 2799,854 2799,865"/>
<g cb-classname="DynamicText" cb-source="cz-b0s-pPnA" class="signal" id="1w7v" text-anchor="end">
<text cb-classname="GraphicTextEntity" class="signal" fill="black" font-style="normal" font-weight="normal" id="1w7D" text-anchor="end" text-decoration="normal" x="2795" y="857"/>
</g>
</g>
</g>
<g cb-alg-w8="$452$cb-alg-sts$" cb-algorithm-id="00d" cb-classname="ExternalPointInterface" cb-function-name="OUTPUT" id="5kF">
<ellipse cb-classname="GraphicEllipseEntity" class="algorithm" cx="4770" cy="1300" id="5kM" rx="50" ry="50"/>
<rect cb-classname="GraphicRectangleEntity" class="algorithm" height="100" id="5km" width="40" x="4820" y="1250"/>
<line cb-classname="GraphicLineEntity" class="algorithm" id="5kl" x1="4820" x2="4860" y1="1300" y2="1300"/>
<g cb-classname="ControlPin" cb-pin-name="V7-Vnl-iR" id="5wt">
<line cb-classname="GraphicLineEntity" class="signalline" id="5wU" x1="4690" x2="4720" y1="1300" y2="1300"/>
<polygon cb-classname="GraphicPolygonEntity" class="signal" id="5wc" points="4720,1300 4709,1294 4709,1305"/>
<g cb-classname="DynamicText" cb-source="D2-giR-nmUB" class="signal" id="5ws" text-anchor="end">
<text cb-classname="GraphicTextEntity" class="signal" fill="black" font-style="normal" font-weight="normal" id="5wz" text-anchor="end" text-decoration="normal" x="4705" y="1297"/>
</g>
</g>
<g cb-classname="PointStatusIndicator" cb-indicator-type="highway" cb-source="cL-LIz-Dj" id="5w7" visibility="hidden">
<line cb-classname="GraphicLineEntity" class="algorithmline" id="5wF" x1="4720" x2="4770" y1="1300" y2="1250"/>
<line cb-classname="GraphicLineEntity" class="algorithmline" id="5wM" x1="4770" x2="4820" y1="1250" y2="1300"/>
<line cb-classname="GraphicLineEntity" class="algorithmline" id="5wm" x1="4820" x2="4770" y1="1300" y2="1350"/>
<line cb-classname="GraphicLineEntity" class="algorithmline" id="5wl" x1="4770" x2="4720" y1="1350" y2="1300"/>
</g>
<g cb-classname="PointStatusIndicator" cb-indicator-type="hardware" cb-source="jD-646-Dy" id="58t" visibility="hidden">
<line cb-classname="GraphicLineEntity" class="algorithmline" id="58U" x1="4820" x2="4720" y1="1250" y2="1250"/>
<line cb-classname="GraphicLineEntity" class="algorithmline" id="58c" x1="4720" x2="4720" y1="1250" y2="1350"/>
<line cb-classname="GraphicLineEntity" class="algorithmline" id="58s" x1="4720" x2="4820" y1="1350" y2="1350"/>
</g>
<g cb-classname="PointStatusIndicator" cb-indicator-type="alarm" cb-source="BQ-MYT-5m" id="58z" visibility="hidden">
<text cb-classname="GraphicTextEntity" class="algorithm" fill="#000000" font-family="Arial" font-size="20" id="587" x="4830" y="1335">
A
</text>
</g>
<g cb-classname="PointStatusIndicator" cb-indicator-type="ingraphic" cb-source="D2-ZqK-e0" id="58F" visibility="visible">
<text cb-classname="GraphicTextEntity" class="algorithm" fill="#000000" font-family="Arial" font-size="20" id="58M" x="4830" y="1285">
G
</text>
</g>
<g cb-classname="DynamicText" cb-labeled="false" cb-pin-name="IN" cb-source="cL-LIz-Dj" class="algorithm" id="58m" text-anchor="end">
<text baseline-shift="0%" cb-classname="GraphicTextEntity" class="algorithm" fill="black" font-family="arial" font-size="20" font-style="normal" font-weight="normal" id="58l" text-anchor="end" text-decoration="normal" x="4695" y="1275"/>
</g>
<g baseline-shift="-100%" cb-anchor-x="4695" cb-anchor-y="1310" cb-classname="PointReferences" cb-max-width="130" cb-originator="false" cb-source="k6-dX0-Cv" class="signal" id="6Ct" text-anchor="end">
<text baseline-shift="-100%" cb-classname="GraphicTextEntity" class="algorithm" id="6CU" text-anchor="end" x="4695" y="1310">
REF: Point not
</text>
<text baseline-shift="-100%" cb-classname="GraphicTextEntity" class="algorithm" id="28lv" text-anchor="end" x="4695" y="1335">
found in
</text>
<text baseline-shift="-100%" cb-classname="GraphicTextEntity" class="algorithm" id="28lD" text-anchor="end" x="4695" y="1360">
database
</text>
<text baseline-shift="-100%" cb-classname="GraphicTextEntity" class="algorithm" id="28le" text-anchor="end" x="4695" y="1385">
(01B0500D03-STS)
</text>
</g>
<g baseline-shift="-50%" cb-anchor-x="4875" cb-anchor-y="1315" cb-classname="PointDescription" cb-content="extended" cb-labeled="false" cb-max-width="240" cb-source="F3-raJ-fp" class="algorithm" id="6Cz" text-anchor="start">
<text baseline-shift="-50%" cb-classname="GraphicTextEntity" class="algorithm" id="6C7" text-anchor="start" x="4875" y="1303">
DESC: Point not found in
</text>
<text baseline-shift="-50%" cb-classname="GraphicTextEntity" class="algorithm" id="2ClD" text-anchor="start" x="4875" y="1328">
database (01B0500D03-STS)
</text>
</g>
</g>
<g cb-alg-0U="$452$cb-alg-alm$" cb-algorithm-id="00e" cb-classname="ExternalPointInterface" cb-function-name="OUTPUT" id="6CF">
<ellipse cb-classname="GraphicEllipseEntity" class="algorithm" cx="4770" cy="1570" id="6CM" rx="50" ry="50"/>
<rect cb-classname="GraphicRectangleEntity" class="algorithm" height="100" id="6Cm" width="40" x="4820" y="1520"/>
<line cb-classname="GraphicLineEntity" class="algorithm" id="6Cl" x1="4820" x2="4860" y1="1570" y2="1570"/>
<g cb-classname="ControlPin" cb-pin-name="cP-P6R-Nl" id="6St">
<line cb-classname="GraphicLineEntity" class="signalline" id="6SU" x1="4690" x2="4720" y1="1570" y2="1570"/>
<polygon cb-classname="GraphicPolygonEntity" class="signal" id="6Sc" points="4720,1570 4709,1564 4709,1575"/>
<g cb-classname="DynamicText" cb-source="k6-poK-UGrf" class="signal" id="6Ss" text-anchor="end">
<text cb-classname="GraphicTextEntity" class="signal" fill="black" font-style="normal" font-weight="normal" id="6Sz" text-anchor="end" text-decoration="normal" x="4705" y="1567"/>
</g>
</g>
<g cb-classname="PointStatusIndicator" cb-indicator-type="highway" cb-source="cW-8tt-0s" id="6S7" visibility="hidden">
<line cb-classname="GraphicLineEntity" class="algorithmline" id="6SF" x1="4720" x2="4770" y1="1570" y2="1520"/>
<line cb-classname="GraphicLineEntity" class="algorithmline" id="6SM" x1="4770" x2="4820" y1="1520" y2="1570"/>
<line cb-classname="GraphicLineEntity" class="algorithmline" id="6Sm" x1="4820" x2="4770" y1="1570" y2="1620"/>
<line cb-classname="GraphicLineEntity" class="algorithmline" id="6Sl" x1="4770" x2="4720" y1="1620" y2="1570"/>
</g>
<g cb-classname="PointStatusIndicator" cb-indicator-type="hardware" cb-source="BQ-MYT-5m" id="6Rt" visibility="hidden">
<line cb-classname="GraphicLineEntity" class="algorithmline" id="6RU" x1="4820" x2="4720" y1="1520" y2="1520"/>
<line cb-classname="GraphicLineEntity" class="algorithmline" id="6Rc" x1="4720" x2="4720" y1="1520" y2="1620"/>
<line cb-classname="GraphicLineEntity" class="algorithmline" id="6Rs" x1="4720" x2="4820" y1="1620" y2="1620"/>
</g>
<g cb-classname="PointStatusIndicator" cb-indicator-type="alarm" cb-source="cL-LIz-Dj" id="6Rz" visibility="hidden">
<text cb-classname="GraphicTextEntity" class="algorithm" fill="#000000" font-family="Arial" font-size="20" id="6R7" x="4830" y="1605">
A
</text>
</g>
<g cb-classname="PointStatusIndicator" cb-indicator-type="ingraphic" cb-source="k6-dX0-Cv" id="6RF" visibility="visible">
<text cb-classname="GraphicTextEntity" class="algorithm" fill="#000000" font-family="Arial" font-size="20" id="6RM" x="4830" y="1555">
G
</text>
</g>
<g cb-classname="DynamicText" cb-labeled="false" cb-pin-name="TF" cb-source="cW-8tt-0s" class="algorithm" id="6Rm" text-anchor="end">
<text baseline-shift="0%" cb-classname="GraphicTextEntity" class="algorithm" fill="black" font-family="arial" font-size="20" font-style="normal" font-weight="normal" id="6Rl" text-anchor="end" text-decoration="normal" x="4695" y="1545"/>
</g>
<g baseline-shift="-100%" cb-anchor-x="4695" cb-anchor-y="1580" cb-classname="PointReferences" cb-max-width="130" cb-originator="false" cb-source="F3-raJ-fp" class="signal" id="6Ht" text-anchor="end">
<text baseline-shift="-100%" cb-classname="GraphicTextEntity" class="algorithm" id="6HU" text-anchor="end" x="4695" y="1580">
REF: Point not
</text>
<text baseline-shift="-100%" cb-classname="GraphicTextEntity" class="algorithm" id="28lO" text-anchor="end" x="4695" y="1605">
found in
</text>
<text baseline-shift="-100%" cb-classname="GraphicTextEntity" class="algorithm" id="28ld" text-anchor="end" x="4695" y="1630">
database
</text>
<text baseline-shift="-100%" cb-classname="GraphicTextEntity" class="algorithm" id="28lc" text-anchor="end" x="4695" y="1655">
(01B0500D03-ALM)
</text>
</g>
<g baseline-shift="-50%" cb-anchor-x="4875" cb-anchor-y="1585" cb-classname="PointDescription" cb-content="extended" cb-labeled="false" cb-max-width="240" cb-source="03-jUU-fn" class="algorithm" id="6Hz" text-anchor="start">
<text baseline-shift="-50%" cb-classname="GraphicTextEntity" class="algorithm" id="6H7" text-anchor="start" x="4875" y="1573">
DESC: Point not found in
</text>
<text baseline-shift="-50%" cb-classname="GraphicTextEntity" class="algorithm" id="2Cle" text-anchor="start" x="4875" y="1598">
database (01B0500D03-ALM)
</text>
</g>
</g>
<g cb-alg-Dy="$452$cb-alg-lb$" cb-algorithm-id="00f" cb-classname="ExternalPointInterface" cb-function-name="OUTPUT" id="6HF">
<ellipse cb-classname="GraphicEllipseEntity" class="algorithm" cx="4770" cy="1890" id="6HM" rx="50" ry="50"/>
<rect cb-classname="GraphicRectangleEntity" class="algorithm" height="100" id="6Hm" width="40" x="4820" y="1840"/>
<line cb-classname="GraphicLineEntity" class="algorithm" id="6Hl" x1="4820" x2="4860" y1="1890" y2="1890"/>
<g cb-classname="ControlPin" cb-pin-name="MK-iqq-CX" id="69t">
<line cb-classname="GraphicLineEntity" class="signalline" id="69U" x1="4690" x2="4720" y1="1890" y2="1890"/>
<polygon cb-classname="GraphicPolygonEntity" class="signal" id="69c" points="4720,1890 4709,1884 4709,1895"/>
<g cb-classname="DynamicText" cb-source="F3-kCX-yZ1a" class="signal" id="69s" text-anchor="end">
<text cb-classname="GraphicTextEntity" class="signal" fill="black" font-style="normal" font-weight="normal" id="69z" text-anchor="end" text-decoration="normal" x="4705" y="1887"/>
</g>
</g>
<g cb-classname="PointStatusIndicator" cb-indicator-type="highway" cb-source="V7-Vnl-iR" id="697" visibility="hidden">
<line cb-classname="GraphicLineEntity" class="algorithmline" id="69F" x1="4720" x2="4770" y1="1890" y2="1840"/>
<line cb-classname="GraphicLineEntity" class="algorithmline" id="69M" x1="4770" x2="4820" y1="1840" y2="1890"/>
<line cb-classname="GraphicLineEntity" class="algorithmline" id="69m" x1="4820" x2="4770" y1="1890" y2="1940"/>
<line cb-classname="GraphicLineEntity" class="algorithmline" id="69l" x1="4770" x2="4720" y1="1940" y2="1890"/>
</g>
<g cb-classname="PointStatusIndicator" cb-indicator-type="hardware" cb-source="cL-LIz-Dj" id="6zt" visibility="hidden">
<line cb-classname="GraphicLineEntity" class="algorithmline" id="6zU" x1="4820" x2="4720" y1="1840" y2="1840"/>
<line cb-classname="GraphicLineEntity" class="algorithmline" id="6zc" x1="4720" x2="4720" y1="1840" y2="1940"/>
<line cb-classname="GraphicLineEntity" class="algorithmline" id="6zs" x1="4720" x2="4820" y1="1940" y2="1940"/>
</g>
<g cb-classname="PointStatusIndicator" cb-indicator-type="alarm" cb-source="cW-8tt-0s" id="6zz" visibility="hidden">
<text cb-classname="GraphicTextEntity" class="algorithm" fill="#000000" font-family="Arial" font-size="20" id="6z7" x="4830" y="1925">
A
</text>
</g>
<g cb-classname="PointStatusIndicator" cb-indicator-type="ingraphic" cb-source="F3-raJ-fp" id="6zF" visibility="hidden">
<text cb-classname="GraphicTextEntity" class="algorithm" fill="#000000" font-family="Arial" font-size="20" id="6zM" x="4830" y="1875">
G
</text>
</g>
<g cb-classname="DynamicText" cb-labeled="false" cb-pin-name="U5" cb-source="V7-Vnl-iR" class="algorithm" id="6zm" text-anchor="end">
<text baseline-shift="0%" cb-classname="GraphicTextEntity" class="algorithm" fill="black" font-family="arial" font-size="20" font-style="normal" font-weight="normal" id="6zl" text-anchor="end" text-decoration="normal" x="4695" y="1865"/>
</g>
<g baseline-shift="-100%" cb-anchor-x="4695" cb-anchor-y="1900" cb-classname="PointReferences" cb-max-width="130" cb-originator="false" cb-source="03-jUU-fn" class="signal" id="6lt" text-anchor="end">
<text baseline-shift="-100%" cb-classname="GraphicTextEntity" class="algorithm" id="6lU" text-anchor="end" x="4695" y="1900">
REF: Point not
</text>
<text baseline-shift="-100%" cb-classname="GraphicTextEntity" class="algorithm" id="3CtH" text-anchor="end" x="4695" y="1925">
found in
</text>
<text baseline-shift="-100%" cb-classname="GraphicTextEntity" class="algorithm" id="3CtB" text-anchor="end" x="4695" y="1950">
database
</text>
<text baseline-shift="-100%" cb-classname="GraphicTextEntity" class="algorithm" id="3Ctv" text-anchor="end" x="4695" y="1975">
(01B0500D03-LB)
</text>
</g>
<g baseline-shift="-50%" cb-anchor-x="4875" cb-anchor-y="1905" cb-classname="PointDescription" cb-content="extended" cb-labeled="false" cb-max-width="240" cb-source="cL-LIz-Dj" class="algorithm" id="6ls" text-anchor="start">
<text baseline-shift="-50%" cb-classname="GraphicTextEntity" class="algorithm" id="6lz" text-anchor="start" x="4875" y="1893">
DESC: Point not found in
</text>
<text baseline-shift="-50%" cb-classname="GraphicTextEntity" class="algorithm" id="1wzO" text-anchor="start" x="4875" y="1918">
database (01B0500D03-LB)
</text>
</g>
</g>
<g cb-alg-uq="$452$cb-alg-tr$" cb-algorithm-id="010" cb-classname="ExternalPointInterface" cb-function-name="OUTPUT" id="6l7">
<ellipse cb-classname="GraphicEllipseEntity" class="algorithm" cx="4770" cy="2160" id="6lF" rx="50" ry="50"/>
<rect cb-classname="GraphicRectangleEntity" class="algorithm" height="100" id="6lM" width="40" x="4820" y="2110"/>
<line cb-classname="GraphicLineEntity" class="algorithm" id="6lm" x1="4820" x2="4860" y1="2160" y2="2160"/>
<g cb-classname="ControlPin" cb-pin-name="F3-raJ-fp" id="6ll">
<line cb-classname="GraphicLineEntity" class="signalline" id="6kt" x1="4690" x2="4720" y1="2160" y2="2160"/>
<polygon cb-classname="GraphicPolygonEntity" class="signal" id="6kU" points="4720,2160 4709,2154 4709,2165"/>
<g cb-classname="DynamicText" cb-source="BQ-hfp-RTpV" class="signal" id="6kc" text-anchor="end">
<text cb-classname="GraphicTextEntity" class="signal" fill="black" font-style="normal" font-weight="normal" id="6ks" text-anchor="end" text-decoration="normal" x="4705" y="2157"/>
</g>
</g>
<g cb-classname="PointStatusIndicator" cb-indicator-type="highway" cb-source="D2-ZqK-e0" id="6kz" visibility="hidden">
<line cb-classname="GraphicLineEntity" class="algorithmline" id="6k7" x1="4720" x2="4770" y1="2160" y2="2110"/>
<line cb-classname="GraphicLineEntity" class="algorithmline" id="6kF" x1="4770" x2="4820" y1="2110" y2="2160"/>
<line cb-classname="GraphicLineEntity" class="algorithmline" id="6kM" x1="4820" x2="4770" y1="2160" y2="2210"/>
<line cb-classname="GraphicLineEntity" class="algorithmline" id="6km" x1="4770" x2="4720" y1="2210" y2="2160"/>
</g>
<g cb-classname="PointStatusIndicator" cb-indicator-type="hardware" cb-source="MK-iqq-CX" id="6kl" visibility="hidden">
<line cb-classname="GraphicLineEntity" class="algorithmline" id="6wt" x1="4820" x2="4720" y1="2110" y2="2110"/>
<line cb-classname="GraphicLineEntity" class="algorithmline" id="6wU" x1="4720" x2="4720" y1="2110" y2="2210"/>
<line cb-classname="GraphicLineEntity" class="algorithmline" id="6wc" x1="4720" x2="4820" y1="2210" y2="2210"/>
</g>
<g cb-classname="PointStatusIndicator" cb-indicator-type="alarm" cb-source="cz-G8Q-bI" id="6ws" visibility="visible">
<text cb-classname="GraphicTextEntity" class="algorithm" fill="#000000" font-family="Arial" font-size="20" id="6wz" x="4830" y="2195">
A
</text>
</g>
<g cb-classname="PointStatusIndicator" cb-indicator-type="ingraphic" cb-source="BQ-MYT-5m" id="6w7" visibility="hidden">
<text cb-classname="GraphicTextEntity" class="algorithm" fill="#000000" font-family="Arial" font-size="20" id="6wF" x="4830" y="2145">
G
</text>
</g>
<g cb-classname="DynamicText" cb-labeled="false" cb-pin-name="yL" cb-source="D2-ZqK-e0" class="algorithm" id="6wM" text-anchor="end">
<text baseline-shift="0%" cb-classname="GraphicTextEntity" class="algorithm" fill="black" font-family="arial" font-size="20" font-style="normal" font-weight="normal" id="6wm" text-anchor="end" text-decoration="normal" x="4695" y="2135"/>
</g>
<g baseline-shift="-100%" cb-anchor-x="4695" cb-anchor-y="2170" cb-classname="PointReferences" cb-max-width="130" cb-originator="false" cb-source="cL-LIz-Dj" class="signal" id="6wl" text-anchor="end">
<text baseline-shift="-100%" cb-classname="GraphicTextEntity" class="algorithm" id="68t" text-anchor="end" x="4695" y="2170">
REF: Point not
</text>
<text baseline-shift="-100%" cb-classname="GraphicTextEntity" class="algorithm" id="3Cte" text-anchor="end" x="4695" y="2195">
found in
</text>
<text baseline-shift="-100%" cb-classname="GraphicTextEntity" class="algorithm" id="3CtP" text-anchor="end" x="4695" y="2220">
database
</text>
<text baseline-shift="-100%" cb-classname="GraphicTextEntity" class="algorithm" id="3CtO" text-anchor="end" x="4695" y="2245">
(01B0500D03-TR)
</text>
</g>
<g baseline-shift="-50%" cb-anchor-x="4875" cb-anchor-y="2175" cb-classname="PointDescription" cb-content="extended" cb-labeled="false" cb-max-width="240" cb-source="MK-iqq-CX" class="algorithm" id="68c" text-anchor="start">
<text baseline-shift="-50%" cb-classname="GraphicTextEntity" class="algorithm" id="68s" text-anchor="start" x="4875" y="2163">
DESC: Point not found in
</text>
<text baseline-shift="-50%" cb-classname="GraphicTextEntity" class="algorithm" id="1wzd" text-anchor="start" x="4875" y="2188">
database (01B0500D03-TR)
</text>
</g>
</g>
</g>
<g cb-classname="IncludeDocument" cb-modify-time="09/25/2018 01:40:30" cb-objectname="Frame" id="5">
<text cb-classname="GraphicTextEntity" class="frame" font-size="50" id="3CFc" x="3660" y="3146">
Project Title &lt;Edit in FRAME.SVG&gt;
</text>
<g baseline-shift="-50%" cb-classname="DynamicText" cb-source="k6-omsG-CE" class="frame" id="3CMI">
<text cb-classname="GraphicTextEntity" class="frame" fill="black" font-family="arial" font-size="25" font-style="normal" font-weight="normal" id="3CMH" text-decoration="normal" x="4715" y="3325">
13
</text>
</g>
<g baseline-shift="-50%" cb-classname="DynamicText" cb-source="cW-7HKb-Dz" class="frame" id="3CMB" text-anchor="middle">
<text cb-classname="GraphicTextEntity" class="frame" fill="black" font-family="arial" font-size="48" font-style="normal" font-weight="normal" id="3CMv" text-anchor="middle" text-decoration="normal" x="4900" y="3320">
13
</text>
</g>
<g baseline-shift="-50%" cb-classname="DynamicText" cb-source="F3-JGtd-bG" class="frame" id="3CMD" text-anchor="middle">
<text cb-classname="GraphicTextEntity" class="frame" fill="black" font-family="arial" font-size="48" font-style="normal" font-weight="normal" id="3CMe" text-anchor="middle" text-decoration="normal" x="5067" y="3324">
4
</text>
</g>
<g cb-classname="DynamicText" cb-source="V7-tEAiJ-BerqB" class="frame" id="3CMP">
<text cb-classname="GraphicTextEntity" class="frame" fill="black" font-family="arial" font-size="48" font-style="normal" font-weight="normal" id="3CMO" text-decoration="normal" x="3660" y="3224">
ATOMIZING STM DSH DUMP VLV-B0500D03
</text>
</g>
<g baseline-shift="-50%" cb-classname="DynamicText" cb-source="03-Nj5aB-0T6SFv" class="frame" id="3CMd" text-anchor="middle">
<text cb-classname="GraphicTextEntity" class="frame" fill="black" font-family="arial" font-size="48" font-style="normal" font-weight="normal" id="3CMc" text-anchor="middle" text-decoration="normal" x="5270" y="3324">
172
</text>
</g>
<g baseline-shift="0%" cb-classname="DynamicText" cb-source="cP-9adefY0X" class="frame" id="3CmI" text-anchor="middle">
<text cb-classname="GraphicTextEntity" class="frame" fill="black" font-family="arial" font-size="36" font-style="normal" font-weight="normal" id="3CmH" text-anchor="middle" text-decoration="normal" x="5270" y="3150">
A
</text>
</g>
<g baseline-shift="0%" cb-classname="DynamicText" cb-source="F1-5rVDiC1X-Jb1a" class="frame" id="3CmB" text-anchor="middle">
<text cb-classname="GraphicTextEntity" class="frame" fill="black" font-family="arial" font-size="20" font-style="normal" font-weight="normal" id="3Cmv" text-anchor="middle" text-decoration="normal" x="5270" y="3230">
12/28/2010
</text>
</g>
<g baseline-shift="-50%" cb-classname="DynamicText" cb-source="MK-RKqCv5fi" class="frame" id="3CmD" text-anchor="end">
<text cb-classname="GraphicTextEntity" class="frame" fill="black" font-family="arial" font-size="26" font-style="normal" font-weight="normal" id="3Cme" text-anchor="end" text-decoration="normal" x="4500" y="3420">
Heczko
</text>
</g>
<g baseline-shift="-50%" cb-classname="DynamicText" cb-source="jD-HPw0fMi9" class="frame" id="3CmP" text-anchor="end">
<text cb-classname="GraphicTextEntity" class="frame" fill="black" font-family="arial" font-size="26" font-style="normal" font-weight="normal" id="3CmO" text-anchor="end" text-decoration="normal" x="5353" y="3420">
Nemec
</text>
</g>
<g cb-classname="GraphicShape" cb-tag="BORDER" id="3Cmd">
<line cb-classname="GraphicLineEntity" class="frameline" id="3Cmc" x1="40" x2="40" y1="40" y2="3460"/>
<line cb-classname="GraphicLineEntity" class="frameline" id="3ClI" x1="40" x2="5380" y1="3460" y2="3460"/>
<line cb-classname="GraphicLineEntity" class="frameline" id="3ClH" x1="5380" x2="5380" y1="3460" y2="40"/>
<line cb-classname="GraphicLineEntity" class="frameline" id="3ClB" x1="5380" x2="40" y1="40" y2="40"/>
<line cb-classname="GraphicLineEntity" class="frame" id="3Clv" x1="5430" x2="5440" y1="3510" y2="3510"/>
</g>
<g cb-classname="GraphicShape" cb-tag="TITLE BOX" id="3ClD">
<line cb-classname="GraphicLineEntity" class="frameline" id="3Cle" x1="2340" x2="2340" y1="3080" y2="3460"/>
<line cb-classname="GraphicLineEntity" class="frameline" id="3ClP" x1="2340" x2="5380" y1="3080" y2="3080"/>
<line cb-classname="GraphicLineEntity" class="frameline" id="3ClO" x1="3650" x2="3650" y1="3460" y2="3080"/>
<line cb-classname="GraphicLineEntity" class="frameline" id="3Cld" x1="3650" x2="5380" y1="3240" y2="3240"/>
<line cb-classname="GraphicLineEntity" class="frameline" id="3Clc" x1="3650" x2="5380" y1="3390" y2="3390"/>
<line cb-classname="GraphicLineEntity" class="frameline" id="3StI" x1="3650" x2="5380" y1="3160" y2="3160"/>
<line cb-classname="GraphicLineEntity" class="frameline" id="3StH" x1="3650" x2="4520" y1="3320" y2="3320"/>
<line cb-classname="GraphicLineEntity" class="frameline" id="3StB" x1="4520" x2="5380" y1="3290" y2="3290"/>
<line cb-classname="GraphicLineEntity" class="frameline" id="3Stv" x1="4520" x2="5380" y1="3240" y2="3240"/>
<line cb-classname="GraphicLineEntity" class="frameline" id="3StD" x1="4520" x2="4520" y1="3240" y2="3460"/>
<line cb-classname="GraphicLineEntity" class="frameline" id="3Ste" x1="4810" x2="4810" y1="3240" y2="3390"/>
<line cb-classname="GraphicLineEntity" class="frameline" id="3StP" x1="4990" x2="4990" y1="3240" y2="3390"/>
<line cb-classname="GraphicLineEntity" class="frameline" id="3StO" x1="5150" x2="5150" y1="3080" y2="3390"/>
</g>
<g cb-classname="GraphicShape" cb-tag="TEXT LABELS" id="3Std">
<text baseline-shift="-50%" cb-classname="GraphicTextEntity" class="frame" font-size="25" id="3Stc" text-anchor="middle" x="4890" y="3252">
Drop
</text>
<text baseline-shift="-50%" cb-classname="GraphicTextEntity" class="frame" font-size="25" id="3SUI" text-anchor="middle" x="5075" y="3252">
Task
</text>
<text baseline-shift="-50%" cb-classname="GraphicTextEntity" class="frame" font-size="25" id="3SUH" text-anchor="middle" x="5265" y="3252">
Sheet
</text>
<text cb-classname="GraphicTextEntity" class="frame" font-size="25" id="3SUB" x="5152" y="3107">
Rev.
</text>
<text cb-classname="GraphicTextEntity" class="frame" font-size="25" id="3SUv" x="3653" y="3418">
Engineer
</text>
<text cb-classname="GraphicTextEntity" class="frame" font-size="25" id="3SUD" x="4528" y="3419">
Approved
</text>
<text cb-classname="GraphicTextEntity" class="frame" font-size="25" id="3SUe" x="5152" y="3187">
Date
</text>
<text baseline-shift="-50%" cb-classname="GraphicTextEntity" class="frame" font-size="25" id="3SUP" text-anchor="middle" x="4660" y="3252">
Drawing Number
</text>
<text baseline-shift="-50%" cb-classname="GraphicTextEntity" class="frame" font-size="25" id="3SUO" text-anchor="middle" x="4680" y="3325">
CTL
</text>
</g>
<text baseline-shift="-50%" cb-classname="GraphicTextEntity" class="frame" font-size="48" id="3SUd" text-anchor="middle" x="3000" y="3100">
EMERSON PROCESS MANAGEMENT
</text>
<g baseline-shift="-100%" cb-anchor-x="2360" cb-anchor-y="3140" cb-classname="GroupText" cb-max-width="1260" fill="black" id="3SUc">
<text baseline-shift="-100%" cb-classname="GraphicTextEntity" class="frame" fill="black" font-family="arial" font-size="22" font-weight="normal" id="3ScI" text-anchor="start" text-decoration="normal" x="2360" y="3140">
THIS DOCUMENT CONTAINS INFORMATION PROPRIETARY TO EMERSON PROCESS
</text>
<text baseline-shift="-100%" cb-classname="GraphicTextEntity" class="frame" fill="black" font-family="arial" font-size="22" font-weight="normal" id="3ScH" text-anchor="start" text-decoration="normal" x="2360" y="3176">
MANAGEMENT POWER &amp; WATER SOLUTIONS, INC. IT IS SUBMITTED IN CONFIDENCE AND
</text>
<text baseline-shift="-100%" cb-classname="GraphicTextEntity" class="frame" fill="black" font-family="arial" font-size="22" font-weight="normal" id="3ScB" text-anchor="start" text-decoration="normal" x="2360" y="3212">
TRUST, IS TO BE USED BY YOU SOLELY FOR THE PURPOSES FOR WHICH IT IS
</text>
<text baseline-shift="-100%" cb-classname="GraphicTextEntity" class="frame" fill="black" font-family="arial" font-size="22" font-weight="normal" id="3Scv" text-anchor="start" text-decoration="normal" x="2360" y="3248">
FURNISHED AND IS TO BE RETURNED UPON REQUEST. THIS DOCUMENT AND ANY
</text>
<text baseline-shift="-100%" cb-classname="GraphicTextEntity" class="frame" fill="black" font-family="arial" font-size="22" font-weight="normal" id="3ScD" text-anchor="start" text-decoration="normal" x="2360" y="3284">
OTHER INFORMATION PROVIDED TO YOU IS NOT TO BE REPRODUCED, TRANSMITTED,
</text>
<text baseline-shift="-100%" cb-classname="GraphicTextEntity" class="frame" fill="black" font-family="arial" font-size="22" font-weight="normal" id="3Sce" text-anchor="start" text-decoration="normal" x="2360" y="3320">
DISCLOSED, OR USED OTHERWISE IN WHOLE OR IN PART WITHOUT THE PRIOR
</text>
<text baseline-shift="-100%" cb-classname="GraphicTextEntity" class="frame" fill="black" font-family="arial" font-size="22" font-weight="normal" id="3ScP" text-anchor="start" text-decoration="normal" x="2360" y="3356">
WRITTEN AUTHORIZATION OF EMERSON PROCESS MANAGEMENT POWER &amp; WATER
</text>
<text baseline-shift="-100%" cb-classname="GraphicTextEntity" class="frame" fill="black" font-family="arial" font-size="22" font-weight="normal" id="3ScO" text-anchor="start" text-decoration="normal" x="2360" y="3392">
SOLUTIONS,INC.
</text>
</g>
</g>
</svg>