<?xml version="1.0" ?><svg cb-auto-time="04/06/2008 03:42:02" cb-classname="ControlFunction" cb-create-time="03/12/2008" cb-drop-id="13" cb-engineer="Heczko" cb-filename="Z:\OVATION\NET0\UNIT0\CONTROLFUNCTIONS\01C3.svg" cb-function-id="01C3" cb-key="525511234244" cb-modified-timestamp="1489320087" cb-modify-id="00000002" cb-ortho-mode="enabled" cb-path="Z:/OVATION/NET0/UNIT0/CONTROLFUNCTIONS" cb-reviewer="Nemec" cb-revision="A" cb-revision-time="12/28/2010" cb-sheet-number="137" cb-sheet-title="BFPT HP STEM LEAK DRN VLV - B0201D17" cb-snap-grid="10" cb-task-id="4" height="3707" id="1" width="5450" xmlns="http://www.w3.org/2000/svg">
<style cb-classname="EntityStyle" id="2" type="text/css">
	.algorithm { fill: white; stroke: black; stroke-linecap: round; stroke-width: 2 }
	.algorithm-function { fill: none; stroke: black; stroke-linecap: round; stroke-width: 2 }
	.algorithm-functionline { fill: none; stroke: black; stroke-linecap: round; stroke-width: 2 }
	.algorithm-name { fill: none; stroke: black; stroke-linecap: round; stroke-width: 2 }
	.algorithm-nameline { fill: none; stroke: black; stroke-linecap: round; stroke-width: 2 }
	.algorithm-sequence { fill: none; stroke: black; stroke-linecap: round; stroke-width: 2 }
	.algorithm-sequenceline { fill: none; stroke: black; stroke-linecap: round; stroke-width: 2 }
	.algorithmline { fill: none; stroke: black; stroke-linecap: round; stroke-width: 2 }
	.annotation { fill: none; stroke: black; stroke-linecap: round; stroke-width: 2 }
	.annotationline { fill: none; stroke: black; stroke-linecap: round; stroke-width: 2 }
	.frame { fill: none; stroke: black; stroke-linecap: round; stroke-width: 2 }
	.frameline { fill: none; stroke: black; stroke-linecap: round; stroke-width: 2 }
	.signal { fill: black; stroke: black; stroke-linecap: round; stroke-width: 2 }
	.signalline { fill: none; stroke: black; stroke-linecap: round; stroke-width: 2 }
	text.algorithm { fill: black; font-family: MS Shell Dlg 2; font-size: 14; stroke: none }
	text.algorithm-function { fill: black; font-family: MS Shell Dlg 2; font-size: 16; stroke: none }
	text.algorithm-name { fill: black; font-family: MS Shell Dlg 2; font-size: 16; stroke: none }
	text.algorithm-sequence { fill: black; font-family: MS Shell Dlg 2; font-size: 16; stroke: none }
	text.annotation { fill: black; font-family: MS Shell Dlg 2; font-size: 16; stroke: none }
	text.frame { fill: black; font-family: MS Shell Dlg 2; font-size: 16; stroke: none }
	text.signal { fill: black; font-family: MS Shell Dlg 2; font-size: 12; stroke: none }
</style>
<g cb-classname="NamedObject" cb-objectname="Comments" id="3">
<text cb-classname="GraphicTextEntity" class="annotation" fill="#000000" font-family="MS Shell Dlg 2" font-size="72" id="7rO" x="2760" y="1450">
PCMS1
</text>
</g>
<g cb-classname="AlgorithmContainer" cb-objectname="Algorithms" id="4">
<g cb-alg-aAb="01B0201D17-KB" cb-alg-deks="128" cb-alg-lzss="5" cb-algorithm-id="002" cb-classname="ControlAlgorithm" cb-function-name="KEYBOARD" cb-modify-id="00000001" id="6m">
<rect cb-classname="GraphicRectangleEntity" class="annotation" height="200" id="6w" stroke-width="1" width="140" x="1440" y="500"/>
<g cb-classname="ControlPin" cb-pin-name="NA-mbp-s6jr" id="6C">
<line cb-classname="GraphicLineEntity" class="signalline" id="6Q" x1="1580" x2="1590" y1="510" y2="510"/>
<g cb-classname="DynamicText" cb-source="zD-luk-Bdah" class="signal" id="6N" text-anchor="start">
<text cb-classname="GraphicTextEntity" class="signal" fill="black" font-style="normal" font-weight="normal" id="7H" text-anchor="start" text-decoration="normal" x="1594" y="507"/>
</g>
<g cb-classname="SignalSegment" id="7B">
<line cb-classname="GraphicLineEntity" class="signalline" id="75" stroke="#1e12bf" stroke-dasharray="5,4" x1="1590" x2="2360" y1="510" y2="510"/>
<g cb-classname="SignalSegment" id="7r">
<line cb-classname="GraphicLineEntity" class="signalline" id="7d" stroke="#1e12bf" stroke-dasharray="5,4" x1="2360" x2="2360" y1="510" y2="580"/>
<g cb-classname="SignalSegment" id="7m">
<line cb-classname="GraphicLineEntity" class="signalline" id="7w" stroke="#1e12bf" stroke-dasharray="5,4" x1="2360" x2="2530" y1="580" y2="580"/>
<g cb-classname="SignalConnection" cb-graphic-line="$76$" cb-input-pin="$Kmo$" id="7C"/>
</g>
</g>
</g>
</g>
<g cb-classname="ControlPin" cb-pin-name="cJ-t15-oCsI" id="7Q">
<line cb-classname="GraphicLineEntity" class="signalline" id="7N" x1="1580" x2="1590" y1="530" y2="530"/>
<g cb-classname="DynamicText" cb-source="NA-MKx-keQ0" class="signal" id="8H" text-anchor="start">
<text cb-classname="GraphicTextEntity" class="signal" fill="black" font-style="normal" font-weight="normal" id="8B" text-anchor="start" text-decoration="normal" x="1594" y="527"/>
</g>
<g cb-classname="SignalSegment" id="85">
<line cb-classname="GraphicLineEntity" class="signalline" id="8r" stroke="#1e12bf" stroke-dasharray="5,4" x1="1590" x2="2340" y1="530" y2="530"/>
<g cb-classname="SignalSegment" id="8d">
<line cb-classname="GraphicLineEntity" class="signalline" id="8m" stroke="#1e12bf" stroke-dasharray="5,4" x1="2340" x2="2340" y1="530" y2="620"/>
<g cb-classname="SignalSegment" id="8w">
<line cb-classname="GraphicLineEntity" class="signalline" id="8C" stroke="#1e12bf" stroke-dasharray="5,4" x1="2340" x2="2530" y1="620" y2="620"/>
<g cb-classname="SignalConnection" cb-graphic-line="$87$" cb-input-pin="$t6F$" id="8Q"/>
</g>
</g>
</g>
</g>
<g cb-classname="ControlPin" cb-pin-name="4g-wO9-8ocW" id="8N">
<line cb-classname="GraphicLineEntity" class="signalline" id="9H" x1="1580" x2="1590" y1="550" y2="550"/>
<g cb-classname="DynamicText" cb-source="cJ-gsY-x1rk" class="signal" id="9B" text-anchor="start">
<text cb-classname="GraphicTextEntity" class="signal" fill="black" font-style="normal" font-weight="normal" id="95" text-anchor="start" text-decoration="normal" x="1594" y="547"/>
</g>
</g>
<g cb-classname="ControlPin" cb-pin-name="Zt-dcg-4Sn" id="1HO">
<line cb-classname="GraphicLineEntity" class="signalline" id="1H4" x1="1580" x2="1590" y1="570" y2="570"/>
<g cb-classname="DynamicText" cb-source="4g-3gT-nyFc" class="signal" id="1HC" text-anchor="start">
<text cb-classname="GraphicTextEntity" class="signal" fill="black" font-style="normal" font-weight="normal" id="1Hn" text-anchor="start" text-decoration="normal" x="1594" y="567"/>
</g>
</g>
<g cb-classname="ControlPin" cb-pin-name="o0-en9-3qV" id="1B4">
<line cb-classname="GraphicLineEntity" class="signalline" id="1BC" x1="1580" x2="1590" y1="600" y2="600"/>
<g cb-classname="DynamicText" cb-source="Zt-70W-TSoc" class="signal" id="1Bn" text-anchor="start">
<text cb-classname="GraphicTextEntity" class="signal" fill="black" font-style="normal" font-weight="normal" id="1BV" text-anchor="start" text-decoration="normal" x="1594" y="597"/>
</g>
<g cb-classname="SignalSegment" id="1Bl">
<line cb-classname="GraphicLineEntity" class="signalline" id="1Bu" stroke="#1e12bf" stroke-dasharray="5,4" x1="1590" x2="2240" y1="600" y2="600"/>
<g cb-classname="SignalSegment" id="1BK">
<line cb-classname="GraphicLineEntity" class="signalline" id="1BF" stroke="#1e12bf" stroke-dasharray="5,4" x1="2240" x2="2240" y1="600" y2="740"/>
<g cb-classname="SignalSegment" id="1Bh">
<line cb-classname="GraphicLineEntity" class="signalline" id="15O" stroke="#1e12bf" stroke-dasharray="5,4" x1="2240" x2="2530" y1="740" y2="740"/>
<g cb-classname="SignalConnection" cb-graphic-line="$120$" cb-input-pin="$vyP$" id="154"/>
</g>
</g>
</g>
</g>
<g cb-classname="ControlPin" cb-pin-name="Wp-1IZ-7MP" id="15C">
<line cb-classname="GraphicLineEntity" class="signalline" id="15n" x1="1580" x2="1590" y1="620" y2="620"/>
<g cb-classname="DynamicText" cb-source="o0-62r-Wn4m" class="signal" id="15V" text-anchor="start">
<text cb-classname="GraphicTextEntity" class="signal" fill="black" font-style="normal" font-weight="normal" id="15l" text-anchor="start" text-decoration="normal" x="1594" y="617"/>
</g>
<g cb-classname="SignalSegment" id="15u">
<line cb-classname="GraphicLineEntity" class="signalline" id="15K" stroke="#1e12bf" stroke-dasharray="5,4" x1="1590" x2="2200" y1="620" y2="620"/>
<g cb-classname="SignalSegment" id="15F">
<line cb-classname="GraphicLineEntity" class="signalline" id="15h" stroke="#1e12bf" stroke-dasharray="5,4" x1="2200" x2="2200" y1="620" y2="780"/>
<g cb-classname="SignalSegment" id="1rO">
<line cb-classname="GraphicLineEntity" class="signalline" id="1r4" stroke="#1e12bf" stroke-dasharray="5,4" x1="2200" x2="2530" y1="780" y2="780"/>
<g cb-classname="SignalConnection" cb-graphic-line="$131$" cb-input-pin="$J0i$" id="1rC"/>
</g>
</g>
</g>
</g>
<g cb-classname="ControlPin" cb-pin-name="ij-4wo-6xz" id="1rn">
<line cb-classname="GraphicLineEntity" class="signalline" id="1rV" x1="1580" x2="1590" y1="640" y2="640"/>
<g cb-classname="DynamicText" cb-source="Wp-nBN-rUkr" class="signal" id="1rl" text-anchor="start">
<text cb-classname="GraphicTextEntity" class="signal" fill="black" font-style="normal" font-weight="normal" id="1ru" text-anchor="start" text-decoration="normal" x="1594" y="637"/>
</g>
</g>
<g cb-classname="ControlPin" cb-pin-name="o0-en9-3qD" id="1rK">
<line cb-classname="GraphicLineEntity" class="signalline" id="1rF" x1="1580" x2="1590" y1="660" y2="660"/>
<g cb-classname="DynamicText" cb-source="Zt-70W-TSoc" class="signal" id="1rh" text-anchor="start">
<text cb-classname="GraphicTextEntity" class="signal" fill="black" font-style="normal" font-weight="normal" id="1dO" text-anchor="start" text-decoration="normal" x="1594" y="657"/>
</g>
</g>
<text cb-classname="GraphicTextEntity" class="annotation" fill="#000000" font-family="MS Shell Dlg 2" font-size="8" id="1d4" x="1480" y="590">
KEYBOARD
</text>
<g cb-classname="DynamicText" cb-labeled="false" cb-source="zD-LCl-J55" class="algorithm" id="15CO" text-anchor="start">
<text cb-classname="GraphicTextEntity" class="algorithm" fill="black" font-style="normal" font-weight="normal" id="15Cc" text-anchor="start" text-decoration="normal" x="1440" y="480"/>
</g>
<g cb-classname="ControlPin" cb-pin-name="H1-nCL-5T6" id="1QnK">
<line cb-classname="GraphicLineEntity" class="signalline" id="1QnU" x1="1580" x2="1590" y1="680" y2="680"/>
<g cb-classname="DynamicText" cb-source="76-yst-SzGj" class="signal" id="1QnJ" text-anchor="start">
<text cb-classname="GraphicTextEntity" class="signal" fill="black" font-style="normal" font-weight="normal" id="1Qne" text-anchor="start" text-decoration="normal" x="1594" y="677"/>
</g>
<g cb-classname="SignalSegment" id="1QnO">
<line cb-classname="GraphicLineEntity" class="signalline" id="1Qnc" stroke="#1e12bf" stroke-dasharray="5,4" x1="1590" x2="2160" y1="680" y2="680"/>
<g cb-classname="SignalSegment" id="1QnT">
<line cb-classname="GraphicLineEntity" class="signalline" id="1QnH" stroke="#1e12bf" stroke-dasharray="5,4" x1="2160" x2="2160" y1="680" y2="820"/>
<g cb-classname="SignalSegment" id="1QVo">
<line cb-classname="GraphicLineEntity" class="signalline" id="1QVM" stroke="#1e12bf" stroke-dasharray="5,4" x1="2160" x2="2530" y1="820" y2="820"/>
<g cb-classname="SignalConnection" cb-graphic-line="$1841$" cb-input-pin="$aiNR$" id="1QVK"/>
</g>
</g>
</g>
</g>
</g>
<g cb-alg-sBY="01BFPT-TRIP" cb-alg-sb0W="NO" cb-algorithm-id="003" cb-classname="ExternalPointInterface" cb-function-name="INPUT" id="1dC">
<ellipse cb-classname="GraphicEllipseEntity" class="algorithm" cx="660" cy="910" id="1dn" rx="50" ry="50"/>
<rect cb-classname="GraphicRectangleEntity" class="algorithm" height="100" id="1dV" width="40" x="570" y="860"/>
<line cb-classname="GraphicLineEntity" class="algorithm" id="1dl" x1="570" x2="610" y1="910" y2="910"/>
<g cb-classname="ControlPin" cb-pin-name="ij-4wo-Ten" id="1du">
<line cb-classname="GraphicLineEntity" class="signalline" id="1dK" x1="710" x2="740" y1="910" y2="910"/>
<g cb-classname="DynamicText" cb-source="Wp-nBN-rUkr" class="signal" id="1dF" text-anchor="start">
<text cb-classname="GraphicTextEntity" class="signal" fill="black" font-style="normal" font-weight="normal" id="1dh" text-anchor="start" text-decoration="normal" x="724" y="907"/>
</g>
<g cb-classname="SignalSegment" id="1mO">
<line cb-classname="GraphicLineEntity" class="signalline" id="1m4" stroke="#1e12bf" stroke-dasharray="5,4" x1="740" x2="2090" y1="910" y2="910"/>
<g cb-classname="SignalSegment" id="1mC">
<line cb-classname="GraphicLineEntity" class="signalline" id="1mn" stroke="#1e12bf" stroke-dasharray="5,4" x1="2090" x2="2090" y1="910" y2="1120"/>
<g cb-classname="SignalSegment" id="1mV">
<line cb-classname="GraphicLineEntity" class="signalline" id="1ml" stroke="#1e12bf" stroke-dasharray="5,4" x1="2090" x2="2530" y1="1120" y2="1120"/>
<g cb-classname="SignalConnection" cb-graphic-line="$155$" cb-input-pin="$d4O$" id="1mu"/>
</g>
</g>
</g>
</g>
<g cb-classname="PointStatusIndicator" cb-indicator-type="Highway" cb-source="76-lqD-N1u" id="1mK" visibility="hidden">
<line cb-classname="GraphicLineEntity" class="algorithmline" id="1mF" x1="610" x2="660" y1="910" y2="860"/>
<line cb-classname="GraphicLineEntity" class="algorithmline" id="1mh" x1="660" x2="710" y1="860" y2="910"/>
<line cb-classname="GraphicLineEntity" class="algorithmline" id="1wO" x1="710" x2="660" y1="910" y2="960"/>
<line cb-classname="GraphicLineEntity" class="algorithmline" id="1w4" x1="660" x2="610" y1="960" y2="910"/>
</g>
<g cb-classname="PointStatusIndicator" cb-indicator-type="hardware" cb-source="EU-zj3-ez3" id="1wC" visibility="hidden">
<line cb-classname="GraphicLineEntity" class="algorithmline" id="1wn" x1="610" x2="710" y1="860" y2="860"/>
<line cb-classname="GraphicLineEntity" class="algorithmline" id="1wV" x1="710" x2="710" y1="860" y2="960"/>
<line cb-classname="GraphicLineEntity" class="algorithmline" id="1wl" x1="710" x2="610" y1="960" y2="960"/>
</g>
<g cb-classname="PointStatusIndicator" cb-indicator-type="alarm" cb-source="98-UiW-3L6" id="1wu" visibility="visible">
<text cb-classname="GraphicTextEntity" class="algorithm" fill="#000000" font-family="arial" font-size="20" id="1wK" x="580" y="895">
A
</text>
</g>
<g cb-classname="PointStatusIndicator" cb-indicator-type="ingraphic" cb-source="H1-nCL-tNk" id="1wF" visibility="visible">
<text cb-classname="GraphicTextEntity" class="algorithm" fill="#000000" font-family="Arial" font-size="20" id="1wh" x="580" y="945">
G
</text>
</g>
<g baseline-shift="-50%" cb-anchor-x="560" cb-anchor-y="924" cb-classname="PointDescription" cb-content="extended" cb-labeled="false" cb-max-width="220" cb-source="76-lqD-N1u" class="algorithm" id="1CO" text-anchor="end">
<text baseline-shift="-50%" cb-classname="GraphicTextEntity" class="algorithm" id="1C4" text-anchor="end" x="560" y="912">
DESC: Point not found in
</text>
<text baseline-shift="-50%" cb-classname="GraphicTextEntity" class="algorithm" id="2dVO" text-anchor="end" x="560" y="937">
database (01BFPT-TRIP)
</text>
</g>
<g cb-classname="DynamicText" cb-labeled="false" cb-pin-name="R7y" cb-source="ij-4wo-Ten" class="algorithm" id="1CC" text-anchor="start">
<text baseline-shift="0%" cb-classname="GraphicTextEntity" class="algorithm" fill="black" font-family="arial" font-size="20" font-style="normal" font-weight="normal" id="1Cn" text-anchor="start" text-decoration="normal" x="730" y="880"/>
</g>
<g baseline-shift="-100%" cb-anchor-x="730" cb-anchor-y="920" cb-classname="PointReferences" cb-max-width="230" cb-originator="true" cb-source="Wp-1IZ-sBY" class="signal" id="1CV" text-anchor="start">
<text baseline-shift="-100%" cb-classname="GraphicTextEntity" class="algorithm" id="1Cl" text-anchor="start" x="730" y="920">
REF: Point not found in
</text>
<text baseline-shift="-100%" cb-classname="GraphicTextEntity" class="algorithm" id="2Nno" text-anchor="start" x="730" y="945">
database (01BFPT-TRIP)
</text>
</g>
</g>
<g cb-alg-N1u="01BFPTSPEED-L01" cb-alg-Nhr3="NO" cb-algorithm-id="005" cb-classname="ExternalPointInterface" cb-function-name="INPUT" id="1NO">
<ellipse cb-classname="GraphicEllipseEntity" class="algorithm" cx="660" cy="1230" id="1N4" rx="50" ry="50"/>
<rect cb-classname="GraphicRectangleEntity" class="algorithm" height="100" id="1NC" width="40" x="570" y="1180"/>
<line cb-classname="GraphicLineEntity" class="algorithm" id="1Nn" x1="570" x2="610" y1="1230" y2="1230"/>
<g cb-classname="ControlPin" cb-pin-name="H1-nCL-tNk" id="1NV">
<line cb-classname="GraphicLineEntity" class="signalline" id="1Nl" x1="710" x2="740" y1="1230" y2="1230"/>
<g cb-classname="DynamicText" cb-source="76-yst-SzGj" class="signal" id="1Nu" text-anchor="start">
<text cb-classname="GraphicTextEntity" class="signal" fill="black" font-style="normal" font-weight="normal" id="1NK" text-anchor="start" text-decoration="normal" x="724" y="1227"/>
</g>
<g cb-classname="SignalSegment" id="6wK">
<line cb-classname="GraphicLineEntity" class="signalline" id="6wF" stroke="#1e12bf" stroke-dasharray="5,4" x1="740" x2="1160" y1="1230" y2="1230"/>
<g cb-classname="SignalConnection" cb-graphic-line="$668$" cb-input-pin="$P49$" id="6wh"/>
</g>
</g>
<g cb-classname="PointStatusIndicator" cb-indicator-type="Highway" cb-source="EU-zj3-ez3" id="2H4" visibility="hidden">
<line cb-classname="GraphicLineEntity" class="algorithmline" id="2HC" x1="610" x2="660" y1="1230" y2="1180"/>
<line cb-classname="GraphicLineEntity" class="algorithmline" id="2Hn" x1="660" x2="710" y1="1180" y2="1230"/>
<line cb-classname="GraphicLineEntity" class="algorithmline" id="2HV" x1="710" x2="660" y1="1230" y2="1280"/>
<line cb-classname="GraphicLineEntity" class="algorithmline" id="2Hl" x1="660" x2="610" y1="1280" y2="1230"/>
</g>
<g cb-classname="PointStatusIndicator" cb-indicator-type="hardware" cb-source="4g-wO9-Ooc" id="2Hu" visibility="hidden">
<line cb-classname="GraphicLineEntity" class="algorithmline" id="2HK" x1="610" x2="710" y1="1180" y2="1180"/>
<line cb-classname="GraphicLineEntity" class="algorithmline" id="2HF" x1="710" x2="710" y1="1180" y2="1280"/>
<line cb-classname="GraphicLineEntity" class="algorithmline" id="2Hh" x1="710" x2="610" y1="1280" y2="1280"/>
</g>
<g cb-classname="PointStatusIndicator" cb-indicator-type="alarm" cb-source="NA-mbp-szN" id="2BO" visibility="hidden">
<text cb-classname="GraphicTextEntity" class="algorithm" fill="#000000" font-family="arial" font-size="20" id="2B4" x="580" y="1215">
A
</text>
</g>
<g cb-classname="PointStatusIndicator" cb-indicator-type="ingraphic" cb-source="zD-LCl-L4r" id="2BC" visibility="visible">
<text cb-classname="GraphicTextEntity" class="algorithm" fill="#000000" font-family="Arial" font-size="20" id="2Bn" x="580" y="1265">
G
</text>
</g>
<g baseline-shift="-50%" cb-anchor-x="560" cb-anchor-y="1244" cb-classname="PointDescription" cb-content="extended" cb-labeled="false" cb-max-width="220" cb-source="EU-zj3-ez3" class="algorithm" id="2BV" text-anchor="end">
<text baseline-shift="-50%" cb-classname="GraphicTextEntity" class="algorithm" id="2Bl" text-anchor="end" x="560" y="1219">
DESC: Point not found in
</text>
<text baseline-shift="-50%" cb-classname="GraphicTextEntity" class="algorithm" id="2NnK" text-anchor="end" x="560" y="1244">
database
</text>
<text baseline-shift="-50%" cb-classname="GraphicTextEntity" class="algorithm" id="2NnU" text-anchor="end" x="560" y="1269">
(01BFPTSPEED-L01)
</text>
</g>
<g cb-classname="DynamicText" cb-labeled="false" cb-pin-name="cNX" cb-source="tD-J55-GcY" class="algorithm" id="2Bu" text-anchor="start">
<text baseline-shift="0%" cb-classname="GraphicTextEntity" class="algorithm" fill="black" font-family="arial" font-size="20" font-style="normal" font-weight="normal" id="2BK" text-anchor="start" text-decoration="normal" x="730" y="1200"/>
</g>
<g baseline-shift="-100%" cb-anchor-x="730" cb-anchor-y="1240" cb-classname="PointReferences" cb-max-width="230" cb-originator="true" cb-source="98-UiW-3L6" class="signal" id="2BF" text-anchor="start">
<text baseline-shift="-100%" cb-classname="GraphicTextEntity" class="algorithm" id="2Bh" text-anchor="start" x="730" y="1240">
REF: Point not found in
</text>
<text baseline-shift="-100%" cb-classname="GraphicTextEntity" class="algorithm" id="2NnJ" text-anchor="start" x="730" y="1265">
database
</text>
<text baseline-shift="-100%" cb-classname="GraphicTextEntity" class="algorithm" id="2Nne" text-anchor="start" x="730" y="1290">
(01BFPTSPEED-L01)
</text>
</g>
</g>
<g cb-alg-bdi="$190$cb-alg-out$" cb-algorithm-id="012" cb-classname="FastBooleanAlgorithm" cb-function-name="NOT" id="6mn">
<rect cb-classname="GraphicRectangleEntity" class="algorithm" height="40" id="6mV" width="40" x="1180" y="1210"/>
<g cb-classname="ControlPin" cb-pin-name="Wp-1IZ-xO8" id="6ml">
<line cb-classname="GraphicLineEntity" class="signalline" id="6mu" x1="1160" x2="1180" y1="1230" y2="1230"/>
<polygon cb-classname="GraphicPolygonEntity" class="signal" id="6mK" points="1180,1230 1169,1224 1169,1235"/>
<g cb-classname="DynamicText" cb-source="tD-OxO-B51I" class="signal" id="6mF" text-anchor="end">
<text cb-classname="GraphicTextEntity" class="signal" fill="black" font-style="normal" font-weight="normal" id="6mh" text-anchor="end" text-decoration="normal" x="1165" y="1227"/>
</g>
</g>
<g cb-classname="ControlPin" cb-pin-name="98-UiW-3L6" id="6wO">
<line cb-classname="GraphicLineEntity" class="signalline" id="6w4" x1="1220" x2="1240" y1="1230" y2="1230"/>
<g cb-classname="DynamicText" cb-source="H1-9Wl-iCKw" class="signal" id="6wC" text-anchor="start">
<text cb-classname="GraphicTextEntity" class="signal" fill="black" font-style="normal" font-weight="normal" id="6wn" text-anchor="start" text-decoration="normal" x="1234" y="1227"/>
</g>
<g cb-classname="SignalSegment" id="6CO">
<line cb-classname="GraphicLineEntity" class="signalline" id="6C4" stroke="#1e12bf" stroke-dasharray="5,4" x1="1240" x2="1460" y1="1230" y2="1230"/>
<g cb-classname="SignalConnection" cb-graphic-line="$671$" cb-input-pin="$fZN$" id="6CC"/>
</g>
</g>
<line cb-classname="GraphicLineEntity" class="algorithm" id="6wV" x1="1190" x2="1190" y1="1220" y2="1240"/>
<line cb-classname="GraphicLineEntity" class="algorithm" id="6wl" x1="1190" x2="1210" y1="1220" y2="1240"/>
<line cb-classname="GraphicLineEntity" class="algorithm" id="6wu" x1="1210" x2="1210" y1="1240" y2="1220"/>
</g>
<g cb-alg-2UiZ="0" cb-alg-T0wW="69" cb-algorithm-id="006" cb-classname="ControlAlgorithm" cb-function-name="DVALGEN" cb-modify-id="00000001" id="25O">
<rect cb-classname="GraphicRectangleEntity" class="algorithm" height="100" id="254" width="140" x="1440" y="1330"/>
<text baseline-shift="-50%" cb-classname="GraphicTextEntity" class="algorithm" fill="#000000" font-family="MS Shell Dlg" font-size="18" id="25C" text-anchor="middle" x="1510" y="1380">
DVALGEN
</text>
<g cb-classname="ControlPin" cb-pin-name="NA-mbp-szN" id="25n">
<line cb-classname="GraphicLineEntity" class="signalline" id="25V" x1="1580" x2="1600" y1="1380" y2="1380"/>
<g cb-classname="DynamicText" cb-source="zD-luk-Bdah" class="signal" id="25l" text-anchor="start">
<text cb-classname="GraphicTextEntity" class="signal" fill="black" font-style="normal" font-weight="normal" id="25u" text-anchor="start" text-decoration="normal" x="1594" y="1377"/>
</g>
<g cb-classname="SignalSegment" id="25K">
<line cb-classname="GraphicLineEntity" class="signalline" id="25F" stroke="#1e12bf" stroke-dasharray="5,4" x1="1600" x2="2370" y1="1380" y2="1380"/>
<g cb-classname="SignalSegment" id="25h">
<line cb-classname="GraphicLineEntity" class="signalline" id="2rO" stroke="#1e12bf" stroke-dasharray="5,4" x1="2370" x2="2370" y1="1380" y2="1430"/>
<g cb-classname="SignalSegment" id="2r4">
<line cb-classname="GraphicLineEntity" class="signalline" id="2rC" stroke="#1e12bf" stroke-dasharray="5,4" x1="2370" x2="2530" y1="1430" y2="1430"/>
<g cb-classname="SignalConnection" cb-graphic-line="$232$" cb-input-pin="$Tro$" id="2rn"/>
<line cb-classname="GraphicLineEntity" class="signalline" id="1rue" stroke="#1e12bf" stroke-dasharray="5,4" x1="2370" x2="2370" y1="1430" y2="1930"/>
<g cb-classname="SignalSegment" id="1ruO">
<line cb-classname="GraphicLineEntity" class="signalline" id="1ruc" stroke="#1e12bf" stroke-dasharray="5,4" x1="2370" x2="2530" y1="1930" y2="1930"/>
<g cb-classname="SignalConnection" cb-graphic-line="$1367$" cb-input-pin="$8ud$" id="1ruT"/>
</g>
<ellipse cb-classname="GraphicEllipseEntity" class="signal" cx="2370" cy="1430" fill="#1e12bf" id="1ruH" rx="5" ry="5" stroke="#1e12bf" stroke-dasharray="5,4"/>
</g>
<g cb-classname="SignalConnection" cb-graphic-line="$235$" cb-input-pin="$dnM$" id="2rV"/>
<line cb-classname="GraphicLineEntity" class="signalline" id="2rl" stroke="#1e12bf" stroke-dasharray="5,4" x1="2370" x2="2530" y1="1380" y2="1380"/>
<ellipse cb-classname="GraphicEllipseEntity" class="signal" cx="2370" cy="1380" fill="#1e12bf" id="2ru" rx="5" ry="5" stroke="#1e12bf" stroke-dasharray="5,4"/>
<line cb-classname="GraphicLineEntity" class="signalline" id="154T" stroke="#1e12bf" stroke-dasharray="5,4" x1="2370" x2="2370" y1="1380" y2="1160"/>
<g cb-classname="SignalSegment" id="154H">
<line cb-classname="GraphicLineEntity" class="signalline" id="15Co" stroke="#1e12bf" stroke-dasharray="5,4" x1="2370" x2="2530" y1="1160" y2="1160"/>
<g cb-classname="SignalConnection" cb-graphic-line="$1220$" cb-input-pin="$TPu$" id="15CM"/>
</g>
</g>
</g>
</g>
<g cb-classname="DynamicText" cb-labeled="true" cb-source="cJ-t15-Z1Iz" class="algorithm" id="15CK" text-anchor="start">
<text cb-classname="GraphicTextEntity" class="algorithm" fill="black" font-style="normal" font-weight="normal" id="15CU" text-anchor="start" text-decoration="normal" x="1470" y="1320"/>
</g>
</g>
<g cb-alg-GsmD="69" cb-alg-qlq5="1" cb-algorithm-id="007" cb-classname="ControlAlgorithm" cb-function-name="DVALGEN" cb-modify-id="00000001" id="2rK">
<rect cb-classname="GraphicRectangleEntity" class="algorithm" height="100" id="2rF" width="140" x="1440" y="1540"/>
<text baseline-shift="-50%" cb-classname="GraphicTextEntity" class="algorithm" fill="#000000" font-family="MS Shell Dlg" font-size="18" id="2rh" text-anchor="middle" x="1510" y="1590">
DVALGEN
</text>
<g cb-classname="ControlPin" cb-pin-name="EU-zj3-ez3" id="2dO">
<line cb-classname="GraphicLineEntity" class="signalline" id="2d4" x1="1580" x2="1600" y1="1590" y2="1590"/>
<g cb-classname="DynamicText" cb-source="tD-OxO-B51I" class="signal" id="2dC" text-anchor="start">
<text cb-classname="GraphicTextEntity" class="signal" fill="black" font-style="normal" font-weight="normal" id="2dn" text-anchor="start" text-decoration="normal" x="1594" y="1587"/>
</g>
<g cb-classname="SignalSegment" id="2dV">
<line cb-classname="GraphicLineEntity" class="signalline" id="2dl" stroke="#1e12bf" stroke-dasharray="5,4" x1="1600" x2="2400" y1="1590" y2="1590"/>
<g cb-classname="SignalSegment" id="2du">
<line cb-classname="GraphicLineEntity" class="signalline" id="2dK" stroke="#1e12bf" stroke-dasharray="5,4" x1="2400" x2="2400" y1="1590" y2="1640"/>
<g cb-classname="SignalSegment" id="2dF">
<line cb-classname="GraphicLineEntity" class="signalline" id="2dh" stroke="#1e12bf" stroke-dasharray="5,4" x1="2400" x2="2530" y1="1640" y2="1640"/>
<g cb-classname="SignalConnection" cb-graphic-line="$249$" cb-input-pin="$8vr$" id="2mO"/>
</g>
<line cb-classname="GraphicLineEntity" class="signalline" id="2m4" stroke="#1e12bf" stroke-dasharray="5,4" x1="2400" x2="2530" y1="1590" y2="1590"/>
<g cb-classname="SignalConnection" cb-graphic-line="$251$" cb-input-pin="$WEf$" id="2mC"/>
<ellipse cb-classname="GraphicEllipseEntity" class="signal" cx="2400" cy="1590" fill="#1e12bf" id="2mn" rx="5" ry="5" stroke="#1e12bf" stroke-dasharray="5,4"/>
</g>
</g>
</g>
<g cb-classname="DynamicText" cb-labeled="true" cb-source="NA-mbp-den4" class="algorithm" id="15CJ" text-anchor="start">
<text cb-classname="GraphicTextEntity" class="algorithm" fill="black" font-style="normal" font-weight="normal" id="15Ce" text-anchor="start" text-decoration="normal" x="1470" y="1530"/>
</g>
</g>
<g cb-alg-a6h="01B0201D17-EPO" cb-alg-ahs5="NO" cb-algorithm-id="009" cb-classname="ExternalPointInterface" cb-function-name="INPUT" id="2QF">
<ellipse cb-classname="GraphicEllipseEntity" class="algorithm" cx="650" cy="1910" id="2Qh" rx="50" ry="50"/>
<rect cb-classname="GraphicRectangleEntity" class="algorithm" height="100" id="2NO" width="40" x="560" y="1860"/>
<line cb-classname="GraphicLineEntity" class="algorithm" id="2N4" x1="560" x2="600" y1="1910" y2="1910"/>
<g cb-classname="ControlPin" cb-pin-name="EU-zj3-ez3" id="2NC">
<line cb-classname="GraphicLineEntity" class="signalline" id="2Nn" x1="700" x2="730" y1="1910" y2="1910"/>
<g cb-classname="DynamicText" cb-source="tD-OxO-B51I" class="signal" id="2NV" text-anchor="start">
<text cb-classname="GraphicTextEntity" class="signal" fill="black" font-style="normal" font-weight="normal" id="2Nl" text-anchor="start" text-decoration="normal" x="714" y="1907"/>
</g>
<g cb-classname="SignalSegment" id="2Nu">
<line cb-classname="GraphicLineEntity" class="signalline" id="2NK" stroke="#1e12bf" stroke-dasharray="5,4" x1="730" x2="2050" y1="1910" y2="1910"/>
<g cb-classname="SignalSegment" id="2NF">
<line cb-classname="GraphicLineEntity" class="signalline" id="2Nh" stroke="#1e12bf" stroke-dasharray="5,4" x1="2050" x2="2050" y1="1910" y2="1970"/>
<g cb-classname="SignalSegment" id="3HO">
<line cb-classname="GraphicLineEntity" class="signalline" id="3H4" stroke="#1e12bf" stroke-dasharray="5,4" x1="2050" x2="2540" y1="1970" y2="1970"/>
<g cb-classname="SignalConnection" cb-graphic-line="$301$" cb-input-pin="$8ur$" id="3HC"/>
</g>
</g>
</g>
</g>
<g cb-classname="PointStatusIndicator" cb-indicator-type="Highway" cb-source="zD-LCl-L4r" id="3Hn" visibility="hidden">
<line cb-classname="GraphicLineEntity" class="algorithmline" id="3HV" x1="600" x2="650" y1="1910" y2="1860"/>
<line cb-classname="GraphicLineEntity" class="algorithmline" id="3Hl" x1="650" x2="700" y1="1860" y2="1910"/>
<line cb-classname="GraphicLineEntity" class="algorithmline" id="3Hu" x1="700" x2="650" y1="1910" y2="1960"/>
<line cb-classname="GraphicLineEntity" class="algorithmline" id="3HK" x1="650" x2="600" y1="1960" y2="1910"/>
</g>
<g cb-classname="PointStatusIndicator" cb-indicator-type="hardware" cb-source="Zt-dcg-EAc" id="3HF" visibility="visible">
<line cb-classname="GraphicLineEntity" class="algorithmline" id="3Hh" x1="600" x2="700" y1="1860" y2="1860"/>
<line cb-classname="GraphicLineEntity" class="algorithmline" id="3BO" x1="700" x2="700" y1="1860" y2="1960"/>
<line cb-classname="GraphicLineEntity" class="algorithmline" id="3B4" x1="700" x2="600" y1="1960" y2="1960"/>
</g>
<g cb-classname="PointStatusIndicator" cb-indicator-type="alarm" cb-source="cJ-t15-H2q" id="3BC" visibility="hidden">
<text cb-classname="GraphicTextEntity" class="algorithm" fill="#000000" font-family="arial" font-size="20" id="3Bn" x="570" y="1895">
A
</text>
</g>
<g cb-classname="PointStatusIndicator" cb-indicator-type="ingraphic" cb-source="NA-mbp-szN" id="3BV" visibility="visible">
<text cb-classname="GraphicTextEntity" class="algorithm" fill="#000000" font-family="Arial" font-size="20" id="3Bl" x="570" y="1945">
G
</text>
</g>
<g baseline-shift="-50%" cb-anchor-x="550" cb-anchor-y="1924" cb-classname="PointDescription" cb-content="extended" cb-labeled="false" cb-max-width="220" cb-source="zD-LCl-L4r" class="algorithm" id="3Bu" text-anchor="end">
<text baseline-shift="-50%" cb-classname="GraphicTextEntity" class="algorithm" id="3BK" text-anchor="end" x="550" y="1899">
DESC: Point not found in
</text>
<text baseline-shift="-50%" cb-classname="GraphicTextEntity" class="algorithm" id="1QCo" text-anchor="end" x="550" y="1924">
database
</text>
<text baseline-shift="-50%" cb-classname="GraphicTextEntity" class="algorithm" id="2NnO" text-anchor="end" x="550" y="1949">
(01B0201D17-EPO)
</text>
</g>
<g cb-classname="DynamicText" cb-labeled="false" cb-pin-name="VJM" cb-source="EU-zj3-ez3" class="algorithm" id="3BF" text-anchor="start">
<text baseline-shift="0%" cb-classname="GraphicTextEntity" class="algorithm" fill="black" font-family="arial" font-size="20" font-style="normal" font-weight="normal" id="3Bh" text-anchor="start" text-decoration="normal" x="720" y="1880"/>
</g>
<g baseline-shift="-100%" cb-anchor-x="720" cb-anchor-y="1920" cb-classname="PointReferences" cb-max-width="230" cb-originator="true" cb-source="tD-J55-GcY" class="signal" id="35O" text-anchor="start">
<text baseline-shift="-100%" cb-classname="GraphicTextEntity" class="algorithm" id="354" text-anchor="start" x="720" y="1920">
REF: Point not found in
</text>
<text baseline-shift="-100%" cb-classname="GraphicTextEntity" class="algorithm" id="2Nnc" text-anchor="start" x="720" y="1945">
database
</text>
<text baseline-shift="-100%" cb-classname="GraphicTextEntity" class="algorithm" id="2NnT" text-anchor="start" x="720" y="1970">
(01B0201D17-EPO)
</text>
</g>
</g>
<g cb-alg-T0x5="NO" cb-alg-Ten="01B0201D17-EPZ" cb-algorithm-id="00a" cb-classname="ExternalPointInterface" cb-function-name="INPUT" id="35C">
<ellipse cb-classname="GraphicEllipseEntity" class="algorithm" cx="650" cy="2060" id="35n" rx="50" ry="50"/>
<rect cb-classname="GraphicRectangleEntity" class="algorithm" height="100" id="35V" width="40" x="560" y="2010"/>
<line cb-classname="GraphicLineEntity" class="algorithm" id="35l" x1="560" x2="600" y1="2060" y2="2060"/>
<g cb-classname="ControlPin" cb-pin-name="76-lqD-N1u" id="35u">
<line cb-classname="GraphicLineEntity" class="signalline" id="35K" x1="700" x2="730" y1="2060" y2="2060"/>
<g cb-classname="DynamicText" cb-source="ij-12S-NJSp" class="signal" id="35F" text-anchor="start">
<text cb-classname="GraphicTextEntity" class="signal" fill="black" font-style="normal" font-weight="normal" id="35h" text-anchor="start" text-decoration="normal" x="714" y="2057"/>
</g>
<g cb-classname="SignalSegment" id="3rO">
<line cb-classname="GraphicLineEntity" class="signalline" id="3r4" stroke="#1e12bf" stroke-dasharray="5,4" x1="730" x2="2100" y1="2060" y2="2060"/>
<g cb-classname="SignalSegment" id="3rC">
<line cb-classname="GraphicLineEntity" class="signalline" id="3rn" stroke="#1e12bf" stroke-dasharray="5,4" x1="2100" x2="2100" y1="2060" y2="2010"/>
<g cb-classname="SignalSegment" id="3rV">
<line cb-classname="GraphicLineEntity" class="signalline" id="3rl" stroke="#1e12bf" stroke-dasharray="5,4" x1="2100" x2="2520" y1="2010" y2="2010"/>
<g cb-classname="SignalConnection" cb-graphic-line="$335$" cb-input-pin="$8R8$" id="3ru"/>
</g>
</g>
</g>
</g>
<g cb-classname="PointStatusIndicator" cb-indicator-type="Highway" cb-source="H1-nCL-tNk" id="3rK" visibility="hidden">
<line cb-classname="GraphicLineEntity" class="algorithmline" id="3rF" x1="600" x2="650" y1="2060" y2="2010"/>
<line cb-classname="GraphicLineEntity" class="algorithmline" id="3rh" x1="650" x2="700" y1="2010" y2="2060"/>
<line cb-classname="GraphicLineEntity" class="algorithmline" id="3dO" x1="700" x2="650" y1="2060" y2="2110"/>
<line cb-classname="GraphicLineEntity" class="algorithmline" id="3d4" x1="650" x2="600" y1="2110" y2="2060"/>
</g>
<g cb-classname="PointStatusIndicator" cb-indicator-type="hardware" cb-source="zD-LCl-L4r" id="3dC" visibility="visible">
<line cb-classname="GraphicLineEntity" class="algorithmline" id="3dn" x1="600" x2="700" y1="2010" y2="2010"/>
<line cb-classname="GraphicLineEntity" class="algorithmline" id="3dV" x1="700" x2="700" y1="2010" y2="2110"/>
<line cb-classname="GraphicLineEntity" class="algorithmline" id="3dl" x1="700" x2="600" y1="2110" y2="2110"/>
</g>
<g cb-classname="PointStatusIndicator" cb-indicator-type="alarm" cb-source="tD-J55-GcY" id="3du" visibility="hidden">
<text cb-classname="GraphicTextEntity" class="algorithm" fill="#000000" font-family="arial" font-size="20" id="3dK" x="570" y="2045">
A
</text>
</g>
<g cb-classname="PointStatusIndicator" cb-indicator-type="ingraphic" cb-source="98-UiW-3L6" id="3dF" visibility="visible">
<text cb-classname="GraphicTextEntity" class="algorithm" fill="#000000" font-family="Arial" font-size="20" id="3dh" x="570" y="2095">
G
</text>
</g>
<g baseline-shift="-50%" cb-anchor-x="550" cb-anchor-y="2074" cb-classname="PointDescription" cb-content="extended" cb-labeled="false" cb-max-width="220" cb-source="H1-nCL-tNk" class="algorithm" id="3mO" text-anchor="end">
<text baseline-shift="-50%" cb-classname="GraphicTextEntity" class="algorithm" id="3m4" text-anchor="end" x="550" y="2049">
DESC: Point not found in
</text>
<text baseline-shift="-50%" cb-classname="GraphicTextEntity" class="algorithm" id="1QCM" text-anchor="end" x="550" y="2074">
database
</text>
<text baseline-shift="-50%" cb-classname="GraphicTextEntity" class="algorithm" id="1QCK" text-anchor="end" x="550" y="2099">
(01B0201D17-EPZ)
</text>
</g>
<g cb-classname="DynamicText" cb-labeled="false" cb-pin-name="pQj" cb-source="76-lqD-N1u" class="algorithm" id="3mC" text-anchor="start">
<text baseline-shift="0%" cb-classname="GraphicTextEntity" class="algorithm" fill="black" font-family="arial" font-size="20" font-style="normal" font-weight="normal" id="3mn" text-anchor="start" text-decoration="normal" x="720" y="2030"/>
</g>
<g baseline-shift="-100%" cb-anchor-x="720" cb-anchor-y="2070" cb-classname="PointReferences" cb-max-width="230" cb-originator="true" cb-source="ij-4wo-Ten" class="signal" id="3mV" text-anchor="start">
<text baseline-shift="-100%" cb-classname="GraphicTextEntity" class="algorithm" id="3ml" text-anchor="start" x="720" y="2070">
REF: Point not found in
</text>
<text baseline-shift="-100%" cb-classname="GraphicTextEntity" class="algorithm" id="2NnH" text-anchor="start" x="720" y="2095">
database
</text>
<text baseline-shift="-100%" cb-classname="GraphicTextEntity" class="algorithm" id="2NVo" text-anchor="start" x="720" y="2120">
(01B0201D17-EPZ)
</text>
</g>
</g>
<g cb-alg-oDes="NO" cb-alg-ofP="01PS165B-NO" cb-algorithm-id="013" cb-classname="ExternalPointInterface" cb-function-name="INPUT" id="6Cu">
<ellipse cb-classname="GraphicEllipseEntity" class="algorithm" cx="660" cy="1090" id="6CK" rx="50" ry="50"/>
<rect cb-classname="GraphicRectangleEntity" class="algorithm" height="100" id="6CF" width="40" x="570" y="1040"/>
<line cb-classname="GraphicLineEntity" class="algorithm" id="6Ch" x1="570" x2="610" y1="1090" y2="1090"/>
<g cb-classname="ControlPin" cb-pin-name="zD-LCl-L4r" id="6QO">
<line cb-classname="GraphicLineEntity" class="signalline" id="6Q4" x1="710" x2="740" y1="1090" y2="1090"/>
<g cb-classname="DynamicText" cb-source="EU-PrB-OwL0" class="signal" id="6QC" text-anchor="start">
<text cb-classname="GraphicTextEntity" class="signal" fill="black" font-style="normal" font-weight="normal" id="6Qn" text-anchor="start" text-decoration="normal" x="724" y="1087"/>
</g>
<g cb-classname="SignalSegment" id="7HV">
<line cb-classname="GraphicLineEntity" class="signalline" id="7Hl" stroke="#1e12bf" stroke-dasharray="5,4" x1="740" x2="1370" y1="1090" y2="1090"/>
<g cb-classname="SignalSegment" id="7Hu">
<line cb-classname="GraphicLineEntity" class="signalline" id="7HK" stroke="#1e12bf" stroke-dasharray="5,4" x1="1370" x2="1370" y1="1090" y2="1190"/>
<g cb-classname="SignalSegment" id="7HF">
<line cb-classname="GraphicLineEntity" class="signalline" id="7Hh" stroke="#1e12bf" stroke-dasharray="5,4" x1="1370" x2="1460" y1="1190" y2="1190"/>
<g cb-classname="SignalConnection" cb-graphic-line="$709$" cb-input-pin="$vAH$" id="7BO"/>
</g>
</g>
</g>
</g>
<g cb-classname="PointStatusIndicator" cb-indicator-type="Highway" cb-source="tD-J55-GcY" id="6QV" visibility="hidden">
<line cb-classname="GraphicLineEntity" class="algorithmline" id="6Ql" x1="610" x2="660" y1="1090" y2="1040"/>
<line cb-classname="GraphicLineEntity" class="algorithmline" id="6Qu" x1="660" x2="710" y1="1040" y2="1090"/>
<line cb-classname="GraphicLineEntity" class="algorithmline" id="6QK" x1="710" x2="660" y1="1090" y2="1140"/>
<line cb-classname="GraphicLineEntity" class="algorithmline" id="6QF" x1="660" x2="610" y1="1140" y2="1090"/>
</g>
<g cb-classname="PointStatusIndicator" cb-indicator-type="hardware" cb-source="cJ-t15-H2q" id="6Qh" visibility="visible">
<line cb-classname="GraphicLineEntity" class="algorithmline" id="6NO" x1="610" x2="710" y1="1040" y2="1040"/>
<line cb-classname="GraphicLineEntity" class="algorithmline" id="6N4" x1="710" x2="710" y1="1040" y2="1140"/>
<line cb-classname="GraphicLineEntity" class="algorithmline" id="6NC" x1="710" x2="610" y1="1140" y2="1140"/>
</g>
<g cb-classname="PointStatusIndicator" cb-indicator-type="alarm" cb-source="zD-LCl-L4r" id="6Nn" visibility="visible">
<text cb-classname="GraphicTextEntity" class="algorithm" fill="#000000" font-family="arial" font-size="20" id="6NV" x="580" y="1075">
A
</text>
</g>
<g cb-classname="PointStatusIndicator" cb-indicator-type="ingraphic" cb-source="EU-zj3-ez3" id="6Nl" visibility="visible">
<text cb-classname="GraphicTextEntity" class="algorithm" fill="#000000" font-family="Arial" font-size="20" id="6Nu" x="580" y="1125">
G
</text>
</g>
<g baseline-shift="-50%" cb-anchor-x="560" cb-anchor-y="1104" cb-classname="PointDescription" cb-content="extended" cb-labeled="false" cb-max-width="220" cb-source="tD-J55-GcY" class="algorithm" id="6NK" text-anchor="end">
<text baseline-shift="-50%" cb-classname="GraphicTextEntity" class="algorithm" id="6NF" text-anchor="end" x="560" y="1092">
DESC: Point not found in
</text>
<text baseline-shift="-50%" cb-classname="GraphicTextEntity" class="algorithm" id="2dVc" text-anchor="end" x="560" y="1117">
database (01PS165B-NO)
</text>
</g>
<g cb-classname="DynamicText" cb-labeled="false" cb-pin-name="UDe" cb-source="98-UiW-3L6" class="algorithm" id="6Nh" text-anchor="start">
<text baseline-shift="0%" cb-classname="GraphicTextEntity" class="algorithm" fill="black" font-family="arial" font-size="20" font-style="normal" font-weight="normal" id="7HO" text-anchor="start" text-decoration="normal" x="730" y="1060"/>
</g>
<g baseline-shift="-100%" cb-anchor-x="730" cb-anchor-y="1100" cb-classname="PointReferences" cb-max-width="230" cb-originator="true" cb-source="H1-nCL-tNk" class="signal" id="7H4" text-anchor="start">
<text baseline-shift="-100%" cb-classname="GraphicTextEntity" class="algorithm" id="7HC" text-anchor="start" x="730" y="1100">
REF: Point not found in
</text>
<text baseline-shift="-100%" cb-classname="GraphicTextEntity" class="algorithm" id="2NVK" text-anchor="start" x="730" y="1125">
database (01PS165B-NO)
</text>
</g>
</g>
<g cb-alg-2rF="$676$cb-alg-out$" cb-alg-2rL="$653$cb-alg-out$" cb-algorithm-id="011" cb-classname="FastBooleanAlgorithm" cb-function-name="AND" cb-modify-id="00000001" id="6rl">
<rect cb-classname="GraphicRectangleEntity" class="algorithm" height="60" id="6ru" width="60" x="1480" y="1180"/>
<g cb-classname="ControlPin" cb-pin-name="cJ-t15-2SV" id="6rK">
<line cb-classname="GraphicLineEntity" class="signalline" id="6rF" x1="1460" x2="1480" y1="1190" y2="1190"/>
<polygon cb-classname="GraphicPolygonEntity" class="signal" id="6rh" points="1480,1190 1469,1184 1469,1195"/>
<g cb-classname="DynamicText" cb-source="ij-12S-NJSp" class="signal" id="6dO" text-anchor="end">
<text cb-classname="GraphicTextEntity" class="signal" fill="black" font-style="normal" font-weight="normal" id="6d4" text-anchor="end" text-decoration="normal" x="1465" y="1187"/>
</g>
</g>
<g cb-classname="ControlPin" cb-pin-name="Wp-1IZ-xOP" id="6dC">
<line cb-classname="GraphicLineEntity" class="signalline" id="6dn" x1="1460" x2="1480" y1="1230" y2="1230"/>
<polygon cb-classname="GraphicPolygonEntity" class="signal" id="6dV" points="1480,1230 1469,1224 1469,1235"/>
<g cb-classname="DynamicText" cb-source="tD-OxO-B51I" class="signal" id="6dl" text-anchor="end">
<text cb-classname="GraphicTextEntity" class="signal" fill="black" font-style="normal" font-weight="normal" id="6du" text-anchor="end" text-decoration="normal" x="1465" y="1227"/>
</g>
</g>
<line cb-classname="GraphicLineEntity" class="algorithm" id="6dK" x1="1480" x2="1480" y1="1170" y2="1250"/>
<g cb-classname="ControlPin" cb-pin-name="4g-wO9-Ooc" id="6dF">
<line cb-classname="GraphicLineEntity" class="signalline" id="6dh" x1="1540" x2="1560" y1="1210" y2="1210"/>
<g cb-classname="DynamicText" cb-source="cJ-gsY-x1rk" class="signal" id="6mO" text-anchor="start">
<text cb-classname="GraphicTextEntity" class="signal" fill="black" font-style="normal" font-weight="normal" id="6m4" text-anchor="start" text-decoration="normal" x="1554" y="1207"/>
</g>
<g cb-classname="SignalSegment" id="6Cn">
<line cb-classname="GraphicLineEntity" class="signalline" id="6CV" stroke="#1e12bf" stroke-dasharray="5,4" x1="1560" x2="2530" y1="1210" y2="1210"/>
<g cb-classname="SignalConnection" cb-graphic-line="$674$" cb-input-pin="$TPo$" id="6Cl"/>
</g>
</g>
<text baseline-shift="-50%" cb-classname="GraphicTextEntity" class="algorithm" fill="#000000" font-family="MS Shell Dlg" id="6mC" text-anchor="middle" x="1511" y="1206">
AND
</text>
</g>
<g cb-alg-deks="65" cb-alg-vVx6="60" cb-algorithm-id="004" cb-classname="ControlAlgorithm" cb-function-name="AVALGEN" cb-modify-id="00000001" id="1mKU">
<polygon cb-classname="GraphicPolygonEntity" class="algorithm" id="1mKJ" points="1940,2090 1880,2150 1940,2210 2000,2150"/>
<line cb-classname="GraphicLineEntity" class="algorithm" id="1mKe" x1="1940" x2="1930" y1="2130" y2="2160"/>
<line cb-classname="GraphicLineEntity" class="algorithm" id="1mKO" x1="1940" x2="1950" y1="2130" y2="2160"/>
<line cb-classname="GraphicLineEntity" class="algorithm" id="1mKc" x1="1934" x2="1946" y1="2150" y2="2150"/>
<g cb-classname="ControlPin" cb-pin-name="Wp-1IZ-sBY" id="1mKT">
<line cb-classname="GraphicLineEntity" class="signalline" id="1mKH" x1="1940" x2="1940" y1="2210" y2="2230"/>
<g cb-classname="DynamicText" cb-source="o0-62r-Wn4m" class="signal" id="1mFo" text-anchor="end">
<text cb-classname="GraphicTextEntity" class="signal" fill="black" font-style="normal" font-weight="normal" id="1mFM" text-anchor="end" text-decoration="normal" transform="translate(1937,2224)rotate(-90)"/>
</g>
<g cb-classname="SignalSegment" id="1w4K">
<line cb-classname="GraphicLineEntity" class="signalline" id="1w4U" x1="1940" x2="1940" y1="2230" y2="2340"/>
<g cb-classname="SignalSegment" id="1w4J">
<line cb-classname="GraphicLineEntity" class="signalline" id="1w4e" x1="1940" x2="2530" y1="2340" y2="2340"/>
<g cb-classname="SignalConnection" cb-graphic-line="$1615$" cb-input-pin="$irm9$" id="1w4O"/>
</g>
</g>
</g>
<g cb-classname="DynamicText" cb-labeled="true" cb-source="Zt-dcg-rSgo" class="algorithm" id="1mFK" text-anchor="start">
<text cb-classname="GraphicTextEntity" class="algorithm" fill="black" font-family="arial" font-size="20" font-style="normal" font-weight="normal" id="1mFU" text-anchor="start" text-decoration="normal" x="1800" y="2210"/>
</g>
</g>
<g cb-alg-FxUg="65" cb-alg-Tdcz="60" cb-algorithm-id="008" cb-classname="ControlAlgorithm" cb-function-name="AVALGEN" cb-modify-id="00000001" id="1mFJ">
<polygon cb-classname="GraphicPolygonEntity" class="algorithm" id="1mFe" points="2100,2090 2040,2150 2100,2210 2160,2150"/>
<line cb-classname="GraphicLineEntity" class="algorithm" id="1mFO" x1="2100" x2="2090" y1="2130" y2="2160"/>
<line cb-classname="GraphicLineEntity" class="algorithm" id="1mFc" x1="2100" x2="2110" y1="2130" y2="2160"/>
<line cb-classname="GraphicLineEntity" class="algorithm" id="1mFT" x1="2094" x2="2106" y1="2150" y2="2150"/>
<g cb-classname="ControlPin" cb-pin-name="ij-4wo-Ten" id="1mFH">
<line cb-classname="GraphicLineEntity" class="signalline" id="1mho" x1="2100" x2="2100" y1="2210" y2="2230"/>
<g cb-classname="DynamicText" cb-source="Wp-nBN-rUkr" class="signal" id="1mhM" text-anchor="end">
<text cb-classname="GraphicTextEntity" class="signal" fill="black" font-style="normal" font-weight="normal" id="1mhK" text-anchor="end" text-decoration="normal" transform="translate(2097,2224)rotate(-90)"/>
</g>
<g cb-classname="SignalSegment" id="1wOc">
<line cb-classname="GraphicLineEntity" class="signalline" id="1wOT" x1="2100" x2="2100" y1="2230" y2="2290"/>
<g cb-classname="SignalSegment" id="1wOH">
<line cb-classname="GraphicLineEntity" class="signalline" id="1w4o" x1="2100" x2="2530" y1="2290" y2="2290"/>
<g cb-classname="SignalConnection" cb-graphic-line="$1610$" cb-input-pin="$F5ts$" id="1w4M"/>
</g>
</g>
</g>
<g cb-classname="DynamicText" cb-labeled="true" cb-source="o0-en9-MnCA" class="algorithm" id="1mhU" text-anchor="start">
<text cb-classname="GraphicTextEntity" class="algorithm" fill="black" font-family="arial" font-size="20" font-style="normal" font-weight="normal" id="1mhJ" text-anchor="start" text-decoration="normal" x="2130" y="2210"/>
</g>
</g>
<g cb-alg-QAP="01B02SG01-LLK" cb-alg-QwsD="NO" cb-algorithm-id="00b" cb-classname="ExternalPointInterface" cb-function-name="INPUT" id="1NuO">
<ellipse cb-classname="GraphicEllipseEntity" class="algorithm" cx="660" cy="750" id="1Nuc" rx="50" ry="50"/>
<rect cb-classname="GraphicRectangleEntity" class="algorithm" height="100" id="1NuT" width="40" x="570" y="700"/>
<line cb-classname="GraphicLineEntity" class="algorithm" id="1NuH" x1="570" x2="610" y1="750" y2="750"/>
<g cb-classname="ControlPin" cb-pin-name="o0-en9-dZJ" id="1NKo">
<line cb-classname="GraphicLineEntity" class="signalline" id="1NKM" x1="710" x2="740" y1="750" y2="750"/>
<g cb-classname="DynamicText" cb-source="Zt-70W-TSoc" class="signal" id="1NKK" text-anchor="start">
<text cb-classname="GraphicTextEntity" class="signal" fill="black" font-style="normal" font-weight="normal" id="1NKU" text-anchor="start" text-decoration="normal" x="724" y="747"/>
</g>
<g cb-classname="SignalSegment" id="2HOc">
<line cb-classname="GraphicLineEntity" class="signalline" id="2HOT" stroke="#1e12bf" stroke-dasharray="5,4" x1="740" x2="2130" y1="750" y2="750"/>
<g cb-classname="SignalSegment" id="2HOH">
<line cb-classname="GraphicLineEntity" class="signalline" id="2H4o" stroke="#1e12bf" stroke-dasharray="5,4" x1="2130" x2="2130" y1="750" y2="860"/>
<g cb-classname="SignalSegment" id="2H4M">
<line cb-classname="GraphicLineEntity" class="signalline" id="2H4K" stroke="#1e12bf" stroke-dasharray="5,4" x1="2130" x2="2260" y1="860" y2="860"/>
<g cb-classname="SignalConnection" cb-graphic-line="$2012$" cb-input-pin="$CIJ0$" id="2H4U"/>
<line cb-classname="GraphicLineEntity" class="signalline" id="2H4J" stroke="#1e12bf" stroke-dasharray="5,4" x1="2130" x2="2130" y1="860" y2="900"/>
<g cb-classname="SignalSegment" id="2H4e">
<line cb-classname="GraphicLineEntity" class="signalline" id="2H4O" stroke="#1e12bf" stroke-dasharray="5,4" x1="2130" x2="2530" y1="900" y2="900"/>
<g cb-classname="SignalConnection" cb-graphic-line="$2016$" cb-input-pin="$JIi$" id="2H4c"/>
</g>
<ellipse cb-classname="GraphicEllipseEntity" class="signal" cx="2130" cy="860" fill="#1e12bf" id="2H4T" rx="5" ry="5" stroke="#1e12bf" stroke-dasharray="5,4"/>
</g>
</g>
</g>
</g>
<g cb-classname="PointStatusIndicator" cb-indicator-type="Highway" cb-source="4g-wO9-Ooc" id="1NKJ" visibility="hidden">
<line cb-classname="GraphicLineEntity" class="algorithmline" id="1NKe" x1="610" x2="660" y1="750" y2="700"/>
<line cb-classname="GraphicLineEntity" class="algorithmline" id="1NKO" x1="660" x2="710" y1="700" y2="750"/>
<line cb-classname="GraphicLineEntity" class="algorithmline" id="1NKc" x1="710" x2="660" y1="750" y2="800"/>
<line cb-classname="GraphicLineEntity" class="algorithmline" id="1NKT" x1="660" x2="610" y1="800" y2="750"/>
</g>
<g cb-classname="PointStatusIndicator" cb-indicator-type="hardware" cb-source="ij-4wo-Ten" id="1NKH" visibility="hidden">
<line cb-classname="GraphicLineEntity" class="algorithmline" id="1NFo" x1="610" x2="710" y1="700" y2="700"/>
<line cb-classname="GraphicLineEntity" class="algorithmline" id="1NFM" x1="710" x2="710" y1="700" y2="800"/>
<line cb-classname="GraphicLineEntity" class="algorithmline" id="1NFK" x1="710" x2="610" y1="800" y2="800"/>
</g>
<g cb-classname="PointStatusIndicator" cb-indicator-type="alarm" cb-source="o0-en9-dZJ" id="1NFU" visibility="hidden">
<text cb-classname="GraphicTextEntity" class="algorithm" fill="#000000" font-family="arial" font-size="20" id="1NFJ" x="580" y="735">
A
</text>
</g>
<g cb-classname="PointStatusIndicator" cb-indicator-type="ingraphic" cb-source="Zt-dcg-EAc" id="1NFe" visibility="visible">
<text cb-classname="GraphicTextEntity" class="algorithm" fill="#000000" font-family="Arial" font-size="20" id="1NFO" x="580" y="785">
G
</text>
</g>
<g baseline-shift="-50%" cb-anchor-x="560" cb-anchor-y="764" cb-classname="PointDescription" cb-content="extended" cb-labeled="false" cb-max-width="220" cb-source="4g-wO9-Ooc" class="algorithm" id="1NFc" text-anchor="end">
<text baseline-shift="-50%" cb-classname="GraphicTextEntity" class="algorithm" id="1NFT" text-anchor="end" x="560" y="752">
DESC: Point not found in
</text>
<text baseline-shift="-50%" cb-classname="GraphicTextEntity" class="algorithm" id="2HCJ" text-anchor="end" x="560" y="777">
database (01B02SG01-LLK)
</text>
</g>
<g cb-classname="DynamicText" cb-labeled="false" cb-pin-name="OFp" cb-source="cJ-t15-H2q" class="algorithm" id="1NFH" text-anchor="start">
<text baseline-shift="0%" cb-classname="GraphicTextEntity" class="algorithm" fill="black" font-family="arial" font-size="20" font-style="normal" font-weight="normal" id="1Nho" text-anchor="start" text-decoration="normal" x="730" y="720"/>
</g>
<g baseline-shift="-100%" cb-anchor-x="730" cb-anchor-y="760" cb-classname="PointReferences" cb-max-width="230" cb-originator="true" cb-source="NA-mbp-szN" class="signal" id="1NhM" text-anchor="start">
<text baseline-shift="-100%" cb-classname="GraphicTextEntity" class="algorithm" id="1NhK" text-anchor="start" x="730" y="760">
REF: Point not found in
</text>
<text baseline-shift="-100%" cb-classname="GraphicTextEntity" class="algorithm" id="2NVe" text-anchor="start" x="730" y="785">
database (01B02SG01-LLK)
</text>
</g>
</g>
<g cb-alg-sYd="$1966$cb-alg-out$" cb-algorithm-id="00c" cb-classname="FastBooleanAlgorithm" cb-function-name="NOT" cb-modify-id="00000002" id="1NhU">
<rect cb-classname="GraphicRectangleEntity" class="algorithm" height="40" id="1NhJ" width="40" x="2280" y="840"/>
<g cb-classname="ControlPin" cb-pin-name="EU-zj3-0Wu" id="1Nhe">
<line cb-classname="GraphicLineEntity" class="signalline" id="1NhO" x1="2260" x2="2280" y1="860" y2="860"/>
<polygon cb-classname="GraphicPolygonEntity" class="signal" id="1Nhc" points="2280,860 2269,854 2269,865"/>
<g cb-classname="DynamicText" cb-source="Zt-70W-TSoc" class="signal" id="1NhT" text-anchor="end">
<text cb-classname="GraphicTextEntity" class="signal" fill="black" font-style="normal" font-weight="normal" id="1NhH" text-anchor="end" text-decoration="normal" x="2265" y="857"/>
</g>
</g>
<g cb-classname="ControlPin" cb-pin-name="4g-wO9-Ooc" id="2HOo">
<line cb-classname="GraphicLineEntity" class="signalline" id="2HOM" x1="2320" x2="2340" y1="860" y2="860"/>
<g cb-classname="DynamicText" cb-source="cJ-gsY-x1rk" class="signal" id="2HOK" text-anchor="start">
<text cb-classname="GraphicTextEntity" class="signal" fill="black" font-style="normal" font-weight="normal" id="2HOU" text-anchor="start" text-decoration="normal" x="2334" y="857"/>
</g>
<g cb-classname="SignalSegment" id="2H4H">
<g cb-classname="SignalConnection" cb-graphic-line="$2022$" cb-input-pin="$y4Y$" id="2HCU"/>
<line cb-classname="GraphicLineEntity" class="signalline" id="2HCK" stroke="#1e12bf" stroke-dasharray="5,4" x1="2340" x2="2530" y1="860" y2="860"/>
</g>
</g>
<line cb-classname="GraphicLineEntity" class="algorithm" id="2HOJ" x1="2290" x2="2290" y1="850" y2="870"/>
<line cb-classname="GraphicLineEntity" class="algorithm" id="2HOe" x1="2290" x2="2310" y1="850" y2="870"/>
<line cb-classname="GraphicLineEntity" class="algorithm" id="2HOO" x1="2310" x2="2310" y1="870" y2="850"/>
</g>
<g cb-alg-61="$1993$cb-alg-out$" cb-alg-61Y="$65$cb-alg-pk5$" cb-alg-6CY="$65$cb-alg-pk1$" cb-alg-6Ch="$65$cb-alg-pk2$" cb-alg-6J="$65$cb-alg-clos$" cb-alg-6N="$65$cb-alg-open$" cb-alg-6Sz="$1966$cb-alg-out$" cb-alg-9e="01B0201D17-TR" cb-alg-An3="$322$cb-alg-out$" cb-alg-Ans="$288$cb-alg-out$" cb-alg-AoD="$220$cb-alg-out$" cb-alg-HnqG0="$1584$cb-alg-out$" cb-alg-LCY="$220$cb-alg-out$" cb-alg-LCr="01B0201D17-ALM" cb-alg-LJ="$635$cb-alg-out$" cb-alg-LN="$142$cb-alg-out$" cb-alg-gt3="$220$cb-alg-out$" cb-alg-gts="$220$cb-alg-out$" cb-alg-lt3="$237$cb-alg-out$" cb-alg-lts="$237$cb-alg-out$" cb-alg-oCqG0="$1573$cb-alg-out$" cb-alg-uA5="01B0201D17-STS" cb-alg-w0="01B0201D17-LB" cb-algorithm-id="001" cb-classname="ControlMacroReference" cb-function-name="PCMS1" cb-macro-crc="30660" cb-modify-id="00000001" id="3QV">
<rect cb-classname="GraphicRectangleEntity" class="annotation" height="1850" id="3Ql" width="750" x="2560" y="550"/>
<g cb-classname="ControlPin" cb-pin-name="Zt-dcg-Y3" id="3Qu">
<line cb-classname="GraphicLineEntity" class="signalline" id="3QK" x1="2530" x2="2560" y1="580" y2="580"/>
<polygon cb-classname="GraphicPolygonEntity" class="signal" id="3QF" points="2560,580 2549,574 2549,585"/>
<g cb-classname="DynamicText" cb-source="H1-9Wl-iCKw" class="signal" id="3Qh" text-anchor="end">
<text cb-classname="GraphicTextEntity" class="signal" fill="black" font-style="normal" font-weight="normal" id="3NO" text-anchor="end" text-decoration="normal" x="2545" y="577"/>
</g>
</g>
<g cb-classname="ControlPin" cb-pin-name="76-lqD-H3" id="3N4">
<line cb-classname="GraphicLineEntity" class="signalline" id="3NC" x1="2530" x2="2560" y1="620" y2="620"/>
<polygon cb-classname="GraphicPolygonEntity" class="signal" id="3Nn" points="2560,620 2549,614 2549,625"/>
<g cb-classname="DynamicText" cb-source="zD-luk-Bdah" class="signal" id="3NV" text-anchor="end">
<text cb-classname="GraphicTextEntity" class="signal" fill="black" font-style="normal" font-weight="normal" id="3Nl" text-anchor="end" text-decoration="normal" x="2545" y="617"/>
</g>
</g>
<g cb-classname="ControlPin" cb-pin-name="EU-zj3-gw" id="3Nu">
<line cb-classname="GraphicLineEntity" class="signalline" id="3NK" x1="2530" x2="2560" y1="860" y2="860"/>
<polygon cb-classname="GraphicPolygonEntity" class="signal" id="3NF" points="2560,860 2549,854 2549,865"/>
<g cb-classname="DynamicText" cb-source="Zt-70W-TSoc" class="signal" id="3Nh" text-anchor="end">
<text cb-classname="GraphicTextEntity" class="signal" fill="black" font-style="normal" font-weight="normal" id="4HO" text-anchor="end" text-decoration="normal" x="2545" y="857"/>
</g>
</g>
<g cb-classname="ControlPin" cb-pin-name="4g-wO9-miC" id="4H4">
<line cb-classname="GraphicLineEntity" class="signalline" id="4HC" x1="2530" x2="2560" y1="900" y2="900"/>
<polygon cb-classname="GraphicPolygonEntity" class="signal" id="4Hn" points="2560,900 2549,894 2549,905"/>
<g cb-classname="DynamicText" cb-source="76-yst-SzGj" class="signal" id="4HV" text-anchor="end">
<text cb-classname="GraphicTextEntity" class="signal" fill="black" font-style="normal" font-weight="normal" id="4Hl" text-anchor="end" text-decoration="normal" x="2545" y="897"/>
</g>
</g>
<g cb-classname="ControlPin" cb-pin-name="ij-4wo-lnw" id="4Hu">
<line cb-classname="GraphicLineEntity" class="signalline" id="4HK" x1="2530" x2="2560" y1="740" y2="740"/>
<polygon cb-classname="GraphicPolygonEntity" class="signal" id="4HF" points="2560,740 2549,734 2549,745"/>
<g cb-classname="DynamicText" cb-source="EU-PrB-OwL0" class="signal" id="4Hh" text-anchor="end">
<text cb-classname="GraphicTextEntity" class="signal" fill="black" font-style="normal" font-weight="normal" id="4BO" text-anchor="end" text-decoration="normal" x="2545" y="737"/>
</g>
</g>
<g cb-classname="ControlPin" cb-pin-name="tD-J55-SCB" id="4B4">
<line cb-classname="GraphicLineEntity" class="signalline" id="4BC" x1="2530" x2="2560" y1="780" y2="780"/>
<polygon cb-classname="GraphicPolygonEntity" class="signal" id="4Bn" points="2560,780 2549,774 2549,785"/>
<g cb-classname="DynamicText" cb-source="4g-3gT-nyFc" class="signal" id="4BV" text-anchor="end">
<text cb-classname="GraphicTextEntity" class="signal" fill="black" font-style="normal" font-weight="normal" id="4Bl" text-anchor="end" text-decoration="normal" x="2545" y="777"/>
</g>
</g>
<g cb-classname="ControlPin" cb-pin-name="cJ-t15-LN" id="4Bu">
<line cb-classname="GraphicLineEntity" class="signalline" id="4BK" x1="2530" x2="2560" y1="1120" y2="1120"/>
<polygon cb-classname="GraphicPolygonEntity" class="signal" id="4BF" points="2560,1120 2549,1114 2549,1125"/>
<g cb-classname="DynamicText" cb-source="ij-12S-NJSp" class="signal" id="4Bh" text-anchor="end">
<text cb-classname="GraphicTextEntity" class="signal" fill="black" font-style="normal" font-weight="normal" id="45O" text-anchor="end" text-decoration="normal" x="2545" y="1117"/>
</g>
</g>
<g cb-classname="ControlPin" cb-pin-name="Wp-1IZ-dcT" id="454">
<line cb-classname="GraphicLineEntity" class="signalline" id="45C" x1="2530" x2="2560" y1="1160" y2="1160"/>
<polygon cb-classname="GraphicPolygonEntity" class="signal" id="45n" points="2560,1160 2549,1154 2549,1165"/>
<g cb-classname="DynamicText" cb-source="tD-OxO-B51I" class="signal" id="45V" text-anchor="end">
<text cb-classname="GraphicTextEntity" class="signal" fill="black" font-style="normal" font-weight="normal" id="45l" text-anchor="end" text-decoration="normal" x="2545" y="1157"/>
</g>
</g>
<g cb-classname="ControlPin" cb-pin-name="98-UiW-S9" id="45u">
<line cb-classname="GraphicLineEntity" class="signalline" id="45K" x1="2530" x2="2560" y1="1210" y2="1210"/>
<polygon cb-classname="GraphicPolygonEntity" class="signal" id="45F" points="2560,1210 2549,1204 2549,1215"/>
<g cb-classname="DynamicText" cb-source="cJ-gsY-x1rk" class="signal" id="45h" text-anchor="end">
<text cb-classname="GraphicTextEntity" class="signal" fill="black" font-style="normal" font-weight="normal" id="4rO" text-anchor="end" text-decoration="normal" x="2545" y="1207"/>
</g>
</g>
<g cb-classname="ControlPin" cb-pin-name="NA-mbp-h9L" id="4r4">
<line cb-classname="GraphicLineEntity" class="signalline" id="4rC" x1="2530" x2="2560" y1="1380" y2="1380"/>
<polygon cb-classname="GraphicPolygonEntity" class="signal" id="4rn" points="2560,1380 2549,1374 2549,1385"/>
<g cb-classname="DynamicText" cb-source="Wp-nBN-rUkr" class="signal" id="4rV" text-anchor="end">
<text cb-classname="GraphicTextEntity" class="signal" fill="black" font-style="normal" font-weight="normal" id="4rl" text-anchor="end" text-decoration="normal" x="2545" y="1377"/>
</g>
</g>
<g cb-classname="ControlPin" cb-pin-name="o0-en9-jxU" id="4ru">
<line cb-classname="GraphicLineEntity" class="signalline" id="4rK" x1="2530" x2="2560" y1="1430" y2="1430"/>
<polygon cb-classname="GraphicPolygonEntity" class="signal" id="4rF" points="2560,1430 2549,1424 2549,1435"/>
<g cb-classname="DynamicText" cb-source="98-Y0B-l8e5" class="signal" id="4rh" text-anchor="end">
<text cb-classname="GraphicTextEntity" class="signal" fill="black" font-style="normal" font-weight="normal" id="4dO" text-anchor="end" text-decoration="normal" x="2545" y="1427"/>
</g>
</g>
<g cb-classname="ControlPin" cb-pin-name="H1-nCL-5nW" id="4d4">
<line cb-classname="GraphicLineEntity" class="signalline" id="4dC" x1="2530" x2="2560" y1="1590" y2="1590"/>
<polygon cb-classname="GraphicPolygonEntity" class="signal" id="4dn" points="2560,1590 2549,1584 2549,1595"/>
<g cb-classname="DynamicText" cb-source="NA-MKx-keQ0" class="signal" id="4dV" text-anchor="end">
<text cb-classname="GraphicTextEntity" class="signal" fill="black" font-style="normal" font-weight="normal" id="4dl" text-anchor="end" text-decoration="normal" x="2545" y="1587"/>
</g>
</g>
<g cb-classname="ControlPin" cb-pin-name="zD-LCl-OHh" id="4du">
<line cb-classname="GraphicLineEntity" class="signalline" id="4dK" x1="2530" x2="2560" y1="1640" y2="1640"/>
<polygon cb-classname="GraphicPolygonEntity" class="signal" id="4dF" points="2560,1640 2549,1634 2549,1645"/>
<g cb-classname="DynamicText" cb-source="o0-62r-Wn4m" class="signal" id="4dh" text-anchor="end">
<text cb-classname="GraphicTextEntity" class="signal" fill="black" font-style="normal" font-weight="normal" id="4mO" text-anchor="end" text-decoration="normal" x="2545" y="1637"/>
</g>
</g>
<g cb-classname="ControlPin" cb-pin-name="Zt-dcg-0L7" id="4m4">
<line cb-classname="GraphicLineEntity" class="signalline" id="4mC" x1="2530" x2="2560" y1="1930" y2="1930"/>
<polygon cb-classname="GraphicPolygonEntity" class="signal" id="4mn" points="2560,1930 2549,1924 2549,1935"/>
<g cb-classname="DynamicText" cb-source="H1-9Wl-iCKw" class="signal" id="4mV" text-anchor="end">
<text cb-classname="GraphicTextEntity" class="signal" fill="black" font-style="normal" font-weight="normal" id="4ml" text-anchor="end" text-decoration="normal" x="2545" y="1927"/>
</g>
</g>
<g cb-classname="ControlPin" cb-pin-name="76-lqD-lPT" id="4mu">
<line cb-classname="GraphicLineEntity" class="signalline" id="4mK" x1="2540" x2="2560" y1="1970" y2="1970"/>
<polygon cb-classname="GraphicPolygonEntity" class="signal" id="4mF" points="2560,1970 2549,1964 2549,1975"/>
<g cb-classname="DynamicText" cb-source="zD-luk-Bdah" class="signal" id="4mh" text-anchor="end">
<text cb-classname="GraphicTextEntity" class="signal" fill="black" font-style="normal" font-weight="normal" id="4wO" text-anchor="end" text-decoration="normal" x="2545" y="1967"/>
</g>
</g>
<g cb-classname="ControlPin" cb-pin-name="EU-zj3-p32" id="4w4">
<line cb-classname="GraphicLineEntity" class="signalline" id="4wC" x1="2520" x2="2560" y1="2010" y2="2010"/>
<polygon cb-classname="GraphicPolygonEntity" class="signal" id="4wn" points="2560,2010 2549,2004 2549,2015"/>
<g cb-classname="DynamicText" cb-source="Zt-70W-TSoc" class="signal" id="4wV" text-anchor="end">
<text cb-classname="GraphicTextEntity" class="signal" fill="black" font-style="normal" font-weight="normal" id="4wl" text-anchor="end" text-decoration="normal" x="2545" y="2007"/>
</g>
</g>
<g cb-classname="ControlPin" cb-pin-name="4g-wO9-B6R" id="4wu">
<line cb-classname="GraphicLineEntity" class="signalline" id="4wK" x1="3310" x2="3350" y1="1270" y2="1270"/>
<g cb-classname="DynamicText" cb-source="cJ-gsY-x1rk" class="signal" id="4wF" text-anchor="start">
<text cb-classname="GraphicTextEntity" class="signal" fill="black" font-style="normal" font-weight="normal" id="4wh" text-anchor="start" text-decoration="normal" x="3324" y="1267"/>
</g>
<g cb-classname="SignalSegment" id="4CO">
<line cb-classname="GraphicLineEntity" class="signalline" id="4C4" x1="3350" x2="4750" y1="1270" y2="1270"/>
<g cb-classname="SignalConnection" cb-graphic-line="$471$" cb-input-pin="$udd$" id="4CC"/>
</g>
</g>
<g cb-classname="ControlPin" cb-pin-name="Wp-1IZ-dck" id="4Cn">
<line cb-classname="GraphicLineEntity" class="signalline" id="4CV" x1="3310" x2="3340" y1="1540" y2="1540"/>
<g cb-classname="DynamicText" cb-source="o0-62r-Wn4m" class="signal" id="4Cl" text-anchor="start">
<text cb-classname="GraphicTextEntity" class="signal" fill="black" font-style="normal" font-weight="normal" id="4Cu" text-anchor="start" text-decoration="normal" x="3324" y="1537"/>
</g>
<g cb-classname="SignalSegment" id="4CK">
<line cb-classname="GraphicLineEntity" class="signalline" id="4CF" x1="3340" x2="4750" y1="1540" y2="1540"/>
<g cb-classname="SignalConnection" cb-graphic-line="$478$" cb-input-pin="$LTP$" id="4Ch"/>
</g>
</g>
<g cb-classname="ControlPin" cb-pin-name="H1-nCL-RV" id="4QO">
<line cb-classname="GraphicLineEntity" class="signalline" id="4Q4" x1="3310" x2="3330" y1="1860" y2="1860"/>
<g cb-classname="DynamicText" cb-source="76-yst-SzGj" class="signal" id="4QC" text-anchor="start">
<text cb-classname="GraphicTextEntity" class="signal" fill="black" font-style="normal" font-weight="normal" id="4Qn" text-anchor="start" text-decoration="normal" x="3324" y="1857"/>
</g>
<g cb-classname="SignalSegment" id="4QV">
<line cb-classname="GraphicLineEntity" class="signalline" id="4Ql" stroke="#1e12bf" stroke-dasharray="5,4" x1="3330" x2="4750" y1="1860" y2="1860"/>
<g cb-classname="SignalConnection" cb-graphic-line="$485$" cb-input-pin="$JX9$" id="4Qu"/>
</g>
</g>
<g cb-classname="ControlPin" cb-pin-name="EU-zj3-rj" id="4QK">
<line cb-classname="GraphicLineEntity" class="signalline" id="4QF" x1="3310" x2="3330" y1="1920" y2="1920"/>
<g cb-classname="DynamicText" cb-source="tD-OxO-B51I" class="signal" id="4Qh" text-anchor="start">
<text cb-classname="GraphicTextEntity" class="signal" fill="black" font-style="normal" font-weight="normal" id="4NO" text-anchor="start" text-decoration="normal" x="3324" y="1917"/>
</g>
<g cb-classname="SignalSegment" id="4N4">
<line cb-classname="GraphicLineEntity" class="signalline" id="4NC" stroke="#1e12bf" stroke-dasharray="5,4" x1="3330" x2="4500" y1="1920" y2="1920"/>
<g cb-classname="SignalSegment" id="4Nn">
<line cb-classname="GraphicLineEntity" class="signalline" id="4NV" stroke="#1e12bf" stroke-dasharray="5,4" x1="4500" x2="4500" y1="1920" y2="2130"/>
<g cb-classname="SignalSegment" id="4Nl">
<line cb-classname="GraphicLineEntity" class="signalline" id="4Nu" stroke="#1e12bf" stroke-dasharray="5,4" x1="4500" x2="4750" y1="2130" y2="2130"/>
<g cb-classname="SignalConnection" cb-graphic-line="$496$" cb-input-pin="$oxd$" id="4NK"/>
</g>
</g>
</g>
</g>
<g cb-classname="ControlPin" cb-pin-name="98-UiW-3C6FJ" id="1mhO">
<line cb-classname="GraphicLineEntity" class="signalline" id="1mhc" x1="2530" x2="2560" y1="2290" y2="2290"/>
<polygon cb-classname="GraphicPolygonEntity" class="signal" id="1mhT" points="2560,2290 2549,2284 2549,2295"/>
<g cb-classname="DynamicText" cb-source="cJ-gsY-x1rk" class="signal" id="1mhH" text-anchor="end">
<text cb-classname="GraphicTextEntity" class="signal" fill="black" font-style="normal" font-weight="normal" id="1wOo" text-anchor="end" text-decoration="normal" transform="translate(2545,2287)rotate(360)"/>
</g>
</g>
<g cb-classname="ControlPin" cb-pin-name="ij-4wo-9nnaj" id="1wOK">
<line cb-classname="GraphicLineEntity" class="signalline" id="1wOU" x1="2530" x2="2560" y1="2340" y2="2340"/>
<polygon cb-classname="GraphicPolygonEntity" class="signal" id="1wOJ" points="2560,2340 2549,2334 2549,2345"/>
<g cb-classname="DynamicText" cb-source="EU-PrB-OwL0" class="signal" id="1wOe" text-anchor="end">
<text cb-classname="GraphicTextEntity" class="signal" fill="black" font-style="normal" font-weight="normal" id="1wOO" text-anchor="end" text-decoration="normal" transform="translate(2545,2337)rotate(360)"/>
</g>
</g>
<g cb-classname="ControlPin" cb-pin-name="EU-zj3-gwq" id="1QCO">
<line cb-classname="GraphicLineEntity" class="signalline" id="1QCc" x1="2530" x2="2560" y1="820" y2="820"/>
<polygon cb-classname="GraphicPolygonEntity" class="signal" id="1QCT" points="2560,820 2549,814 2549,825"/>
<g cb-classname="DynamicText" cb-source="Zt-70W-TSoc" class="signal" id="1QCH" text-anchor="end">
<text cb-classname="GraphicTextEntity" class="signal" fill="black" font-style="normal" font-weight="normal" id="1Qno" text-anchor="end" text-decoration="normal" x="2545" y="817"/>
</g>
</g>
</g>
<g cb-alg-es="$384$cb-alg-sts$" cb-algorithm-id="00d" cb-classname="ExternalPointInterface" cb-function-name="OUTPUT" id="5HF">
<ellipse cb-classname="GraphicEllipseEntity" class="algorithm" cx="4830" cy="1270" id="5Hh" rx="50" ry="50"/>
<rect cb-classname="GraphicRectangleEntity" class="algorithm" height="100" id="5BO" width="40" x="4880" y="1220"/>
<line cb-classname="GraphicLineEntity" class="algorithm" id="5B4" x1="4880" x2="4920" y1="1270" y2="1270"/>
<g cb-classname="ControlPin" cb-pin-name="Wp-1IZ-xO" id="5BC">
<line cb-classname="GraphicLineEntity" class="signalline" id="5Bn" x1="4750" x2="4780" y1="1270" y2="1270"/>
<polygon cb-classname="GraphicPolygonEntity" class="signal" id="5BV" points="4780,1270 4769,1264 4769,1275"/>
<g cb-classname="DynamicText" cb-source="tD-OxO-B51I" class="signal" id="5Bl" text-anchor="end">
<text cb-classname="GraphicTextEntity" class="signal" fill="black" font-style="normal" font-weight="normal" id="5Bu" text-anchor="end" text-decoration="normal" x="4765" y="1267"/>
</g>
</g>
<g cb-classname="PointStatusIndicator" cb-indicator-type="highway" cb-source="98-UiW-Wn" id="5BK" visibility="hidden">
<line cb-classname="GraphicLineEntity" class="algorithmline" id="5BF" x1="4780" x2="4830" y1="1270" y2="1220"/>
<line cb-classname="GraphicLineEntity" class="algorithmline" id="5Bh" x1="4830" x2="4880" y1="1220" y2="1270"/>
<line cb-classname="GraphicLineEntity" class="algorithmline" id="55O" x1="4880" x2="4830" y1="1270" y2="1320"/>
<line cb-classname="GraphicLineEntity" class="algorithmline" id="554" x1="4830" x2="4780" y1="1320" y2="1270"/>
</g>
<g cb-classname="PointStatusIndicator" cb-indicator-type="hardware" cb-source="NA-mbp-BN" id="55C" visibility="hidden">
<line cb-classname="GraphicLineEntity" class="algorithmline" id="55n" x1="4880" x2="4780" y1="1220" y2="1220"/>
<line cb-classname="GraphicLineEntity" class="algorithmline" id="55V" x1="4780" x2="4780" y1="1220" y2="1320"/>
<line cb-classname="GraphicLineEntity" class="algorithmline" id="55l" x1="4780" x2="4880" y1="1320" y2="1320"/>
</g>
<g cb-classname="PointStatusIndicator" cb-indicator-type="alarm" cb-source="EU-zj3-0W" id="55u" visibility="hidden">
<text cb-classname="GraphicTextEntity" class="algorithm" fill="#000000" font-family="Arial" font-size="20" id="55K" x="4890" y="1305">
A
</text>
</g>
<g cb-classname="PointStatusIndicator" cb-indicator-type="ingraphic" cb-source="tD-J55-gT" id="55F" visibility="visible">
<text cb-classname="GraphicTextEntity" class="algorithm" fill="#000000" font-family="Arial" font-size="20" id="55h" x="4890" y="1255">
G
</text>
</g>
<g cb-classname="DynamicText" cb-labeled="false" cb-pin-name="HV" cb-source="98-UiW-Wn" class="algorithm" id="5rO" text-anchor="end">
<text baseline-shift="0%" cb-classname="GraphicTextEntity" class="algorithm" fill="black" font-family="arial" font-size="20" font-style="normal" font-weight="normal" id="5r4" text-anchor="end" text-decoration="normal" x="4755" y="1245"/>
</g>
<g baseline-shift="-100%" cb-anchor-x="4755" cb-anchor-y="1280" cb-classname="PointReferences" cb-max-width="130" cb-originator="false" cb-source="H1-nCL-NO" class="signal" id="5rC" text-anchor="end">
<text baseline-shift="-100%" cb-classname="GraphicTextEntity" class="algorithm" id="5rn" text-anchor="end" x="4755" y="1280">
REF: Point not
</text>
<text baseline-shift="-100%" cb-classname="GraphicTextEntity" class="algorithm" id="2NVc" text-anchor="end" x="4755" y="1305">
found in
</text>
<text baseline-shift="-100%" cb-classname="GraphicTextEntity" class="algorithm" id="2NVT" text-anchor="end" x="4755" y="1330">
database
</text>
<text baseline-shift="-100%" cb-classname="GraphicTextEntity" class="algorithm" id="2NVH" text-anchor="end" x="4755" y="1355">
(01B0201D17-STS)
</text>
</g>
<g baseline-shift="-50%" cb-anchor-x="4935" cb-anchor-y="1285" cb-classname="PointDescription" cb-content="extended" cb-labeled="false" cb-max-width="240" cb-source="ij-4wo-rB" class="algorithm" id="5ru" text-anchor="start">
<text baseline-shift="-50%" cb-classname="GraphicTextEntity" class="algorithm" id="5rK" text-anchor="start" x="4935" y="1273">
DESC: Point not found in
</text>
<text baseline-shift="-50%" cb-classname="GraphicTextEntity" class="algorithm" id="2HCT" text-anchor="start" x="4935" y="1298">
database (01B0201D17-STS)
</text>
</g>
</g>
<g cb-alg-st="$384$cb-alg-alm$" cb-algorithm-id="00e" cb-classname="ExternalPointInterface" cb-function-name="OUTPUT" id="5rF">
<ellipse cb-classname="GraphicEllipseEntity" class="algorithm" cx="4830" cy="1540" id="5rh" rx="50" ry="50"/>
<rect cb-classname="GraphicRectangleEntity" class="algorithm" height="100" id="5dO" width="40" x="4880" y="1490"/>
<line cb-classname="GraphicLineEntity" class="algorithm" id="5d4" x1="4880" x2="4920" y1="1540" y2="1540"/>
<g cb-classname="ControlPin" cb-pin-name="Zt-dcg-Wl" id="5dC">
<line cb-classname="GraphicLineEntity" class="signalline" id="5dn" x1="4750" x2="4780" y1="1540" y2="1540"/>
<polygon cb-classname="GraphicPolygonEntity" class="signal" id="5dV" points="4780,1540 4769,1534 4769,1545"/>
<g cb-classname="DynamicText" cb-source="H1-9Wl-iCKw" class="signal" id="5dl" text-anchor="end">
<text cb-classname="GraphicTextEntity" class="signal" fill="black" font-style="normal" font-weight="normal" id="5du" text-anchor="end" text-decoration="normal" x="4765" y="1537"/>
</g>
</g>
<g cb-classname="PointStatusIndicator" cb-indicator-type="highway" cb-source="76-lqD-uk" id="5dK" visibility="hidden">
<line cb-classname="GraphicLineEntity" class="algorithmline" id="5dF" x1="4780" x2="4830" y1="1540" y2="1490"/>
<line cb-classname="GraphicLineEntity" class="algorithmline" id="5dh" x1="4830" x2="4880" y1="1490" y2="1540"/>
<line cb-classname="GraphicLineEntity" class="algorithmline" id="5mO" x1="4880" x2="4830" y1="1540" y2="1590"/>
<line cb-classname="GraphicLineEntity" class="algorithmline" id="5m4" x1="4830" x2="4780" y1="1590" y2="1540"/>
</g>
<g cb-classname="PointStatusIndicator" cb-indicator-type="hardware" cb-source="EU-zj3-0W" id="5mC" visibility="hidden">
<line cb-classname="GraphicLineEntity" class="algorithmline" id="5mn" x1="4880" x2="4780" y1="1490" y2="1490"/>
<line cb-classname="GraphicLineEntity" class="algorithmline" id="5mV" x1="4780" x2="4780" y1="1490" y2="1590"/>
<line cb-classname="GraphicLineEntity" class="algorithmline" id="5ml" x1="4780" x2="4880" y1="1590" y2="1590"/>
</g>
<g cb-classname="PointStatusIndicator" cb-indicator-type="alarm" cb-source="98-UiW-Wn" id="5mu" visibility="hidden">
<text cb-classname="GraphicTextEntity" class="algorithm" fill="#000000" font-family="Arial" font-size="20" id="5mK" x="4890" y="1575">
A
</text>
</g>
<g cb-classname="PointStatusIndicator" cb-indicator-type="ingraphic" cb-source="H1-nCL-NO" id="5mF" visibility="visible">
<text cb-classname="GraphicTextEntity" class="algorithm" fill="#000000" font-family="Arial" font-size="20" id="5mh" x="4890" y="1525">
G
</text>
</g>
<g cb-classname="DynamicText" cb-labeled="false" cb-pin-name="gM" cb-source="76-lqD-uk" class="algorithm" id="5wO" text-anchor="end">
<text baseline-shift="0%" cb-classname="GraphicTextEntity" class="algorithm" fill="black" font-family="arial" font-size="20" font-style="normal" font-weight="normal" id="5w4" text-anchor="end" text-decoration="normal" x="4755" y="1515"/>
</g>
<g baseline-shift="-100%" cb-anchor-x="4755" cb-anchor-y="1550" cb-classname="PointReferences" cb-max-width="130" cb-originator="false" cb-source="ij-4wo-rB" class="signal" id="5wC" text-anchor="end">
<text baseline-shift="-100%" cb-classname="GraphicTextEntity" class="algorithm" id="5wn" text-anchor="end" x="4755" y="1550">
REF: Point not
</text>
<text baseline-shift="-100%" cb-classname="GraphicTextEntity" class="algorithm" id="2NlM" text-anchor="end" x="4755" y="1575">
found in
</text>
<text baseline-shift="-100%" cb-classname="GraphicTextEntity" class="algorithm" id="2NlK" text-anchor="end" x="4755" y="1600">
database
</text>
<text baseline-shift="-100%" cb-classname="GraphicTextEntity" class="algorithm" id="2NlU" text-anchor="end" x="4755" y="1625">
(01B0201D17-ALM)
</text>
</g>
<g baseline-shift="-50%" cb-anchor-x="4935" cb-anchor-y="1555" cb-classname="PointDescription" cb-content="extended" cb-labeled="false" cb-max-width="240" cb-source="o0-en9-0B" class="algorithm" id="5wu" text-anchor="start">
<text baseline-shift="-50%" cb-classname="GraphicTextEntity" class="algorithm" id="5wK" text-anchor="start" x="4935" y="1543">
DESC: Point not found in
</text>
<text baseline-shift="-50%" cb-classname="GraphicTextEntity" class="algorithm" id="2HCH" text-anchor="start" x="4935" y="1568">
database (01B0201D17-ALM)
</text>
</g>
</g>
<g cb-alg-BN="$384$cb-alg-lb$" cb-algorithm-id="00f" cb-classname="ExternalPointInterface" cb-function-name="OUTPUT" id="5wF">
<ellipse cb-classname="GraphicEllipseEntity" class="algorithm" cx="4830" cy="1860" id="5wh" rx="50" ry="50"/>
<rect cb-classname="GraphicRectangleEntity" class="algorithm" height="100" id="5CO" width="40" x="4880" y="1810"/>
<line cb-classname="GraphicLineEntity" class="algorithm" id="5C4" x1="4880" x2="4920" y1="1860" y2="1860"/>
<g cb-classname="ControlPin" cb-pin-name="cJ-t15-2S" id="5CC">
<line cb-classname="GraphicLineEntity" class="signalline" id="5Cn" x1="4750" x2="4780" y1="1860" y2="1860"/>
<polygon cb-classname="GraphicPolygonEntity" class="signal" id="5CV" points="4780,1860 4769,1854 4769,1865"/>
<g cb-classname="DynamicText" cb-source="ij-12S-NJSp" class="signal" id="5Cl" text-anchor="end">
<text cb-classname="GraphicTextEntity" class="signal" fill="black" font-style="normal" font-weight="normal" id="5Cu" text-anchor="end" text-decoration="normal" x="4765" y="1857"/>
</g>
</g>
<g cb-classname="PointStatusIndicator" cb-indicator-type="highway" cb-source="Wp-1IZ-xO" id="5CK" visibility="hidden">
<line cb-classname="GraphicLineEntity" class="algorithmline" id="5CF" x1="4780" x2="4830" y1="1860" y2="1810"/>
<line cb-classname="GraphicLineEntity" class="algorithmline" id="5Ch" x1="4830" x2="4880" y1="1810" y2="1860"/>
<line cb-classname="GraphicLineEntity" class="algorithmline" id="5QO" x1="4880" x2="4830" y1="1860" y2="1910"/>
<line cb-classname="GraphicLineEntity" class="algorithmline" id="5Q4" x1="4830" x2="4780" y1="1910" y2="1860"/>
</g>
<g cb-classname="PointStatusIndicator" cb-indicator-type="hardware" cb-source="98-UiW-Wn" id="5QC" visibility="hidden">
<line cb-classname="GraphicLineEntity" class="algorithmline" id="5Qn" x1="4880" x2="4780" y1="1810" y2="1810"/>
<line cb-classname="GraphicLineEntity" class="algorithmline" id="5QV" x1="4780" x2="4780" y1="1810" y2="1910"/>
<line cb-classname="GraphicLineEntity" class="algorithmline" id="5Ql" x1="4780" x2="4880" y1="1910" y2="1910"/>
</g>
<g cb-classname="PointStatusIndicator" cb-indicator-type="alarm" cb-source="76-lqD-uk" id="5Qu" visibility="hidden">
<text cb-classname="GraphicTextEntity" class="algorithm" fill="#000000" font-family="Arial" font-size="20" id="5QK" x="4890" y="1895">
A
</text>
</g>
<g cb-classname="PointStatusIndicator" cb-indicator-type="ingraphic" cb-source="ij-4wo-rB" id="5QF" visibility="hidden">
<text cb-classname="GraphicTextEntity" class="algorithm" fill="#000000" font-family="Arial" font-size="20" id="5Qh" x="4890" y="1845">
G
</text>
</g>
<g cb-classname="DynamicText" cb-labeled="false" cb-pin-name="Bs" cb-source="Wp-1IZ-xO" class="algorithm" id="5NO" text-anchor="end">
<text baseline-shift="0%" cb-classname="GraphicTextEntity" class="algorithm" fill="black" font-family="arial" font-size="20" font-style="normal" font-weight="normal" id="5N4" text-anchor="end" text-decoration="normal" x="4755" y="1835"/>
</g>
<g baseline-shift="-100%" cb-anchor-x="4755" cb-anchor-y="1870" cb-classname="PointReferences" cb-max-width="130" cb-originator="false" cb-source="o0-en9-0B" class="signal" id="5NC" text-anchor="end">
<text baseline-shift="-100%" cb-classname="GraphicTextEntity" class="algorithm" id="5Nn" text-anchor="end" x="4755" y="1870">
REF: Point not
</text>
<text baseline-shift="-100%" cb-classname="GraphicTextEntity" class="algorithm" id="2Nle" text-anchor="end" x="4755" y="1895">
found in
</text>
<text baseline-shift="-100%" cb-classname="GraphicTextEntity" class="algorithm" id="2NlO" text-anchor="end" x="4755" y="1920">
database
</text>
<text baseline-shift="-100%" cb-classname="GraphicTextEntity" class="algorithm" id="2Nlc" text-anchor="end" x="4755" y="1945">
(01B0201D17-LB)
</text>
</g>
<g baseline-shift="-50%" cb-anchor-x="4935" cb-anchor-y="1875" cb-classname="PointDescription" cb-content="extended" cb-labeled="false" cb-max-width="240" cb-source="98-UiW-Wn" class="algorithm" id="5Nl" text-anchor="start">
<text baseline-shift="-50%" cb-classname="GraphicTextEntity" class="algorithm" id="5Nu" text-anchor="start" x="4935" y="1863">
DESC: Point not found in
</text>
<text baseline-shift="-50%" cb-classname="GraphicTextEntity" class="algorithm" id="1QCU" text-anchor="start" x="4935" y="1888">
database (01B0201D17-LB)
</text>
</g>
</g>
<g cb-alg-xO="$384$cb-alg-tr$" cb-algorithm-id="010" cb-classname="ExternalPointInterface" cb-function-name="OUTPUT" id="5NK">
<ellipse cb-classname="GraphicEllipseEntity" class="algorithm" cx="4830" cy="2130" id="5NF" rx="50" ry="50"/>
<rect cb-classname="GraphicRectangleEntity" class="algorithm" height="100" id="5Nh" width="40" x="4880" y="2080"/>
<line cb-classname="GraphicLineEntity" class="algorithm" id="6HO" x1="4880" x2="4920" y1="2130" y2="2130"/>
<g cb-classname="ControlPin" cb-pin-name="ij-4wo-rB" id="6H4">
<line cb-classname="GraphicLineEntity" class="signalline" id="6HC" x1="4750" x2="4780" y1="2130" y2="2130"/>
<polygon cb-classname="GraphicPolygonEntity" class="signal" id="6Hn" points="4780,2130 4769,2124 4769,2135"/>
<g cb-classname="DynamicText" cb-source="EU-PrB-OwL0" class="signal" id="6HV" text-anchor="end">
<text cb-classname="GraphicTextEntity" class="signal" fill="black" font-style="normal" font-weight="normal" id="6Hl" text-anchor="end" text-decoration="normal" x="4765" y="2127"/>
</g>
</g>
<g cb-classname="PointStatusIndicator" cb-indicator-type="highway" cb-source="tD-J55-gT" id="6Hu" visibility="hidden">
<line cb-classname="GraphicLineEntity" class="algorithmline" id="6HK" x1="4780" x2="4830" y1="2130" y2="2080"/>
<line cb-classname="GraphicLineEntity" class="algorithmline" id="6HF" x1="4830" x2="4880" y1="2080" y2="2130"/>
<line cb-classname="GraphicLineEntity" class="algorithmline" id="6Hh" x1="4880" x2="4830" y1="2130" y2="2180"/>
<line cb-classname="GraphicLineEntity" class="algorithmline" id="6BO" x1="4830" x2="4780" y1="2180" y2="2130"/>
</g>
<g cb-classname="PointStatusIndicator" cb-indicator-type="hardware" cb-source="cJ-t15-2S" id="6B4" visibility="hidden">
<line cb-classname="GraphicLineEntity" class="algorithmline" id="6BC" x1="4880" x2="4780" y1="2080" y2="2080"/>
<line cb-classname="GraphicLineEntity" class="algorithmline" id="6Bn" x1="4780" x2="4780" y1="2080" y2="2180"/>
<line cb-classname="GraphicLineEntity" class="algorithmline" id="6BV" x1="4780" x2="4880" y1="2180" y2="2180"/>
</g>
<g cb-classname="PointStatusIndicator" cb-indicator-type="alarm" cb-source="zD-LCl-2r" id="6Bl" visibility="visible">
<text cb-classname="GraphicTextEntity" class="algorithm" fill="#000000" font-family="Arial" font-size="20" id="6Bu" x="4890" y="2165">
A
</text>
</g>
<g cb-classname="PointStatusIndicator" cb-indicator-type="ingraphic" cb-source="EU-zj3-0W" id="6BK" visibility="hidden">
<text cb-classname="GraphicTextEntity" class="algorithm" fill="#000000" font-family="Arial" font-size="20" id="6BF" x="4890" y="2115">
G
</text>
</g>
<g cb-classname="DynamicText" cb-labeled="false" cb-pin-name="Ox" cb-source="tD-J55-gT" class="algorithm" id="6Bh" text-anchor="end">
<text baseline-shift="0%" cb-classname="GraphicTextEntity" class="algorithm" fill="black" font-family="arial" font-size="20" font-style="normal" font-weight="normal" id="65O" text-anchor="end" text-decoration="normal" x="4755" y="2105"/>
</g>
<g baseline-shift="-100%" cb-anchor-x="4755" cb-anchor-y="2140" cb-classname="PointReferences" cb-max-width="130" cb-originator="false" cb-source="98-UiW-Wn" class="signal" id="654" text-anchor="end">
<text baseline-shift="-100%" cb-classname="GraphicTextEntity" class="algorithm" id="65C" text-anchor="end" x="4755" y="2140">
REF: Point not
</text>
<text baseline-shift="-100%" cb-classname="GraphicTextEntity" class="algorithm" id="2NlH" text-anchor="end" x="4755" y="2165">
found in
</text>
<text baseline-shift="-100%" cb-classname="GraphicTextEntity" class="algorithm" id="2Nuo" text-anchor="end" x="4755" y="2190">
database
</text>
<text baseline-shift="-100%" cb-classname="GraphicTextEntity" class="algorithm" id="2NuM" text-anchor="end" x="4755" y="2215">
(01B0201D17-TR)
</text>
</g>
<g baseline-shift="-50%" cb-anchor-x="4935" cb-anchor-y="2145" cb-classname="PointDescription" cb-content="extended" cb-labeled="false" cb-max-width="240" cb-source="cJ-t15-2S" class="algorithm" id="65V" text-anchor="start">
<text baseline-shift="-50%" cb-classname="GraphicTextEntity" class="algorithm" id="65l" text-anchor="start" x="4935" y="2133">
DESC: Point not found in
</text>
<text baseline-shift="-50%" cb-classname="GraphicTextEntity" class="algorithm" id="1QCJ" text-anchor="start" x="4935" y="2158">
database (01B0201D17-TR)
</text>
</g>
</g>
</g>
<g cb-classname="IncludeDocument" cb-modify-time="09/25/2018 01:40:30" cb-objectname="Frame" id="5">
<text cb-classname="GraphicTextEntity" class="frame" font-size="50" id="3HCU" x="3660" y="3146">
Project Title &lt;Edit in FRAME.SVG&gt;
</text>
<g baseline-shift="-50%" cb-classname="DynamicText" cb-source="tD-FKe3-WH" class="frame" id="3HCJ">
<text cb-classname="GraphicTextEntity" class="frame" fill="black" font-family="arial" font-size="25" font-style="normal" font-weight="normal" id="3HCe" text-decoration="normal" x="4715" y="3325">
13
</text>
</g>
<g baseline-shift="-50%" cb-classname="DynamicText" cb-source="98-zjGM-vu" class="frame" id="3HCO" text-anchor="middle">
<text cb-classname="GraphicTextEntity" class="frame" fill="black" font-family="arial" font-size="48" font-style="normal" font-weight="normal" id="3HCc" text-anchor="middle" text-decoration="normal" x="4900" y="3320">
13
</text>
</g>
<g baseline-shift="-50%" cb-classname="DynamicText" cb-source="H1-35eZ-41" class="frame" id="3HCT" text-anchor="middle">
<text cb-classname="GraphicTextEntity" class="frame" fill="black" font-family="arial" font-size="48" font-style="normal" font-weight="normal" id="3HCH" text-anchor="middle" text-decoration="normal" x="5067" y="3324">
4
</text>
</g>
<g cb-classname="DynamicText" cb-source="76-UzNAA-u2nch" class="frame" id="3Hno">
<text cb-classname="GraphicTextEntity" class="frame" fill="black" font-family="arial" font-size="48" font-style="normal" font-weight="normal" id="3HnM" text-decoration="normal" x="3660" y="3224">
BFPT HP STEM LEAK DRN VLV - B0201D17
</text>
</g>
<g baseline-shift="-50%" cb-classname="DynamicText" cb-source="ij-f6lAu-rBkc0B" class="frame" id="3HnK" text-anchor="middle">
<text cb-classname="GraphicTextEntity" class="frame" fill="black" font-family="arial" font-size="48" font-style="normal" font-weight="normal" id="3HnU" text-anchor="middle" text-decoration="normal" x="5270" y="3324">
137
</text>
</g>
<g baseline-shift="0%" cb-classname="DynamicText" cb-source="Wp-eAs2W0dB" class="frame" id="3HnJ" text-anchor="middle">
<text cb-classname="GraphicTextEntity" class="frame" fill="black" font-family="arial" font-size="36" font-style="normal" font-weight="normal" id="3Hne" text-anchor="middle" text-decoration="normal" x="5270" y="3150">
A
</text>
</g>
<g baseline-shift="0%" cb-classname="DynamicText" cb-source="o0-hj20DgEl-64Kw" class="frame" id="3HnO" text-anchor="middle">
<text cb-classname="GraphicTextEntity" class="frame" fill="black" font-family="arial" font-size="20" font-style="normal" font-weight="normal" id="3Hnc" text-anchor="middle" text-decoration="normal" x="5270" y="3230">
12/28/2010
</text>
</g>
<g baseline-shift="-50%" cb-classname="DynamicText" cb-source="Zt-0OggTmI9" class="frame" id="3HnT" text-anchor="end">
<text cb-classname="GraphicTextEntity" class="frame" fill="black" font-family="arial" font-size="26" font-style="normal" font-weight="normal" id="3HnH" text-anchor="end" text-decoration="normal" x="4500" y="3420">
Heczko
</text>
</g>
<g baseline-shift="-50%" cb-classname="DynamicText" cb-source="4g-jrrWIL5J" class="frame" id="3HVo" text-anchor="end">
<text cb-classname="GraphicTextEntity" class="frame" fill="black" font-family="arial" font-size="26" font-style="normal" font-weight="normal" id="3HVM" text-anchor="end" text-decoration="normal" x="5353" y="3420">
Nemec
</text>
</g>
<g cb-classname="GraphicShape" cb-tag="BORDER" id="3HVK">
<line cb-classname="GraphicLineEntity" class="frameline" id="3HVU" x1="40" x2="40" y1="40" y2="3460"/>
<line cb-classname="GraphicLineEntity" class="frameline" id="3HVJ" x1="40" x2="5380" y1="3460" y2="3460"/>
<line cb-classname="GraphicLineEntity" class="frameline" id="3HVe" x1="5380" x2="5380" y1="3460" y2="40"/>
<line cb-classname="GraphicLineEntity" class="frameline" id="3HVO" x1="5380" x2="40" y1="40" y2="40"/>
<line cb-classname="GraphicLineEntity" class="frame" id="3HVc" x1="5430" x2="5440" y1="3510" y2="3510"/>
</g>
<g cb-classname="GraphicShape" cb-tag="TITLE BOX" id="3HVT">
<line cb-classname="GraphicLineEntity" class="frameline" id="3HVH" x1="2340" x2="2340" y1="3080" y2="3460"/>
<line cb-classname="GraphicLineEntity" class="frameline" id="3Hlo" x1="2340" x2="5380" y1="3080" y2="3080"/>
<line cb-classname="GraphicLineEntity" class="frameline" id="3HlM" x1="3650" x2="3650" y1="3460" y2="3080"/>
<line cb-classname="GraphicLineEntity" class="frameline" id="3HlK" x1="3650" x2="5380" y1="3240" y2="3240"/>
<line cb-classname="GraphicLineEntity" class="frameline" id="3HlU" x1="3650" x2="5380" y1="3390" y2="3390"/>
<line cb-classname="GraphicLineEntity" class="frameline" id="3HlJ" x1="3650" x2="5380" y1="3160" y2="3160"/>
<line cb-classname="GraphicLineEntity" class="frameline" id="3Hle" x1="3650" x2="4520" y1="3320" y2="3320"/>
<line cb-classname="GraphicLineEntity" class="frameline" id="3HlO" x1="4520" x2="5380" y1="3290" y2="3290"/>
<line cb-classname="GraphicLineEntity" class="frameline" id="3Hlc" x1="4520" x2="5380" y1="3240" y2="3240"/>
<line cb-classname="GraphicLineEntity" class="frameline" id="3HlT" x1="4520" x2="4520" y1="3240" y2="3460"/>
<line cb-classname="GraphicLineEntity" class="frameline" id="3HlH" x1="4810" x2="4810" y1="3240" y2="3390"/>
<line cb-classname="GraphicLineEntity" class="frameline" id="3Huo" x1="4990" x2="4990" y1="3240" y2="3390"/>
<line cb-classname="GraphicLineEntity" class="frameline" id="3HuM" x1="5150" x2="5150" y1="3080" y2="3390"/>
</g>
<g cb-classname="GraphicShape" cb-tag="TEXT LABELS" id="3HuK">
<text baseline-shift="-50%" cb-classname="GraphicTextEntity" class="frame" font-size="25" id="3HuU" text-anchor="middle" x="4890" y="3252">
Drop
</text>
<text baseline-shift="-50%" cb-classname="GraphicTextEntity" class="frame" font-size="25" id="3HuJ" text-anchor="middle" x="5075" y="3252">
Task
</text>
<text baseline-shift="-50%" cb-classname="GraphicTextEntity" class="frame" font-size="25" id="3Hue" text-anchor="middle" x="5265" y="3252">
Sheet
</text>
<text cb-classname="GraphicTextEntity" class="frame" font-size="25" id="3HuO" x="5152" y="3107">
Rev.
</text>
<text cb-classname="GraphicTextEntity" class="frame" font-size="25" id="3Huc" x="3653" y="3418">
Engineer
</text>
<text cb-classname="GraphicTextEntity" class="frame" font-size="25" id="3HuT" x="4528" y="3419">
Approved
</text>
<text cb-classname="GraphicTextEntity" class="frame" font-size="25" id="3HuH" x="5152" y="3187">
Date
</text>
<text baseline-shift="-50%" cb-classname="GraphicTextEntity" class="frame" font-size="25" id="3HKo" text-anchor="middle" x="4660" y="3252">
Drawing Number
</text>
<text baseline-shift="-50%" cb-classname="GraphicTextEntity" class="frame" font-size="25" id="3HKM" text-anchor="middle" x="4680" y="3325">
CTL
</text>
</g>
<text baseline-shift="-50%" cb-classname="GraphicTextEntity" class="frame" font-size="48" id="3HKK" text-anchor="middle" x="3000" y="3100">
EMERSON PROCESS MANAGEMENT
</text>
<g baseline-shift="-100%" cb-anchor-x="2360" cb-anchor-y="3140" cb-classname="GroupText" cb-max-width="1260" fill="black" id="3HKU">
<text baseline-shift="-100%" cb-classname="GraphicTextEntity" class="frame" fill="black" font-family="arial" font-size="22" font-weight="normal" id="3HKJ" text-anchor="start" text-decoration="normal" x="2360" y="3140">
THIS DOCUMENT CONTAINS INFORMATION PROPRIETARY TO EMERSON PROCESS
</text>
<text baseline-shift="-100%" cb-classname="GraphicTextEntity" class="frame" fill="black" font-family="arial" font-size="22" font-weight="normal" id="3HKe" text-anchor="start" text-decoration="normal" x="2360" y="3176">
MANAGEMENT POWER &amp; WATER SOLUTIONS, INC. IT IS SUBMITTED IN CONFIDENCE AND
</text>
<text baseline-shift="-100%" cb-classname="GraphicTextEntity" class="frame" fill="black" font-family="arial" font-size="22" font-weight="normal" id="3HKO" text-anchor="start" text-decoration="normal" x="2360" y="3212">
TRUST, IS TO BE USED BY YOU SOLELY FOR THE PURPOSES FOR WHICH IT IS
</text>
<text baseline-shift="-100%" cb-classname="GraphicTextEntity" class="frame" fill="black" font-family="arial" font-size="22" font-weight="normal" id="3HKc" text-anchor="start" text-decoration="normal" x="2360" y="3248">
FURNISHED AND IS TO BE RETURNED UPON REQUEST. THIS DOCUMENT AND ANY
</text>
<text baseline-shift="-100%" cb-classname="GraphicTextEntity" class="frame" fill="black" font-family="arial" font-size="22" font-weight="normal" id="3HKT" text-anchor="start" text-decoration="normal" x="2360" y="3284">
OTHER INFORMATION PROVIDED TO YOU IS NOT TO BE REPRODUCED, TRANSMITTED,
</text>
<text baseline-shift="-100%" cb-classname="GraphicTextEntity" class="frame" fill="black" font-family="arial" font-size="22" font-weight="normal" id="3HKH" text-anchor="start" text-decoration="normal" x="2360" y="3320">
DISCLOSED, OR USED OTHERWISE IN WHOLE OR IN PART WITHOUT THE PRIOR
</text>
<text baseline-shift="-100%" cb-classname="GraphicTextEntity" class="frame" fill="black" font-family="arial" font-size="22" font-weight="normal" id="3HFo" text-anchor="start" text-decoration="normal" x="2360" y="3356">
WRITTEN AUTHORIZATION OF EMERSON PROCESS MANAGEMENT POWER &amp; WATER
</text>
<text baseline-shift="-100%" cb-classname="GraphicTextEntity" class="frame" fill="black" font-family="arial" font-size="22" font-weight="normal" id="3HFM" text-anchor="start" text-decoration="normal" x="2360" y="3392">
SOLUTIONS,INC.
</text>
</g>
</g>
</svg>