<?xml version="1.0" ?><svg cb-auto-time="06/21/2008 15:26:34" cb-classname="ControlFunction" cb-create-time="03/12/2008" cb-drop-id="13" cb-engineer="Heczko" cb-filename="Z:\OVATION\NET0\UNIT0\CONTROLFUNCTIONS\01D1.svg" cb-function-id="01D1" cb-key="255112342443" cb-modified-timestamp="1489320150" cb-modify-id="00000002" cb-ortho-mode="enabled" cb-path="Z:/OVATION/NET0/UNIT0/CONTROLFUNCTIONS" cb-reviewer="Nemec" cb-revision="A" cb-revision-time="12/28/2010" cb-sheet-number="223" cb-sheet-title="A NO.5 EXTRACTION DRN VLV -T0300D04A" cb-snap-grid="10" cb-task-id="4" height="3707" id="1" width="5450" xmlns="http://www.w3.org/2000/svg">
<style cb-classname="EntityStyle" id="2" type="text/css">
	.algorithm { fill: white; stroke: black; stroke-linecap: round; stroke-width: 2 }
	.algorithm-function { fill: none; stroke: black; stroke-linecap: round; stroke-width: 2 }
	.algorithm-functionline { fill: none; stroke: black; stroke-linecap: round; stroke-width: 2 }
	.algorithm-name { fill: none; stroke: black; stroke-linecap: round; stroke-width: 2 }
	.algorithm-nameline { fill: none; stroke: black; stroke-linecap: round; stroke-width: 2 }
	.algorithm-sequence { fill: none; stroke: black; stroke-linecap: round; stroke-width: 2 }
	.algorithm-sequenceline { fill: none; stroke: black; stroke-linecap: round; stroke-width: 2 }
	.algorithmline { fill: none; stroke: black; stroke-linecap: round; stroke-width: 2 }
	.annotation { fill: none; stroke: black; stroke-linecap: round; stroke-width: 2 }
	.annotationline { fill: none; stroke: black; stroke-linecap: round; stroke-width: 2 }
	.frame { fill: none; stroke: black; stroke-linecap: round; stroke-width: 2 }
	.frameline { fill: none; stroke: black; stroke-linecap: round; stroke-width: 2 }
	.signal { fill: black; stroke: black; stroke-linecap: round; stroke-width: 2 }
	.signalline { fill: none; stroke: black; stroke-linecap: round; stroke-width: 2 }
	text.algorithm { fill: black; font-family: MS Shell Dlg 2; font-size: 14; stroke: none }
	text.algorithm-function { fill: black; font-family: MS Shell Dlg 2; font-size: 16; stroke: none }
	text.algorithm-name { fill: black; font-family: MS Shell Dlg 2; font-size: 16; stroke: none }
	text.algorithm-sequence { fill: black; font-family: MS Shell Dlg 2; font-size: 16; stroke: none }
	text.annotation { fill: black; font-family: MS Shell Dlg 2; font-size: 16; stroke: none }
	text.frame { fill: black; font-family: MS Shell Dlg 2; font-size: 16; stroke: none }
	text.signal { fill: black; font-family: MS Shell Dlg 2; font-size: 12; stroke: none }
</style>
<g cb-classname="NamedObject" cb-objectname="Comments" id="3">
<text cb-classname="GraphicTextEntity" class="annotation" fill="#000000" font-family="MS Shell Dlg 2" font-size="72" id="6f" x="3030" y="1500">
PCMS1
</text>
</g>
<g cb-classname="AlgorithmContainer" cb-objectname="Algorithms" id="4">
<g cb-alg-5hsh="128" cb-alg-6B3h="5" cb-alg-PkK="01T0300D04A-KB" cb-algorithm-id="002" cb-classname="ControlAlgorithm" cb-function-name="KEYBOARD" cb-modify-id="00000001" id="6k">
<rect cb-classname="GraphicRectangleEntity" class="annotation" height="200" id="62" stroke-width="1" width="140" x="1370" y="600"/>
<g cb-classname="ControlPin" cb-pin-name="C0-olp-Gqjd" id="6E">
<line cb-classname="GraphicLineEntity" class="signalline" id="6M" x1="1510" x2="1520" y1="610" y2="610"/>
<g cb-classname="DynamicText" cb-source="At-hDT-xoae" class="signal" id="7W" text-anchor="start">
<text cb-classname="GraphicTextEntity" class="signal" fill="black" font-style="normal" font-weight="normal" id="7X" text-anchor="start" text-decoration="normal" x="1524" y="607"/>
</g>
<g cb-classname="SignalSegment" id="7N">
<line cb-classname="GraphicLineEntity" class="signalline" id="7B" stroke="#1e12bf" stroke-dasharray="5,4" x1="1520" x2="2620" y1="610" y2="610"/>
<g cb-classname="SignalSegment" id="7p">
<line cb-classname="GraphicLineEntity" class="signalline" id="7f" stroke="#1e12bf" stroke-dasharray="5,4" x1="2620" x2="2620" y1="610" y2="680"/>
<g cb-classname="SignalSegment" id="7k">
<line cb-classname="GraphicLineEntity" class="signalline" id="72" stroke="#1e12bf" stroke-dasharray="5,4" x1="2620" x2="2770" y1="680" y2="680"/>
<g cb-classname="SignalConnection" cb-graphic-line="$77$" cb-input-pin="$p4l$" id="7E"/>
</g>
</g>
</g>
</g>
<g cb-classname="ControlPin" cb-pin-name="9O-HRz-8uGe" id="7M">
<line cb-classname="GraphicLineEntity" class="signalline" id="8W" x1="1510" x2="1520" y1="630" y2="630"/>
<g cb-classname="DynamicText" cb-source="C0-1D2-TD1f" class="signal" id="8X" text-anchor="start">
<text cb-classname="GraphicTextEntity" class="signal" fill="black" font-style="normal" font-weight="normal" id="8N" text-anchor="start" text-decoration="normal" x="1524" y="627"/>
</g>
<g cb-classname="SignalSegment" id="8B">
<line cb-classname="GraphicLineEntity" class="signalline" id="8p" stroke="#1e12bf" stroke-dasharray="5,4" x1="1520" x2="2590" y1="630" y2="630"/>
<g cb-classname="SignalSegment" id="8f">
<line cb-classname="GraphicLineEntity" class="signalline" id="8k" stroke="#1e12bf" stroke-dasharray="5,4" x1="2590" x2="2590" y1="630" y2="720"/>
<g cb-classname="SignalSegment" id="82">
<line cb-classname="GraphicLineEntity" class="signalline" id="8E" stroke="#1e12bf" stroke-dasharray="5,4" x1="2590" x2="2770" y1="720" y2="720"/>
<g cb-classname="SignalConnection" cb-graphic-line="$88$" cb-input-pin="$qZV$" id="8M"/>
</g>
</g>
</g>
</g>
<g cb-classname="ControlPin" cb-pin-name="9e-XNy-pEnP" id="9W">
<line cb-classname="GraphicLineEntity" class="signalline" id="9X" x1="1510" x2="1520" y1="650" y2="650"/>
<g cb-classname="DynamicText" cb-source="9O-PcM-2cBS" class="signal" id="9N" text-anchor="start">
<text cb-classname="GraphicTextEntity" class="signal" fill="black" font-style="normal" font-weight="normal" id="9B" text-anchor="start" text-decoration="normal" x="1524" y="647"/>
</g>
</g>
<g cb-classname="ControlPin" cb-pin-name="p4-oHE-zKn" id="1W4">
<line cb-classname="GraphicLineEntity" class="signalline" id="1Wy" x1="1510" x2="1520" y1="670" y2="670"/>
<g cb-classname="DynamicText" cb-source="9e-Weh-nzf8" class="signal" id="1WX" text-anchor="start">
<text cb-classname="GraphicTextEntity" class="signal" fill="black" font-style="normal" font-weight="normal" id="1WJ" text-anchor="start" text-decoration="normal" x="1524" y="667"/>
</g>
</g>
<g cb-classname="ControlPin" cb-pin-name="8V-DJ4-WKm" id="1Xy">
<line cb-classname="GraphicLineEntity" class="signalline" id="1XX" x1="1510" x2="1520" y1="700" y2="700"/>
<g cb-classname="DynamicText" cb-source="p4-i4u-hKND" class="signal" id="1XJ" text-anchor="start">
<text cb-classname="GraphicTextEntity" class="signal" fill="black" font-style="normal" font-weight="normal" id="1XD" text-anchor="start" text-decoration="normal" x="1524" y="697"/>
</g>
<g cb-classname="SignalSegment" id="1XT">
<line cb-classname="GraphicLineEntity" class="signalline" id="1XN" stroke="#1e12bf" stroke-dasharray="5,4" x1="1520" x2="2500" y1="700" y2="700"/>
<g cb-classname="SignalSegment" id="1XH">
<line cb-classname="GraphicLineEntity" class="signalline" id="1Xu" stroke="#1e12bf" stroke-dasharray="5,4" x1="2500" x2="2500" y1="700" y2="840"/>
<g cb-classname="SignalSegment" id="1NF">
<line cb-classname="GraphicLineEntity" class="signalline" id="1N4" stroke="#1e12bf" stroke-dasharray="5,4" x1="2500" x2="2770" y1="840" y2="840"/>
<g cb-classname="SignalConnection" cb-graphic-line="$121$" cb-input-pin="$Sqn$" id="1Ny"/>
</g>
</g>
</g>
</g>
<g cb-classname="ControlPin" cb-pin-name="G7-cZZ-iNK" id="1NX">
<line cb-classname="GraphicLineEntity" class="signalline" id="1NJ" x1="1510" x2="1520" y1="720" y2="720"/>
<g cb-classname="DynamicText" cb-source="8V-qSd-ubzZ" class="signal" id="1ND" text-anchor="start">
<text cb-classname="GraphicTextEntity" class="signal" fill="black" font-style="normal" font-weight="normal" id="1NT" text-anchor="start" text-decoration="normal" x="1524" y="717"/>
</g>
<g cb-classname="SignalSegment" id="1NN">
<line cb-classname="GraphicLineEntity" class="signalline" id="1NH" stroke="#1e12bf" stroke-dasharray="5,4" x1="1520" x2="2470" y1="720" y2="720"/>
<g cb-classname="SignalSegment" id="1Nu">
<line cb-classname="GraphicLineEntity" class="signalline" id="1BF" stroke="#1e12bf" stroke-dasharray="5,4" x1="2470" x2="2470" y1="720" y2="880"/>
<g cb-classname="SignalSegment" id="1B4">
<line cb-classname="GraphicLineEntity" class="signalline" id="1By" stroke="#1e12bf" stroke-dasharray="5,4" x1="2470" x2="2770" y1="880" y2="880"/>
<g cb-classname="SignalConnection" cb-graphic-line="$132$" cb-input-pin="$MCl$" id="1BX"/>
</g>
</g>
</g>
</g>
<g cb-classname="ControlPin" cb-pin-name="UT-p4g-qH7" id="1BJ">
<line cb-classname="GraphicLineEntity" class="signalline" id="1BD" x1="1510" x2="1520" y1="740" y2="740"/>
<g cb-classname="DynamicText" cb-source="G7-Cgk-dYFs" class="signal" id="1BT" text-anchor="start">
<text cb-classname="GraphicTextEntity" class="signal" fill="black" font-style="normal" font-weight="normal" id="1BN" text-anchor="start" text-decoration="normal" x="1524" y="737"/>
</g>
</g>
<g cb-classname="ControlPin" cb-pin-name="8V-DJ4-WKt" id="1BH">
<line cb-classname="GraphicLineEntity" class="signalline" id="1Bu" x1="1510" x2="1520" y1="760" y2="760"/>
<g cb-classname="DynamicText" cb-source="p4-i4u-hKND" class="signal" id="1pF" text-anchor="start">
<text cb-classname="GraphicTextEntity" class="signal" fill="black" font-style="normal" font-weight="normal" id="1p4" text-anchor="start" text-decoration="normal" x="1524" y="757"/>
</g>
</g>
<text cb-classname="GraphicTextEntity" class="annotation" fill="#000000" font-family="MS Shell Dlg 2" font-size="8" id="1py" x="1410" y="690">
KEYBOARD
</text>
<g cb-classname="DynamicText" cb-labeled="false" cb-source="At-6u8-lzd" class="algorithm" id="1BXl" text-anchor="start">
<text cb-classname="GraphicTextEntity" class="algorithm" fill="black" font-style="normal" font-weight="normal" id="1BXo" text-anchor="start" text-decoration="normal" x="1370" y="580"/>
</g>
<g cb-classname="ControlPin" cb-pin-name="UT-p4g-qHF" id="12HO">
<line cb-classname="GraphicLineEntity" class="signalline" id="12Hj" x1="1510" x2="1520" y1="780" y2="780"/>
<g cb-classname="DynamicText" cb-source="G7-Cgk-dYFs" class="signal" id="12H2" text-anchor="start">
<text cb-classname="GraphicTextEntity" class="signal" fill="black" font-style="normal" font-weight="normal" id="12Hr" text-anchor="start" text-decoration="normal" x="1524" y="777"/>
</g>
<g cb-classname="SignalSegment" id="12uO">
<line cb-classname="GraphicLineEntity" class="signalline" id="12uj" stroke="#1e12bf" stroke-dasharray="5,4" x1="1520" x2="2440" y1="780" y2="780"/>
<g cb-classname="SignalSegment" id="12u2">
<line cb-classname="GraphicLineEntity" class="signalline" id="12ur" stroke="#1e12bf" stroke-dasharray="5,4" x1="2440" x2="2440" y1="780" y2="920"/>
<g cb-classname="SignalSegment" id="12uG">
<g cb-classname="SignalConnection" cb-graphic-line="$1802$" cb-input-pin="$K9yI$" id="1EFw"/>
<line cb-classname="GraphicLineEntity" class="signalline" id="1EFo" stroke="#1e12bf" stroke-dasharray="5,4" x1="2440" x2="2780" y1="920" y2="920"/>
</g>
</g>
</g>
</g>
</g>
<g cb-alg-oJhK="NO" cb-alg-oje="01T03G01-P09" cb-algorithm-id="003" cb-classname="ExternalPointInterface" cb-function-name="INPUT" id="1pX">
<ellipse cb-classname="GraphicEllipseEntity" class="algorithm" cx="580" cy="1170" id="1pJ" rx="50" ry="50"/>
<rect cb-classname="GraphicRectangleEntity" class="algorithm" height="100" id="1pD" width="40" x="490" y="1120"/>
<line cb-classname="GraphicLineEntity" class="algorithm" id="1pT" x1="490" x2="530" y1="1170" y2="1170"/>
<g cb-classname="ControlPin" cb-pin-name="UT-p4g-NBA" id="1pN">
<line cb-classname="GraphicLineEntity" class="signalline" id="1pH" x1="630" x2="660" y1="1170" y2="1170"/>
<g cb-classname="DynamicText" cb-source="G7-Cgk-dYFs" class="signal" id="1pu" text-anchor="start">
<text cb-classname="GraphicTextEntity" class="signal" fill="black" font-style="normal" font-weight="normal" id="1fF" text-anchor="start" text-decoration="normal" x="644" y="1167"/>
</g>
<g cb-classname="SignalSegment" id="1f4">
<line cb-classname="GraphicLineEntity" class="signalline" id="1fy" stroke="#1e12bf" stroke-dasharray="5,4" x1="660" x2="2610" y1="1170" y2="1170"/>
<g cb-classname="SignalSegment" id="1fX">
<line cb-classname="GraphicLineEntity" class="signalline" id="1fJ" stroke="#1e12bf" stroke-dasharray="5,4" x1="2610" x2="2610" y1="1170" y2="1210"/>
<g cb-classname="SignalSegment" id="1fD">
<line cb-classname="GraphicLineEntity" class="signalline" id="1fT" stroke="#1e12bf" stroke-dasharray="5,4" x1="2610" x2="2770" y1="1210" y2="1210"/>
<g cb-classname="SignalConnection" cb-graphic-line="$156$" cb-input-pin="$Je7$" id="1fN"/>
</g>
</g>
</g>
</g>
<g cb-classname="PointStatusIndicator" cb-indicator-type="Highway" cb-source="Rp-v3t-O9F" id="1fH" visibility="hidden">
<line cb-classname="GraphicLineEntity" class="algorithmline" id="1fu" x1="530" x2="580" y1="1170" y2="1120"/>
<line cb-classname="GraphicLineEntity" class="algorithmline" id="1kF" x1="580" x2="630" y1="1120" y2="1170"/>
<line cb-classname="GraphicLineEntity" class="algorithmline" id="1k4" x1="630" x2="580" y1="1170" y2="1220"/>
<line cb-classname="GraphicLineEntity" class="algorithmline" id="1ky" x1="580" x2="530" y1="1220" y2="1170"/>
</g>
<g cb-classname="PointStatusIndicator" cb-indicator-type="hardware" cb-source="Ug-7OO-wHx" id="1kX" visibility="hidden">
<line cb-classname="GraphicLineEntity" class="algorithmline" id="1kJ" x1="530" x2="630" y1="1120" y2="1120"/>
<line cb-classname="GraphicLineEntity" class="algorithmline" id="1kD" x1="630" x2="630" y1="1120" y2="1220"/>
<line cb-classname="GraphicLineEntity" class="algorithmline" id="1kT" x1="630" x2="530" y1="1220" y2="1220"/>
</g>
<g cb-classname="PointStatusIndicator" cb-indicator-type="alarm" cb-source="AC-YV4-eKn" id="1kN" visibility="hidden">
<text cb-classname="GraphicTextEntity" class="algorithm" fill="#000000" font-family="arial" font-size="20" id="1kH" x="500" y="1155">
A
</text>
</g>
<g cb-classname="PointStatusIndicator" cb-indicator-type="ingraphic" cb-source="cD-sj9-eKy" id="1ku" visibility="hidden">
<text cb-classname="GraphicTextEntity" class="algorithm" fill="#000000" font-family="Arial" font-size="20" id="12F" x="500" y="1205">
G
</text>
</g>
<g baseline-shift="-50%" cb-anchor-x="480" cb-anchor-y="1184" cb-classname="PointDescription" cb-content="extended" cb-labeled="false" cb-max-width="220" cb-source="Rp-v3t-O9F" class="algorithm" id="124" text-anchor="end">
<text baseline-shift="-50%" cb-classname="GraphicTextEntity" class="algorithm" id="12y" text-anchor="end" x="480" y="1172">
DESC: Point not found in
</text>
<text baseline-shift="-50%" cb-classname="GraphicTextEntity" class="algorithm" id="2EHw" text-anchor="end" x="480" y="1197">
database (01T03G01-P09)
</text>
</g>
<g cb-classname="DynamicText" cb-labeled="false" cb-pin-name="EDY" cb-source="UT-p4g-NBA" class="algorithm" id="12X" text-anchor="start">
<text baseline-shift="0%" cb-classname="GraphicTextEntity" class="algorithm" fill="black" font-family="arial" font-size="20" font-style="normal" font-weight="normal" id="12J" text-anchor="start" text-decoration="normal" x="650" y="1140"/>
</g>
<g baseline-shift="-100%" cb-anchor-x="650" cb-anchor-y="1180" cb-classname="PointReferences" cb-max-width="230" cb-originator="true" cb-source="G7-cZZ-rCy" class="signal" id="12D" text-anchor="start">
<text baseline-shift="-100%" cb-classname="GraphicTextEntity" class="algorithm" id="12T" text-anchor="start" x="650" y="1180">
REF: Point not found in
</text>
<text baseline-shift="-100%" cb-classname="GraphicTextEntity" class="algorithm" id="2EHO" text-anchor="start" x="650" y="1205">
database (01T03G01-P09)
</text>
</g>
</g>
<g cb-alg-J46="01LS313A-NO" cb-alg-JngZ="NO" cb-algorithm-id="005" cb-classname="ExternalPointInterface" cb-function-name="INPUT" id="12N">
<ellipse cb-classname="GraphicEllipseEntity" class="algorithm" cx="580" cy="1420" id="12H" rx="50" ry="50"/>
<rect cb-classname="GraphicRectangleEntity" class="algorithm" height="100" id="12u" width="40" x="490" y="1370"/>
<line cb-classname="GraphicLineEntity" class="algorithm" id="1EF" x1="490" x2="530" y1="1420" y2="1420"/>
<g cb-classname="ControlPin" cb-pin-name="9e-XNy-jEn" id="1E4">
<line cb-classname="GraphicLineEntity" class="signalline" id="1Ey" x1="630" x2="660" y1="1420" y2="1420"/>
<g cb-classname="DynamicText" cb-source="9O-PcM-2cBS" class="signal" id="1EX" text-anchor="start">
<text cb-classname="GraphicTextEntity" class="signal" fill="black" font-style="normal" font-weight="normal" id="1EJ" text-anchor="start" text-decoration="normal" x="644" y="1417"/>
</g>
<g cb-classname="SignalSegment" id="1ED">
<line cb-classname="GraphicLineEntity" class="signalline" id="1ET" stroke="#1e12bf" stroke-dasharray="5,4" x1="660" x2="2620" y1="1420" y2="1420"/>
<g cb-classname="SignalSegment" id="1EN">
<line cb-classname="GraphicLineEntity" class="signalline" id="1EH" stroke="#1e12bf" stroke-dasharray="5,4" x1="2620" x2="2620" y1="1420" y2="1470"/>
<g cb-classname="SignalSegment" id="1Eu">
<line cb-classname="GraphicLineEntity" class="signalline" id="1MF" stroke="#1e12bf" stroke-dasharray="5,4" x1="2620" x2="2770" y1="1470" y2="1470"/>
<g cb-classname="SignalConnection" cb-graphic-line="$190$" cb-input-pin="$Muz$" id="1M4"/>
</g>
</g>
</g>
</g>
<g cb-classname="PointStatusIndicator" cb-indicator-type="Highway" cb-source="p4-oHE-qa5" id="1My" visibility="visible">
<line cb-classname="GraphicLineEntity" class="algorithmline" id="1MX" x1="530" x2="580" y1="1420" y2="1370"/>
<line cb-classname="GraphicLineEntity" class="algorithmline" id="1MJ" x1="580" x2="630" y1="1370" y2="1420"/>
<line cb-classname="GraphicLineEntity" class="algorithmline" id="1MD" x1="630" x2="580" y1="1420" y2="1470"/>
<line cb-classname="GraphicLineEntity" class="algorithmline" id="1MT" x1="580" x2="530" y1="1470" y2="1420"/>
</g>
<g cb-classname="PointStatusIndicator" cb-indicator-type="hardware" cb-source="Rp-v3t-O9F" id="1MN" visibility="visible">
<line cb-classname="GraphicLineEntity" class="algorithmline" id="1MH" x1="530" x2="630" y1="1370" y2="1370"/>
<line cb-classname="GraphicLineEntity" class="algorithmline" id="1Mu" x1="630" x2="630" y1="1370" y2="1470"/>
<line cb-classname="GraphicLineEntity" class="algorithmline" id="2WF" x1="630" x2="530" y1="1470" y2="1470"/>
</g>
<g cb-classname="PointStatusIndicator" cb-indicator-type="alarm" cb-source="G7-cZZ-rCy" id="2W4" visibility="visible">
<text cb-classname="GraphicTextEntity" class="algorithm" fill="#000000" font-family="arial" font-size="20" id="2Wy" x="500" y="1405">
A
</text>
</g>
<g cb-classname="PointStatusIndicator" cb-indicator-type="ingraphic" cb-source="8V-DJ4-GuZ" id="2WX" visibility="visible">
<text cb-classname="GraphicTextEntity" class="algorithm" fill="#000000" font-family="Arial" font-size="20" id="2WJ" x="500" y="1455">
G
</text>
</g>
<g baseline-shift="-50%" cb-anchor-x="480" cb-anchor-y="1434" cb-classname="PointDescription" cb-content="extended" cb-labeled="false" cb-max-width="220" cb-source="p4-oHE-qa5" class="algorithm" id="2WD" text-anchor="end">
<text baseline-shift="-50%" cb-classname="GraphicTextEntity" class="algorithm" id="2WT" text-anchor="end" x="480" y="1422">
DESC: Point not found in
</text>
<text baseline-shift="-50%" cb-classname="GraphicTextEntity" class="algorithm" id="12N2" text-anchor="end" x="480" y="1447">
database (01LS313A-NO)
</text>
</g>
<g cb-classname="DynamicText" cb-labeled="false" cb-pin-name="23p" cb-source="9e-XNy-jEn" class="algorithm" id="2WN" text-anchor="start">
<text baseline-shift="0%" cb-classname="GraphicTextEntity" class="algorithm" fill="black" font-family="arial" font-size="20" font-style="normal" font-weight="normal" id="2WH" text-anchor="start" text-decoration="normal" x="650" y="1390"/>
</g>
<g baseline-shift="-100%" cb-anchor-x="650" cb-anchor-y="1430" cb-classname="PointReferences" cb-max-width="230" cb-originator="true" cb-source="9O-HRz-J46" class="signal" id="2Wu" text-anchor="start">
<text baseline-shift="-100%" cb-classname="GraphicTextEntity" class="algorithm" id="2XF" text-anchor="start" x="650" y="1430">
REF: Point not found in
</text>
<text baseline-shift="-100%" cb-classname="GraphicTextEntity" class="algorithm" id="2EH2" text-anchor="start" x="650" y="1455">
database (01LS313A-NO)
</text>
</g>
</g>
<g cb-alg-dDvz="69" cb-alg-nHRx="0" cb-algorithm-id="006" cb-classname="ControlAlgorithm" cb-function-name="DVALGEN" cb-modify-id="00000001" id="2X4">
<rect cb-classname="GraphicRectangleEntity" class="algorithm" height="100" id="2Xy" width="140" x="1370" y="1470"/>
<text baseline-shift="-50%" cb-classname="GraphicTextEntity" class="algorithm" fill="#000000" font-family="MS Shell Dlg" font-size="18" id="2XX" text-anchor="middle" x="1440" y="1520">
DVALGEN
</text>
<g cb-classname="ControlPin" cb-pin-name="G7-cZZ-rCy" id="2XJ">
<line cb-classname="GraphicLineEntity" class="signalline" id="2XD" x1="1510" x2="1530" y1="1520" y2="1520"/>
<g cb-classname="DynamicText" cb-source="8V-qSd-ubzZ" class="signal" id="2XT" text-anchor="start">
<text cb-classname="GraphicTextEntity" class="signal" fill="black" font-style="normal" font-weight="normal" id="2XN" text-anchor="start" text-decoration="normal" x="1524" y="1517"/>
</g>
<g cb-classname="SignalSegment" id="2XH">
<line cb-classname="GraphicLineEntity" class="signalline" id="2Xu" stroke="#1e12bf" stroke-dasharray="5,4" x1="1530" x2="2680" y1="1520" y2="1520"/>
<g cb-classname="SignalSegment" id="2NF">
<line cb-classname="GraphicLineEntity" class="signalline" id="2N4" stroke="#1e12bf" stroke-dasharray="5,4" x1="2680" x2="2680" y1="1520" y2="1250"/>
<g cb-classname="SignalSegment" id="2Ny">
<line cb-classname="GraphicLineEntity" class="signalline" id="2NX" stroke="#1e12bf" stroke-dasharray="5,4" x1="2680" x2="2770" y1="1250" y2="1250"/>
<g cb-classname="SignalConnection" cb-graphic-line="$223$" cb-input-pin="$MQl$" id="2NJ"/>
</g>
<line cb-classname="GraphicLineEntity" class="signalline" id="2ND" stroke="#1e12bf" stroke-dasharray="5,4" x1="2680" x2="2770" y1="1520" y2="1520"/>
<g cb-classname="SignalConnection" cb-graphic-line="$225$" cb-input-pin="$S4n$" id="2NT"/>
<ellipse cb-classname="GraphicEllipseEntity" class="signal" cx="2680" cy="1520" fill="#1e12bf" id="2NN" rx="5" ry="5" stroke="#1e12bf" stroke-dasharray="5,4"/>
<line cb-classname="GraphicLineEntity" class="signalline" id="1Byw" stroke="#1e12bf" stroke-dasharray="5,4" x1="2680" x2="2680" y1="1520" y2="2020"/>
<g cb-classname="SignalSegment" id="1Bye">
<line cb-classname="GraphicLineEntity" class="signalline" id="1ByO" stroke="#1e12bf" stroke-dasharray="5,4" x1="2680" x2="2770" y1="2020" y2="2020"/>
<g cb-classname="SignalConnection" cb-graphic-line="$1325$" cb-input-pin="$pNj$" id="1Byj"/>
</g>
</g>
</g>
</g>
<g cb-classname="DynamicText" cb-labeled="true" cb-source="9O-HRz-7cZV" class="algorithm" id="1By2" text-anchor="start">
<text cb-classname="GraphicTextEntity" class="algorithm" fill="black" font-style="normal" font-weight="normal" id="1Byr" text-anchor="start" text-decoration="normal" x="1400" y="1460"/>
</g>
</g>
<g cb-alg-67OB="1" cb-alg-PgDO="69" cb-algorithm-id="007" cb-classname="ControlAlgorithm" cb-function-name="DVALGEN" cb-modify-id="00000001" id="2BF">
<rect cb-classname="GraphicRectangleEntity" class="algorithm" height="100" id="2B4" width="140" x="1370" y="1630"/>
<text baseline-shift="-50%" cb-classname="GraphicTextEntity" class="algorithm" fill="#000000" font-family="MS Shell Dlg" font-size="18" id="2By" text-anchor="middle" x="1440" y="1680">
DVALGEN
</text>
<g cb-classname="ControlPin" cb-pin-name="9e-XNy-jEn" id="2BX">
<line cb-classname="GraphicLineEntity" class="signalline" id="2BJ" x1="1510" x2="1530" y1="1680" y2="1680"/>
<g cb-classname="DynamicText" cb-source="9O-PcM-2cBS" class="signal" id="2BD" text-anchor="start">
<text cb-classname="GraphicTextEntity" class="signal" fill="black" font-style="normal" font-weight="normal" id="2BT" text-anchor="start" text-decoration="normal" x="1524" y="1677"/>
</g>
<g cb-classname="SignalSegment" id="2BN">
<line cb-classname="GraphicLineEntity" class="signalline" id="2BH" stroke="#1e12bf" stroke-dasharray="5,4" x1="1530" x2="2610" y1="1680" y2="1680"/>
<g cb-classname="SignalSegment" id="2Bu">
<line cb-classname="GraphicLineEntity" class="signalline" id="2pF" stroke="#1e12bf" stroke-dasharray="5,4" x1="2610" x2="2610" y1="1680" y2="1730"/>
<g cb-classname="SignalSegment" id="2p4">
<line cb-classname="GraphicLineEntity" class="signalline" id="2py" stroke="#1e12bf" stroke-dasharray="5,4" x1="2610" x2="2770" y1="1730" y2="1730"/>
<g cb-classname="SignalConnection" cb-graphic-line="$242$" cb-input-pin="$M9g$" id="2pX"/>
</g>
<line cb-classname="GraphicLineEntity" class="signalline" id="2pJ" stroke="#1e12bf" stroke-dasharray="5,4" x1="2610" x2="2770" y1="1680" y2="1680"/>
<g cb-classname="SignalConnection" cb-graphic-line="$244$" cb-input-pin="$qHV$" id="2pD"/>
<ellipse cb-classname="GraphicEllipseEntity" class="signal" cx="2610" cy="1680" fill="#1e12bf" id="2pT" rx="5" ry="5" stroke="#1e12bf" stroke-dasharray="5,4"/>
</g>
</g>
</g>
<g cb-classname="DynamicText" cb-labeled="true" cb-source="C0-olp-SDJN" class="algorithm" id="1ByG" text-anchor="start">
<text cb-classname="GraphicTextEntity" class="algorithm" fill="black" font-style="normal" font-weight="normal" id="1BXi" text-anchor="start" text-decoration="normal" x="1400" y="1620"/>
</g>
</g>
<g cb-alg-G3S4="NO" cb-alg-GV3="01T0300D04A-EPO" cb-algorithm-id="009" cb-classname="ExternalPointInterface" cb-function-name="INPUT" id="2EX">
<ellipse cb-classname="GraphicEllipseEntity" class="algorithm" cx="580" cy="1980" id="2EJ" rx="50" ry="50"/>
<rect cb-classname="GraphicRectangleEntity" class="algorithm" height="100" id="2ED" width="40" x="490" y="1930"/>
<line cb-classname="GraphicLineEntity" class="algorithm" id="2ET" x1="490" x2="530" y1="1980" y2="1980"/>
<g cb-classname="ControlPin" cb-pin-name="9O-HRz-J46" id="2EN">
<line cb-classname="GraphicLineEntity" class="signalline" id="2EH" x1="630" x2="660" y1="1980" y2="1980"/>
<g cb-classname="DynamicText" cb-source="C0-1D2-TD1f" class="signal" id="2Eu" text-anchor="start">
<text cb-classname="GraphicTextEntity" class="signal" fill="black" font-style="normal" font-weight="normal" id="2MF" text-anchor="start" text-decoration="normal" x="644" y="1977"/>
</g>
<g cb-classname="SignalSegment" id="2M4">
<line cb-classname="GraphicLineEntity" class="signalline" id="2My" stroke="#1e12bf" stroke-dasharray="5,4" x1="660" x2="2380" y1="1980" y2="1980"/>
<g cb-classname="SignalSegment" id="2MX">
<line cb-classname="GraphicLineEntity" class="signalline" id="2MJ" stroke="#1e12bf" stroke-dasharray="5,4" x1="2380" x2="2380" y1="1980" y2="2060"/>
<g cb-classname="SignalSegment" id="2MD">
<line cb-classname="GraphicLineEntity" class="signalline" id="2MT" stroke="#1e12bf" stroke-dasharray="5,4" x1="2380" x2="2780" y1="2060" y2="2060"/>
<g cb-classname="SignalConnection" cb-graphic-line="$296$" cb-input-pin="$qGq$" id="2MN"/>
</g>
</g>
</g>
</g>
<g cb-classname="PointStatusIndicator" cb-indicator-type="Highway" cb-source="9e-XNy-jEn" id="2MH" visibility="hidden">
<line cb-classname="GraphicLineEntity" class="algorithmline" id="2Mu" x1="530" x2="580" y1="1980" y2="1930"/>
<line cb-classname="GraphicLineEntity" class="algorithmline" id="3WF" x1="580" x2="630" y1="1930" y2="1980"/>
<line cb-classname="GraphicLineEntity" class="algorithmline" id="3W4" x1="630" x2="580" y1="1980" y2="2030"/>
<line cb-classname="GraphicLineEntity" class="algorithmline" id="3Wy" x1="580" x2="530" y1="2030" y2="1980"/>
</g>
<g cb-classname="PointStatusIndicator" cb-indicator-type="hardware" cb-source="UT-p4g-NBA" id="3WX" visibility="visible">
<line cb-classname="GraphicLineEntity" class="algorithmline" id="3WJ" x1="530" x2="630" y1="1930" y2="1930"/>
<line cb-classname="GraphicLineEntity" class="algorithmline" id="3WD" x1="630" x2="630" y1="1930" y2="2030"/>
<line cb-classname="GraphicLineEntity" class="algorithmline" id="3WT" x1="630" x2="530" y1="2030" y2="2030"/>
</g>
<g cb-classname="PointStatusIndicator" cb-indicator-type="alarm" cb-source="8V-DJ4-GuZ" id="3WN" visibility="hidden">
<text cb-classname="GraphicTextEntity" class="algorithm" fill="#000000" font-family="arial" font-size="20" id="3WH" x="500" y="1965">
A
</text>
</g>
<g cb-classname="PointStatusIndicator" cb-indicator-type="ingraphic" cb-source="p4-oHE-qa5" id="3Wu" visibility="visible">
<text cb-classname="GraphicTextEntity" class="algorithm" fill="#000000" font-family="Arial" font-size="20" id="3XF" x="500" y="2015">
G
</text>
</g>
<g baseline-shift="-50%" cb-anchor-x="480" cb-anchor-y="1994" cb-classname="PointDescription" cb-content="extended" cb-labeled="false" cb-max-width="220" cb-source="9e-XNy-jEn" class="algorithm" id="3X4" text-anchor="end">
<text baseline-shift="-50%" cb-classname="GraphicTextEntity" class="algorithm" id="3Xy" text-anchor="end" x="480" y="1969">
DESC: Point not found in
</text>
<text baseline-shift="-50%" cb-classname="GraphicTextEntity" class="algorithm" id="12Nr" text-anchor="end" x="480" y="1994">
database
</text>
<text baseline-shift="-50%" cb-classname="GraphicTextEntity" class="algorithm" id="2EHG" text-anchor="end" x="480" y="2019">
(01T0300D04A-EPO)
</text>
</g>
<g cb-classname="DynamicText" cb-labeled="false" cb-pin-name="Gzt" cb-source="9O-HRz-J46" class="algorithm" id="3XX" text-anchor="start">
<text baseline-shift="0%" cb-classname="GraphicTextEntity" class="algorithm" fill="black" font-family="arial" font-size="20" font-style="normal" font-weight="normal" id="3XJ" text-anchor="start" text-decoration="normal" x="650" y="1950"/>
</g>
<g baseline-shift="-100%" cb-anchor-x="650" cb-anchor-y="1990" cb-classname="PointReferences" cb-max-width="230" cb-originator="true" cb-source="C0-olp-GV3" class="signal" id="3XD" text-anchor="start">
<text baseline-shift="-100%" cb-classname="GraphicTextEntity" class="algorithm" id="3XT" text-anchor="start" x="650" y="1990">
REF: Point not found in
</text>
<text baseline-shift="-100%" cb-classname="GraphicTextEntity" class="algorithm" id="2Eui" text-anchor="start" x="650" y="2015">
database
</text>
<text baseline-shift="-100%" cb-classname="GraphicTextEntity" class="algorithm" id="2Eul" text-anchor="start" x="650" y="2040">
(01T0300D04A-EPO)
</text>
</g>
</g>
<g cb-alg-4NDp="NO" cb-alg-4xR="01T0300D04A-EPZ" cb-algorithm-id="00a" cb-classname="ExternalPointInterface" cb-function-name="INPUT" id="3XN">
<ellipse cb-classname="GraphicEllipseEntity" class="algorithm" cx="580" cy="2100" id="3XH" rx="50" ry="50"/>
<rect cb-classname="GraphicRectangleEntity" class="algorithm" height="100" id="3Xu" width="40" x="490" y="2050"/>
<line cb-classname="GraphicLineEntity" class="algorithm" id="3NF" x1="490" x2="530" y1="2100" y2="2100"/>
<g cb-classname="ControlPin" cb-pin-name="N1-lzd-U0S" id="3N4">
<line cb-classname="GraphicLineEntity" class="signalline" id="3Ny" x1="630" x2="660" y1="2100" y2="2100"/>
<g cb-classname="DynamicText" cb-source="AC-E5f-Wpgh" class="signal" id="3NX" text-anchor="start">
<text cb-classname="GraphicTextEntity" class="signal" fill="black" font-style="normal" font-weight="normal" id="3NJ" text-anchor="start" text-decoration="normal" x="644" y="2097"/>
</g>
<g cb-classname="SignalSegment" id="3ND">
<line cb-classname="GraphicLineEntity" class="signalline" id="3NT" stroke="#1e12bf" stroke-dasharray="5,4" x1="660" x2="2760" y1="2100" y2="2100"/>
<g cb-classname="SignalConnection" cb-graphic-line="$326$" cb-input-pin="$ea3$" id="3NN"/>
</g>
</g>
<g cb-classname="PointStatusIndicator" cb-indicator-type="Highway" cb-source="C0-olp-GV3" id="3NH" visibility="hidden">
<line cb-classname="GraphicLineEntity" class="algorithmline" id="3Nu" x1="530" x2="580" y1="2100" y2="2050"/>
<line cb-classname="GraphicLineEntity" class="algorithmline" id="3BF" x1="580" x2="630" y1="2050" y2="2100"/>
<line cb-classname="GraphicLineEntity" class="algorithmline" id="3B4" x1="630" x2="580" y1="2100" y2="2150"/>
<line cb-classname="GraphicLineEntity" class="algorithmline" id="3By" x1="580" x2="530" y1="2150" y2="2100"/>
</g>
<g cb-classname="PointStatusIndicator" cb-indicator-type="hardware" cb-source="8V-DJ4-GuZ" id="3BX" visibility="visible">
<line cb-classname="GraphicLineEntity" class="algorithmline" id="3BJ" x1="530" x2="630" y1="2050" y2="2050"/>
<line cb-classname="GraphicLineEntity" class="algorithmline" id="3BD" x1="630" x2="630" y1="2050" y2="2150"/>
<line cb-classname="GraphicLineEntity" class="algorithmline" id="3BT" x1="630" x2="530" y1="2150" y2="2150"/>
</g>
<g cb-classname="PointStatusIndicator" cb-indicator-type="alarm" cb-source="9e-XNy-jEn" id="3BN" visibility="hidden">
<text cb-classname="GraphicTextEntity" class="algorithm" fill="#000000" font-family="arial" font-size="20" id="3BH" x="500" y="2085">
A
</text>
</g>
<g cb-classname="PointStatusIndicator" cb-indicator-type="ingraphic" cb-source="9O-HRz-J46" id="3Bu" visibility="visible">
<text cb-classname="GraphicTextEntity" class="algorithm" fill="#000000" font-family="Arial" font-size="20" id="3pF" x="500" y="2135">
G
</text>
</g>
<g baseline-shift="-50%" cb-anchor-x="480" cb-anchor-y="2114" cb-classname="PointDescription" cb-content="extended" cb-labeled="false" cb-max-width="220" cb-source="C0-olp-GV3" class="algorithm" id="3p4" text-anchor="end">
<text baseline-shift="-50%" cb-classname="GraphicTextEntity" class="algorithm" id="3py" text-anchor="end" x="480" y="2089">
DESC: Point not found in
</text>
<text baseline-shift="-50%" cb-classname="GraphicTextEntity" class="algorithm" id="12NG" text-anchor="end" x="480" y="2114">
database
</text>
<text baseline-shift="-50%" cb-classname="GraphicTextEntity" class="algorithm" id="2pFl" text-anchor="end" x="480" y="2139">
(01T0300D04A-EPZ)
</text>
</g>
<g cb-classname="DynamicText" cb-labeled="false" cb-pin-name="Mnh" cb-source="At-6u8-KNj" class="algorithm" id="3pX" text-anchor="start">
<text baseline-shift="0%" cb-classname="GraphicTextEntity" class="algorithm" fill="black" font-family="arial" font-size="20" font-style="normal" font-weight="normal" id="3pJ" text-anchor="start" text-decoration="normal" x="650" y="2070"/>
</g>
<g baseline-shift="-100%" cb-anchor-x="650" cb-anchor-y="2110" cb-classname="PointReferences" cb-max-width="230" cb-originator="true" cb-source="Ug-7OO-wHx" class="signal" id="3pD" text-anchor="start">
<text baseline-shift="-100%" cb-classname="GraphicTextEntity" class="algorithm" id="3pT" text-anchor="start" x="650" y="2110">
REF: Point not found in
</text>
<text baseline-shift="-100%" cb-classname="GraphicTextEntity" class="algorithm" id="2Euo" text-anchor="start" x="650" y="2135">
database
</text>
<text baseline-shift="-100%" cb-classname="GraphicTextEntity" class="algorithm" id="2Euw" text-anchor="start" x="650" y="2160">
(01T0300D04A-EPZ)
</text>
</g>
</g>
<g cb-alg-67OB="60" cb-alg-PgDO="65" cb-algorithm-id="00b" cb-classname="ControlAlgorithm" cb-function-name="AVALGEN" cb-modify-id="00000001" id="3pN">
<polygon cb-classname="GraphicPolygonEntity" class="algorithm" id="3pH" points="1370,2180 1310,2240 1370,2300 1430,2240"/>
<line cb-classname="GraphicLineEntity" class="algorithm" id="3pu" x1="1370" x2="1360" y1="2220" y2="2250"/>
<line cb-classname="GraphicLineEntity" class="algorithm" id="3fF" x1="1370" x2="1380" y1="2220" y2="2250"/>
<line cb-classname="GraphicLineEntity" class="algorithm" id="3f4" x1="1364" x2="1376" y1="2240" y2="2240"/>
<g cb-classname="ControlPin" cb-pin-name="9O-HRz-J46" id="3fy">
<line cb-classname="GraphicLineEntity" class="signalline" id="3fX" x1="1370" x2="1370" y1="2300" y2="2320"/>
<g cb-classname="DynamicText" cb-source="C0-1D2-TD1f" class="signal" id="3fJ" text-anchor="end">
<text cb-classname="GraphicTextEntity" class="signal" fill="black" font-style="normal" font-weight="normal" id="3fD" text-anchor="end" text-decoration="normal" transform="translate(1367,2314)rotate(-90)"/>
</g>
<g cb-classname="SignalSegment" id="1fTl">
<line cb-classname="GraphicLineEntity" class="signalline" id="1fTo" x1="1370" x2="1370" y1="2320" y2="2440"/>
<g cb-classname="SignalSegment" id="1fTw">
<line cb-classname="GraphicLineEntity" class="signalline" id="1fTe" x1="1370" x2="2780" y1="2440" y2="2440"/>
<g cb-classname="SignalConnection" cb-graphic-line="$1564$" cb-input-pin="$fdto$" id="1fTO"/>
</g>
</g>
</g>
<g cb-classname="DynamicText" cb-labeled="true" cb-source="p4-oHE-UKJE" class="algorithm" id="3k4" text-anchor="start">
<text cb-classname="GraphicTextEntity" class="algorithm" fill="black" font-family="arial" font-size="20" font-style="normal" font-weight="normal" id="3ky" text-anchor="start" text-decoration="normal" x="1230" y="2300"/>
</g>
</g>
<g cb-alg-AoHH="60" cb-alg-cSYE="65" cb-algorithm-id="00c" cb-classname="ControlAlgorithm" cb-function-name="AVALGEN" cb-modify-id="00000001" id="3kX">
<polygon cb-classname="GraphicPolygonEntity" class="algorithm" id="3kJ" points="1540,2180 1480,2240 1540,2300 1600,2240"/>
<line cb-classname="GraphicLineEntity" class="algorithm" id="3kD" x1="1540" x2="1530" y1="2220" y2="2250"/>
<line cb-classname="GraphicLineEntity" class="algorithm" id="3kT" x1="1540" x2="1550" y1="2220" y2="2250"/>
<line cb-classname="GraphicLineEntity" class="algorithm" id="3kN" x1="1534" x2="1546" y1="2240" y2="2240"/>
<g cb-classname="ControlPin" cb-pin-name="UT-p4g-NBA" id="3kH">
<line cb-classname="GraphicLineEntity" class="signalline" id="3ku" x1="1540" x2="1540" y1="2300" y2="2320"/>
<g cb-classname="DynamicText" cb-source="G7-Cgk-dYFs" class="signal" id="32F" text-anchor="end">
<text cb-classname="GraphicTextEntity" class="signal" fill="black" font-style="normal" font-weight="normal" id="324" text-anchor="end" text-decoration="normal" transform="translate(1537,2314)rotate(-90)"/>
</g>
<g cb-classname="SignalSegment" id="1fDj">
<line cb-classname="GraphicLineEntity" class="signalline" id="1fD2" x1="1540" x2="1540" y1="2320" y2="2400"/>
<g cb-classname="SignalSegment" id="1fDr">
<line cb-classname="GraphicLineEntity" class="signalline" id="1fDG" x1="1540" x2="2780" y1="2400" y2="2400"/>
<g cb-classname="SignalConnection" cb-graphic-line="$1559$" cb-input-pin="$XDed$" id="1fTi"/>
</g>
</g>
</g>
<g cb-classname="DynamicText" cb-labeled="true" cb-source="cD-sj9-X6u9" class="algorithm" id="32N" text-anchor="start">
<text cb-classname="GraphicTextEntity" class="algorithm" fill="black" font-family="arial" font-size="20" font-style="normal" font-weight="normal" id="32H" text-anchor="start" text-decoration="normal" x="1560" y="2310"/>
</g>
</g>
<g cb-alg-7kn="01T03G01-P10" cb-alg-7mD9="NO" cb-algorithm-id="011" cb-classname="ExternalPointInterface" cb-function-name="INPUT" id="32u">
<ellipse cb-classname="GraphicEllipseEntity" class="algorithm" cx="580" cy="1300" id="3EF" rx="50" ry="50"/>
<rect cb-classname="GraphicRectangleEntity" class="algorithm" height="100" id="3E4" width="40" x="490" y="1250"/>
<line cb-classname="GraphicLineEntity" class="algorithm" id="3Ey" x1="490" x2="530" y1="1300" y2="1300"/>
<g cb-classname="ControlPin" cb-pin-name="G7-cZZ-rCy" id="3EX">
<line cb-classname="GraphicLineEntity" class="signalline" id="3EJ" x1="630" x2="660" y1="1300" y2="1300"/>
<g cb-classname="DynamicText" cb-source="8V-qSd-ubzZ" class="signal" id="3ED" text-anchor="start">
<text cb-classname="GraphicTextEntity" class="signal" fill="black" font-style="normal" font-weight="normal" id="3ET" text-anchor="start" text-decoration="normal" x="644" y="1297"/>
</g>
<g cb-classname="SignalSegment" id="3EN">
<line cb-classname="GraphicLineEntity" class="signalline" id="3EH" stroke="#1e12bf" stroke-dasharray="5,4" x1="660" x2="2770" y1="1300" y2="1300"/>
<g cb-classname="SignalConnection" cb-graphic-line="$388$" cb-input-pin="$peJ$" id="3Eu"/>
</g>
</g>
<g cb-classname="PointStatusIndicator" cb-indicator-type="Highway" cb-source="cD-sj9-eKy" id="3MF" visibility="hidden">
<line cb-classname="GraphicLineEntity" class="algorithmline" id="3M4" x1="530" x2="580" y1="1300" y2="1250"/>
<line cb-classname="GraphicLineEntity" class="algorithmline" id="3My" x1="580" x2="630" y1="1250" y2="1300"/>
<line cb-classname="GraphicLineEntity" class="algorithmline" id="3MX" x1="630" x2="580" y1="1300" y2="1350"/>
<line cb-classname="GraphicLineEntity" class="algorithmline" id="3MJ" x1="580" x2="530" y1="1350" y2="1300"/>
</g>
<g cb-classname="PointStatusIndicator" cb-indicator-type="hardware" cb-source="At-6u8-KNj" id="3MD" visibility="hidden">
<line cb-classname="GraphicLineEntity" class="algorithmline" id="3MT" x1="530" x2="630" y1="1250" y2="1250"/>
<line cb-classname="GraphicLineEntity" class="algorithmline" id="3MN" x1="630" x2="630" y1="1250" y2="1350"/>
<line cb-classname="GraphicLineEntity" class="algorithmline" id="3MH" x1="630" x2="530" y1="1350" y2="1350"/>
</g>
<g cb-classname="PointStatusIndicator" cb-indicator-type="alarm" cb-source="N1-lzd-U0S" id="3Mu" visibility="hidden">
<text cb-classname="GraphicTextEntity" class="algorithm" fill="#000000" font-family="arial" font-size="20" id="4WF" x="500" y="1285">
A
</text>
</g>
<g cb-classname="PointStatusIndicator" cb-indicator-type="ingraphic" cb-source="AC-YV4-eKn" id="4W4" visibility="hidden">
<text cb-classname="GraphicTextEntity" class="algorithm" fill="#000000" font-family="Arial" font-size="20" id="4Wy" x="500" y="1335">
G
</text>
</g>
<g baseline-shift="-50%" cb-anchor-x="480" cb-anchor-y="1314" cb-classname="PointDescription" cb-content="extended" cb-labeled="false" cb-max-width="220" cb-source="cD-sj9-eKy" class="algorithm" id="4WX" text-anchor="end">
<text baseline-shift="-50%" cb-classname="GraphicTextEntity" class="algorithm" id="4WJ" text-anchor="end" x="480" y="1302">
DESC: Point not found in
</text>
<text baseline-shift="-50%" cb-classname="GraphicTextEntity" class="algorithm" id="12Hl" text-anchor="end" x="480" y="1327">
database (01T03G01-P10)
</text>
</g>
<g cb-classname="DynamicText" cb-labeled="false" cb-pin-name="SVJ" cb-source="Rp-v3t-O9F" class="algorithm" id="4WD" text-anchor="start">
<text baseline-shift="0%" cb-classname="GraphicTextEntity" class="algorithm" fill="black" font-family="arial" font-size="20" font-style="normal" font-weight="normal" id="4WT" text-anchor="start" text-decoration="normal" x="650" y="1270"/>
</g>
<g baseline-shift="-100%" cb-anchor-x="650" cb-anchor-y="1310" cb-classname="PointReferences" cb-max-width="230" cb-originator="true" cb-source="UT-p4g-NBA" class="signal" id="4WN" text-anchor="start">
<text baseline-shift="-100%" cb-classname="GraphicTextEntity" class="algorithm" id="4WH" text-anchor="start" x="650" y="1310">
REF: Point not found in
</text>
<text baseline-shift="-100%" cb-classname="GraphicTextEntity" class="algorithm" id="2EuO" text-anchor="start" x="650" y="1335">
database (01T03G01-P10)
</text>
</g>
</g>
<g cb-alg-q0i="01T03G01-LLK" cb-alg-qIWt="NO" cb-algorithm-id="004" cb-classname="ExternalPointInterface" cb-function-name="INPUT" id="1Myr">
<ellipse cb-classname="GraphicEllipseEntity" class="algorithm" cx="580" cy="960" id="1MyG" rx="50" ry="50"/>
<rect cb-classname="GraphicRectangleEntity" class="algorithm" height="100" id="1MXi" width="40" x="490" y="910"/>
<line cb-classname="GraphicLineEntity" class="algorithm" id="1MXl" x1="490" x2="530" y1="960" y2="960"/>
<g cb-classname="ControlPin" cb-pin-name="8V-DJ4-GuZ" id="1MXo">
<line cb-classname="GraphicLineEntity" class="signalline" id="1MXw" x1="630" x2="660" y1="960" y2="960"/>
<g cb-classname="DynamicText" cb-source="p4-i4u-hKND" class="signal" id="1MXe" text-anchor="start">
<text cb-classname="GraphicTextEntity" class="signal" fill="black" font-style="normal" font-weight="normal" id="1MXO" text-anchor="start" text-decoration="normal" x="644" y="957"/>
</g>
<g cb-classname="SignalSegment" id="1MDO">
<line cb-classname="GraphicLineEntity" class="signalline" id="1MDj" stroke="#1e12bf" stroke-dasharray="5,4" x1="660" x2="2440" y1="960" y2="960"/>
<g cb-classname="SignalSegment" id="1MD2">
<line cb-classname="GraphicLineEntity" class="signalline" id="1MDr" stroke="#1e12bf" stroke-dasharray="5,4" x1="2440" x2="2440" y1="960" y2="1000"/>
<g cb-classname="SignalSegment" id="1MDG">
<line cb-classname="GraphicLineEntity" class="signalline" id="1MTi" stroke="#1e12bf" stroke-dasharray="5,4" x1="2440" x2="2770" y1="1000" y2="1000"/>
<g cb-classname="SignalConnection" cb-graphic-line="$1960$" cb-input-pin="$q6V$" id="1MTl"/>
</g>
<line cb-classname="GraphicLineEntity" class="signalline" id="1MNG" stroke="#1e12bf" stroke-dasharray="5,4" x1="2440" x2="2580" y1="960" y2="960"/>
<g cb-classname="SignalConnection" cb-graphic-line="$1979$" cb-input-pin="$Jb4f$" id="1MHi"/>
<ellipse cb-classname="GraphicEllipseEntity" class="signal" cx="2440" cy="960" fill="#1e12bf" id="1MHl" rx="5" ry="5" stroke="#1e12bf" stroke-dasharray="5,4"/>
</g>
</g>
</g>
<g cb-classname="PointStatusIndicator" cb-indicator-type="Highway" cb-source="9e-XNy-jEn" id="1MXj" visibility="hidden">
<line cb-classname="GraphicLineEntity" class="algorithmline" id="1MX2" x1="530" x2="580" y1="960" y2="910"/>
<line cb-classname="GraphicLineEntity" class="algorithmline" id="1MXr" x1="580" x2="630" y1="910" y2="960"/>
<line cb-classname="GraphicLineEntity" class="algorithmline" id="1MXG" x1="630" x2="580" y1="960" y2="1010"/>
<line cb-classname="GraphicLineEntity" class="algorithmline" id="1MJi" x1="580" x2="530" y1="1010" y2="960"/>
</g>
<g cb-classname="PointStatusIndicator" cb-indicator-type="hardware" cb-source="UT-p4g-NBA" id="1MJl" visibility="hidden">
<line cb-classname="GraphicLineEntity" class="algorithmline" id="1MJo" x1="530" x2="630" y1="910" y2="910"/>
<line cb-classname="GraphicLineEntity" class="algorithmline" id="1MJw" x1="630" x2="630" y1="910" y2="1010"/>
<line cb-classname="GraphicLineEntity" class="algorithmline" id="1MJe" x1="630" x2="530" y1="1010" y2="1010"/>
</g>
<g cb-classname="PointStatusIndicator" cb-indicator-type="alarm" cb-source="8V-DJ4-GuZ" id="1MJO" visibility="hidden">
<text cb-classname="GraphicTextEntity" class="algorithm" fill="#000000" font-family="arial" font-size="20" id="1MJj" x="500" y="945">
A
</text>
</g>
<g cb-classname="PointStatusIndicator" cb-indicator-type="ingraphic" cb-source="p4-oHE-qa5" id="1MJ2" visibility="visible">
<text cb-classname="GraphicTextEntity" class="algorithm" fill="#000000" font-family="Arial" font-size="20" id="1MJr" x="500" y="995">
G
</text>
</g>
<g baseline-shift="-50%" cb-anchor-x="480" cb-anchor-y="974" cb-classname="PointDescription" cb-content="extended" cb-labeled="false" cb-max-width="220" cb-source="9e-XNy-jEn" class="algorithm" id="1MJG" text-anchor="end">
<text baseline-shift="-50%" cb-classname="GraphicTextEntity" class="algorithm" id="1MDi" text-anchor="end" x="480" y="962">
DESC: Point not found in
</text>
<text baseline-shift="-50%" cb-classname="GraphicTextEntity" class="algorithm" id="2Eu2" text-anchor="end" x="480" y="987">
database (01T03G01-LLK)
</text>
</g>
<g cb-classname="DynamicText" cb-labeled="false" cb-pin-name="Gzt" cb-source="9O-HRz-J46" class="algorithm" id="1MDl" text-anchor="start">
<text baseline-shift="0%" cb-classname="GraphicTextEntity" class="algorithm" fill="black" font-family="arial" font-size="20" font-style="normal" font-weight="normal" id="1MDo" text-anchor="start" text-decoration="normal" x="650" y="930"/>
</g>
<g baseline-shift="-100%" cb-anchor-x="650" cb-anchor-y="970" cb-classname="PointReferences" cb-max-width="230" cb-originator="true" cb-source="C0-olp-GV3" class="signal" id="1MDw" text-anchor="start">
<text baseline-shift="-100%" cb-classname="GraphicTextEntity" class="algorithm" id="1MDe" text-anchor="start" x="650" y="970">
REF: Point not found in
</text>
<text baseline-shift="-100%" cb-classname="GraphicTextEntity" class="algorithm" id="2EuG" text-anchor="start" x="650" y="995">
database (01T03G01-LLK)
</text>
</g>
</g>
<g cb-alg-Sdq="$1928$cb-alg-out$" cb-algorithm-id="008" cb-classname="FastBooleanAlgorithm" cb-function-name="NOT" cb-modify-id="00000001" id="1MTo">
<rect cb-classname="GraphicRectangleEntity" class="algorithm" height="40" id="1MTw" width="40" x="2600" y="940"/>
<g cb-classname="ControlPin" cb-pin-name="9O-HRz-DMK" id="1MTe">
<line cb-classname="GraphicLineEntity" class="signalline" id="1MTO" x1="2580" x2="2600" y1="960" y2="960"/>
<polygon cb-classname="GraphicPolygonEntity" class="signal" id="1MTj" points="2600,960 2589,954 2589,965"/>
<g cb-classname="DynamicText" cb-source="UT-YDM-klk7" class="signal" id="1MT2" text-anchor="end">
<text cb-classname="GraphicTextEntity" class="signal" fill="black" font-style="normal" font-weight="normal" id="1MTr" text-anchor="end" text-decoration="normal" x="2585" y="957"/>
</g>
</g>
<g cb-classname="ControlPin" cb-pin-name="G7-cZZ-rCy" id="1MTG">
<line cb-classname="GraphicLineEntity" class="signalline" id="1MNi" x1="2640" x2="2660" y1="960" y2="960"/>
<g cb-classname="DynamicText" cb-source="8V-qSd-ubzZ" class="signal" id="1MNl" text-anchor="start">
<text cb-classname="GraphicTextEntity" class="signal" fill="black" font-style="normal" font-weight="normal" id="1MNo" text-anchor="start" text-decoration="normal" x="2654" y="957"/>
</g>
<g cb-classname="SignalSegment" id="1MNj">
<line cb-classname="GraphicLineEntity" class="signalline" id="1MN2" stroke="#1e12bf" stroke-dasharray="5,4" x1="2660" x2="2770" y1="960" y2="960"/>
<g cb-classname="SignalConnection" cb-graphic-line="$1977$" cb-input-pin="$eBJ$" id="1MNr"/>
</g>
</g>
<line cb-classname="GraphicLineEntity" class="algorithm" id="1MNw" x1="2610" x2="2610" y1="950" y2="970"/>
<line cb-classname="GraphicLineEntity" class="algorithm" id="1MNe" x1="2610" x2="2630" y1="950" y2="970"/>
<line cb-classname="GraphicLineEntity" class="algorithm" id="1MNO" x1="2630" x2="2630" y1="970" y2="950"/>
</g>
<g cb-alg-1UJ="$230$cb-alg-out$" cb-alg-1Um="$230$cb-alg-out$" cb-alg-37="01T0300D04A-LB" cb-alg-9P="$66$cb-alg-clos$" cb-alg-9e="$66$cb-alg-open$" cb-alg-9lS="$66$cb-alg-pk2$" cb-alg-9lZ="$66$cb-alg-pk1$" cb-alg-9p="$1962$cb-alg-out$" cb-alg-9pZ="$66$cb-alg-pk5$" cb-alg-9y6="$1928$cb-alg-out$" cb-alg-DYyzr="$363$cb-alg-out$" cb-alg-FRb="01T0300D04A-STS" cb-alg-Glyzr="$347$cb-alg-out$" cb-alg-NUJ="$177$cb-alg-out$" cb-alg-NUm="$211$cb-alg-out$" cb-alg-XYJ="$283$cb-alg-out$" cb-alg-XYm="$317$cb-alg-out$" cb-alg-Xtg="$211$cb-alg-out$" cb-alg-ib="01T0300D04A-TR" cb-alg-oP="$379$cb-alg-out$" cb-alg-oe="$143$cb-alg-out$" cb-alg-ol1="01T0300D04A-ALM" cb-alg-olZ="$211$cb-alg-out$" cb-algorithm-id="001" cb-classname="ControlMacroReference" cb-function-name="PCMS1" cb-macro-crc="30660" cb-modify-id="00000001" id="4Wu">
<rect cb-classname="GraphicRectangleEntity" class="annotation" height="1850" id="4XF" width="750" x="2800" y="640"/>
<g cb-classname="ControlPin" cb-pin-name="8V-DJ4-AU" id="4X4">
<line cb-classname="GraphicLineEntity" class="signalline" id="4Xy" x1="2770" x2="2800" y1="680" y2="680"/>
<polygon cb-classname="GraphicPolygonEntity" class="signal" id="4XX" points="2800,680 2789,674 2789,685"/>
<g cb-classname="DynamicText" cb-source="AC-E5f-Wpgh" class="signal" id="4XJ" text-anchor="end">
<text cb-classname="GraphicTextEntity" class="signal" fill="black" font-style="normal" font-weight="normal" id="4XD" text-anchor="end" text-decoration="normal" x="2785" y="677"/>
</g>
</g>
<g cb-classname="ControlPin" cb-pin-name="cD-sj9-Km" id="4XT">
<line cb-classname="GraphicLineEntity" class="signalline" id="4XN" x1="2770" x2="2800" y1="720" y2="720"/>
<polygon cb-classname="GraphicPolygonEntity" class="signal" id="4XH" points="2800,720 2789,714 2789,725"/>
<g cb-classname="DynamicText" cb-source="C0-1D2-TD1f" class="signal" id="4Xu" text-anchor="end">
<text cb-classname="GraphicTextEntity" class="signal" fill="black" font-style="normal" font-weight="normal" id="4NF" text-anchor="end" text-decoration="normal" x="2785" y="717"/>
</g>
</g>
<g cb-classname="ControlPin" cb-pin-name="At-6u8-4o" id="4N4">
<line cb-classname="GraphicLineEntity" class="signalline" id="4Ny" x1="2770" x2="2800" y1="960" y2="960"/>
<polygon cb-classname="GraphicPolygonEntity" class="signal" id="4NX" points="2800,960 2789,954 2789,965"/>
<g cb-classname="DynamicText" cb-source="8V-qSd-ubzZ" class="signal" id="4NJ" text-anchor="end">
<text cb-classname="GraphicTextEntity" class="signal" fill="black" font-style="normal" font-weight="normal" id="4ND" text-anchor="end" text-decoration="normal" x="2785" y="957"/>
</g>
</g>
<g cb-classname="ControlPin" cb-pin-name="p4-oHE-bWp" id="4NT">
<line cb-classname="GraphicLineEntity" class="signalline" id="4NN" x1="2770" x2="2800" y1="1000" y2="1000"/>
<polygon cb-classname="GraphicPolygonEntity" class="signal" id="4NH" points="2800,1000 2789,994 2789,1005"/>
<g cb-classname="DynamicText" cb-source="cD-MDS-y6zC" class="signal" id="4Nu" text-anchor="end">
<text cb-classname="GraphicTextEntity" class="signal" fill="black" font-style="normal" font-weight="normal" id="4BF" text-anchor="end" text-decoration="normal" x="2785" y="997"/>
</g>
</g>
<g cb-classname="ControlPin" cb-pin-name="Rp-v3t-8Zz" id="4B4">
<line cb-classname="GraphicLineEntity" class="signalline" id="4By" x1="2770" x2="2800" y1="840" y2="840"/>
<polygon cb-classname="GraphicPolygonEntity" class="signal" id="4BX" points="2800,840 2789,834 2789,845"/>
<g cb-classname="DynamicText" cb-source="At-hDT-xoae" class="signal" id="4BJ" text-anchor="end">
<text cb-classname="GraphicTextEntity" class="signal" fill="black" font-style="normal" font-weight="normal" id="4BD" text-anchor="end" text-decoration="normal" x="2785" y="837"/>
</g>
</g>
<g cb-classname="ControlPin" cb-pin-name="Ug-7OO-DVZ" id="4BT">
<line cb-classname="GraphicLineEntity" class="signalline" id="4BN" x1="2770" x2="2800" y1="880" y2="880"/>
<polygon cb-classname="GraphicPolygonEntity" class="signal" id="4BH" points="2800,880 2789,874 2789,885"/>
<g cb-classname="DynamicText" cb-source="p4-i4u-hKND" class="signal" id="4Bu" text-anchor="end">
<text cb-classname="GraphicTextEntity" class="signal" fill="black" font-style="normal" font-weight="normal" id="4pF" text-anchor="end" text-decoration="normal" x="2785" y="877"/>
</g>
</g>
<g cb-classname="ControlPin" cb-pin-name="9e-XNy-pm" id="4p4">
<line cb-classname="GraphicLineEntity" class="signalline" id="4py" x1="2770" x2="2800" y1="1210" y2="1210"/>
<polygon cb-classname="GraphicPolygonEntity" class="signal" id="4pX" points="2800,1210 2789,1204 2789,1215"/>
<g cb-classname="DynamicText" cb-source="Rp-LWy-M7mj" class="signal" id="4pJ" text-anchor="end">
<text cb-classname="GraphicTextEntity" class="signal" fill="black" font-style="normal" font-weight="normal" id="4pD" text-anchor="end" text-decoration="normal" x="2785" y="1207"/>
</g>
</g>
<g cb-classname="ControlPin" cb-pin-name="UT-p4g-DJ0" id="4pT">
<line cb-classname="GraphicLineEntity" class="signalline" id="4pN" x1="2770" x2="2800" y1="1250" y2="1250"/>
<polygon cb-classname="GraphicPolygonEntity" class="signal" id="4pH" points="2800,1250 2789,1244 2789,1255"/>
<g cb-classname="DynamicText" cb-source="Ug-f8x-gX9a" class="signal" id="4pu" text-anchor="end">
<text cb-classname="GraphicTextEntity" class="signal" fill="black" font-style="normal" font-weight="normal" id="4fF" text-anchor="end" text-decoration="normal" x="2785" y="1247"/>
</g>
</g>
<g cb-classname="ControlPin" cb-pin-name="N1-lzd-bM" id="4f4">
<line cb-classname="GraphicLineEntity" class="signalline" id="4fy" x1="2770" x2="2800" y1="1300" y2="1300"/>
<polygon cb-classname="GraphicPolygonEntity" class="signal" id="4fX" points="2800,1300 2789,1294 2789,1305"/>
<g cb-classname="DynamicText" cb-source="9e-Weh-nzf8" class="signal" id="4fJ" text-anchor="end">
<text cb-classname="GraphicTextEntity" class="signal" fill="black" font-style="normal" font-weight="normal" id="4fD" text-anchor="end" text-decoration="normal" x="2785" y="1297"/>
</g>
</g>
<g cb-classname="ControlPin" cb-pin-name="9O-HRz-SNG" id="4fT">
<line cb-classname="GraphicLineEntity" class="signalline" id="4fN" x1="2770" x2="2800" y1="1470" y2="1470"/>
<polygon cb-classname="GraphicPolygonEntity" class="signal" id="4fH" points="2800,1470 2789,1464 2789,1475"/>
<g cb-classname="DynamicText" cb-source="UT-YDM-klk7" class="signal" id="4fu" text-anchor="end">
<text cb-classname="GraphicTextEntity" class="signal" fill="black" font-style="normal" font-weight="normal" id="4kF" text-anchor="end" text-decoration="normal" x="2785" y="1467"/>
</g>
</g>
<g cb-classname="ControlPin" cb-pin-name="G7-cZZ-m5z" id="4k4">
<line cb-classname="GraphicLineEntity" class="signalline" id="4ky" x1="2770" x2="2800" y1="1520" y2="1520"/>
<polygon cb-classname="GraphicPolygonEntity" class="signal" id="4kX" points="2800,1520 2789,1514 2789,1525"/>
<g cb-classname="DynamicText" cb-source="N1-pSg-fAiS" class="signal" id="4kJ" text-anchor="end">
<text cb-classname="GraphicTextEntity" class="signal" fill="black" font-style="normal" font-weight="normal" id="4kD" text-anchor="end" text-decoration="normal" x="2785" y="1517"/>
</g>
</g>
<g cb-classname="ControlPin" cb-pin-name="AC-YV4-gdm" id="4kT">
<line cb-classname="GraphicLineEntity" class="signalline" id="4kN" x1="2770" x2="2800" y1="1680" y2="1680"/>
<polygon cb-classname="GraphicPolygonEntity" class="signal" id="4kH" points="2800,1680 2789,1674 2789,1685"/>
<g cb-classname="DynamicText" cb-source="9O-PcM-2cBS" class="signal" id="4ku" text-anchor="end">
<text cb-classname="GraphicTextEntity" class="signal" fill="black" font-style="normal" font-weight="normal" id="42F" text-anchor="end" text-decoration="normal" x="2785" y="1677"/>
</g>
</g>
<g cb-classname="ControlPin" cb-pin-name="C0-olp-fAf" id="424">
<line cb-classname="GraphicLineEntity" class="signalline" id="42y" x1="2770" x2="2800" y1="1730" y2="1730"/>
<polygon cb-classname="GraphicPolygonEntity" class="signal" id="42X" points="2800,1730 2789,1724 2789,1735"/>
<g cb-classname="DynamicText" cb-source="G7-Cgk-dYFs" class="signal" id="42J" text-anchor="end">
<text cb-classname="GraphicTextEntity" class="signal" fill="black" font-style="normal" font-weight="normal" id="42D" text-anchor="end" text-decoration="normal" x="2785" y="1727"/>
</g>
</g>
<g cb-classname="ControlPin" cb-pin-name="8V-DJ4-e4V" id="42T">
<line cb-classname="GraphicLineEntity" class="signalline" id="42N" x1="2770" x2="2800" y1="2020" y2="2020"/>
<polygon cb-classname="GraphicPolygonEntity" class="signal" id="42H" points="2800,2020 2789,2014 2789,2025"/>
<g cb-classname="DynamicText" cb-source="AC-E5f-Wpgh" class="signal" id="42u" text-anchor="end">
<text cb-classname="GraphicTextEntity" class="signal" fill="black" font-style="normal" font-weight="normal" id="4EF" text-anchor="end" text-decoration="normal" x="2785" y="2017"/>
</g>
</g>
<g cb-classname="ControlPin" cb-pin-name="cD-sj9-ihO" id="4E4">
<line cb-classname="GraphicLineEntity" class="signalline" id="4Ey" x1="2780" x2="2800" y1="2060" y2="2060"/>
<polygon cb-classname="GraphicPolygonEntity" class="signal" id="4EX" points="2800,2060 2789,2054 2789,2065"/>
<g cb-classname="DynamicText" cb-source="C0-1D2-TD1f" class="signal" id="4EJ" text-anchor="end">
<text cb-classname="GraphicTextEntity" class="signal" fill="black" font-style="normal" font-weight="normal" id="4ED" text-anchor="end" text-decoration="normal" x="2785" y="2057"/>
</g>
</g>
<g cb-classname="ControlPin" cb-pin-name="At-6u8-jiQ" id="4ET">
<line cb-classname="GraphicLineEntity" class="signalline" id="4EN" x1="2760" x2="2800" y1="2100" y2="2100"/>
<polygon cb-classname="GraphicPolygonEntity" class="signal" id="4EH" points="2800,2100 2789,2094 2789,2105"/>
<g cb-classname="DynamicText" cb-source="8V-qSd-ubzZ" class="signal" id="4Eu" text-anchor="end">
<text cb-classname="GraphicTextEntity" class="signal" fill="black" font-style="normal" font-weight="normal" id="4MF" text-anchor="end" text-decoration="normal" x="2785" y="2097"/>
</g>
</g>
<g cb-classname="ControlPin" cb-pin-name="p4-oHE-IS7" id="4M4">
<line cb-classname="GraphicLineEntity" class="signalline" id="4My" x1="3550" x2="3590" y1="1360" y2="1360"/>
<g cb-classname="DynamicText" cb-source="9e-Weh-nzf8" class="signal" id="4MX" text-anchor="start">
<text cb-classname="GraphicTextEntity" class="signal" fill="black" font-style="normal" font-weight="normal" id="4MJ" text-anchor="start" text-decoration="normal" x="3564" y="1357"/>
</g>
<g cb-classname="SignalSegment" id="4MD">
<line cb-classname="GraphicLineEntity" class="signalline" id="4MT" x1="3590" x2="4680" y1="1360" y2="1360"/>
<g cb-classname="SignalConnection" cb-graphic-line="$496$" cb-input-pin="$dC8$" id="4MN"/>
</g>
</g>
<g cb-classname="ControlPin" cb-pin-name="UT-p4g-DJk" id="4MH">
<line cb-classname="GraphicLineEntity" class="signalline" id="4Mu" x1="3550" x2="3580" y1="1630" y2="1630"/>
<g cb-classname="DynamicText" cb-source="G7-Cgk-dYFs" class="signal" id="5WF" text-anchor="start">
<text cb-classname="GraphicTextEntity" class="signal" fill="black" font-style="normal" font-weight="normal" id="5W4" text-anchor="start" text-decoration="normal" x="3564" y="1627"/>
</g>
<g cb-classname="SignalSegment" id="5Wy">
<line cb-classname="GraphicLineEntity" class="signalline" id="5WX" x1="3580" x2="4680" y1="1630" y2="1630"/>
<g cb-classname="SignalConnection" cb-graphic-line="$503$" cb-input-pin="$uzL$" id="5WJ"/>
</g>
</g>
<g cb-classname="ControlPin" cb-pin-name="AC-YV4-uw" id="5WD">
<line cb-classname="GraphicLineEntity" class="signalline" id="5WT" x1="3550" x2="3570" y1="1950" y2="1950"/>
<g cb-classname="DynamicText" cb-source="cD-MDS-y6zC" class="signal" id="5WN" text-anchor="start">
<text cb-classname="GraphicTextEntity" class="signal" fill="black" font-style="normal" font-weight="normal" id="5WH" text-anchor="start" text-decoration="normal" x="3564" y="1947"/>
</g>
<g cb-classname="SignalSegment" id="5Wu">
<line cb-classname="GraphicLineEntity" class="signalline" id="5XF" stroke="#1e12bf" stroke-dasharray="5,4" x1="3570" x2="4680" y1="1950" y2="1950"/>
<g cb-classname="SignalConnection" cb-graphic-line="$510$" cb-input-pin="$UbS$" id="5X4"/>
</g>
</g>
<g cb-classname="ControlPin" cb-pin-name="At-6u8-3m" id="5Xy">
<line cb-classname="GraphicLineEntity" class="signalline" id="5XX" x1="3550" x2="3570" y1="2010" y2="2010"/>
<g cb-classname="DynamicText" cb-source="Ug-f8x-gX9a" class="signal" id="5XJ" text-anchor="start">
<text cb-classname="GraphicTextEntity" class="signal" fill="black" font-style="normal" font-weight="normal" id="5XD" text-anchor="start" text-decoration="normal" x="3564" y="2007"/>
</g>
<g cb-classname="SignalSegment" id="5XT">
<line cb-classname="GraphicLineEntity" class="signalline" id="5XN" stroke="#1e12bf" stroke-dasharray="5,4" x1="3570" x2="4350" y1="2010" y2="2010"/>
<g cb-classname="SignalSegment" id="5XH">
<line cb-classname="GraphicLineEntity" class="signalline" id="5Xu" stroke="#1e12bf" stroke-dasharray="5,4" x1="4350" x2="4350" y1="2010" y2="2220"/>
<g cb-classname="SignalSegment" id="5NF">
<line cb-classname="GraphicLineEntity" class="signalline" id="5N4" stroke="#1e12bf" stroke-dasharray="5,4" x1="4350" x2="4680" y1="2220" y2="2220"/>
<g cb-classname="SignalConnection" cb-graphic-line="$521$" cb-input-pin="$jB3$" id="5Ny"/>
</g>
</g>
</g>
</g>
<g cb-classname="ControlPin" cb-pin-name="AC-YV4-ernfR" id="1fJO">
<line cb-classname="GraphicLineEntity" class="signalline" id="1fJj" x1="2780" x2="2800" y1="2400" y2="2400"/>
<polygon cb-classname="GraphicPolygonEntity" class="signal" id="1fJ2" points="2800,2400 2789,2394 2789,2405"/>
<g cb-classname="DynamicText" cb-source="9O-PcM-2cBS" class="signal" id="1fJr" text-anchor="end">
<text cb-classname="GraphicTextEntity" class="signal" fill="black" font-style="normal" font-weight="normal" id="1fJG" text-anchor="end" text-decoration="normal" transform="translate(2785,2397)rotate(360)"/>
</g>
</g>
<g cb-classname="ControlPin" cb-pin-name="UT-p4g-AJAa1" id="1fDl">
<line cb-classname="GraphicLineEntity" class="signalline" id="1fDo" x1="2780" x2="2800" y1="2440" y2="2440"/>
<polygon cb-classname="GraphicPolygonEntity" class="signal" id="1fDw" points="2800,2440 2789,2434 2789,2445"/>
<g cb-classname="DynamicText" cb-source="Ug-f8x-gX9a" class="signal" id="1fDe" text-anchor="end">
<text cb-classname="GraphicTextEntity" class="signal" fill="black" font-style="normal" font-weight="normal" id="1fDO" text-anchor="end" text-decoration="normal" transform="translate(2785,2437)rotate(360)"/>
</g>
</g>
<g cb-classname="ControlPin" cb-pin-name="N1-lzd-pAE" id="12ui">
<line cb-classname="GraphicLineEntity" class="signalline" id="12ul" x1="2780" x2="2800" y1="920" y2="920"/>
<polygon cb-classname="GraphicPolygonEntity" class="signal" id="12uo" points="2800,920 2789,914 2789,925"/>
<g cb-classname="DynamicText" cb-source="9e-Weh-nzf8" class="signal" id="12uw" text-anchor="end">
<text cb-classname="GraphicTextEntity" class="signal" fill="black" font-style="normal" font-weight="normal" id="12ue" text-anchor="end" text-decoration="normal" x="2785" y="917"/>
</g>
</g>
</g>
<g cb-alg-iU="$409$cb-alg-sts$" cb-algorithm-id="00d" cb-classname="ExternalPointInterface" cb-function-name="OUTPUT" id="5BX">
<ellipse cb-classname="GraphicEllipseEntity" class="algorithm" cx="4760" cy="1360" id="5BJ" rx="50" ry="50"/>
<rect cb-classname="GraphicRectangleEntity" class="algorithm" height="100" id="5BD" width="40" x="4810" y="1310"/>
<line cb-classname="GraphicLineEntity" class="algorithm" id="5BT" x1="4810" x2="4850" y1="1360" y2="1360"/>
<g cb-classname="ControlPin" cb-pin-name="UT-p4g-8x" id="5BN">
<line cb-classname="GraphicLineEntity" class="signalline" id="5BH" x1="4680" x2="4710" y1="1360" y2="1360"/>
<polygon cb-classname="GraphicPolygonEntity" class="signal" id="5Bu" points="4710,1360 4699,1354 4699,1365"/>
<g cb-classname="DynamicText" cb-source="Ug-f8x-gX9a" class="signal" id="5pF" text-anchor="end">
<text cb-classname="GraphicTextEntity" class="signal" fill="black" font-style="normal" font-weight="normal" id="5p4" text-anchor="end" text-decoration="normal" x="4695" y="1357"/>
</g>
</g>
<g cb-classname="PointStatusIndicator" cb-indicator-type="highway" cb-source="N1-lzd-eh" id="5py" visibility="hidden">
<line cb-classname="GraphicLineEntity" class="algorithmline" id="5pX" x1="4710" x2="4760" y1="1360" y2="1310"/>
<line cb-classname="GraphicLineEntity" class="algorithmline" id="5pJ" x1="4760" x2="4810" y1="1310" y2="1360"/>
<line cb-classname="GraphicLineEntity" class="algorithmline" id="5pD" x1="4810" x2="4760" y1="1360" y2="1410"/>
<line cb-classname="GraphicLineEntity" class="algorithmline" id="5pT" x1="4760" x2="4710" y1="1410" y2="1360"/>
</g>
<g cb-classname="PointStatusIndicator" cb-indicator-type="hardware" cb-source="9O-HRz-DM" id="5pN" visibility="hidden">
<line cb-classname="GraphicLineEntity" class="algorithmline" id="5pH" x1="4810" x2="4710" y1="1310" y2="1310"/>
<line cb-classname="GraphicLineEntity" class="algorithmline" id="5pu" x1="4710" x2="4710" y1="1310" y2="1410"/>
<line cb-classname="GraphicLineEntity" class="algorithmline" id="5fF" x1="4710" x2="4810" y1="1410" y2="1410"/>
</g>
<g cb-classname="PointStatusIndicator" cb-indicator-type="alarm" cb-source="At-6u8-Sd" id="5f4" visibility="hidden">
<text cb-classname="GraphicTextEntity" class="algorithm" fill="#000000" font-family="Arial" font-size="20" id="5fy" x="4820" y="1395">
A
</text>
</g>
<g cb-classname="PointStatusIndicator" cb-indicator-type="ingraphic" cb-source="Ug-7OO-4u" id="5fX" visibility="visible">
<text cb-classname="GraphicTextEntity" class="algorithm" fill="#000000" font-family="Arial" font-size="20" id="5fJ" x="4820" y="1345">
G
</text>
</g>
<g cb-classname="DynamicText" cb-labeled="false" cb-pin-name="m4" cb-source="N1-lzd-eh" class="algorithm" id="5fD" text-anchor="end">
<text baseline-shift="0%" cb-classname="GraphicTextEntity" class="algorithm" fill="black" font-family="arial" font-size="20" font-style="normal" font-weight="normal" id="5fT" text-anchor="end" text-decoration="normal" x="4685" y="1335"/>
</g>
<g baseline-shift="-100%" cb-anchor-x="4685" cb-anchor-y="1370" cb-classname="PointReferences" cb-max-width="130" cb-originator="false" cb-source="AC-YV4-In" class="signal" id="5fN" text-anchor="end">
<text baseline-shift="-100%" cb-classname="GraphicTextEntity" class="algorithm" id="5fH" text-anchor="end" x="4685" y="1370">
REF: Point not
</text>
<text baseline-shift="-100%" cb-classname="GraphicTextEntity" class="algorithm" id="2MFl" text-anchor="end" x="4685" y="1395">
found in
</text>
<text baseline-shift="-100%" cb-classname="GraphicTextEntity" class="algorithm" id="2MFo" text-anchor="end" x="4685" y="1420">
database
</text>
<text baseline-shift="-100%" cb-classname="GraphicTextEntity" class="algorithm" id="2MFw" text-anchor="end" x="4685" y="1445">
(01T0300D04A-STS)
</text>
</g>
<g baseline-shift="-50%" cb-anchor-x="4865" cb-anchor-y="1375" cb-classname="PointDescription" cb-content="extended" cb-labeled="false" cb-max-width="240" cb-source="Rp-v3t-DT" class="algorithm" id="5k4" text-anchor="start">
<text baseline-shift="-50%" cb-classname="GraphicTextEntity" class="algorithm" id="5ky" text-anchor="start" x="4865" y="1350">
DESC: Point not found in
</text>
<text baseline-shift="-50%" cb-classname="GraphicTextEntity" class="algorithm" id="1MHe" text-anchor="start" x="4865" y="1375">
database
</text>
<text baseline-shift="-50%" cb-classname="GraphicTextEntity" class="algorithm" id="2MFe" text-anchor="start" x="4865" y="1400">
(01T0300D04A-STS)
</text>
</g>
</g>
<g cb-alg-DS="$409$cb-alg-alm$" cb-algorithm-id="00e" cb-classname="ExternalPointInterface" cb-function-name="OUTPUT" id="5kX">
<ellipse cb-classname="GraphicEllipseEntity" class="algorithm" cx="4760" cy="1630" id="5kJ" rx="50" ry="50"/>
<rect cb-classname="GraphicRectangleEntity" class="algorithm" height="100" id="5kD" width="40" x="4810" y="1580"/>
<line cb-classname="GraphicLineEntity" class="algorithm" id="5kT" x1="4810" x2="4850" y1="1630" y2="1630"/>
<g cb-classname="ControlPin" cb-pin-name="8V-DJ4-5f" id="5kN">
<line cb-classname="GraphicLineEntity" class="signalline" id="5kH" x1="4680" x2="4710" y1="1630" y2="1630"/>
<polygon cb-classname="GraphicPolygonEntity" class="signal" id="5ku" points="4710,1630 4699,1624 4699,1635"/>
<g cb-classname="DynamicText" cb-source="AC-E5f-Wpgh" class="signal" id="52F" text-anchor="end">
<text cb-classname="GraphicTextEntity" class="signal" fill="black" font-style="normal" font-weight="normal" id="524" text-anchor="end" text-decoration="normal" x="4695" y="1627"/>
</g>
</g>
<g cb-classname="PointStatusIndicator" cb-indicator-type="highway" cb-source="cD-sj9-D2" id="52y" visibility="hidden">
<line cb-classname="GraphicLineEntity" class="algorithmline" id="52X" x1="4710" x2="4760" y1="1630" y2="1580"/>
<line cb-classname="GraphicLineEntity" class="algorithmline" id="52J" x1="4760" x2="4810" y1="1580" y2="1630"/>
<line cb-classname="GraphicLineEntity" class="algorithmline" id="52D" x1="4810" x2="4760" y1="1630" y2="1680"/>
<line cb-classname="GraphicLineEntity" class="algorithmline" id="52T" x1="4760" x2="4710" y1="1680" y2="1630"/>
</g>
<g cb-classname="PointStatusIndicator" cb-indicator-type="hardware" cb-source="At-6u8-Sd" id="52N" visibility="hidden">
<line cb-classname="GraphicLineEntity" class="algorithmline" id="52H" x1="4810" x2="4710" y1="1580" y2="1580"/>
<line cb-classname="GraphicLineEntity" class="algorithmline" id="52u" x1="4710" x2="4710" y1="1580" y2="1680"/>
<line cb-classname="GraphicLineEntity" class="algorithmline" id="5EF" x1="4710" x2="4810" y1="1680" y2="1680"/>
</g>
<g cb-classname="PointStatusIndicator" cb-indicator-type="alarm" cb-source="N1-lzd-eh" id="5E4" visibility="hidden">
<text cb-classname="GraphicTextEntity" class="algorithm" fill="#000000" font-family="Arial" font-size="20" id="5Ey" x="4820" y="1665">
A
</text>
</g>
<g cb-classname="PointStatusIndicator" cb-indicator-type="ingraphic" cb-source="AC-YV4-In" id="5EX" visibility="visible">
<text cb-classname="GraphicTextEntity" class="algorithm" fill="#000000" font-family="Arial" font-size="20" id="5EJ" x="4820" y="1615">
G
</text>
</g>
<g cb-classname="DynamicText" cb-labeled="false" cb-pin-name="Iy" cb-source="cD-sj9-D2" class="algorithm" id="5ED" text-anchor="end">
<text baseline-shift="0%" cb-classname="GraphicTextEntity" class="algorithm" fill="black" font-family="arial" font-size="20" font-style="normal" font-weight="normal" id="5ET" text-anchor="end" text-decoration="normal" x="4685" y="1605"/>
</g>
<g baseline-shift="-100%" cb-anchor-x="4685" cb-anchor-y="1640" cb-classname="PointReferences" cb-max-width="130" cb-originator="false" cb-source="Rp-v3t-DT" class="signal" id="5EN" text-anchor="end">
<text baseline-shift="-100%" cb-classname="GraphicTextEntity" class="algorithm" id="5EH" text-anchor="end" x="4685" y="1640">
REF: Point not
</text>
<text baseline-shift="-100%" cb-classname="GraphicTextEntity" class="algorithm" id="2MFO" text-anchor="end" x="4685" y="1665">
found in
</text>
<text baseline-shift="-100%" cb-classname="GraphicTextEntity" class="algorithm" id="2MFj" text-anchor="end" x="4685" y="1690">
database
</text>
<text baseline-shift="-100%" cb-classname="GraphicTextEntity" class="algorithm" id="2MF2" text-anchor="end" x="4685" y="1715">
(01T0300D04A-ALM)
</text>
</g>
<g baseline-shift="-50%" cb-anchor-x="4865" cb-anchor-y="1645" cb-classname="PointDescription" cb-content="extended" cb-labeled="false" cb-max-width="240" cb-source="G7-cZZ-Sg" class="algorithm" id="5M4" text-anchor="start">
<text baseline-shift="-50%" cb-classname="GraphicTextEntity" class="algorithm" id="5My" text-anchor="start" x="4865" y="1620">
DESC: Point not found in
</text>
<text baseline-shift="-50%" cb-classname="GraphicTextEntity" class="algorithm" id="1MHO" text-anchor="start" x="4865" y="1645">
database
</text>
<text baseline-shift="-50%" cb-classname="GraphicTextEntity" class="algorithm" id="2MFr" text-anchor="start" x="4865" y="1670">
(01T0300D04A-ALM)
</text>
</g>
</g>
<g cb-alg-DM="$409$cb-alg-lb$" cb-algorithm-id="00f" cb-classname="ExternalPointInterface" cb-function-name="OUTPUT" id="5MX">
<ellipse cb-classname="GraphicEllipseEntity" class="algorithm" cx="4760" cy="1950" id="5MJ" rx="50" ry="50"/>
<rect cb-classname="GraphicRectangleEntity" class="algorithm" height="100" id="5MD" width="40" x="4810" y="1900"/>
<line cb-classname="GraphicLineEntity" class="algorithm" id="5MT" x1="4810" x2="4850" y1="1950" y2="1950"/>
<g cb-classname="ControlPin" cb-pin-name="9e-XNy-eL" id="5MN">
<line cb-classname="GraphicLineEntity" class="signalline" id="5MH" x1="4680" x2="4710" y1="1950" y2="1950"/>
<polygon cb-classname="GraphicPolygonEntity" class="signal" id="5Mu" points="4710,1950 4699,1944 4699,1955"/>
<g cb-classname="DynamicText" cb-source="Rp-LWy-M7mj" class="signal" id="6WF" text-anchor="end">
<text cb-classname="GraphicTextEntity" class="signal" fill="black" font-style="normal" font-weight="normal" id="6W4" text-anchor="end" text-decoration="normal" x="4695" y="1947"/>
</g>
</g>
<g cb-classname="PointStatusIndicator" cb-indicator-type="highway" cb-source="UT-p4g-8x" id="6Wy" visibility="hidden">
<line cb-classname="GraphicLineEntity" class="algorithmline" id="6WX" x1="4710" x2="4760" y1="1950" y2="1900"/>
<line cb-classname="GraphicLineEntity" class="algorithmline" id="6WJ" x1="4760" x2="4810" y1="1900" y2="1950"/>
<line cb-classname="GraphicLineEntity" class="algorithmline" id="6WD" x1="4810" x2="4760" y1="1950" y2="2000"/>
<line cb-classname="GraphicLineEntity" class="algorithmline" id="6WT" x1="4760" x2="4710" y1="2000" y2="1950"/>
</g>
<g cb-classname="PointStatusIndicator" cb-indicator-type="hardware" cb-source="N1-lzd-eh" id="6WN" visibility="hidden">
<line cb-classname="GraphicLineEntity" class="algorithmline" id="6WH" x1="4810" x2="4710" y1="1900" y2="1900"/>
<line cb-classname="GraphicLineEntity" class="algorithmline" id="6Wu" x1="4710" x2="4710" y1="1900" y2="2000"/>
<line cb-classname="GraphicLineEntity" class="algorithmline" id="6XF" x1="4710" x2="4810" y1="2000" y2="2000"/>
</g>
<g cb-classname="PointStatusIndicator" cb-indicator-type="alarm" cb-source="cD-sj9-D2" id="6X4" visibility="hidden">
<text cb-classname="GraphicTextEntity" class="algorithm" fill="#000000" font-family="Arial" font-size="20" id="6Xy" x="4820" y="1985">
A
</text>
</g>
<g cb-classname="PointStatusIndicator" cb-indicator-type="ingraphic" cb-source="Rp-v3t-DT" id="6XX" visibility="hidden">
<text cb-classname="GraphicTextEntity" class="algorithm" fill="#000000" font-family="Arial" font-size="20" id="6XJ" x="4820" y="1935">
G
</text>
</g>
<g cb-classname="DynamicText" cb-labeled="false" cb-pin-name="Fp" cb-source="UT-p4g-8x" class="algorithm" id="6XD" text-anchor="end">
<text baseline-shift="0%" cb-classname="GraphicTextEntity" class="algorithm" fill="black" font-family="arial" font-size="20" font-style="normal" font-weight="normal" id="6XT" text-anchor="end" text-decoration="normal" x="4685" y="1925"/>
</g>
<g baseline-shift="-100%" cb-anchor-x="4685" cb-anchor-y="1960" cb-classname="PointReferences" cb-max-width="130" cb-originator="false" cb-source="G7-cZZ-Sg" class="signal" id="6XN" text-anchor="end">
<text baseline-shift="-100%" cb-classname="GraphicTextEntity" class="algorithm" id="6XH" text-anchor="end" x="4685" y="1960">
REF: Point not
</text>
<text baseline-shift="-100%" cb-classname="GraphicTextEntity" class="algorithm" id="2MFG" text-anchor="end" x="4685" y="1985">
found in
</text>
<text baseline-shift="-100%" cb-classname="GraphicTextEntity" class="algorithm" id="2M4i" text-anchor="end" x="4685" y="2010">
database
</text>
<text baseline-shift="-100%" cb-classname="GraphicTextEntity" class="algorithm" id="2M4l" text-anchor="end" x="4685" y="2035">
(01T0300D04A-LB)
</text>
</g>
<g baseline-shift="-50%" cb-anchor-x="4865" cb-anchor-y="1965" cb-classname="PointDescription" cb-content="extended" cb-labeled="false" cb-max-width="240" cb-source="N1-lzd-eh" class="algorithm" id="6NF" text-anchor="start">
<text baseline-shift="-50%" cb-classname="GraphicTextEntity" class="algorithm" id="6N4" text-anchor="start" x="4865" y="1953">
DESC: Point not found in
</text>
<text baseline-shift="-50%" cb-classname="GraphicTextEntity" class="algorithm" id="12Ho" text-anchor="start" x="4865" y="1978">
database (01T0300D04A-LB)
</text>
</g>
</g>
<g cb-alg-8x="$409$cb-alg-tr$" cb-algorithm-id="010" cb-classname="ExternalPointInterface" cb-function-name="OUTPUT" id="6Ny">
<ellipse cb-classname="GraphicEllipseEntity" class="algorithm" cx="4760" cy="2220" id="6NX" rx="50" ry="50"/>
<rect cb-classname="GraphicRectangleEntity" class="algorithm" height="100" id="6NJ" width="40" x="4810" y="2170"/>
<line cb-classname="GraphicLineEntity" class="algorithm" id="6ND" x1="4810" x2="4850" y1="2220" y2="2220"/>
<g cb-classname="ControlPin" cb-pin-name="Rp-v3t-DT" id="6NT">
<line cb-classname="GraphicLineEntity" class="signalline" id="6NN" x1="4680" x2="4710" y1="2220" y2="2220"/>
<polygon cb-classname="GraphicPolygonEntity" class="signal" id="6NH" points="4710,2220 4699,2214 4699,2225"/>
<g cb-classname="DynamicText" cb-source="At-hDT-xoae" class="signal" id="6Nu" text-anchor="end">
<text cb-classname="GraphicTextEntity" class="signal" fill="black" font-style="normal" font-weight="normal" id="6BF" text-anchor="end" text-decoration="normal" x="4695" y="2217"/>
</g>
</g>
<g cb-classname="PointStatusIndicator" cb-indicator-type="highway" cb-source="Ug-7OO-4u" id="6B4" visibility="hidden">
<line cb-classname="GraphicLineEntity" class="algorithmline" id="6By" x1="4710" x2="4760" y1="2220" y2="2170"/>
<line cb-classname="GraphicLineEntity" class="algorithmline" id="6BX" x1="4760" x2="4810" y1="2170" y2="2220"/>
<line cb-classname="GraphicLineEntity" class="algorithmline" id="6BJ" x1="4810" x2="4760" y1="2220" y2="2270"/>
<line cb-classname="GraphicLineEntity" class="algorithmline" id="6BD" x1="4760" x2="4710" y1="2270" y2="2220"/>
</g>
<g cb-classname="PointStatusIndicator" cb-indicator-type="hardware" cb-source="9e-XNy-eL" id="6BT" visibility="hidden">
<line cb-classname="GraphicLineEntity" class="algorithmline" id="6BN" x1="4810" x2="4710" y1="2170" y2="2170"/>
<line cb-classname="GraphicLineEntity" class="algorithmline" id="6BH" x1="4710" x2="4710" y1="2170" y2="2270"/>
<line cb-classname="GraphicLineEntity" class="algorithmline" id="6Bu" x1="4710" x2="4810" y1="2270" y2="2270"/>
</g>
<g cb-classname="PointStatusIndicator" cb-indicator-type="alarm" cb-source="C0-olp-gk" id="6pF" visibility="visible">
<text cb-classname="GraphicTextEntity" class="algorithm" fill="#000000" font-family="Arial" font-size="20" id="6p4" x="4820" y="2255">
A
</text>
</g>
<g cb-classname="PointStatusIndicator" cb-indicator-type="ingraphic" cb-source="At-6u8-Sd" id="6py" visibility="hidden">
<text cb-classname="GraphicTextEntity" class="algorithm" fill="#000000" font-family="Arial" font-size="20" id="6pX" x="4820" y="2205">
G
</text>
</g>
<g cb-classname="DynamicText" cb-labeled="false" cb-pin-name="CB" cb-source="Ug-7OO-4u" class="algorithm" id="6pJ" text-anchor="end">
<text baseline-shift="0%" cb-classname="GraphicTextEntity" class="algorithm" fill="black" font-family="arial" font-size="20" font-style="normal" font-weight="normal" id="6pD" text-anchor="end" text-decoration="normal" x="4685" y="2195"/>
</g>
<g baseline-shift="-100%" cb-anchor-x="4685" cb-anchor-y="2230" cb-classname="PointReferences" cb-max-width="130" cb-originator="false" cb-source="N1-lzd-eh" class="signal" id="6pT" text-anchor="end">
<text baseline-shift="-100%" cb-classname="GraphicTextEntity" class="algorithm" id="6pN" text-anchor="end" x="4685" y="2230">
REF: Point not
</text>
<text baseline-shift="-100%" cb-classname="GraphicTextEntity" class="algorithm" id="2M4w" text-anchor="end" x="4685" y="2255">
found in
</text>
<text baseline-shift="-100%" cb-classname="GraphicTextEntity" class="algorithm" id="2M4e" text-anchor="end" x="4685" y="2280">
database
</text>
<text baseline-shift="-100%" cb-classname="GraphicTextEntity" class="algorithm" id="2M4O" text-anchor="end" x="4685" y="2305">
(01T0300D04A-TR)
</text>
</g>
<g baseline-shift="-50%" cb-anchor-x="4865" cb-anchor-y="2235" cb-classname="PointDescription" cb-content="extended" cb-labeled="false" cb-max-width="240" cb-source="9e-XNy-eL" class="algorithm" id="6pu" text-anchor="start">
<text baseline-shift="-50%" cb-classname="GraphicTextEntity" class="algorithm" id="6fF" text-anchor="start" x="4865" y="2223">
DESC: Point not found in
</text>
<text baseline-shift="-50%" cb-classname="GraphicTextEntity" class="algorithm" id="12Hw" text-anchor="start" x="4865" y="2248">
database (01T0300D04A-TR)
</text>
</g>
</g>
</g>
<g cb-classname="IncludeDocument" cb-modify-time="09/25/2018 01:40:30" cb-objectname="Frame" id="5">
<text cb-classname="GraphicTextEntity" class="frame" font-size="50" id="2MN2" x="3660" y="3146">
Project Title &lt;Edit in FRAME.SVG&gt;
</text>
<g baseline-shift="-50%" cb-classname="DynamicText" cb-source="9O-GIDY-Do" class="frame" id="2MNr">
<text cb-classname="GraphicTextEntity" class="frame" fill="black" font-family="arial" font-size="25" font-style="normal" font-weight="normal" id="2MNG" text-decoration="normal" x="4715" y="3325">
13
</text>
</g>
<g baseline-shift="-50%" cb-classname="DynamicText" cb-source="C0-CbJC-8c" class="frame" id="2MHi" text-anchor="middle">
<text cb-classname="GraphicTextEntity" class="frame" fill="black" font-family="arial" font-size="48" font-style="normal" font-weight="normal" id="2MHl" text-anchor="middle" text-decoration="normal" x="4900" y="3320">
13
</text>
</g>
<g baseline-shift="-50%" cb-classname="DynamicText" cb-source="At-ychz-Sx" class="frame" id="2MHo" text-anchor="middle">
<text cb-classname="GraphicTextEntity" class="frame" fill="black" font-family="arial" font-size="48" font-style="normal" font-weight="normal" id="2MHw" text-anchor="middle" text-decoration="normal" x="5067" y="3324">
4
</text>
</g>
<g cb-classname="DynamicText" cb-source="Ug-hojfj-x9SJD" class="frame" id="2MHe">
<text cb-classname="GraphicTextEntity" class="frame" fill="black" font-family="arial" font-size="48" font-style="normal" font-weight="normal" id="2MHO" text-decoration="normal" x="3660" y="3224">
A NO.5 EXTRACTION DRN VLV -T0300D04A
</text>
</g>
<g baseline-shift="-50%" cb-classname="DynamicText" cb-source="N1-XC7ex-WKgY8u" class="frame" id="2MHj" text-anchor="middle">
<text cb-classname="GraphicTextEntity" class="frame" fill="black" font-family="arial" font-size="48" font-style="normal" font-weight="normal" id="2MH2" text-anchor="middle" text-decoration="normal" x="5270" y="3324">
223
</text>
</g>
<g baseline-shift="0%" cb-classname="DynamicText" cb-source="AC-Te89MemW" class="frame" id="2MHr" text-anchor="middle">
<text cb-classname="GraphicTextEntity" class="frame" fill="black" font-family="arial" font-size="36" font-style="normal" font-weight="normal" id="2MHG" text-anchor="middle" text-decoration="normal" x="5270" y="3150">
A
</text>
</g>
<g baseline-shift="0%" cb-classname="DynamicText" cb-source="cD-mwqWBDOT-3Sae" class="frame" id="2Mui" text-anchor="middle">
<text cb-classname="GraphicTextEntity" class="frame" fill="black" font-family="arial" font-size="20" font-style="normal" font-weight="normal" id="2Mul" text-anchor="middle" text-decoration="normal" x="5270" y="3230">
12/28/2010
</text>
</g>
<g baseline-shift="-50%" cb-classname="DynamicText" cb-source="Rp-xMtDMCSR" class="frame" id="2Muo" text-anchor="end">
<text cb-classname="GraphicTextEntity" class="frame" fill="black" font-family="arial" font-size="26" font-style="normal" font-weight="normal" id="2Muw" text-anchor="end" text-decoration="normal" x="4500" y="3420">
Heczko
</text>
</g>
<g baseline-shift="-50%" cb-classname="DynamicText" cb-source="UT-b56gSsfT" class="frame" id="2Mue" text-anchor="end">
<text cb-classname="GraphicTextEntity" class="frame" fill="black" font-family="arial" font-size="26" font-style="normal" font-weight="normal" id="2MuO" text-anchor="end" text-decoration="normal" x="5353" y="3420">
Nemec
</text>
</g>
<g cb-classname="GraphicShape" cb-tag="BORDER" id="2Muj">
<line cb-classname="GraphicLineEntity" class="frameline" id="2Mu2" x1="40" x2="40" y1="40" y2="3460"/>
<line cb-classname="GraphicLineEntity" class="frameline" id="2Mur" x1="40" x2="5380" y1="3460" y2="3460"/>
<line cb-classname="GraphicLineEntity" class="frameline" id="2MuG" x1="5380" x2="5380" y1="3460" y2="40"/>
<line cb-classname="GraphicLineEntity" class="frameline" id="3WFi" x1="5380" x2="40" y1="40" y2="40"/>
<line cb-classname="GraphicLineEntity" class="frame" id="3WFl" x1="5430" x2="5440" y1="3510" y2="3510"/>
</g>
<g cb-classname="GraphicShape" cb-tag="TITLE BOX" id="3WFo">
<line cb-classname="GraphicLineEntity" class="frameline" id="3WFw" x1="2340" x2="2340" y1="3080" y2="3460"/>
<line cb-classname="GraphicLineEntity" class="frameline" id="3WFe" x1="2340" x2="5380" y1="3080" y2="3080"/>
<line cb-classname="GraphicLineEntity" class="frameline" id="3WFO" x1="3650" x2="3650" y1="3460" y2="3080"/>
<line cb-classname="GraphicLineEntity" class="frameline" id="3WFj" x1="3650" x2="5380" y1="3240" y2="3240"/>
<line cb-classname="GraphicLineEntity" class="frameline" id="3WF2" x1="3650" x2="5380" y1="3390" y2="3390"/>
<line cb-classname="GraphicLineEntity" class="frameline" id="3WFr" x1="3650" x2="5380" y1="3160" y2="3160"/>
<line cb-classname="GraphicLineEntity" class="frameline" id="3WFG" x1="3650" x2="4520" y1="3320" y2="3320"/>
<line cb-classname="GraphicLineEntity" class="frameline" id="3W4i" x1="4520" x2="5380" y1="3290" y2="3290"/>
<line cb-classname="GraphicLineEntity" class="frameline" id="3W4l" x1="4520" x2="5380" y1="3240" y2="3240"/>
<line cb-classname="GraphicLineEntity" class="frameline" id="3W4o" x1="4520" x2="4520" y1="3240" y2="3460"/>
<line cb-classname="GraphicLineEntity" class="frameline" id="3W4w" x1="4810" x2="4810" y1="3240" y2="3390"/>
<line cb-classname="GraphicLineEntity" class="frameline" id="3W4e" x1="4990" x2="4990" y1="3240" y2="3390"/>
<line cb-classname="GraphicLineEntity" class="frameline" id="3W4O" x1="5150" x2="5150" y1="3080" y2="3390"/>
</g>
<g cb-classname="GraphicShape" cb-tag="TEXT LABELS" id="3W4j">
<text baseline-shift="-50%" cb-classname="GraphicTextEntity" class="frame" font-size="25" id="3W42" text-anchor="middle" x="4890" y="3252">
Drop
</text>
<text baseline-shift="-50%" cb-classname="GraphicTextEntity" class="frame" font-size="25" id="3W4r" text-anchor="middle" x="5075" y="3252">
Task
</text>
<text baseline-shift="-50%" cb-classname="GraphicTextEntity" class="frame" font-size="25" id="3W4G" text-anchor="middle" x="5265" y="3252">
Sheet
</text>
<text cb-classname="GraphicTextEntity" class="frame" font-size="25" id="3Wyi" x="5152" y="3107">
Rev.
</text>
<text cb-classname="GraphicTextEntity" class="frame" font-size="25" id="3Wyl" x="3653" y="3418">
Engineer
</text>
<text cb-classname="GraphicTextEntity" class="frame" font-size="25" id="3Wyo" x="4528" y="3419">
Approved
</text>
<text cb-classname="GraphicTextEntity" class="frame" font-size="25" id="3Wyw" x="5152" y="3187">
Date
</text>
<text baseline-shift="-50%" cb-classname="GraphicTextEntity" class="frame" font-size="25" id="3Wye" text-anchor="middle" x="4660" y="3252">
Drawing Number
</text>
<text baseline-shift="-50%" cb-classname="GraphicTextEntity" class="frame" font-size="25" id="3WyO" text-anchor="middle" x="4680" y="3325">
CTL
</text>
</g>
<text baseline-shift="-50%" cb-classname="GraphicTextEntity" class="frame" font-size="48" id="3Wyj" text-anchor="middle" x="3000" y="3100">
EMERSON PROCESS MANAGEMENT
</text>
<g baseline-shift="-100%" cb-anchor-x="2360" cb-anchor-y="3140" cb-classname="GroupText" cb-max-width="1260" fill="black" id="3Wy2">
<text baseline-shift="-100%" cb-classname="GraphicTextEntity" class="frame" fill="black" font-family="arial" font-size="22" font-weight="normal" id="3Wyr" text-anchor="start" text-decoration="normal" x="2360" y="3140">
THIS DOCUMENT CONTAINS INFORMATION PROPRIETARY TO EMERSON PROCESS
</text>
<text baseline-shift="-100%" cb-classname="GraphicTextEntity" class="frame" fill="black" font-family="arial" font-size="22" font-weight="normal" id="3WyG" text-anchor="start" text-decoration="normal" x="2360" y="3176">
MANAGEMENT POWER &amp; WATER SOLUTIONS, INC. IT IS SUBMITTED IN CONFIDENCE AND
</text>
<text baseline-shift="-100%" cb-classname="GraphicTextEntity" class="frame" fill="black" font-family="arial" font-size="22" font-weight="normal" id="3WXi" text-anchor="start" text-decoration="normal" x="2360" y="3212">
TRUST, IS TO BE USED BY YOU SOLELY FOR THE PURPOSES FOR WHICH IT IS
</text>
<text baseline-shift="-100%" cb-classname="GraphicTextEntity" class="frame" fill="black" font-family="arial" font-size="22" font-weight="normal" id="3WXl" text-anchor="start" text-decoration="normal" x="2360" y="3248">
FURNISHED AND IS TO BE RETURNED UPON REQUEST. THIS DOCUMENT AND ANY
</text>
<text baseline-shift="-100%" cb-classname="GraphicTextEntity" class="frame" fill="black" font-family="arial" font-size="22" font-weight="normal" id="3WXo" text-anchor="start" text-decoration="normal" x="2360" y="3284">
OTHER INFORMATION PROVIDED TO YOU IS NOT TO BE REPRODUCED, TRANSMITTED,
</text>
<text baseline-shift="-100%" cb-classname="GraphicTextEntity" class="frame" fill="black" font-family="arial" font-size="22" font-weight="normal" id="3WXw" text-anchor="start" text-decoration="normal" x="2360" y="3320">
DISCLOSED, OR USED OTHERWISE IN WHOLE OR IN PART WITHOUT THE PRIOR
</text>
<text baseline-shift="-100%" cb-classname="GraphicTextEntity" class="frame" fill="black" font-family="arial" font-size="22" font-weight="normal" id="3WXe" text-anchor="start" text-decoration="normal" x="2360" y="3356">
WRITTEN AUTHORIZATION OF EMERSON PROCESS MANAGEMENT POWER &amp; WATER
</text>
<text baseline-shift="-100%" cb-classname="GraphicTextEntity" class="frame" fill="black" font-family="arial" font-size="22" font-weight="normal" id="3WXO" text-anchor="start" text-decoration="normal" x="2360" y="3392">
SOLUTIONS,INC.
</text>
</g>
</g>
</svg>