<?xml version="1.0" ?><svg cb-auto-time="03/01/2008 17:53:00" cb-classname="ControlFunction" cb-create-time="03/12/2008" cb-drop-id="13" cb-engineer="Heczko" cb-filename="Z:\OVATION\NET0\UNIT0\CONTROLFUNCTIONS\01D2.svg" cb-function-id="01D2" cb-key="123424433215" cb-modified-timestamp="1489320140" cb-modify-id="00000002" cb-ortho-mode="enabled" cb-path="Z:/OVATION/NET0/UNIT0/CONTROLFUNCTIONS" cb-reviewer="Nemec" cb-revision="A" cb-revision-time="12/28/2010" cb-sheet-number="198" cb-sheet-title="A COLD REHEAT STM DRN VLV-T0200D08A" cb-snap-grid="10" cb-task-id="4" height="3707" id="1" width="5450" xmlns="http://www.w3.org/2000/svg">
<style cb-classname="EntityStyle" id="2" type="text/css">
	.algorithm { fill: white; stroke: black; stroke-linecap: round; stroke-width: 2 }
	.algorithm-function { fill: none; stroke: black; stroke-linecap: round; stroke-width: 2 }
	.algorithm-functionline { fill: none; stroke: black; stroke-linecap: round; stroke-width: 2 }
	.algorithm-name { fill: none; stroke: black; stroke-linecap: round; stroke-width: 2 }
	.algorithm-nameline { fill: none; stroke: black; stroke-linecap: round; stroke-width: 2 }
	.algorithm-sequence { fill: none; stroke: black; stroke-linecap: round; stroke-width: 2 }
	.algorithm-sequenceline { fill: none; stroke: black; stroke-linecap: round; stroke-width: 2 }
	.algorithmline { fill: none; stroke: black; stroke-linecap: round; stroke-width: 2 }
	.annotation { fill: none; stroke: black; stroke-linecap: round; stroke-width: 2 }
	.annotationline { fill: none; stroke: black; stroke-linecap: round; stroke-width: 2 }
	.frame { fill: none; stroke: black; stroke-linecap: round; stroke-width: 2 }
	.frameline { fill: none; stroke: black; stroke-linecap: round; stroke-width: 2 }
	.signal { fill: black; stroke: black; stroke-linecap: round; stroke-width: 2 }
	.signalline { fill: none; stroke: black; stroke-linecap: round; stroke-width: 2 }
	text.algorithm { fill: black; font-family: MS Shell Dlg 2; font-size: 14; stroke: none }
	text.algorithm-function { fill: black; font-family: MS Shell Dlg 2; font-size: 16; stroke: none }
	text.algorithm-name { fill: black; font-family: MS Shell Dlg 2; font-size: 16; stroke: none }
	text.algorithm-sequence { fill: black; font-family: MS Shell Dlg 2; font-size: 16; stroke: none }
	text.annotation { fill: black; font-family: MS Shell Dlg 2; font-size: 16; stroke: none }
	text.frame { fill: black; font-family: MS Shell Dlg 2; font-size: 16; stroke: none }
	text.signal { fill: black; font-family: MS Shell Dlg 2; font-size: 12; stroke: none }
</style>
<g cb-classname="NamedObject" cb-objectname="Comments" id="3">
<text cb-classname="GraphicTextEntity" class="annotation" fill="#000000" font-family="MS Shell Dlg 2" font-size="72" id="6d" x="3080" y="1480">
PCMS1
</text>
</g>
<g cb-classname="AlgorithmContainer" cb-objectname="Algorithms" id="4">
<g cb-alg-2tL0="5" cb-alg-7fw0="128" cb-alg-VP2="01T0200D08A-KB" cb-algorithm-id="002" cb-classname="ControlAlgorithm" cb-function-name="KEYBOARD" cb-modify-id="00000001" id="6e">
<rect cb-classname="GraphicRectangleEntity" class="annotation" height="200" id="6o" stroke-width="1" width="140" x="1420" y="570"/>
<g cb-classname="ControlPin" cb-pin-name="sn-5Tc-FIG1" id="6C">
<line cb-classname="GraphicLineEntity" class="signalline" id="6I" x1="1560" x2="1570" y1="580" y2="580"/>
<g cb-classname="DynamicText" cb-source="i8-5mS-6RCt" class="signal" id="7M" text-anchor="start">
<text cb-classname="GraphicTextEntity" class="signal" fill="black" font-style="normal" font-weight="normal" id="7U" text-anchor="start" text-decoration="normal" x="1574" y="577"/>
</g>
<g cb-classname="SignalSegment" id="7P">
<line cb-classname="GraphicLineEntity" class="signalline" id="79" stroke="#1e12bf" stroke-dasharray="5,4" x1="1570" x2="2670" y1="580" y2="580"/>
<g cb-classname="SignalSegment" id="7v">
<line cb-classname="GraphicLineEntity" class="signalline" id="7d" stroke="#1e12bf" stroke-dasharray="5,4" x1="2670" x2="2670" y1="580" y2="650"/>
<g cb-classname="SignalSegment" id="7e">
<line cb-classname="GraphicLineEntity" class="signalline" id="7o" stroke="#1e12bf" stroke-dasharray="5,4" x1="2670" x2="2820" y1="650" y2="650"/>
<g cb-classname="SignalConnection" cb-graphic-line="$77$" cb-input-pin="$vmV$" id="7C"/>
</g>
</g>
</g>
</g>
<g cb-classname="ControlPin" cb-pin-name="Dz-pMM-mJF8" id="7I">
<line cb-classname="GraphicLineEntity" class="signalline" id="8M" x1="1560" x2="1570" y1="600" y2="600"/>
<g cb-classname="DynamicText" cb-source="sn-bPV-Ssr8" class="signal" id="8U" text-anchor="start">
<text cb-classname="GraphicTextEntity" class="signal" fill="black" font-style="normal" font-weight="normal" id="8P" text-anchor="start" text-decoration="normal" x="1574" y="597"/>
</g>
<g cb-classname="SignalSegment" id="89">
<line cb-classname="GraphicLineEntity" class="signalline" id="8v" stroke="#1e12bf" stroke-dasharray="5,4" x1="1570" x2="2640" y1="600" y2="600"/>
<g cb-classname="SignalSegment" id="8d">
<line cb-classname="GraphicLineEntity" class="signalline" id="8e" stroke="#1e12bf" stroke-dasharray="5,4" x1="2640" x2="2640" y1="600" y2="690"/>
<g cb-classname="SignalSegment" id="8o">
<line cb-classname="GraphicLineEntity" class="signalline" id="8C" stroke="#1e12bf" stroke-dasharray="5,4" x1="2640" x2="2820" y1="690" y2="690"/>
<g cb-classname="SignalConnection" cb-graphic-line="$88$" cb-input-pin="$Qga$" id="8I"/>
</g>
</g>
</g>
</g>
<g cb-classname="ControlPin" cb-pin-name="ZY-sYk-QjXW" id="9M">
<line cb-classname="GraphicLineEntity" class="signalline" id="9U" x1="1560" x2="1570" y1="620" y2="620"/>
<g cb-classname="DynamicText" cb-source="Dz-u9m-VLqE" class="signal" id="9P" text-anchor="start">
<text cb-classname="GraphicTextEntity" class="signal" fill="black" font-style="normal" font-weight="normal" id="99" text-anchor="start" text-decoration="normal" x="1574" y="617"/>
</g>
</g>
<g cb-classname="ControlPin" cb-pin-name="et-ROp-Wab" id="1Mj">
<line cb-classname="GraphicLineEntity" class="signalline" id="1M0" x1="1560" x2="1570" y1="640" y2="640"/>
<g cb-classname="DynamicText" cb-source="ZY-ktV-b7ms" class="signal" id="1MI" text-anchor="start">
<text cb-classname="GraphicTextEntity" class="signal" fill="black" font-style="normal" font-weight="normal" id="1Mq" text-anchor="start" text-decoration="normal" x="1574" y="637"/>
</g>
</g>
<g cb-classname="ControlPin" cb-pin-name="mi-sXM-kri" id="1U0">
<line cb-classname="GraphicLineEntity" class="signalline" id="1UI" x1="1560" x2="1570" y1="670" y2="670"/>
<g cb-classname="DynamicText" cb-source="et-hMi-VaXc" class="signal" id="1Uq" text-anchor="start">
<text cb-classname="GraphicTextEntity" class="signal" fill="black" font-style="normal" font-weight="normal" id="1Um" text-anchor="start" text-decoration="normal" x="1574" y="667"/>
</g>
<g cb-classname="SignalSegment" id="1Un">
<line cb-classname="GraphicLineEntity" class="signalline" id="1Ul" stroke="#1e12bf" stroke-dasharray="5,4" x1="1570" x2="2550" y1="670" y2="670"/>
<g cb-classname="SignalSegment" id="1Uv">
<line cb-classname="GraphicLineEntity" class="signalline" id="1U5" stroke="#1e12bf" stroke-dasharray="5,4" x1="2550" x2="2550" y1="670" y2="810"/>
<g cb-classname="SignalSegment" id="1PO">
<line cb-classname="GraphicLineEntity" class="signalline" id="1Pj" stroke="#1e12bf" stroke-dasharray="5,4" x1="2550" x2="2820" y1="810" y2="810"/>
<g cb-classname="SignalConnection" cb-graphic-line="$121$" cb-input-pin="$VHp$" id="1P0"/>
</g>
</g>
</g>
</g>
<g cb-classname="ControlPin" cb-pin-name="Pj-LhD-hzY" id="1PI">
<line cb-classname="GraphicLineEntity" class="signalline" id="1Pq" x1="1560" x2="1570" y1="690" y2="690"/>
<g cb-classname="DynamicText" cb-source="mi-ID1-iSWi" class="signal" id="1Pm" text-anchor="start">
<text cb-classname="GraphicTextEntity" class="signal" fill="black" font-style="normal" font-weight="normal" id="1Pn" text-anchor="start" text-decoration="normal" x="1574" y="687"/>
</g>
<g cb-classname="SignalSegment" id="1Pl">
<line cb-classname="GraphicLineEntity" class="signalline" id="1Pv" stroke="#1e12bf" stroke-dasharray="5,4" x1="1570" x2="2520" y1="690" y2="690"/>
<g cb-classname="SignalSegment" id="1P5">
<line cb-classname="GraphicLineEntity" class="signalline" id="19O" stroke="#1e12bf" stroke-dasharray="5,4" x1="2520" x2="2520" y1="690" y2="850"/>
<g cb-classname="SignalSegment" id="19j">
<line cb-classname="GraphicLineEntity" class="signalline" id="190" stroke="#1e12bf" stroke-dasharray="5,4" x1="2520" x2="2820" y1="850" y2="850"/>
<g cb-classname="SignalConnection" cb-graphic-line="$132$" cb-input-pin="$UEa$" id="19I"/>
</g>
</g>
</g>
</g>
<g cb-classname="ControlPin" cb-pin-name="xv-47V-IzH" id="19q">
<line cb-classname="GraphicLineEntity" class="signalline" id="19m" x1="1560" x2="1570" y1="710" y2="710"/>
<g cb-classname="DynamicText" cb-source="Pj-8Vd-17EH" class="signal" id="19n" text-anchor="start">
<text cb-classname="GraphicTextEntity" class="signal" fill="black" font-style="normal" font-weight="normal" id="19l" text-anchor="start" text-decoration="normal" x="1574" y="707"/>
</g>
</g>
<g cb-classname="ControlPin" cb-pin-name="mi-sXM-kre" id="19v">
<line cb-classname="GraphicLineEntity" class="signalline" id="195" x1="1560" x2="1570" y1="730" y2="730"/>
<g cb-classname="DynamicText" cb-source="et-hMi-VaXc" class="signal" id="1vO" text-anchor="start">
<text cb-classname="GraphicTextEntity" class="signal" fill="black" font-style="normal" font-weight="normal" id="1vj" text-anchor="start" text-decoration="normal" x="1574" y="727"/>
</g>
</g>
<text cb-classname="GraphicTextEntity" class="annotation" fill="#000000" font-family="MS Shell Dlg 2" font-size="8" id="1v0" x="1460" y="660">
KEYBOARD
</text>
<g cb-classname="DynamicText" cb-labeled="false" cb-source="bq-755-aUZ" class="algorithm" id="1vON" text-anchor="start">
<text cb-classname="GraphicTextEntity" class="algorithm" fill="black" font-style="normal" font-weight="normal" id="1vOl" text-anchor="start" text-decoration="normal" x="1420" y="550"/>
</g>
<g cb-classname="ControlPin" cb-pin-name="i8-aJr-SVr" id="1CnV">
<line cb-classname="GraphicLineEntity" class="signalline" id="1CnK" x1="1560" x2="1570" y1="750" y2="750"/>
<g cb-classname="DynamicText" cb-source="U3-xA6-dsIv" class="signal" id="1Cnf" text-anchor="start">
<text cb-classname="GraphicTextEntity" class="signal" fill="black" font-style="normal" font-weight="normal" id="1CnU" text-anchor="start" text-decoration="normal" x="1574" y="747"/>
</g>
<g cb-classname="SignalSegment" id="1CnO">
<line cb-classname="GraphicLineEntity" class="signalline" id="1CnZ" stroke="#1e12bf" stroke-dasharray="5,4" x1="1570" x2="2480" y1="750" y2="750"/>
<g cb-classname="SignalSegment" id="1Clc">
<line cb-classname="GraphicLineEntity" class="signalline" id="1ClF" stroke="#1e12bf" stroke-dasharray="5,4" x1="2480" x2="2480" y1="750" y2="890"/>
<g cb-classname="SignalSegment" id="1ClN">
<line cb-classname="GraphicLineEntity" class="signalline" id="1ClV" stroke="#1e12bf" stroke-dasharray="5,4" x1="2480" x2="2830" y1="890" y2="890"/>
<g cb-classname="SignalConnection" cb-graphic-line="$1874$" cb-input-pin="$LhEs$" id="1Clf"/>
</g>
</g>
</g>
</g>
</g>
<g cb-alg-oFf2="NO" cb-alg-olh="01T02G01-P05" cb-algorithm-id="003" cb-classname="ExternalPointInterface" cb-function-name="INPUT" id="1vI">
<ellipse cb-classname="GraphicEllipseEntity" class="algorithm" cx="630" cy="1150" id="1vq" rx="50" ry="50"/>
<rect cb-classname="GraphicRectangleEntity" class="algorithm" height="100" id="1vm" width="40" x="540" y="1100"/>
<line cb-classname="GraphicLineEntity" class="algorithm" id="1vn" x1="540" x2="580" y1="1150" y2="1150"/>
<g cb-classname="ControlPin" cb-pin-name="xv-47V-ndF" id="1vl">
<line cb-classname="GraphicLineEntity" class="signalline" id="1vv" x1="680" x2="710" y1="1150" y2="1150"/>
<g cb-classname="DynamicText" cb-source="Pj-8Vd-17EH" class="signal" id="1v5" text-anchor="start">
<text cb-classname="GraphicTextEntity" class="signal" fill="black" font-style="normal" font-weight="normal" id="1dO" text-anchor="start" text-decoration="normal" x="694" y="1147"/>
</g>
<g cb-classname="SignalSegment" id="7MI">
<line cb-classname="GraphicLineEntity" class="signalline" id="7Mq" stroke="#1e12bf" stroke-dasharray="5,4" x1="710" x2="2660" y1="1150" y2="1150"/>
<g cb-classname="SignalSegment" id="7Mm">
<line cb-classname="GraphicLineEntity" class="signalline" id="7Mn" stroke="#1e12bf" stroke-dasharray="5,4" x1="2660" x2="2660" y1="1150" y2="1190"/>
<g cb-classname="SignalSegment" id="7Ml">
<line cb-classname="GraphicLineEntity" class="signalline" id="7Mv" stroke="#1e12bf" stroke-dasharray="5,4" x1="2660" x2="2820" y1="1190" y2="1190"/>
<g cb-classname="SignalConnection" cb-graphic-line="$708$" cb-input-pin="$pRK$" id="7M5"/>
</g>
</g>
</g>
</g>
<g cb-classname="PointStatusIndicator" cb-indicator-type="Highway" cb-source="bq-755-pFz" id="1dq" visibility="hidden">
<line cb-classname="GraphicLineEntity" class="algorithmline" id="1dm" x1="580" x2="630" y1="1150" y2="1100"/>
<line cb-classname="GraphicLineEntity" class="algorithmline" id="1dn" x1="630" x2="680" y1="1100" y2="1150"/>
<line cb-classname="GraphicLineEntity" class="algorithmline" id="1dl" x1="680" x2="630" y1="1150" y2="1200"/>
<line cb-classname="GraphicLineEntity" class="algorithmline" id="1dv" x1="630" x2="580" y1="1200" y2="1150"/>
</g>
<g cb-classname="PointStatusIndicator" cb-indicator-type="hardware" cb-source="sn-5Tc-FUF" id="1d5" visibility="hidden">
<line cb-classname="GraphicLineEntity" class="algorithmline" id="1eO" x1="580" x2="680" y1="1100" y2="1100"/>
<line cb-classname="GraphicLineEntity" class="algorithmline" id="1ej" x1="680" x2="680" y1="1100" y2="1200"/>
<line cb-classname="GraphicLineEntity" class="algorithmline" id="1e0" x1="680" x2="580" y1="1200" y2="1200"/>
</g>
<g cb-classname="PointStatusIndicator" cb-indicator-type="alarm" cb-source="U3-2ao-uJe" id="1eI" visibility="hidden">
<text cb-classname="GraphicTextEntity" class="algorithm" fill="#000000" font-family="arial" font-size="20" id="1eq" x="550" y="1135">
A
</text>
</g>
<g cb-classname="PointStatusIndicator" cb-indicator-type="ingraphic" cb-source="PZ-7pn-0d0" id="1em" visibility="hidden">
<text cb-classname="GraphicTextEntity" class="algorithm" fill="#000000" font-family="Arial" font-size="20" id="1en" x="550" y="1185">
G
</text>
</g>
<g baseline-shift="-50%" cb-anchor-x="530" cb-anchor-y="1164" cb-classname="PointDescription" cb-content="extended" cb-labeled="false" cb-max-width="220" cb-source="bq-755-pFz" class="algorithm" id="1el" text-anchor="end">
<text baseline-shift="-50%" cb-classname="GraphicTextEntity" class="algorithm" id="1ev" text-anchor="end" x="530" y="1152">
DESC: Point not found in
</text>
<text baseline-shift="-50%" cb-classname="GraphicTextEntity" class="algorithm" id="1CqZ" text-anchor="end" x="530" y="1177">
database (01T02G01-P05)
</text>
</g>
<g cb-classname="DynamicText" cb-labeled="false" cb-pin-name="OZx" cb-source="cN-wNR-uIl" class="algorithm" id="1e5" text-anchor="start">
<text baseline-shift="0%" cb-classname="GraphicTextEntity" class="algorithm" fill="black" font-family="arial" font-size="20" font-style="normal" font-weight="normal" id="1oO" text-anchor="start" text-decoration="normal" x="700" y="1120"/>
</g>
<g baseline-shift="-100%" cb-anchor-x="700" cb-anchor-y="1160" cb-classname="PointReferences" cb-max-width="230" cb-originator="true" cb-source="re-6gb-UJM" class="signal" id="1oj" text-anchor="start">
<text baseline-shift="-100%" cb-classname="GraphicTextEntity" class="algorithm" id="1o0" text-anchor="start" x="700" y="1160">
REF: Point not found in
</text>
<text baseline-shift="-100%" cb-classname="GraphicTextEntity" class="algorithm" id="2InN" text-anchor="start" x="700" y="1185">
database (01T02G01-P05)
</text>
</g>
</g>
<g cb-alg-fWMp="NO" cb-alg-fXt="01LS323-NO" cb-algorithm-id="005" cb-classname="ExternalPointInterface" cb-function-name="INPUT" id="1Iq">
<ellipse cb-classname="GraphicEllipseEntity" class="algorithm" cx="630" cy="1400" id="1Im" rx="50" ry="50"/>
<rect cb-classname="GraphicRectangleEntity" class="algorithm" height="100" id="1In" width="40" x="540" y="1350"/>
<line cb-classname="GraphicLineEntity" class="algorithm" id="1Il" x1="540" x2="580" y1="1400" y2="1400"/>
<g cb-classname="ControlPin" cb-pin-name="sn-5Tc-FUF" id="1Iv">
<line cb-classname="GraphicLineEntity" class="signalline" id="1I5" x1="680" x2="710" y1="1400" y2="1400"/>
<g cb-classname="DynamicText" cb-source="i8-5mS-6RCt" class="signal" id="2MO" text-anchor="start">
<text cb-classname="GraphicTextEntity" class="signal" fill="black" font-style="normal" font-weight="normal" id="2Mj" text-anchor="start" text-decoration="normal" x="694" y="1397"/>
</g>
<g cb-classname="SignalSegment" id="7Ul">
<line cb-classname="GraphicLineEntity" class="signalline" id="7Uv" stroke="#1e12bf" stroke-dasharray="5,4" x1="710" x2="2690" y1="1400" y2="1400"/>
<g cb-classname="SignalSegment" id="7U5">
<line cb-classname="GraphicLineEntity" class="signalline" id="7PO" stroke="#1e12bf" stroke-dasharray="5,4" x1="2690" x2="2690" y1="1400" y2="1450"/>
<g cb-classname="SignalSegment" id="7Pj">
<line cb-classname="GraphicLineEntity" class="signalline" id="7P0" stroke="#1e12bf" stroke-dasharray="5,4" x1="2690" x2="2820" y1="1450" y2="1450"/>
<g cb-classname="SignalConnection" cb-graphic-line="$722$" cb-input-pin="$B6g$" id="7PI"/>
</g>
</g>
</g>
</g>
<g cb-classname="PointStatusIndicator" cb-indicator-type="Highway" cb-source="i8-aJr-fXt" id="2UI" visibility="visible">
<line cb-classname="GraphicLineEntity" class="algorithmline" id="2Uq" x1="580" x2="630" y1="1400" y2="1350"/>
<line cb-classname="GraphicLineEntity" class="algorithmline" id="2Um" x1="630" x2="680" y1="1350" y2="1400"/>
<line cb-classname="GraphicLineEntity" class="algorithmline" id="2Un" x1="680" x2="630" y1="1400" y2="1450"/>
<line cb-classname="GraphicLineEntity" class="algorithmline" id="2Ul" x1="630" x2="580" y1="1450" y2="1400"/>
</g>
<g cb-classname="PointStatusIndicator" cb-indicator-type="hardware" cb-source="et-ROp-4sj" id="2Uv" visibility="visible">
<line cb-classname="GraphicLineEntity" class="algorithmline" id="2U5" x1="580" x2="680" y1="1350" y2="1350"/>
<line cb-classname="GraphicLineEntity" class="algorithmline" id="2PO" x1="680" x2="680" y1="1350" y2="1450"/>
<line cb-classname="GraphicLineEntity" class="algorithmline" id="2Pj" x1="680" x2="580" y1="1450" y2="1450"/>
</g>
<g cb-classname="PointStatusIndicator" cb-indicator-type="alarm" cb-source="Dz-pMM-dkM" id="2P0" visibility="visible">
<text cb-classname="GraphicTextEntity" class="algorithm" fill="#000000" font-family="arial" font-size="20" id="2PI" x="550" y="1385">
A
</text>
</g>
<g cb-classname="PointStatusIndicator" cb-indicator-type="ingraphic" cb-source="sn-5Tc-FUF" id="2Pq" visibility="visible">
<text cb-classname="GraphicTextEntity" class="algorithm" fill="#000000" font-family="Arial" font-size="20" id="2Pm" x="550" y="1435">
G
</text>
</g>
<g baseline-shift="-50%" cb-anchor-x="530" cb-anchor-y="1414" cb-classname="PointDescription" cb-content="extended" cb-labeled="false" cb-max-width="220" cb-source="i8-aJr-fXt" class="algorithm" id="2Pn" text-anchor="end">
<text baseline-shift="-50%" cb-classname="GraphicTextEntity" class="algorithm" id="2Pl" text-anchor="end" x="530" y="1402">
DESC: Point not found in
</text>
<text baseline-shift="-50%" cb-classname="GraphicTextEntity" class="algorithm" id="1Cmc" text-anchor="end" x="530" y="1427">
database (01LS323-NO)
</text>
</g>
<g cb-classname="DynamicText" cb-labeled="false" cb-pin-name="wxY" cb-source="U3-2ao-uJe" class="algorithm" id="2Pv" text-anchor="start">
<text baseline-shift="0%" cb-classname="GraphicTextEntity" class="algorithm" fill="black" font-family="arial" font-size="20" font-style="normal" font-weight="normal" id="2P5" text-anchor="start" text-decoration="normal" x="700" y="1370"/>
</g>
<g baseline-shift="-100%" cb-anchor-x="700" cb-anchor-y="1410" cb-classname="PointReferences" cb-max-width="230" cb-originator="true" cb-source="PZ-7pn-0d0" class="signal" id="29O" text-anchor="start">
<text baseline-shift="-100%" cb-classname="GraphicTextEntity" class="algorithm" id="29j" text-anchor="start" x="700" y="1410">
REF: Point not found in
</text>
<text baseline-shift="-100%" cb-classname="GraphicTextEntity" class="algorithm" id="2InV" text-anchor="start" x="700" y="1435">
database (01LS323-NO)
</text>
</g>
</g>
<g cb-alg-0DRn="69" cb-alg-27ph="0" cb-algorithm-id="006" cb-classname="ControlAlgorithm" cb-function-name="DVALGEN" cb-modify-id="00000001" id="290">
<rect cb-classname="GraphicRectangleEntity" class="algorithm" height="100" id="29I" width="140" x="1420" y="1450"/>
<text baseline-shift="-50%" cb-classname="GraphicTextEntity" class="algorithm" fill="#000000" font-family="MS Shell Dlg" font-size="18" id="29q" text-anchor="middle" x="1490" y="1500">
DVALGEN
</text>
<g cb-classname="ControlPin" cb-pin-name="Dz-pMM-dkM" id="29m">
<line cb-classname="GraphicLineEntity" class="signalline" id="29n" x1="1560" x2="1580" y1="1500" y2="1500"/>
<g cb-classname="DynamicText" cb-source="sn-bPV-Ssr8" class="signal" id="29l" text-anchor="start">
<text cb-classname="GraphicTextEntity" class="signal" fill="black" font-style="normal" font-weight="normal" id="29v" text-anchor="start" text-decoration="normal" x="1574" y="1497"/>
</g>
<g cb-classname="SignalSegment" id="295">
<line cb-classname="GraphicLineEntity" class="signalline" id="7UO" stroke="#1e12bf" stroke-dasharray="5,4" x1="1580" x2="2660" y1="1500" y2="1500"/>
<g cb-classname="SignalSegment" id="7Uj">
<line cb-classname="GraphicLineEntity" class="signalline" id="7U0" stroke="#1e12bf" stroke-dasharray="5,4" x1="2660" x2="2660" y1="1500" y2="1230"/>
<g cb-classname="SignalSegment" id="7UI">
<line cb-classname="GraphicLineEntity" class="signalline" id="7Uq" stroke="#1e12bf" stroke-dasharray="5,4" x1="2660" x2="2820" y1="1230" y2="1230"/>
<g cb-classname="SignalConnection" cb-graphic-line="$714$" cb-input-pin="$vvZ$" id="7Um"/>
</g>
<line cb-classname="GraphicLineEntity" class="signalline" id="2vO" stroke="#1e12bf" stroke-dasharray="5,4" x1="2660" x2="2820" y1="1500" y2="1500"/>
<g cb-classname="SignalConnection" cb-graphic-line="$240$" cb-input-pin="$XWK$" id="2vj"/>
<ellipse cb-classname="GraphicEllipseEntity" class="signal" cx="2660" cy="1500" fill="#1e12bf" id="7Un" rx="5" ry="5" stroke="#1e12bf" stroke-dasharray="5,4"/>
<line cb-classname="GraphicLineEntity" class="signalline" id="195V" stroke="#1e12bf" stroke-dasharray="5,4" x1="2660" x2="2660" y1="1500" y2="2000"/>
<g cb-classname="SignalSegment" id="195K">
<line cb-classname="GraphicLineEntity" class="signalline" id="195f" stroke="#1e12bf" stroke-dasharray="5,4" x1="2660" x2="2820" y1="2000" y2="2000"/>
<g cb-classname="SignalConnection" cb-graphic-line="$1396$" cb-input-pin="$EYj$" id="195U"/>
</g>
</g>
</g>
</g>
<g cb-classname="DynamicText" cb-labeled="true" cb-source="U3-2ao-RsYd" class="algorithm" id="195O" text-anchor="start">
<text cb-classname="GraphicTextEntity" class="algorithm" fill="black" font-style="normal" font-weight="normal" id="195Z" text-anchor="start" text-decoration="normal" x="1440" y="1440"/>
</g>
</g>
<g cb-alg-1A7M="69" cb-alg-isXX="1" cb-algorithm-id="007" cb-classname="ControlAlgorithm" cb-function-name="DVALGEN" cb-modify-id="00000001" id="2vq">
<rect cb-classname="GraphicRectangleEntity" class="algorithm" height="100" id="2vm" width="140" x="1420" y="1610"/>
<text baseline-shift="-50%" cb-classname="GraphicTextEntity" class="algorithm" fill="#000000" font-family="MS Shell Dlg" font-size="18" id="2vn" text-anchor="middle" x="1490" y="1660">
DVALGEN
</text>
<g cb-classname="ControlPin" cb-pin-name="cN-wNR-uIl" id="2vl">
<line cb-classname="GraphicLineEntity" class="signalline" id="2vv" x1="1560" x2="1580" y1="1660" y2="1660"/>
<g cb-classname="DynamicText" cb-source="re-3iX-r29G" class="signal" id="2v5" text-anchor="start">
<text cb-classname="GraphicTextEntity" class="signal" fill="black" font-style="normal" font-weight="normal" id="2dO" text-anchor="start" text-decoration="normal" x="1574" y="1657"/>
</g>
<g cb-classname="SignalSegment" id="2dj">
<line cb-classname="GraphicLineEntity" class="signalline" id="2d0" stroke="#1e12bf" stroke-dasharray="5,4" x1="1580" x2="2690" y1="1660" y2="1660"/>
<g cb-classname="SignalSegment" id="2dI">
<line cb-classname="GraphicLineEntity" class="signalline" id="2dq" stroke="#1e12bf" stroke-dasharray="5,4" x1="2690" x2="2690" y1="1660" y2="1710"/>
<g cb-classname="SignalSegment" id="2dm">
<line cb-classname="GraphicLineEntity" class="signalline" id="2dn" stroke="#1e12bf" stroke-dasharray="5,4" x1="2690" x2="2820" y1="1710" y2="1710"/>
<g cb-classname="SignalConnection" cb-graphic-line="$256$" cb-input-pin="$lBT$" id="2dl"/>
</g>
<line cb-classname="GraphicLineEntity" class="signalline" id="2dv" stroke="#1e12bf" stroke-dasharray="5,4" x1="2690" x2="2820" y1="1660" y2="1660"/>
<g cb-classname="SignalConnection" cb-graphic-line="$258$" cb-input-pin="$gIw$" id="2d5"/>
<ellipse cb-classname="GraphicEllipseEntity" class="signal" cx="2690" cy="1660" fill="#1e12bf" id="2eO" rx="5" ry="5" stroke="#1e12bf" stroke-dasharray="5,4"/>
</g>
</g>
</g>
<g cb-classname="DynamicText" cb-labeled="true" cb-source="PZ-7pn-vEoF" class="algorithm" id="1vOc" text-anchor="start">
<text cb-classname="GraphicTextEntity" class="algorithm" fill="black" font-style="normal" font-weight="normal" id="1vOF" text-anchor="start" text-decoration="normal" x="1450" y="1600"/>
</g>
</g>
<g cb-alg-n4Dn="NO" cb-alg-ndF="01T0200D08A-EPO" cb-algorithm-id="009" cb-classname="ExternalPointInterface" cb-function-name="INPUT" id="2Il">
<ellipse cb-classname="GraphicEllipseEntity" class="algorithm" cx="630" cy="1960" id="2Iv" rx="50" ry="50"/>
<rect cb-classname="GraphicRectangleEntity" class="algorithm" height="100" id="2I5" width="40" x="540" y="1910"/>
<line cb-classname="GraphicLineEntity" class="algorithm" id="3MO" x1="540" x2="580" y1="1960" y2="1960"/>
<g cb-classname="ControlPin" cb-pin-name="re-6gb-UJM" id="3Mj">
<line cb-classname="GraphicLineEntity" class="signalline" id="3M0" x1="680" x2="710" y1="1960" y2="1960"/>
<g cb-classname="DynamicText" cb-source="xv-c4r-d7PF" class="signal" id="3MI" text-anchor="start">
<text cb-classname="GraphicTextEntity" class="signal" fill="black" font-style="normal" font-weight="normal" id="3Mq" text-anchor="start" text-decoration="normal" x="694" y="1957"/>
</g>
<g cb-classname="SignalSegment" id="7Pl">
<line cb-classname="GraphicLineEntity" class="signalline" id="7Pv" stroke="#1e12bf" stroke-dasharray="5,4" x1="710" x2="2430" y1="1960" y2="1960"/>
<g cb-classname="SignalSegment" id="7P5">
<line cb-classname="GraphicLineEntity" class="signalline" id="79O" stroke="#1e12bf" stroke-dasharray="5,4" x1="2430" x2="2430" y1="1960" y2="2040"/>
<g cb-classname="SignalSegment" id="79j">
<line cb-classname="GraphicLineEntity" class="signalline" id="790" stroke="#1e12bf" stroke-dasharray="5,4" x1="2430" x2="2830" y1="2040" y2="2040"/>
<g cb-classname="SignalConnection" cb-graphic-line="$732$" cb-input-pin="$I7p$" id="79I"/>
</g>
</g>
</g>
</g>
<g cb-classname="PointStatusIndicator" cb-indicator-type="Highway" cb-source="cN-wNR-uIl" id="3U0" visibility="hidden">
<line cb-classname="GraphicLineEntity" class="algorithmline" id="3UI" x1="580" x2="630" y1="1960" y2="1910"/>
<line cb-classname="GraphicLineEntity" class="algorithmline" id="3Uq" x1="630" x2="680" y1="1910" y2="1960"/>
<line cb-classname="GraphicLineEntity" class="algorithmline" id="3Um" x1="680" x2="630" y1="1960" y2="2010"/>
<line cb-classname="GraphicLineEntity" class="algorithmline" id="3Un" x1="630" x2="580" y1="2010" y2="1960"/>
</g>
<g cb-classname="PointStatusIndicator" cb-indicator-type="hardware" cb-source="i8-aJr-fXt" id="3Ul" visibility="visible">
<line cb-classname="GraphicLineEntity" class="algorithmline" id="3Uv" x1="580" x2="680" y1="1910" y2="1910"/>
<line cb-classname="GraphicLineEntity" class="algorithmline" id="3U5" x1="680" x2="680" y1="1910" y2="2010"/>
<line cb-classname="GraphicLineEntity" class="algorithmline" id="3PO" x1="680" x2="580" y1="2010" y2="2010"/>
</g>
<g cb-classname="PointStatusIndicator" cb-indicator-type="alarm" cb-source="PZ-7pn-0d0" id="3Pj" visibility="hidden">
<text cb-classname="GraphicTextEntity" class="algorithm" fill="#000000" font-family="arial" font-size="20" id="3P0" x="550" y="1945">
A
</text>
</g>
<g cb-classname="PointStatusIndicator" cb-indicator-type="ingraphic" cb-source="bq-755-pFz" id="3PI" visibility="visible">
<text cb-classname="GraphicTextEntity" class="algorithm" fill="#000000" font-family="Arial" font-size="20" id="3Pq" x="550" y="1995">
G
</text>
</g>
<g baseline-shift="-50%" cb-anchor-x="530" cb-anchor-y="1974" cb-classname="PointDescription" cb-content="extended" cb-labeled="false" cb-max-width="220" cb-source="cN-wNR-uIl" class="algorithm" id="3Pm" text-anchor="end">
<text baseline-shift="-50%" cb-classname="GraphicTextEntity" class="algorithm" id="3Pn" text-anchor="end" x="530" y="1949">
DESC: Point not found in
</text>
<text baseline-shift="-50%" cb-classname="GraphicTextEntity" class="algorithm" id="1CmF" text-anchor="end" x="530" y="1974">
database
</text>
<text baseline-shift="-50%" cb-classname="GraphicTextEntity" class="algorithm" id="2Inf" text-anchor="end" x="530" y="1999">
(01T0200D08A-EPO)
</text>
</g>
<g cb-classname="DynamicText" cb-labeled="false" cb-pin-name="cye" cb-source="re-6gb-UJM" class="algorithm" id="3Pl" text-anchor="start">
<text baseline-shift="0%" cb-classname="GraphicTextEntity" class="algorithm" fill="black" font-family="arial" font-size="20" font-style="normal" font-weight="normal" id="3Pv" text-anchor="start" text-decoration="normal" x="700" y="1930"/>
</g>
<g baseline-shift="-100%" cb-anchor-x="700" cb-anchor-y="1970" cb-classname="PointReferences" cb-max-width="230" cb-originator="true" cb-source="xv-47V-ndF" class="signal" id="3P5" text-anchor="start">
<text baseline-shift="-100%" cb-classname="GraphicTextEntity" class="algorithm" id="39O" text-anchor="start" x="700" y="1970">
REF: Point not found in
</text>
<text baseline-shift="-100%" cb-classname="GraphicTextEntity" class="algorithm" id="2InU" text-anchor="start" x="700" y="1995">
database
</text>
<text baseline-shift="-100%" cb-classname="GraphicTextEntity" class="algorithm" id="2InO" text-anchor="start" x="700" y="2020">
(01T0200D08A-EPO)
</text>
</g>
</g>
<g cb-alg-2S4V="NO" cb-alg-2tk="01T0200D08A-EPZ" cb-algorithm-id="00a" cb-classname="ExternalPointInterface" cb-function-name="INPUT" id="39j">
<ellipse cb-classname="GraphicEllipseEntity" class="algorithm" cx="630" cy="2080" id="390" rx="50" ry="50"/>
<rect cb-classname="GraphicRectangleEntity" class="algorithm" height="100" id="39I" width="40" x="540" y="2030"/>
<line cb-classname="GraphicLineEntity" class="algorithm" id="39q" x1="540" x2="580" y1="2080" y2="2080"/>
<g cb-classname="ControlPin" cb-pin-name="et-ROp-4sj" id="39m">
<line cb-classname="GraphicLineEntity" class="signalline" id="39n" x1="680" x2="710" y1="2080" y2="2080"/>
<g cb-classname="DynamicText" cb-source="ZY-ktV-b7ms" class="signal" id="39l" text-anchor="start">
<text cb-classname="GraphicTextEntity" class="signal" fill="black" font-style="normal" font-weight="normal" id="39v" text-anchor="start" text-decoration="normal" x="694" y="2077"/>
</g>
<g cb-classname="SignalSegment" id="7Pq">
<line cb-classname="GraphicLineEntity" class="signalline" id="7Pm" stroke="#1e12bf" stroke-dasharray="5,4" x1="710" x2="2810" y1="2080" y2="2080"/>
<g cb-classname="SignalConnection" cb-graphic-line="$725$" cb-input-pin="$aOa$" id="7Pn"/>
</g>
</g>
<g cb-classname="PointStatusIndicator" cb-indicator-type="Highway" cb-source="mi-sXM-Q1j" id="3vn" visibility="hidden">
<line cb-classname="GraphicLineEntity" class="algorithmline" id="3vl" x1="580" x2="630" y1="2080" y2="2030"/>
<line cb-classname="GraphicLineEntity" class="algorithmline" id="3vv" x1="630" x2="680" y1="2030" y2="2080"/>
<line cb-classname="GraphicLineEntity" class="algorithmline" id="3v5" x1="680" x2="630" y1="2080" y2="2130"/>
<line cb-classname="GraphicLineEntity" class="algorithmline" id="3dO" x1="630" x2="580" y1="2130" y2="2080"/>
</g>
<g cb-classname="PointStatusIndicator" cb-indicator-type="hardware" cb-source="cN-wNR-uIl" id="3dj" visibility="visible">
<line cb-classname="GraphicLineEntity" class="algorithmline" id="3d0" x1="580" x2="680" y1="2030" y2="2030"/>
<line cb-classname="GraphicLineEntity" class="algorithmline" id="3dI" x1="680" x2="680" y1="2030" y2="2130"/>
<line cb-classname="GraphicLineEntity" class="algorithmline" id="3dq" x1="680" x2="580" y1="2130" y2="2130"/>
</g>
<g cb-classname="PointStatusIndicator" cb-indicator-type="alarm" cb-source="xv-47V-ndF" id="3dm" visibility="hidden">
<text cb-classname="GraphicTextEntity" class="algorithm" fill="#000000" font-family="arial" font-size="20" id="3dn" x="550" y="2065">
A
</text>
</g>
<g cb-classname="PointStatusIndicator" cb-indicator-type="ingraphic" cb-source="Pj-LhD-Nho" id="3dl" visibility="visible">
<text cb-classname="GraphicTextEntity" class="algorithm" fill="#000000" font-family="Arial" font-size="20" id="3dv" x="550" y="2115">
G
</text>
</g>
<g baseline-shift="-50%" cb-anchor-x="530" cb-anchor-y="2094" cb-classname="PointDescription" cb-content="extended" cb-labeled="false" cb-max-width="220" cb-source="mi-sXM-Q1j" class="algorithm" id="3d5" text-anchor="end">
<text baseline-shift="-50%" cb-classname="GraphicTextEntity" class="algorithm" id="3eO" text-anchor="end" x="530" y="2069">
DESC: Point not found in
</text>
<text baseline-shift="-50%" cb-classname="GraphicTextEntity" class="algorithm" id="1CmN" text-anchor="end" x="530" y="2094">
database
</text>
<text baseline-shift="-50%" cb-classname="GraphicTextEntity" class="algorithm" id="1Cml" text-anchor="end" x="530" y="2119">
(01T0200D08A-EPZ)
</text>
</g>
<g cb-classname="DynamicText" cb-labeled="false" cb-pin-name="nSU" cb-source="et-ROp-4sj" class="algorithm" id="3ej" text-anchor="start">
<text baseline-shift="0%" cb-classname="GraphicTextEntity" class="algorithm" fill="black" font-family="arial" font-size="20" font-style="normal" font-weight="normal" id="3e0" text-anchor="start" text-decoration="normal" x="700" y="2050"/>
</g>
<g baseline-shift="-100%" cb-anchor-x="700" cb-anchor-y="2090" cb-classname="PointReferences" cb-max-width="230" cb-originator="true" cb-source="ZY-sYk-djX" class="signal" id="3eI" text-anchor="start">
<text baseline-shift="-100%" cb-classname="GraphicTextEntity" class="algorithm" id="3eq" text-anchor="start" x="700" y="2090">
REF: Point not found in
</text>
<text baseline-shift="-100%" cb-classname="GraphicTextEntity" class="algorithm" id="2InZ" text-anchor="start" x="700" y="2115">
database
</text>
<text baseline-shift="-100%" cb-classname="GraphicTextEntity" class="algorithm" id="2Ilc" text-anchor="start" x="700" y="2140">
(01T0200D08A-EPZ)
</text>
</g>
</g>
<g cb-alg-7fw0="65" cb-alg-ha0G="60" cb-algorithm-id="00b" cb-classname="ControlAlgorithm" cb-function-name="AVALGEN" cb-modify-id="00000001" id="3em">
<polygon cb-classname="GraphicPolygonEntity" class="algorithm" id="3en" points="1420,2160 1360,2220 1420,2280 1480,2220"/>
<line cb-classname="GraphicLineEntity" class="algorithm" id="3el" x1="1420" x2="1410" y1="2200" y2="2230"/>
<line cb-classname="GraphicLineEntity" class="algorithm" id="3ev" x1="1420" x2="1430" y1="2200" y2="2230"/>
<line cb-classname="GraphicLineEntity" class="algorithm" id="3e5" x1="1414" x2="1426" y1="2220" y2="2220"/>
<g cb-classname="ControlPin" cb-pin-name="Pj-LhD-Nho" id="3oO">
<line cb-classname="GraphicLineEntity" class="signalline" id="3oj" x1="1420" x2="1420" y1="2280" y2="2300"/>
<g cb-classname="DynamicText" cb-source="mi-ID1-iSWi" class="signal" id="3o0" text-anchor="end">
<text cb-classname="GraphicTextEntity" class="signal" fill="black" font-style="normal" font-weight="normal" id="3oI" text-anchor="end" text-decoration="normal" transform="translate(1417,2294)rotate(-90)"/>
</g>
<g cb-classname="SignalSegment" id="1eIl">
<line cb-classname="GraphicLineEntity" class="signalline" id="1eIV" x1="1420" x2="1420" y1="2300" y2="2430"/>
<g cb-classname="SignalSegment" id="1eIK">
<line cb-classname="GraphicLineEntity" class="signalline" id="1eIf" x1="1420" x2="2830" y1="2430" y2="2430"/>
<g cb-classname="SignalConnection" cb-graphic-line="$1636$" cb-input-pin="$l6YP$" id="1eIU"/>
</g>
</g>
</g>
<g cb-classname="DynamicText" cb-labeled="true" cb-source="re-6gb-G2ad" class="algorithm" id="3o5" text-anchor="start">
<text cb-classname="GraphicTextEntity" class="algorithm" fill="black" font-family="arial" font-size="20" font-style="normal" font-weight="normal" id="3CO" text-anchor="start" text-decoration="normal" x="1280" y="2280"/>
</g>
</g>
<g cb-alg-l95b="65" cb-alg-z6gt="60" cb-algorithm-id="00c" cb-classname="ControlAlgorithm" cb-function-name="AVALGEN" cb-modify-id="00000001" id="3Cj">
<polygon cb-classname="GraphicPolygonEntity" class="algorithm" id="3C0" points="1590,2160 1530,2220 1590,2280 1650,2220"/>
<line cb-classname="GraphicLineEntity" class="algorithm" id="3CI" x1="1590" x2="1580" y1="2200" y2="2230"/>
<line cb-classname="GraphicLineEntity" class="algorithm" id="3Cq" x1="1590" x2="1600" y1="2200" y2="2230"/>
<line cb-classname="GraphicLineEntity" class="algorithm" id="3Cm" x1="1584" x2="1596" y1="2220" y2="2220"/>
<g cb-classname="ControlPin" cb-pin-name="PZ-7pn-0d0" id="3Cn">
<line cb-classname="GraphicLineEntity" class="signalline" id="3Cl" x1="1590" x2="1590" y1="2280" y2="2300"/>
<g cb-classname="DynamicText" cb-source="bq-Aza-rQvb" class="signal" id="3Cv" text-anchor="end">
<text cb-classname="GraphicTextEntity" class="signal" fill="black" font-style="normal" font-weight="normal" id="3C5" text-anchor="end" text-decoration="normal" transform="translate(1587,2294)rotate(-90)"/>
</g>
<g cb-classname="SignalSegment" id="1e0O">
<line cb-classname="GraphicLineEntity" class="signalline" id="1e0Z" x1="1590" x2="1590" y1="2300" y2="2400"/>
<g cb-classname="SignalSegment" id="1eIc">
<line cb-classname="GraphicLineEntity" class="signalline" id="1eIF" x1="1590" x2="2830" y1="2400" y2="2400"/>
<g cb-classname="SignalConnection" cb-graphic-line="$1631$" cb-input-pin="$Yqum$" id="1eIN"/>
</g>
</g>
</g>
<g cb-classname="DynamicText" cb-labeled="true" cb-source="i8-aJr-TROJ" class="algorithm" id="3Im" text-anchor="start">
<text cb-classname="GraphicTextEntity" class="algorithm" fill="black" font-family="arial" font-size="20" font-style="normal" font-weight="normal" id="3In" text-anchor="start" text-decoration="normal" x="1610" y="2290"/>
</g>
</g>
<g cb-alg-uIl="01T02G01-P02" cb-alg-uNmr="NO" cb-algorithm-id="011" cb-classname="ExternalPointInterface" cb-function-name="INPUT" id="3Il">
<ellipse cb-classname="GraphicEllipseEntity" class="algorithm" cx="630" cy="1280" id="3Iv" rx="50" ry="50"/>
<rect cb-classname="GraphicRectangleEntity" class="algorithm" height="100" id="3I5" width="40" x="540" y="1230"/>
<line cb-classname="GraphicLineEntity" class="algorithm" id="4MO" x1="540" x2="580" y1="1280" y2="1280"/>
<g cb-classname="ControlPin" cb-pin-name="bq-755-pFz" id="4Mj">
<line cb-classname="GraphicLineEntity" class="signalline" id="4M0" x1="680" x2="710" y1="1280" y2="1280"/>
<g cb-classname="DynamicText" cb-source="cN-Rhy-Xasw" class="signal" id="4MI" text-anchor="start">
<text cb-classname="GraphicTextEntity" class="signal" fill="black" font-style="normal" font-weight="normal" id="4Mq" text-anchor="start" text-decoration="normal" x="694" y="1277"/>
</g>
<g cb-classname="SignalSegment" id="7MO">
<line cb-classname="GraphicLineEntity" class="signalline" id="7Mj" stroke="#1e12bf" stroke-dasharray="5,4" x1="710" x2="2820" y1="1280" y2="1280"/>
<g cb-classname="SignalConnection" cb-graphic-line="$701$" cb-input-pin="$v5V$" id="7M0"/>
</g>
</g>
<g cb-classname="PointStatusIndicator" cb-indicator-type="Highway" cb-source="PZ-7pn-0d0" id="4U0" visibility="hidden">
<line cb-classname="GraphicLineEntity" class="algorithmline" id="4UI" x1="580" x2="630" y1="1280" y2="1230"/>
<line cb-classname="GraphicLineEntity" class="algorithmline" id="4Uq" x1="630" x2="680" y1="1230" y2="1280"/>
<line cb-classname="GraphicLineEntity" class="algorithmline" id="4Um" x1="680" x2="630" y1="1280" y2="1330"/>
<line cb-classname="GraphicLineEntity" class="algorithmline" id="4Un" x1="630" x2="580" y1="1330" y2="1280"/>
</g>
<g cb-classname="PointStatusIndicator" cb-indicator-type="hardware" cb-source="Dz-pMM-dkM" id="4Ul" visibility="hidden">
<line cb-classname="GraphicLineEntity" class="algorithmline" id="4Uv" x1="580" x2="680" y1="1230" y2="1230"/>
<line cb-classname="GraphicLineEntity" class="algorithmline" id="4U5" x1="680" x2="680" y1="1230" y2="1330"/>
<line cb-classname="GraphicLineEntity" class="algorithmline" id="4PO" x1="680" x2="580" y1="1330" y2="1330"/>
</g>
<g cb-classname="PointStatusIndicator" cb-indicator-type="alarm" cb-source="i8-aJr-fXt" id="4Pj" visibility="hidden">
<text cb-classname="GraphicTextEntity" class="algorithm" fill="#000000" font-family="arial" font-size="20" id="4P0" x="550" y="1265">
A
</text>
</g>
<g cb-classname="PointStatusIndicator" cb-indicator-type="ingraphic" cb-source="U3-2ao-uJe" id="4PI" visibility="hidden">
<text cb-classname="GraphicTextEntity" class="algorithm" fill="#000000" font-family="Arial" font-size="20" id="4Pq" x="550" y="1315">
G
</text>
</g>
<g baseline-shift="-50%" cb-anchor-x="530" cb-anchor-y="1294" cb-classname="PointDescription" cb-content="extended" cb-labeled="false" cb-max-width="220" cb-source="PZ-7pn-0d0" class="algorithm" id="4Pm" text-anchor="end">
<text baseline-shift="-50%" cb-classname="GraphicTextEntity" class="algorithm" id="4Pn" text-anchor="end" x="530" y="1282">
DESC: Point not found in
</text>
<text baseline-shift="-50%" cb-classname="GraphicTextEntity" class="algorithm" id="1CmV" text-anchor="end" x="530" y="1307">
database (01T02G01-P02)
</text>
</g>
<g cb-classname="DynamicText" cb-labeled="false" cb-pin-name="1l7" cb-source="bq-755-pFz" class="algorithm" id="4Pl" text-anchor="start">
<text baseline-shift="0%" cb-classname="GraphicTextEntity" class="algorithm" fill="black" font-family="arial" font-size="20" font-style="normal" font-weight="normal" id="4Pv" text-anchor="start" text-decoration="normal" x="700" y="1250"/>
</g>
<g baseline-shift="-100%" cb-anchor-x="700" cb-anchor-y="1290" cb-classname="PointReferences" cb-max-width="230" cb-originator="true" cb-source="cN-wNR-uIl" class="signal" id="4P5" text-anchor="start">
<text baseline-shift="-100%" cb-classname="GraphicTextEntity" class="algorithm" id="49O" text-anchor="start" x="700" y="1290">
REF: Point not found in
</text>
<text baseline-shift="-100%" cb-classname="GraphicTextEntity" class="algorithm" id="2IlN" text-anchor="start" x="700" y="1315">
database (01T02G01-P02)
</text>
</g>
</g>
<g cb-alg-oFf2="NO" cb-alg-olh="01T02G01-LLK" cb-algorithm-id="004" cb-classname="ExternalPointInterface" cb-function-name="INPUT" id="2MON">
<ellipse cb-classname="GraphicEllipseEntity" class="algorithm" cx="630" cy="930" id="2MOl" rx="50" ry="50"/>
<rect cb-classname="GraphicRectangleEntity" class="algorithm" height="100" id="2MOV" width="40" x="540" y="880"/>
<line cb-classname="GraphicLineEntity" class="algorithm" id="2MOK" x1="540" x2="580" y1="930" y2="930"/>
<g cb-classname="ControlPin" cb-pin-name="xv-47V-ndF" id="2MOf">
<line cb-classname="GraphicLineEntity" class="signalline" id="2MOU" x1="680" x2="710" y1="930" y2="930"/>
<g cb-classname="DynamicText" cb-source="Pj-8Vd-17EH" class="signal" id="2MOO" text-anchor="start">
<text cb-classname="GraphicTextEntity" class="signal" fill="black" font-style="normal" font-weight="normal" id="2MOZ" text-anchor="start" text-decoration="normal" x="694" y="927"/>
</g>
<g cb-classname="SignalSegment" id="2Mql">
<line cb-classname="GraphicLineEntity" class="signalline" id="2MqO" stroke="#1e12bf" stroke-dasharray="5,4" x1="710" x2="2480" y1="930" y2="930"/>
<g cb-classname="SignalSegment" id="2MqZ">
<line cb-classname="GraphicLineEntity" class="signalline" id="2Mmc" stroke="#1e12bf" stroke-dasharray="5,4" x1="2480" x2="2480" y1="930" y2="970"/>
<g cb-classname="SignalSegment" id="2MmF">
<line cb-classname="GraphicLineEntity" class="signalline" id="2MmN" stroke="#1e12bf" stroke-dasharray="5,4" x1="2480" x2="2820" y1="970" y2="970"/>
<g cb-classname="SignalConnection" cb-graphic-line="$2052$" cb-input-pin="$T6w$" id="2Mml"/>
</g>
<line cb-classname="GraphicLineEntity" class="signalline" id="2Mqf" stroke="#1e12bf" stroke-dasharray="5,4" x1="2480" x2="2550" y1="930" y2="930"/>
<g cb-classname="SignalConnection" cb-graphic-line="$2046$" cb-input-pin="$7Mwu$" id="2MqU"/>
<ellipse cb-classname="GraphicEllipseEntity" class="signal" cx="2480" cy="930" fill="#1e12bf" id="2MmV" rx="5" ry="5" stroke="#1e12bf" stroke-dasharray="5,4"/>
</g>
</g>
</g>
<g cb-classname="PointStatusIndicator" cb-indicator-type="Highway" cb-source="mi-sXM-Q1j" id="2Mjc" visibility="hidden">
<line cb-classname="GraphicLineEntity" class="algorithmline" id="2MjF" x1="580" x2="630" y1="930" y2="880"/>
<line cb-classname="GraphicLineEntity" class="algorithmline" id="2MjN" x1="630" x2="680" y1="880" y2="930"/>
<line cb-classname="GraphicLineEntity" class="algorithmline" id="2Mjl" x1="680" x2="630" y1="930" y2="980"/>
<line cb-classname="GraphicLineEntity" class="algorithmline" id="2MjV" x1="630" x2="580" y1="980" y2="930"/>
</g>
<g cb-classname="PointStatusIndicator" cb-indicator-type="hardware" cb-source="cN-wNR-uIl" id="2MjK" visibility="hidden">
<line cb-classname="GraphicLineEntity" class="algorithmline" id="2Mjf" x1="580" x2="680" y1="880" y2="880"/>
<line cb-classname="GraphicLineEntity" class="algorithmline" id="2MjU" x1="680" x2="680" y1="880" y2="980"/>
<line cb-classname="GraphicLineEntity" class="algorithmline" id="2MjO" x1="680" x2="580" y1="980" y2="980"/>
</g>
<g cb-classname="PointStatusIndicator" cb-indicator-type="alarm" cb-source="xv-47V-ndF" id="2MjZ" visibility="hidden">
<text cb-classname="GraphicTextEntity" class="algorithm" fill="#000000" font-family="arial" font-size="20" id="2M0c" x="550" y="915">
A
</text>
</g>
<g cb-classname="PointStatusIndicator" cb-indicator-type="ingraphic" cb-source="Pj-LhD-Nho" id="2M0F" visibility="visible">
<text cb-classname="GraphicTextEntity" class="algorithm" fill="#000000" font-family="Arial" font-size="20" id="2M0N" x="550" y="965">
G
</text>
</g>
<g baseline-shift="-50%" cb-anchor-x="530" cb-anchor-y="944" cb-classname="PointDescription" cb-content="extended" cb-labeled="false" cb-max-width="220" cb-source="mi-sXM-Q1j" class="algorithm" id="2M0l" text-anchor="end">
<text baseline-shift="-50%" cb-classname="GraphicTextEntity" class="algorithm" id="2M0V" text-anchor="end" x="530" y="932">
DESC: Point not found in
</text>
<text baseline-shift="-50%" cb-classname="GraphicTextEntity" class="algorithm" id="2IlV" text-anchor="end" x="530" y="957">
database (01T02G01-LLK)
</text>
</g>
<g cb-classname="DynamicText" cb-labeled="false" cb-pin-name="nSU" cb-source="et-ROp-4sj" class="algorithm" id="2M0K" text-anchor="start">
<text baseline-shift="0%" cb-classname="GraphicTextEntity" class="algorithm" fill="black" font-family="arial" font-size="20" font-style="normal" font-weight="normal" id="2M0f" text-anchor="start" text-decoration="normal" x="700" y="900"/>
</g>
<g baseline-shift="-100%" cb-anchor-x="700" cb-anchor-y="940" cb-classname="PointReferences" cb-max-width="230" cb-originator="true" cb-source="ZY-sYk-djX" class="signal" id="2M0U" text-anchor="start">
<text baseline-shift="-100%" cb-classname="GraphicTextEntity" class="algorithm" id="2M0O" text-anchor="start" x="700" y="940">
REF: Point not found in
</text>
<text baseline-shift="-100%" cb-classname="GraphicTextEntity" class="algorithm" id="2Ilf" text-anchor="start" x="700" y="965">
database (01T02G01-LLK)
</text>
</g>
</g>
<g cb-alg-iuF="$2002$cb-alg-out$" cb-algorithm-id="008" cb-classname="FastBooleanAlgorithm" cb-function-name="NOT" cb-modify-id="00000002" id="2M0Z">
<rect cb-classname="GraphicRectangleEntity" class="algorithm" height="40" id="2MIc" width="40" x="2570" y="910"/>
<g cb-classname="ControlPin" cb-pin-name="sn-5Tc-VdB" id="2MIF">
<line cb-classname="GraphicLineEntity" class="signalline" id="2MIN" x1="2550" x2="2570" y1="930" y2="930"/>
<polygon cb-classname="GraphicPolygonEntity" class="signal" id="2MIl" points="2570,930 2559,924 2559,935"/>
<g cb-classname="DynamicText" cb-source="Pj-8Vd-17EH" class="signal" id="2MIV" text-anchor="end">
<text cb-classname="GraphicTextEntity" class="signal" fill="black" font-style="normal" font-weight="normal" id="2MIK" text-anchor="end" text-decoration="normal" x="2555" y="927"/>
</g>
</g>
<g cb-classname="ControlPin" cb-pin-name="mi-sXM-Q1j" id="2MIf">
<line cb-classname="GraphicLineEntity" class="signalline" id="2MIU" x1="2610" x2="2630" y1="930" y2="930"/>
<g cb-classname="DynamicText" cb-source="et-hMi-VaXc" class="signal" id="2MIO" text-anchor="start">
<text cb-classname="GraphicTextEntity" class="signal" fill="black" font-style="normal" font-weight="normal" id="2MIZ" text-anchor="start" text-decoration="normal" x="2624" y="927"/>
</g>
<g cb-classname="SignalSegment" id="2MmK">
<g cb-classname="SignalConnection" cb-graphic-line="$2058$" cb-input-pin="$V8p$" id="2MmZ"/>
<line cb-classname="GraphicLineEntity" class="signalline" id="2MmO" stroke="#1e12bf" stroke-dasharray="5,4" x1="2630" x2="2820" y1="930" y2="930"/>
</g>
</g>
<line cb-classname="GraphicLineEntity" class="algorithm" id="2Mqc" x1="2580" x2="2580" y1="920" y2="940"/>
<line cb-classname="GraphicLineEntity" class="algorithm" id="2MqF" x1="2580" x2="2600" y1="920" y2="940"/>
<line cb-classname="GraphicLineEntity" class="algorithm" id="2MqN" x1="2600" x2="2600" y1="940" y2="920"/>
</g>
<g cb-alg-2Q="$397$cb-alg-out$" cb-alg-2ar="01T0200D08A-ALM" cb-alg-2az="$232$cb-alg-out$" cb-alg-2n="$143$cb-alg-out$" cb-alg-DQ="$66$cb-alg-clos$" cb-alg-Da4="$66$cb-alg-pk2$" cb-alg-Daz="$66$cb-alg-pk1$" cb-alg-Dd7="$2002$cb-alg-out$" cb-alg-Dn="$66$cb-alg-open$" cb-alg-Ds="$2029$cb-alg-out$" cb-alg-Dsz="$66$cb-alg-pk5$" cb-alg-FIFPU="$381$cb-alg-out$" cb-alg-ML="01T0200D08A-TR" cb-alg-Tbf="$194$cb-alg-out$" cb-alg-Tbv="$232$cb-alg-out$" cb-alg-eaFPU="$365$cb-alg-out$" cb-alg-ht="01T0200D08A-LB" cb-alg-oMm="01T0200D08A-STS" cb-alg-wDq="$232$cb-alg-out$" cb-alg-wIf="$297$cb-alg-out$" cb-alg-wIv="$331$cb-alg-out$" cb-alg-xbf="$244$cb-alg-out$" cb-alg-xbv="$244$cb-alg-out$" cb-algorithm-id="001" cb-classname="ControlMacroReference" cb-function-name="PCMS1" cb-macro-crc="30660" cb-modify-id="00000001" id="4d0">
<rect cb-classname="GraphicRectangleEntity" class="annotation" height="1850" id="4dI" width="750" x="2850" y="620"/>
<g cb-classname="ControlPin" cb-pin-name="ZY-sYk-fg" id="4dq">
<line cb-classname="GraphicLineEntity" class="signalline" id="4dm" x1="2820" x2="2850" y1="650" y2="650"/>
<polygon cb-classname="GraphicPolygonEntity" class="signal" id="4dn" points="2850,650 2839,644 2839,655"/>
<g cb-classname="DynamicText" cb-source="re-3iX-r29G" class="signal" id="4dl" text-anchor="end">
<text cb-classname="GraphicTextEntity" class="signal" fill="black" font-style="normal" font-weight="normal" id="4dv" text-anchor="end" text-decoration="normal" x="2835" y="647"/>
</g>
</g>
<g cb-classname="ControlPin" cb-pin-name="xv-47V-ev" id="4d5">
<line cb-classname="GraphicLineEntity" class="signalline" id="4eO" x1="2820" x2="2850" y1="690" y2="690"/>
<polygon cb-classname="GraphicPolygonEntity" class="signal" id="4ej" points="2850,690 2839,684 2839,695"/>
<g cb-classname="DynamicText" cb-source="U3-xA6-dsIv" class="signal" id="4e0" text-anchor="end">
<text cb-classname="GraphicTextEntity" class="signal" fill="black" font-style="normal" font-weight="normal" id="4eI" text-anchor="end" text-decoration="normal" x="2835" y="687"/>
</g>
</g>
<g cb-classname="ControlPin" cb-pin-name="PZ-7pn-sE" id="4eq">
<line cb-classname="GraphicLineEntity" class="signalline" id="4em" x1="2820" x2="2850" y1="930" y2="930"/>
<polygon cb-classname="GraphicPolygonEntity" class="signal" id="4en" points="2850,930 2839,924 2839,935"/>
<g cb-classname="DynamicText" cb-source="ZY-ktV-b7ms" class="signal" id="4el" text-anchor="end">
<text cb-classname="GraphicTextEntity" class="signal" fill="black" font-style="normal" font-weight="normal" id="4ev" text-anchor="end" text-decoration="normal" x="2835" y="927"/>
</g>
</g>
<g cb-classname="ControlPin" cb-pin-name="Dz-pMM-nr2" id="4e5">
<line cb-classname="GraphicLineEntity" class="signalline" id="4oO" x1="2820" x2="2850" y1="970" y2="970"/>
<polygon cb-classname="GraphicPolygonEntity" class="signal" id="4oj" points="2850,970 2839,964 2839,975"/>
<g cb-classname="DynamicText" cb-source="xv-c4r-d7PF" class="signal" id="4o0" text-anchor="end">
<text cb-classname="GraphicTextEntity" class="signal" fill="black" font-style="normal" font-weight="normal" id="4oI" text-anchor="end" text-decoration="normal" x="2835" y="967"/>
</g>
</g>
<g cb-classname="ControlPin" cb-pin-name="Pj-LhD-ZOh" id="4oq">
<line cb-classname="GraphicLineEntity" class="signalline" id="4om" x1="2820" x2="2850" y1="810" y2="810"/>
<polygon cb-classname="GraphicPolygonEntity" class="signal" id="4on" points="2850,810 2839,804 2839,815"/>
<g cb-classname="DynamicText" cb-source="PZ-SDd-aEgx" class="signal" id="4ol" text-anchor="end">
<text cb-classname="GraphicTextEntity" class="signal" fill="black" font-style="normal" font-weight="normal" id="4ov" text-anchor="end" text-decoration="normal" x="2835" y="807"/>
</g>
</g>
<g cb-classname="ControlPin" cb-pin-name="bq-755-fUY" id="4o5">
<line cb-classname="GraphicLineEntity" class="signalline" id="4CO" x1="2820" x2="2850" y1="850" y2="850"/>
<polygon cb-classname="GraphicPolygonEntity" class="signal" id="4Cj" points="2850,850 2839,844 2839,855"/>
<g cb-classname="DynamicText" cb-source="Dz-u9m-VLqE" class="signal" id="4C0" text-anchor="end">
<text cb-classname="GraphicTextEntity" class="signal" fill="black" font-style="normal" font-weight="normal" id="4CI" text-anchor="end" text-decoration="normal" x="2835" y="847"/>
</g>
</g>
<g cb-classname="ControlPin" cb-pin-name="sn-5Tc-2n" id="4Cq">
<line cb-classname="GraphicLineEntity" class="signalline" id="4Cm" x1="2820" x2="2850" y1="1190" y2="1190"/>
<polygon cb-classname="GraphicPolygonEntity" class="signal" id="4Cn" points="2850,1190 2839,1184 2839,1195"/>
<g cb-classname="DynamicText" cb-source="Pj-8Vd-17EH" class="signal" id="4Cl" text-anchor="end">
<text cb-classname="GraphicTextEntity" class="signal" fill="black" font-style="normal" font-weight="normal" id="4Cv" text-anchor="end" text-decoration="normal" x="2835" y="1187"/>
</g>
</g>
<g cb-classname="ControlPin" cb-pin-name="mi-sXM-sYm" id="4C5">
<line cb-classname="GraphicLineEntity" class="signalline" id="4IO" x1="2820" x2="2850" y1="1230" y2="1230"/>
<polygon cb-classname="GraphicPolygonEntity" class="signal" id="4Ij" points="2850,1230 2839,1224 2839,1235"/>
<g cb-classname="DynamicText" cb-source="bq-Aza-rQvb" class="signal" id="4I0" text-anchor="end">
<text cb-classname="GraphicTextEntity" class="signal" fill="black" font-style="normal" font-weight="normal" id="4II" text-anchor="end" text-decoration="normal" x="2835" y="1227"/>
</g>
</g>
<g cb-classname="ControlPin" cb-pin-name="cN-wNR-4K" id="4Iq">
<line cb-classname="GraphicLineEntity" class="signalline" id="4Im" x1="2820" x2="2850" y1="1280" y2="1280"/>
<polygon cb-classname="GraphicPolygonEntity" class="signal" id="4In" points="2850,1280 2839,1274 2839,1285"/>
<g cb-classname="DynamicText" cb-source="sn-bPV-Ssr8" class="signal" id="4Il" text-anchor="end">
<text cb-classname="GraphicTextEntity" class="signal" fill="black" font-style="normal" font-weight="normal" id="4Iv" text-anchor="end" text-decoration="normal" x="2835" y="1277"/>
</g>
</g>
<g cb-classname="ControlPin" cb-pin-name="i8-aJr-4Lu" id="4I5">
<line cb-classname="GraphicLineEntity" class="signalline" id="5MO" x1="2820" x2="2850" y1="1450" y2="1450"/>
<polygon cb-classname="GraphicPolygonEntity" class="signal" id="5Mj" points="2850,1450 2839,1444 2839,1455"/>
<g cb-classname="DynamicText" cb-source="mi-ID1-iSWi" class="signal" id="5M0" text-anchor="end">
<text cb-classname="GraphicTextEntity" class="signal" fill="black" font-style="normal" font-weight="normal" id="5MI" text-anchor="end" text-decoration="normal" x="2835" y="1447"/>
</g>
</g>
<g cb-classname="ControlPin" cb-pin-name="et-ROp-cOB" id="5Mq">
<line cb-classname="GraphicLineEntity" class="signalline" id="5Mm" x1="2820" x2="2850" y1="1500" y2="1500"/>
<polygon cb-classname="GraphicPolygonEntity" class="signal" id="5Mn" points="2850,1500 2839,1494 2839,1505"/>
<g cb-classname="DynamicText" cb-source="cN-Rhy-Xasw" class="signal" id="5Ml" text-anchor="end">
<text cb-classname="GraphicTextEntity" class="signal" fill="black" font-style="normal" font-weight="normal" id="5Mv" text-anchor="end" text-decoration="normal" x="2835" y="1497"/>
</g>
</g>
<g cb-classname="ControlPin" cb-pin-name="re-6gb-8en" id="5M5">
<line cb-classname="GraphicLineEntity" class="signalline" id="5UO" x1="2820" x2="2850" y1="1660" y2="1660"/>
<polygon cb-classname="GraphicPolygonEntity" class="signal" id="5Uj" points="2850,1660 2839,1654 2839,1665"/>
<g cb-classname="DynamicText" cb-source="i8-5mS-6RCt" class="signal" id="5U0" text-anchor="end">
<text cb-classname="GraphicTextEntity" class="signal" fill="black" font-style="normal" font-weight="normal" id="5UI" text-anchor="end" text-decoration="normal" x="2835" y="1657"/>
</g>
</g>
<g cb-classname="ControlPin" cb-pin-name="U3-2ao-Amj" id="5Uq">
<line cb-classname="GraphicLineEntity" class="signalline" id="5Um" x1="2820" x2="2850" y1="1710" y2="1710"/>
<polygon cb-classname="GraphicPolygonEntity" class="signal" id="5Un" points="2850,1710 2839,1704 2839,1715"/>
<g cb-classname="DynamicText" cb-source="et-hMi-VaXc" class="signal" id="5Ul" text-anchor="end">
<text cb-classname="GraphicTextEntity" class="signal" fill="black" font-style="normal" font-weight="normal" id="5Uv" text-anchor="end" text-decoration="normal" x="2835" y="1707"/>
</g>
</g>
<g cb-classname="ControlPin" cb-pin-name="ZY-sYk-xZD" id="5U5">
<line cb-classname="GraphicLineEntity" class="signalline" id="5PO" x1="2820" x2="2850" y1="2000" y2="2000"/>
<polygon cb-classname="GraphicPolygonEntity" class="signal" id="5Pj" points="2850,2000 2839,1994 2839,2005"/>
<g cb-classname="DynamicText" cb-source="re-3iX-r29G" class="signal" id="5P0" text-anchor="end">
<text cb-classname="GraphicTextEntity" class="signal" fill="black" font-style="normal" font-weight="normal" id="5PI" text-anchor="end" text-decoration="normal" x="2835" y="1997"/>
</g>
</g>
<g cb-classname="ControlPin" cb-pin-name="xv-47V-ESN" id="5Pq">
<line cb-classname="GraphicLineEntity" class="signalline" id="5Pm" x1="2830" x2="2850" y1="2040" y2="2040"/>
<polygon cb-classname="GraphicPolygonEntity" class="signal" id="5Pn" points="2850,2040 2839,2034 2839,2045"/>
<g cb-classname="DynamicText" cb-source="U3-xA6-dsIv" class="signal" id="5Pl" text-anchor="end">
<text cb-classname="GraphicTextEntity" class="signal" fill="black" font-style="normal" font-weight="normal" id="5Pv" text-anchor="end" text-decoration="normal" x="2835" y="2037"/>
</g>
</g>
<g cb-classname="ControlPin" cb-pin-name="PZ-7pn-HJx" id="5P5">
<line cb-classname="GraphicLineEntity" class="signalline" id="59O" x1="2810" x2="2850" y1="2080" y2="2080"/>
<polygon cb-classname="GraphicPolygonEntity" class="signal" id="59j" points="2850,2080 2839,2074 2839,2085"/>
<g cb-classname="DynamicText" cb-source="ZY-ktV-b7ms" class="signal" id="590" text-anchor="end">
<text cb-classname="GraphicTextEntity" class="signal" fill="black" font-style="normal" font-weight="normal" id="59I" text-anchor="end" text-decoration="normal" x="2835" y="2077"/>
</g>
</g>
<g cb-classname="ControlPin" cb-pin-name="Dz-pMM-2lo" id="59q">
<line cb-classname="GraphicLineEntity" class="signalline" id="59m" x1="3600" x2="3640" y1="1340" y2="1340"/>
<g cb-classname="DynamicText" cb-source="sn-bPV-Ssr8" class="signal" id="59n" text-anchor="start">
<text cb-classname="GraphicTextEntity" class="signal" fill="black" font-style="normal" font-weight="normal" id="59l" text-anchor="start" text-decoration="normal" x="3614" y="1337"/>
</g>
<g cb-classname="SignalSegment" id="59v">
<line cb-classname="GraphicLineEntity" class="signalline" id="595" x1="3640" x2="4730" y1="1340" y2="1340"/>
<g cb-classname="SignalConnection" cb-graphic-line="$539$" cb-input-pin="$XRf$" id="5vO"/>
</g>
</g>
<g cb-classname="ControlPin" cb-pin-name="mi-sXM-sYW" id="5vj">
<line cb-classname="GraphicLineEntity" class="signalline" id="5v0" x1="3600" x2="3630" y1="1610" y2="1610"/>
<g cb-classname="DynamicText" cb-source="et-hMi-VaXc" class="signal" id="5vI" text-anchor="start">
<text cb-classname="GraphicTextEntity" class="signal" fill="black" font-style="normal" font-weight="normal" id="5vq" text-anchor="start" text-decoration="normal" x="3614" y="1607"/>
</g>
<g cb-classname="SignalSegment" id="5vm">
<line cb-classname="GraphicLineEntity" class="signalline" id="5vn" x1="3630" x2="4730" y1="1610" y2="1610"/>
<g cb-classname="SignalConnection" cb-graphic-line="$546$" cb-input-pin="$nFS$" id="5vl"/>
</g>
</g>
<g cb-classname="ControlPin" cb-pin-name="re-6gb-JZ" id="5vv">
<line cb-classname="GraphicLineEntity" class="signalline" id="5v5" x1="3600" x2="3620" y1="1930" y2="1930"/>
<g cb-classname="DynamicText" cb-source="xv-c4r-d7PF" class="signal" id="5dO" text-anchor="start">
<text cb-classname="GraphicTextEntity" class="signal" fill="black" font-style="normal" font-weight="normal" id="5dj" text-anchor="start" text-decoration="normal" x="3614" y="1927"/>
</g>
<g cb-classname="SignalSegment" id="5d0">
<line cb-classname="GraphicLineEntity" class="signalline" id="5dI" stroke="#1e12bf" stroke-dasharray="5,4" x1="3620" x2="4730" y1="1930" y2="1930"/>
<g cb-classname="SignalConnection" cb-graphic-line="$553$" cb-input-pin="$qKW$" id="5dq"/>
</g>
</g>
<g cb-classname="ControlPin" cb-pin-name="PZ-7pn-ec" id="5dm">
<line cb-classname="GraphicLineEntity" class="signalline" id="5dn" x1="3600" x2="3620" y1="1990" y2="1990"/>
<g cb-classname="DynamicText" cb-source="bq-Aza-rQvb" class="signal" id="5dl" text-anchor="start">
<text cb-classname="GraphicTextEntity" class="signal" fill="black" font-style="normal" font-weight="normal" id="5dv" text-anchor="start" text-decoration="normal" x="3614" y="1987"/>
</g>
<g cb-classname="SignalSegment" id="5d5">
<line cb-classname="GraphicLineEntity" class="signalline" id="5eO" stroke="#1e12bf" stroke-dasharray="5,4" x1="3620" x2="4400" y1="1990" y2="1990"/>
<g cb-classname="SignalSegment" id="5ej">
<line cb-classname="GraphicLineEntity" class="signalline" id="5e0" stroke="#1e12bf" stroke-dasharray="5,4" x1="4400" x2="4400" y1="1990" y2="2200"/>
<g cb-classname="SignalSegment" id="5eI">
<line cb-classname="GraphicLineEntity" class="signalline" id="5eq" stroke="#1e12bf" stroke-dasharray="5,4" x1="4400" x2="4730" y1="2200" y2="2200"/>
<g cb-classname="SignalConnection" cb-graphic-line="$564$" cb-input-pin="$8fj$" id="5em"/>
</g>
</g>
</g>
</g>
<g cb-classname="ControlPin" cb-pin-name="i8-aJr-fhtEf" id="1ejU">
<line cb-classname="GraphicLineEntity" class="signalline" id="1ejO" x1="2830" x2="2850" y1="2400" y2="2400"/>
<polygon cb-classname="GraphicPolygonEntity" class="signal" id="1ejZ" points="2850,2400 2839,2394 2839,2405"/>
<g cb-classname="DynamicText" cb-source="mi-ID1-iSWi" class="signal" id="1e0c" text-anchor="end">
<text cb-classname="GraphicTextEntity" class="signal" fill="black" font-style="normal" font-weight="normal" id="1e0F" text-anchor="end" text-decoration="normal" transform="translate(2835,2397)rotate(360)"/>
</g>
</g>
<g cb-classname="ControlPin" cb-pin-name="bq-755-OUzmU" id="1e0l">
<line cb-classname="GraphicLineEntity" class="signalline" id="1e0V" x1="2830" x2="2850" y1="2430" y2="2430"/>
<polygon cb-classname="GraphicPolygonEntity" class="signal" id="1e0K" points="2850,2430 2839,2424 2839,2435"/>
<g cb-classname="DynamicText" cb-source="Dz-u9m-VLqE" class="signal" id="1e0f" text-anchor="end">
<text cb-classname="GraphicTextEntity" class="signal" fill="black" font-style="normal" font-weight="normal" id="1e0U" text-anchor="end" text-decoration="normal" transform="translate(2835,2427)rotate(360)"/>
</g>
</g>
<g cb-classname="ControlPin" cb-pin-name="ZY-sYk-f7j" id="1CmO">
<line cb-classname="GraphicLineEntity" class="signalline" id="1CmZ" x1="2830" x2="2850" y1="890" y2="890"/>
<polygon cb-classname="GraphicPolygonEntity" class="signal" id="1Cnc" points="2850,890 2839,884 2839,895"/>
<g cb-classname="DynamicText" cb-source="re-3iX-r29G" class="signal" id="1CnF" text-anchor="end">
<text cb-classname="GraphicTextEntity" class="signal" fill="black" font-style="normal" font-weight="normal" id="1CnN" text-anchor="end" text-decoration="normal" x="2835" y="887"/>
</g>
</g>
</g>
<g cb-alg-hy="$452$cb-alg-sts$" cb-algorithm-id="00d" cb-classname="ExternalPointInterface" cb-function-name="OUTPUT" id="5on">
<ellipse cb-classname="GraphicEllipseEntity" class="algorithm" cx="4810" cy="1340" id="5ol" rx="50" ry="50"/>
<rect cb-classname="GraphicRectangleEntity" class="algorithm" height="100" id="5ov" width="40" x="4860" y="1290"/>
<line cb-classname="GraphicLineEntity" class="algorithm" id="5o5" x1="4860" x2="4900" y1="1340" y2="1340"/>
<g cb-classname="ControlPin" cb-pin-name="mi-sXM-za" id="5CO">
<line cb-classname="GraphicLineEntity" class="signalline" id="5Cj" x1="4730" x2="4760" y1="1340" y2="1340"/>
<polygon cb-classname="GraphicPolygonEntity" class="signal" id="5C0" points="4760,1340 4749,1334 4749,1345"/>
<g cb-classname="DynamicText" cb-source="bq-Aza-rQvb" class="signal" id="5CI" text-anchor="end">
<text cb-classname="GraphicTextEntity" class="signal" fill="black" font-style="normal" font-weight="normal" id="5Cq" text-anchor="end" text-decoration="normal" x="4745" y="1337"/>
</g>
</g>
<g cb-classname="PointStatusIndicator" cb-indicator-type="highway" cb-source="cN-wNR-PV" id="5Cm" visibility="hidden">
<line cb-classname="GraphicLineEntity" class="algorithmline" id="5Cn" x1="4760" x2="4810" y1="1340" y2="1290"/>
<line cb-classname="GraphicLineEntity" class="algorithmline" id="5Cl" x1="4810" x2="4860" y1="1290" y2="1340"/>
<line cb-classname="GraphicLineEntity" class="algorithmline" id="5Cv" x1="4860" x2="4810" y1="1340" y2="1390"/>
<line cb-classname="GraphicLineEntity" class="algorithmline" id="5C5" x1="4810" x2="4760" y1="1390" y2="1340"/>
</g>
<g cb-classname="PointStatusIndicator" cb-indicator-type="hardware" cb-source="i8-aJr-D1" id="5IO" visibility="hidden">
<line cb-classname="GraphicLineEntity" class="algorithmline" id="5Ij" x1="4860" x2="4760" y1="1290" y2="1290"/>
<line cb-classname="GraphicLineEntity" class="algorithmline" id="5I0" x1="4760" x2="4760" y1="1290" y2="1390"/>
<line cb-classname="GraphicLineEntity" class="algorithmline" id="5II" x1="4760" x2="4860" y1="1390" y2="1390"/>
</g>
<g cb-classname="PointStatusIndicator" cb-indicator-type="alarm" cb-source="PZ-7pn-tV" id="5Iq" visibility="hidden">
<text cb-classname="GraphicTextEntity" class="algorithm" fill="#000000" font-family="Arial" font-size="20" id="5Im" x="4870" y="1375">
A
</text>
</g>
<g cb-classname="PointStatusIndicator" cb-indicator-type="ingraphic" cb-source="bq-755-Db" id="5In" visibility="visible">
<text cb-classname="GraphicTextEntity" class="algorithm" fill="#000000" font-family="Arial" font-size="20" id="5Il" x="4870" y="1325">
G
</text>
</g>
<g cb-classname="DynamicText" cb-labeled="false" cb-pin-name="IJ" cb-source="cN-wNR-PV" class="algorithm" id="5Iv" text-anchor="end">
<text baseline-shift="0%" cb-classname="GraphicTextEntity" class="algorithm" fill="black" font-family="arial" font-size="20" font-style="normal" font-weight="normal" id="5I5" text-anchor="end" text-decoration="normal" x="4735" y="1315"/>
</g>
<g baseline-shift="-100%" cb-anchor-x="4735" cb-anchor-y="1350" cb-classname="PointReferences" cb-max-width="130" cb-originator="false" cb-source="re-6gb-mS" class="signal" id="6MO" text-anchor="end">
<text baseline-shift="-100%" cb-classname="GraphicTextEntity" class="algorithm" id="6Mj" text-anchor="end" x="4735" y="1350">
REF: Point not
</text>
<text baseline-shift="-100%" cb-classname="GraphicTextEntity" class="algorithm" id="2IlO" text-anchor="end" x="4735" y="1375">
found in
</text>
<text baseline-shift="-100%" cb-classname="GraphicTextEntity" class="algorithm" id="2IlZ" text-anchor="end" x="4735" y="1400">
database
</text>
<text baseline-shift="-100%" cb-classname="GraphicTextEntity" class="algorithm" id="2Ivc" text-anchor="end" x="4735" y="1425">
(01T0200D08A-STS)
</text>
</g>
<g baseline-shift="-50%" cb-anchor-x="4915" cb-anchor-y="1355" cb-classname="PointDescription" cb-content="extended" cb-labeled="false" cb-max-width="240" cb-source="Pj-LhD-Dd" class="algorithm" id="6Mq" text-anchor="start">
<text baseline-shift="-50%" cb-classname="GraphicTextEntity" class="algorithm" id="6Mm" text-anchor="start" x="4915" y="1330">
DESC: Point not found in
</text>
<text baseline-shift="-50%" cb-classname="GraphicTextEntity" class="algorithm" id="2MnV" text-anchor="start" x="4915" y="1355">
database
</text>
<text baseline-shift="-50%" cb-classname="GraphicTextEntity" class="algorithm" id="2IvF" text-anchor="start" x="4915" y="1380">
(01T0200D08A-STS)
</text>
</g>
</g>
<g cb-alg-4r="$452$cb-alg-alm$" cb-algorithm-id="00e" cb-classname="ExternalPointInterface" cb-function-name="OUTPUT" id="6Mn">
<ellipse cb-classname="GraphicEllipseEntity" class="algorithm" cx="4810" cy="1610" id="6Ml" rx="50" ry="50"/>
<rect cb-classname="GraphicRectangleEntity" class="algorithm" height="100" id="6Mv" width="40" x="4860" y="1560"/>
<line cb-classname="GraphicLineEntity" class="algorithm" id="6M5" x1="4860" x2="4900" y1="1610" y2="1610"/>
<g cb-classname="ControlPin" cb-pin-name="ZY-sYk-OR" id="6UO">
<line cb-classname="GraphicLineEntity" class="signalline" id="6Uj" x1="4730" x2="4760" y1="1610" y2="1610"/>
<polygon cb-classname="GraphicPolygonEntity" class="signal" id="6U0" points="4760,1610 4749,1604 4749,1615"/>
<g cb-classname="DynamicText" cb-source="re-3iX-r29G" class="signal" id="6UI" text-anchor="end">
<text cb-classname="GraphicTextEntity" class="signal" fill="black" font-style="normal" font-weight="normal" id="6Uq" text-anchor="end" text-decoration="normal" x="4745" y="1607"/>
</g>
</g>
<g cb-classname="PointStatusIndicator" cb-indicator-type="highway" cb-source="xv-47V-A6" id="6Um" visibility="hidden">
<line cb-classname="GraphicLineEntity" class="algorithmline" id="6Un" x1="4760" x2="4810" y1="1610" y2="1560"/>
<line cb-classname="GraphicLineEntity" class="algorithmline" id="6Ul" x1="4810" x2="4860" y1="1560" y2="1610"/>
<line cb-classname="GraphicLineEntity" class="algorithmline" id="6Uv" x1="4860" x2="4810" y1="1610" y2="1660"/>
<line cb-classname="GraphicLineEntity" class="algorithmline" id="6U5" x1="4810" x2="4760" y1="1660" y2="1610"/>
</g>
<g cb-classname="PointStatusIndicator" cb-indicator-type="hardware" cb-source="PZ-7pn-tV" id="6PO" visibility="hidden">
<line cb-classname="GraphicLineEntity" class="algorithmline" id="6Pj" x1="4860" x2="4760" y1="1560" y2="1560"/>
<line cb-classname="GraphicLineEntity" class="algorithmline" id="6P0" x1="4760" x2="4760" y1="1560" y2="1660"/>
<line cb-classname="GraphicLineEntity" class="algorithmline" id="6PI" x1="4760" x2="4860" y1="1660" y2="1660"/>
</g>
<g cb-classname="PointStatusIndicator" cb-indicator-type="alarm" cb-source="cN-wNR-PV" id="6Pq" visibility="hidden">
<text cb-classname="GraphicTextEntity" class="algorithm" fill="#000000" font-family="Arial" font-size="20" id="6Pm" x="4870" y="1645">
A
</text>
</g>
<g cb-classname="PointStatusIndicator" cb-indicator-type="ingraphic" cb-source="re-6gb-mS" id="6Pn" visibility="visible">
<text cb-classname="GraphicTextEntity" class="algorithm" fill="#000000" font-family="Arial" font-size="20" id="6Pl" x="4870" y="1595">
G
</text>
</g>
<g cb-classname="DynamicText" cb-labeled="false" cb-pin-name="TW" cb-source="xv-47V-A6" class="algorithm" id="6Pv" text-anchor="end">
<text baseline-shift="0%" cb-classname="GraphicTextEntity" class="algorithm" fill="black" font-family="arial" font-size="20" font-style="normal" font-weight="normal" id="6P5" text-anchor="end" text-decoration="normal" x="4735" y="1585"/>
</g>
<g baseline-shift="-100%" cb-anchor-x="4735" cb-anchor-y="1620" cb-classname="PointReferences" cb-max-width="130" cb-originator="false" cb-source="Pj-LhD-Dd" class="signal" id="69O" text-anchor="end">
<text baseline-shift="-100%" cb-classname="GraphicTextEntity" class="algorithm" id="69j" text-anchor="end" x="4735" y="1620">
REF: Point not
</text>
<text baseline-shift="-100%" cb-classname="GraphicTextEntity" class="algorithm" id="2IvN" text-anchor="end" x="4735" y="1645">
found in
</text>
<text baseline-shift="-100%" cb-classname="GraphicTextEntity" class="algorithm" id="2Ivl" text-anchor="end" x="4735" y="1670">
database
</text>
<text baseline-shift="-100%" cb-classname="GraphicTextEntity" class="algorithm" id="2IvV" text-anchor="end" x="4735" y="1695">
(01T0200D08A-ALM)
</text>
</g>
<g baseline-shift="-50%" cb-anchor-x="4915" cb-anchor-y="1625" cb-classname="PointDescription" cb-content="extended" cb-labeled="false" cb-max-width="240" cb-source="et-ROp-Hr" class="algorithm" id="69q" text-anchor="start">
<text baseline-shift="-50%" cb-classname="GraphicTextEntity" class="algorithm" id="69m" text-anchor="start" x="4915" y="1600">
DESC: Point not found in
</text>
<text baseline-shift="-50%" cb-classname="GraphicTextEntity" class="algorithm" id="2MnK" text-anchor="start" x="4915" y="1625">
database
</text>
<text baseline-shift="-50%" cb-classname="GraphicTextEntity" class="algorithm" id="2IvK" text-anchor="start" x="4915" y="1650">
(01T0200D08A-ALM)
</text>
</g>
</g>
<g cb-alg-D1="$452$cb-alg-lb$" cb-algorithm-id="00f" cb-classname="ExternalPointInterface" cb-function-name="OUTPUT" id="69n">
<ellipse cb-classname="GraphicEllipseEntity" class="algorithm" cx="4810" cy="1930" id="69l" rx="50" ry="50"/>
<rect cb-classname="GraphicRectangleEntity" class="algorithm" height="100" id="69v" width="40" x="4860" y="1880"/>
<line cb-classname="GraphicLineEntity" class="algorithm" id="695" x1="4860" x2="4900" y1="1930" y2="1930"/>
<g cb-classname="ControlPin" cb-pin-name="sn-5Tc-Vd" id="6vO">
<line cb-classname="GraphicLineEntity" class="signalline" id="6vj" x1="4730" x2="4760" y1="1930" y2="1930"/>
<polygon cb-classname="GraphicPolygonEntity" class="signal" id="6v0" points="4760,1930 4749,1924 4749,1935"/>
<g cb-classname="DynamicText" cb-source="Pj-8Vd-17EH" class="signal" id="6vI" text-anchor="end">
<text cb-classname="GraphicTextEntity" class="signal" fill="black" font-style="normal" font-weight="normal" id="6vq" text-anchor="end" text-decoration="normal" x="4745" y="1927"/>
</g>
</g>
<g cb-classname="PointStatusIndicator" cb-indicator-type="highway" cb-source="mi-sXM-za" id="6vm" visibility="hidden">
<line cb-classname="GraphicLineEntity" class="algorithmline" id="6vn" x1="4760" x2="4810" y1="1930" y2="1880"/>
<line cb-classname="GraphicLineEntity" class="algorithmline" id="6vl" x1="4810" x2="4860" y1="1880" y2="1930"/>
<line cb-classname="GraphicLineEntity" class="algorithmline" id="6vv" x1="4860" x2="4810" y1="1930" y2="1980"/>
<line cb-classname="GraphicLineEntity" class="algorithmline" id="6v5" x1="4810" x2="4760" y1="1980" y2="1930"/>
</g>
<g cb-classname="PointStatusIndicator" cb-indicator-type="hardware" cb-source="cN-wNR-PV" id="6dO" visibility="hidden">
<line cb-classname="GraphicLineEntity" class="algorithmline" id="6dj" x1="4860" x2="4760" y1="1880" y2="1880"/>
<line cb-classname="GraphicLineEntity" class="algorithmline" id="6d0" x1="4760" x2="4760" y1="1880" y2="1980"/>
<line cb-classname="GraphicLineEntity" class="algorithmline" id="6dI" x1="4760" x2="4860" y1="1980" y2="1980"/>
</g>
<g cb-classname="PointStatusIndicator" cb-indicator-type="alarm" cb-source="xv-47V-A6" id="6dq" visibility="hidden">
<text cb-classname="GraphicTextEntity" class="algorithm" fill="#000000" font-family="Arial" font-size="20" id="6dm" x="4870" y="1965">
A
</text>
</g>
<g cb-classname="PointStatusIndicator" cb-indicator-type="ingraphic" cb-source="Pj-LhD-Dd" id="6dn" visibility="hidden">
<text cb-classname="GraphicTextEntity" class="algorithm" fill="#000000" font-family="Arial" font-size="20" id="6dl" x="4870" y="1915">
G
</text>
</g>
<g cb-classname="DynamicText" cb-labeled="false" cb-pin-name="WT" cb-source="mi-sXM-za" class="algorithm" id="6dv" text-anchor="end">
<text baseline-shift="0%" cb-classname="GraphicTextEntity" class="algorithm" fill="black" font-family="arial" font-size="20" font-style="normal" font-weight="normal" id="6d5" text-anchor="end" text-decoration="normal" x="4735" y="1905"/>
</g>
<g baseline-shift="-100%" cb-anchor-x="4735" cb-anchor-y="1940" cb-classname="PointReferences" cb-max-width="130" cb-originator="false" cb-source="et-ROp-Hr" class="signal" id="6eO" text-anchor="end">
<text baseline-shift="-100%" cb-classname="GraphicTextEntity" class="algorithm" id="6ej" text-anchor="end" x="4735" y="1940">
REF: Point not
</text>
<text baseline-shift="-100%" cb-classname="GraphicTextEntity" class="algorithm" id="2Ivf" text-anchor="end" x="4735" y="1965">
found in
</text>
<text baseline-shift="-100%" cb-classname="GraphicTextEntity" class="algorithm" id="2IvU" text-anchor="end" x="4735" y="1990">
database
</text>
<text baseline-shift="-100%" cb-classname="GraphicTextEntity" class="algorithm" id="2IvO" text-anchor="end" x="4735" y="2015">
(01T0200D08A-LB)
</text>
</g>
<g baseline-shift="-50%" cb-anchor-x="4915" cb-anchor-y="1945" cb-classname="PointDescription" cb-content="extended" cb-labeled="false" cb-max-width="240" cb-source="cN-wNR-PV" class="algorithm" id="6eI" text-anchor="start">
<text baseline-shift="-50%" cb-classname="GraphicTextEntity" class="algorithm" id="6eq" text-anchor="start" x="4915" y="1933">
DESC: Point not found in
</text>
<text baseline-shift="-50%" cb-classname="GraphicTextEntity" class="algorithm" id="1CmK" text-anchor="start" x="4915" y="1958">
database (01T0200D08A-LB)
</text>
</g>
</g>
<g cb-alg-fL="$452$cb-alg-tr$" cb-algorithm-id="010" cb-classname="ExternalPointInterface" cb-function-name="OUTPUT" id="6em">
<ellipse cb-classname="GraphicEllipseEntity" class="algorithm" cx="4810" cy="2200" id="6en" rx="50" ry="50"/>
<rect cb-classname="GraphicRectangleEntity" class="algorithm" height="100" id="6el" width="40" x="4860" y="2150"/>
<line cb-classname="GraphicLineEntity" class="algorithm" id="6ev" x1="4860" x2="4900" y1="2200" y2="2200"/>
<g cb-classname="ControlPin" cb-pin-name="Pj-LhD-Dd" id="6e5">
<line cb-classname="GraphicLineEntity" class="signalline" id="6oO" x1="4730" x2="4760" y1="2200" y2="2200"/>
<polygon cb-classname="GraphicPolygonEntity" class="signal" id="6oj" points="4760,2200 4749,2194 4749,2205"/>
<g cb-classname="DynamicText" cb-source="PZ-SDd-aEgx" class="signal" id="6o0" text-anchor="end">
<text cb-classname="GraphicTextEntity" class="signal" fill="black" font-style="normal" font-weight="normal" id="6oI" text-anchor="end" text-decoration="normal" x="4745" y="2197"/>
</g>
</g>
<g cb-classname="PointStatusIndicator" cb-indicator-type="highway" cb-source="bq-755-Db" id="6oq" visibility="hidden">
<line cb-classname="GraphicLineEntity" class="algorithmline" id="6om" x1="4760" x2="4810" y1="2200" y2="2150"/>
<line cb-classname="GraphicLineEntity" class="algorithmline" id="6on" x1="4810" x2="4860" y1="2150" y2="2200"/>
<line cb-classname="GraphicLineEntity" class="algorithmline" id="6ol" x1="4860" x2="4810" y1="2200" y2="2250"/>
<line cb-classname="GraphicLineEntity" class="algorithmline" id="6ov" x1="4810" x2="4760" y1="2250" y2="2200"/>
</g>
<g cb-classname="PointStatusIndicator" cb-indicator-type="hardware" cb-source="sn-5Tc-Vd" id="6o5" visibility="hidden">
<line cb-classname="GraphicLineEntity" class="algorithmline" id="6CO" x1="4860" x2="4760" y1="2150" y2="2150"/>
<line cb-classname="GraphicLineEntity" class="algorithmline" id="6Cj" x1="4760" x2="4760" y1="2150" y2="2250"/>
<line cb-classname="GraphicLineEntity" class="algorithmline" id="6C0" x1="4760" x2="4860" y1="2250" y2="2250"/>
</g>
<g cb-classname="PointStatusIndicator" cb-indicator-type="alarm" cb-source="U3-2ao-Mi" id="6CI" visibility="visible">
<text cb-classname="GraphicTextEntity" class="algorithm" fill="#000000" font-family="Arial" font-size="20" id="6Cq" x="4870" y="2235">
A
</text>
</g>
<g cb-classname="PointStatusIndicator" cb-indicator-type="ingraphic" cb-source="PZ-7pn-tV" id="6Cm" visibility="hidden">
<text cb-classname="GraphicTextEntity" class="algorithm" fill="#000000" font-family="Arial" font-size="20" id="6Cn" x="4870" y="2185">
G
</text>
</g>
<g cb-classname="DynamicText" cb-labeled="false" cb-pin-name="iY" cb-source="bq-755-Db" class="algorithm" id="6Cl" text-anchor="end">
<text baseline-shift="0%" cb-classname="GraphicTextEntity" class="algorithm" fill="black" font-family="arial" font-size="20" font-style="normal" font-weight="normal" id="6Cv" text-anchor="end" text-decoration="normal" x="4735" y="2175"/>
</g>
<g baseline-shift="-100%" cb-anchor-x="4735" cb-anchor-y="2210" cb-classname="PointReferences" cb-max-width="130" cb-originator="false" cb-source="cN-wNR-PV" class="signal" id="6C5" text-anchor="end">
<text baseline-shift="-100%" cb-classname="GraphicTextEntity" class="algorithm" id="6IO" text-anchor="end" x="4735" y="2210">
REF: Point not
</text>
<text baseline-shift="-100%" cb-classname="GraphicTextEntity" class="algorithm" id="2I5c" text-anchor="end" x="4735" y="2235">
found in
</text>
<text baseline-shift="-100%" cb-classname="GraphicTextEntity" class="algorithm" id="2I5F" text-anchor="end" x="4735" y="2260">
database
</text>
<text baseline-shift="-100%" cb-classname="GraphicTextEntity" class="algorithm" id="2I5N" text-anchor="end" x="4735" y="2285">
(01T0200D08A-TR)
</text>
</g>
<g baseline-shift="-50%" cb-anchor-x="4915" cb-anchor-y="2215" cb-classname="PointDescription" cb-content="extended" cb-labeled="false" cb-max-width="240" cb-source="sn-5Tc-Vd" class="algorithm" id="6I0" text-anchor="start">
<text baseline-shift="-50%" cb-classname="GraphicTextEntity" class="algorithm" id="6II" text-anchor="start" x="4915" y="2203">
DESC: Point not found in
</text>
<text baseline-shift="-50%" cb-classname="GraphicTextEntity" class="algorithm" id="1Cmf" text-anchor="start" x="4915" y="2228">
database (01T0200D08A-TR)
</text>
</g>
</g>
</g>
<g cb-classname="IncludeDocument" cb-modify-time="09/25/2018 01:40:30" cb-objectname="Frame" id="5">
<text cb-classname="GraphicTextEntity" class="frame" font-size="50" id="3MmV" x="3660" y="3146">
Project Title &lt;Edit in FRAME.SVG&gt;
</text>
<g baseline-shift="-50%" cb-classname="DynamicText" cb-source="cN-jorb-4D" class="frame" id="3MmK">
<text cb-classname="GraphicTextEntity" class="frame" fill="black" font-family="arial" font-size="25" font-style="normal" font-weight="normal" id="3Mmf" text-decoration="normal" x="4715" y="3325">
13
</text>
</g>
<g baseline-shift="-50%" cb-classname="DynamicText" cb-source="re-Dtu5-V0" class="frame" id="3MmU" text-anchor="middle">
<text cb-classname="GraphicTextEntity" class="frame" fill="black" font-family="arial" font-size="48" font-style="normal" font-weight="normal" id="3MmO" text-anchor="middle" text-decoration="normal" x="4900" y="3320">
13
</text>
</g>
<g baseline-shift="-50%" cb-classname="DynamicText" cb-source="xv-Ia0A-Dn" class="frame" id="3MmZ" text-anchor="middle">
<text cb-classname="GraphicTextEntity" class="frame" fill="black" font-family="arial" font-size="48" font-style="normal" font-weight="normal" id="3Mnc" text-anchor="middle" text-decoration="normal" x="5067" y="3324">
4
</text>
</g>
<g cb-classname="DynamicText" cb-source="Pj-0DEGF-otjox" class="frame" id="3MnF">
<text cb-classname="GraphicTextEntity" class="frame" fill="black" font-family="arial" font-size="48" font-style="normal" font-weight="normal" id="3MnN" text-decoration="normal" x="3660" y="3224">
A COLD REHEAT STM DRN VLV-T0200D08A
</text>
</g>
<g baseline-shift="-50%" cb-classname="DynamicText" cb-source="mi-8t8Fo-VsXJbU" class="frame" id="3Mnl" text-anchor="middle">
<text cb-classname="GraphicTextEntity" class="frame" fill="black" font-family="arial" font-size="48" font-style="normal" font-weight="normal" id="3MnV" text-anchor="middle" text-decoration="normal" x="5270" y="3324">
198
</text>
</g>
<g baseline-shift="0%" cb-classname="DynamicText" cb-source="et-WFHtuDdR" class="frame" id="3MnK" text-anchor="middle">
<text cb-classname="GraphicTextEntity" class="frame" fill="black" font-family="arial" font-size="36" font-style="normal" font-weight="normal" id="3Mnf" text-anchor="middle" text-decoration="normal" x="5270" y="3150">
A
</text>
</g>
<g baseline-shift="0%" cb-classname="DynamicText" cb-source="ZY-1HsDGQlC-WLxF" class="frame" id="3MnU" text-anchor="middle">
<text cb-classname="GraphicTextEntity" class="frame" fill="black" font-family="arial" font-size="20" font-style="normal" font-weight="normal" id="3MnO" text-anchor="middle" text-decoration="normal" x="5270" y="3230">
12/28/2010
</text>
</g>
<g baseline-shift="-50%" cb-classname="DynamicText" cb-source="Dz-9yMPVXwL" class="frame" id="3MnZ" text-anchor="end">
<text cb-classname="GraphicTextEntity" class="frame" fill="black" font-family="arial" font-size="26" font-style="normal" font-weight="normal" id="3Mlc" text-anchor="end" text-decoration="normal" x="4500" y="3420">
Heczko
</text>
</g>
<g baseline-shift="-50%" cb-classname="DynamicText" cb-source="sn-tComwVGW" class="frame" id="3MlF" text-anchor="end">
<text cb-classname="GraphicTextEntity" class="frame" fill="black" font-family="arial" font-size="26" font-style="normal" font-weight="normal" id="3MlN" text-anchor="end" text-decoration="normal" x="5353" y="3420">
Nemec
</text>
</g>
<g cb-classname="GraphicShape" cb-tag="BORDER" id="3Mll">
<line cb-classname="GraphicLineEntity" class="frameline" id="3MlV" x1="40" x2="40" y1="40" y2="3460"/>
<line cb-classname="GraphicLineEntity" class="frameline" id="3MlK" x1="40" x2="5380" y1="3460" y2="3460"/>
<line cb-classname="GraphicLineEntity" class="frameline" id="3Mlf" x1="5380" x2="5380" y1="3460" y2="40"/>
<line cb-classname="GraphicLineEntity" class="frameline" id="3MlU" x1="5380" x2="40" y1="40" y2="40"/>
<line cb-classname="GraphicLineEntity" class="frame" id="3MlO" x1="5430" x2="5440" y1="3510" y2="3510"/>
</g>
<g cb-classname="GraphicShape" cb-tag="TITLE BOX" id="3MlZ">
<line cb-classname="GraphicLineEntity" class="frameline" id="3Mvc" x1="2340" x2="2340" y1="3080" y2="3460"/>
<line cb-classname="GraphicLineEntity" class="frameline" id="3MvF" x1="2340" x2="5380" y1="3080" y2="3080"/>
<line cb-classname="GraphicLineEntity" class="frameline" id="3MvN" x1="3650" x2="3650" y1="3460" y2="3080"/>
<line cb-classname="GraphicLineEntity" class="frameline" id="3Mvl" x1="3650" x2="5380" y1="3240" y2="3240"/>
<line cb-classname="GraphicLineEntity" class="frameline" id="3MvV" x1="3650" x2="5380" y1="3390" y2="3390"/>
<line cb-classname="GraphicLineEntity" class="frameline" id="3MvK" x1="3650" x2="5380" y1="3160" y2="3160"/>
<line cb-classname="GraphicLineEntity" class="frameline" id="3Mvf" x1="3650" x2="4520" y1="3320" y2="3320"/>
<line cb-classname="GraphicLineEntity" class="frameline" id="3MvU" x1="4520" x2="5380" y1="3290" y2="3290"/>
<line cb-classname="GraphicLineEntity" class="frameline" id="3MvO" x1="4520" x2="5380" y1="3240" y2="3240"/>
<line cb-classname="GraphicLineEntity" class="frameline" id="3MvZ" x1="4520" x2="4520" y1="3240" y2="3460"/>
<line cb-classname="GraphicLineEntity" class="frameline" id="3M5c" x1="4810" x2="4810" y1="3240" y2="3390"/>
<line cb-classname="GraphicLineEntity" class="frameline" id="3M5F" x1="4990" x2="4990" y1="3240" y2="3390"/>
<line cb-classname="GraphicLineEntity" class="frameline" id="3M5N" x1="5150" x2="5150" y1="3080" y2="3390"/>
</g>
<g cb-classname="GraphicShape" cb-tag="TEXT LABELS" id="3M5l">
<text baseline-shift="-50%" cb-classname="GraphicTextEntity" class="frame" font-size="25" id="3M5V" text-anchor="middle" x="4890" y="3252">
Drop
</text>
<text baseline-shift="-50%" cb-classname="GraphicTextEntity" class="frame" font-size="25" id="3M5K" text-anchor="middle" x="5075" y="3252">
Task
</text>
<text baseline-shift="-50%" cb-classname="GraphicTextEntity" class="frame" font-size="25" id="3M5f" text-anchor="middle" x="5265" y="3252">
Sheet
</text>
<text cb-classname="GraphicTextEntity" class="frame" font-size="25" id="3M5U" x="5152" y="3107">
Rev.
</text>
<text cb-classname="GraphicTextEntity" class="frame" font-size="25" id="3M5O" x="3653" y="3418">
Engineer
</text>
<text cb-classname="GraphicTextEntity" class="frame" font-size="25" id="3M5Z" x="4528" y="3419">
Approved
</text>
<text cb-classname="GraphicTextEntity" class="frame" font-size="25" id="3UOc" x="5152" y="3187">
Date
</text>
<text baseline-shift="-50%" cb-classname="GraphicTextEntity" class="frame" font-size="25" id="3UOF" text-anchor="middle" x="4660" y="3252">
Drawing Number
</text>
<text baseline-shift="-50%" cb-classname="GraphicTextEntity" class="frame" font-size="25" id="3UON" text-anchor="middle" x="4680" y="3325">
CTL
</text>
</g>
<text baseline-shift="-50%" cb-classname="GraphicTextEntity" class="frame" font-size="48" id="3UOl" text-anchor="middle" x="3000" y="3100">
EMERSON PROCESS MANAGEMENT
</text>
<g baseline-shift="-100%" cb-anchor-x="2360" cb-anchor-y="3140" cb-classname="GroupText" cb-max-width="1260" fill="black" id="3UOV">
<text baseline-shift="-100%" cb-classname="GraphicTextEntity" class="frame" fill="black" font-family="arial" font-size="22" font-weight="normal" id="3UOK" text-anchor="start" text-decoration="normal" x="2360" y="3140">
THIS DOCUMENT CONTAINS INFORMATION PROPRIETARY TO EMERSON PROCESS
</text>
<text baseline-shift="-100%" cb-classname="GraphicTextEntity" class="frame" fill="black" font-family="arial" font-size="22" font-weight="normal" id="3UOf" text-anchor="start" text-decoration="normal" x="2360" y="3176">
MANAGEMENT POWER &amp; WATER SOLUTIONS, INC. IT IS SUBMITTED IN CONFIDENCE AND
</text>
<text baseline-shift="-100%" cb-classname="GraphicTextEntity" class="frame" fill="black" font-family="arial" font-size="22" font-weight="normal" id="3UOU" text-anchor="start" text-decoration="normal" x="2360" y="3212">
TRUST, IS TO BE USED BY YOU SOLELY FOR THE PURPOSES FOR WHICH IT IS
</text>
<text baseline-shift="-100%" cb-classname="GraphicTextEntity" class="frame" fill="black" font-family="arial" font-size="22" font-weight="normal" id="3UOO" text-anchor="start" text-decoration="normal" x="2360" y="3248">
FURNISHED AND IS TO BE RETURNED UPON REQUEST. THIS DOCUMENT AND ANY
</text>
<text baseline-shift="-100%" cb-classname="GraphicTextEntity" class="frame" fill="black" font-family="arial" font-size="22" font-weight="normal" id="3UOZ" text-anchor="start" text-decoration="normal" x="2360" y="3284">
OTHER INFORMATION PROVIDED TO YOU IS NOT TO BE REPRODUCED, TRANSMITTED,
</text>
<text baseline-shift="-100%" cb-classname="GraphicTextEntity" class="frame" fill="black" font-family="arial" font-size="22" font-weight="normal" id="3Ujc" text-anchor="start" text-decoration="normal" x="2360" y="3320">
DISCLOSED, OR USED OTHERWISE IN WHOLE OR IN PART WITHOUT THE PRIOR
</text>
<text baseline-shift="-100%" cb-classname="GraphicTextEntity" class="frame" fill="black" font-family="arial" font-size="22" font-weight="normal" id="3UjF" text-anchor="start" text-decoration="normal" x="2360" y="3356">
WRITTEN AUTHORIZATION OF EMERSON PROCESS MANAGEMENT POWER &amp; WATER
</text>
<text baseline-shift="-100%" cb-classname="GraphicTextEntity" class="frame" fill="black" font-family="arial" font-size="22" font-weight="normal" id="3UjN" text-anchor="start" text-decoration="normal" x="2360" y="3392">
SOLUTIONS,INC.
</text>
</g>
</g>
</svg>