<?xml version="1.0" ?><svg cb-auto-time="01/14/2009 12:46:58" cb-classname="ControlFunction" cb-create-time="03/12/2008" cb-drop-id="13" cb-engineer="Heczko" cb-filename="Z:\OVATION\NET0\UNIT0\CONTROLFUNCTIONS\0208.svg" cb-function-id="0208" cb-key="342443321525" cb-modified-timestamp="1489319157" cb-modify-id="00000002" cb-ortho-mode="enabled" cb-path="Z:/OVATION/NET0/UNIT0/CONTROLFUNCTIONS" cb-reviewer="Nemec" cb-revision="A" cb-revision-time="12/28/2010" cb-sheet-number="406" cb-sheet-title="BFPT MONITOR PART VIBRATION 03B0200G05" cb-snap-grid="10" cb-task-id="5" height="3606" id="1" width="5450" xmlns="http://www.w3.org/2000/svg">
<style cb-classname="EntityStyle" id="2" type="text/css">
	.algorithm { fill: white; stroke: black; stroke-linecap: round; stroke-width: 2 }
	.algorithm-function { fill: none; stroke: black; stroke-linecap: round; stroke-width: 2 }
	.algorithm-functionline { fill: none; stroke: black; stroke-linecap: round; stroke-width: 2 }
	.algorithm-name { fill: none; stroke: black; stroke-linecap: round; stroke-width: 2 }
	.algorithm-nameline { fill: none; stroke: black; stroke-linecap: round; stroke-width: 2 }
	.algorithm-sequence { fill: none; stroke: black; stroke-linecap: round; stroke-width: 2 }
	.algorithm-sequenceline { fill: none; stroke: black; stroke-linecap: round; stroke-width: 2 }
	.algorithmline { fill: none; stroke: black; stroke-linecap: round; stroke-width: 2 }
	.annotation { fill: none; stroke: black; stroke-linecap: round; stroke-width: 2 }
	.annotationline { fill: none; stroke: black; stroke-linecap: round; stroke-width: 2 }
	.frame { fill: none; stroke: black; stroke-linecap: round; stroke-width: 2 }
	.frameline { fill: none; stroke: black; stroke-linecap: round; stroke-width: 2 }
	.signal { fill: black; stroke: black; stroke-linecap: round; stroke-width: 2 }
	.signalline { fill: none; stroke: black; stroke-linecap: round; stroke-width: 2 }
	text.algorithm { fill: black; font-family: MS Shell Dlg 2; font-size: 14; stroke: none }
	text.algorithm-function { fill: black; font-family: MS Shell Dlg 2; font-size: 16; stroke: none }
	text.algorithm-name { fill: black; font-family: MS Shell Dlg 2; font-size: 16; stroke: none }
	text.algorithm-sequence { fill: black; font-family: MS Shell Dlg 2; font-size: 16; stroke: none }
	text.annotation { fill: black; font-family: MS Shell Dlg 2; font-size: 16; stroke: none }
	text.frame { fill: black; font-family: MS Shell Dlg 2; font-size: 16; stroke: none }
	text.signal { fill: black; font-family: MS Shell Dlg 2; font-size: 12; stroke: none }
</style>
<g cb-classname="NamedObject" cb-objectname="Comments" id="3"/>
<g cb-classname="AlgorithmContainer" cb-objectname="Algorithms" id="4">
<g cb-alg-o3fN="NO" cb-alg-ocq="01TRIP29" cb-algorithm-id="001" cb-classname="ExternalPointInterface" cb-function-name="INPUT" id="6m">
<ellipse cb-classname="GraphicEllipseEntity" class="algorithm" cx="560" cy="230" id="64" rx="50" ry="50"/>
<rect cb-classname="GraphicRectangleEntity" class="algorithm" height="100" id="6E" width="40" x="470" y="180"/>
<line cb-classname="GraphicLineEntity" class="algorithm" id="6Y" x1="470" x2="510" y1="230" y2="230"/>
<g cb-classname="ControlPin" cb-pin-name="RL-0gy-ZbY" id="6P">
<line cb-classname="GraphicLineEntity" class="signalline" id="7T" x1="610" x2="640" y1="230" y2="230"/>
<g cb-classname="DynamicText" cb-source="rG-mbe-gJ48" class="signal" id="79" text-anchor="start">
<text cb-classname="GraphicTextEntity" class="signal" fill="black" font-style="normal" font-weight="normal" id="7x" text-anchor="start" text-decoration="normal" x="624" y="227"/>
</g>
<g cb-classname="SignalSegment" id="2eZ">
<line cb-classname="GraphicLineEntity" class="signalline" id="4xj" stroke="#1e12bf" stroke-dasharray="5,4" x1="640" x2="1130" y1="230" y2="230"/>
<g cb-classname="SignalSegment" id="4x6">
<line cb-classname="GraphicLineEntity" class="signalline" id="4x8" stroke="#1e12bf" stroke-dasharray="5,4" x1="1130" x2="1130" y1="230" y2="1670"/>
<g cb-classname="SignalSegment" id="4xQ">
<line cb-classname="GraphicLineEntity" class="signalline" id="4xl" stroke="#1e12bf" stroke-dasharray="5,4" x1="1130" x2="1840" y1="1670" y2="1670"/>
<g cb-classname="SignalConnection" cb-graphic-line="$424$" cb-input-pin="$jq8$" id="4xZ"/>
</g>
<line cb-classname="GraphicLineEntity" class="signalline" id="2eM" stroke="#1e12bf" stroke-dasharray="5,4" x1="1130" x2="1840" y1="230" y2="230"/>
<g cb-classname="SignalConnection" cb-graphic-line="$246$" cb-input-pin="$xQ4$" id="2eX"/>
<ellipse cb-classname="GraphicEllipseEntity" class="signal" cx="1130" cy="230" fill="#1e12bf" id="4xM" rx="5" ry="5" stroke="#1e12bf" stroke-dasharray="5,4"/>
</g>
</g>
</g>
<g cb-classname="PointStatusIndicator" cb-indicator-type="Highway" cb-source="57-4SI-fi2" id="7h" visibility="hidden">
<line cb-classname="GraphicLineEntity" class="algorithmline" id="7e" x1="510" x2="560" y1="230" y2="180"/>
<line cb-classname="GraphicLineEntity" class="algorithmline" id="7m" x1="560" x2="610" y1="180" y2="230"/>
<line cb-classname="GraphicLineEntity" class="algorithmline" id="74" x1="610" x2="560" y1="230" y2="280"/>
<line cb-classname="GraphicLineEntity" class="algorithmline" id="7E" x1="560" x2="510" y1="280" y2="230"/>
</g>
<g cb-classname="PointStatusIndicator" cb-indicator-type="hardware" cb-source="cL-PZ0-fCd" id="7Y" visibility="visible">
<line cb-classname="GraphicLineEntity" class="algorithmline" id="7P" x1="510" x2="610" y1="180" y2="180"/>
<line cb-classname="GraphicLineEntity" class="algorithmline" id="8T" x1="610" x2="610" y1="180" y2="280"/>
<line cb-classname="GraphicLineEntity" class="algorithmline" id="89" x1="610" x2="510" y1="280" y2="280"/>
</g>
<g cb-classname="PointStatusIndicator" cb-indicator-type="alarm" cb-source="RL-0gy-ZbY" id="8x" visibility="hidden">
<text cb-classname="GraphicTextEntity" class="algorithm" fill="#000000" font-family="arial" font-size="20" id="8h" x="480" y="215">
A
</text>
</g>
<g cb-classname="PointStatusIndicator" cb-indicator-type="ingraphic" cb-source="rG-icO-2RZ" id="8e" visibility="visible">
<text cb-classname="GraphicTextEntity" class="algorithm" fill="#000000" font-family="Arial" font-size="20" id="8m" x="480" y="265">
G
</text>
</g>
<g baseline-shift="-50%" cb-anchor-x="460" cb-anchor-y="244" cb-classname="PointDescription" cb-content="extended" cb-labeled="false" cb-max-width="220" cb-source="57-4SI-fi2" class="algorithm" id="84" text-anchor="end">
<text baseline-shift="-50%" cb-classname="GraphicTextEntity" class="algorithm" id="8E" text-anchor="end" x="460" y="232">
DESC: Point not found in
</text>
<text baseline-shift="-50%" cb-classname="GraphicTextEntity" class="algorithm" id="8P6" text-anchor="end" x="460" y="257">
database (01TRIP29)
</text>
</g>
<g cb-classname="DynamicText" cb-labeled="false" cb-pin-name="5Bp" cb-source="gi-0ZX-1qV" class="algorithm" id="8Y" text-anchor="start">
<text baseline-shift="0%" cb-classname="GraphicTextEntity" class="algorithm" fill="black" font-family="arial" font-size="20" font-style="normal" font-weight="normal" id="8P" text-anchor="start" text-decoration="normal" x="630" y="200"/>
</g>
<g baseline-shift="-100%" cb-anchor-x="630" cb-anchor-y="240" cb-classname="PointReferences" cb-max-width="230" cb-originator="true" cb-source="9q-i2G-Izf" class="signal" id="9T" text-anchor="start">
<text baseline-shift="-100%" cb-classname="GraphicTextEntity" class="algorithm" id="99" text-anchor="start" x="630" y="240">
REF: Point not found in
</text>
<text baseline-shift="-100%" cb-classname="GraphicTextEntity" class="algorithm" id="1mQf" text-anchor="start" x="630" y="265">
database (01TRIP29)
</text>
</g>
</g>
<g cb-alg-Z15="01TRIP30" cb-alg-ZEF1="NO" cb-algorithm-id="002" cb-classname="ExternalPointInterface" cb-function-name="INPUT" id="9x">
<ellipse cb-classname="GraphicEllipseEntity" class="algorithm" cx="560" cy="530" id="9h" rx="50" ry="50"/>
<rect cb-classname="GraphicRectangleEntity" class="algorithm" height="100" id="9e" width="40" x="470" y="480"/>
<line cb-classname="GraphicLineEntity" class="algorithm" id="9m" x1="470" x2="510" y1="530" y2="530"/>
<g cb-classname="ControlPin" cb-pin-name="32-yR7-n9N" id="94">
<line cb-classname="GraphicLineEntity" class="signalline" id="9E" x1="610" x2="640" y1="530" y2="530"/>
<g cb-classname="DynamicText" cb-source="sd-0zd-Fi9U" class="signal" id="9Y" text-anchor="start">
<text cb-classname="GraphicTextEntity" class="signal" fill="black" font-style="normal" font-weight="normal" id="9P" text-anchor="start" text-decoration="normal" x="624" y="527"/>
</g>
<g cb-classname="SignalSegment" id="2ea">
<line cb-classname="GraphicLineEntity" class="signalline" id="2e0" stroke="#1e12bf" stroke-dasharray="5,4" x1="640" x2="1210" y1="530" y2="530"/>
<g cb-classname="SignalSegment" id="2mj">
<line cb-classname="GraphicLineEntity" class="signalline" id="2m6" stroke="#1e12bf" stroke-dasharray="5,4" x1="1210" x2="1210" y1="530" y2="270"/>
<g cb-classname="SignalSegment" id="2m8">
<line cb-classname="GraphicLineEntity" class="signalline" id="2mQ" stroke="#1e12bf" stroke-dasharray="5,4" x1="1210" x2="1840" y1="270" y2="270"/>
<g cb-classname="SignalConnection" cb-graphic-line="$253$" cb-input-pin="$e8k$" id="2ml"/>
</g>
<line cb-classname="GraphicLineEntity" class="signalline" id="3YX" stroke="#1e12bf" stroke-dasharray="5,4" x1="1210" x2="1210" y1="530" y2="1370"/>
<g cb-classname="SignalSegment" id="3Ya">
<line cb-classname="GraphicLineEntity" class="signalline" id="3Y0" stroke="#1e12bf" stroke-dasharray="5,4" x1="1210" x2="1840" y1="1370" y2="1370"/>
<g cb-classname="SignalConnection" cb-graphic-line="$389$" cb-input-pin="$hMt$" id="3Pj"/>
</g>
<ellipse cb-classname="GraphicEllipseEntity" class="signal" cx="1210" cy="530" fill="#1e12bf" id="3P6" rx="5" ry="5" stroke="#1e12bf" stroke-dasharray="5,4"/>
</g>
</g>
</g>
<g cb-classname="PointStatusIndicator" cb-indicator-type="Highway" cb-source="43-oww-Y0K" id="1Tj" visibility="hidden">
<line cb-classname="GraphicLineEntity" class="algorithmline" id="1T6" x1="510" x2="560" y1="530" y2="480"/>
<line cb-classname="GraphicLineEntity" class="algorithmline" id="1T8" x1="560" x2="610" y1="480" y2="530"/>
<line cb-classname="GraphicLineEntity" class="algorithmline" id="1TQ" x1="610" x2="560" y1="530" y2="580"/>
<line cb-classname="GraphicLineEntity" class="algorithmline" id="1Tl" x1="560" x2="510" y1="580" y2="530"/>
</g>
<g cb-classname="PointStatusIndicator" cb-indicator-type="hardware" cb-source="Br-B5B-kfY" id="1TZ" visibility="visible">
<line cb-classname="GraphicLineEntity" class="algorithmline" id="1TM" x1="510" x2="610" y1="480" y2="480"/>
<line cb-classname="GraphicLineEntity" class="algorithmline" id="1TX" x1="610" x2="610" y1="480" y2="580"/>
<line cb-classname="GraphicLineEntity" class="algorithmline" id="1Ta" x1="610" x2="510" y1="580" y2="580"/>
</g>
<g cb-classname="PointStatusIndicator" cb-indicator-type="alarm" cb-source="32-yR7-n9N" id="1T0" visibility="hidden">
<text cb-classname="GraphicTextEntity" class="algorithm" fill="#000000" font-family="arial" font-size="20" id="19j" x="480" y="515">
A
</text>
</g>
<g cb-classname="PointStatusIndicator" cb-indicator-type="ingraphic" cb-source="sd-OIv-LOJ" id="196" visibility="visible">
<text cb-classname="GraphicTextEntity" class="algorithm" fill="#000000" font-family="Arial" font-size="20" id="198" x="480" y="565">
G
</text>
</g>
<g baseline-shift="-50%" cb-anchor-x="460" cb-anchor-y="544" cb-classname="PointDescription" cb-content="extended" cb-labeled="false" cb-max-width="220" cb-source="43-oww-Y0K" class="algorithm" id="19Q" text-anchor="end">
<text baseline-shift="-50%" cb-classname="GraphicTextEntity" class="algorithm" id="19l" text-anchor="end" x="460" y="532">
DESC: Point not found in
</text>
<text baseline-shift="-50%" cb-classname="GraphicTextEntity" class="algorithm" id="8P8" text-anchor="end" x="460" y="557">
database (01TRIP30)
</text>
</g>
<g cb-classname="DynamicText" cb-labeled="false" cb-pin-name="hV4" cb-source="AE-J1R-w6e" class="algorithm" id="19Z" text-anchor="start">
<text baseline-shift="0%" cb-classname="GraphicTextEntity" class="algorithm" fill="black" font-family="arial" font-size="20" font-style="normal" font-weight="normal" id="19M" text-anchor="start" text-decoration="normal" x="630" y="500"/>
</g>
<g baseline-shift="-100%" cb-anchor-x="630" cb-anchor-y="540" cb-classname="PointReferences" cb-max-width="230" cb-originator="true" cb-source="cL-PZ0-fCd" class="signal" id="19X" text-anchor="start">
<text baseline-shift="-100%" cb-classname="GraphicTextEntity" class="algorithm" id="19a" text-anchor="start" x="630" y="540">
REF: Point not found in
</text>
<text baseline-shift="-100%" cb-classname="GraphicTextEntity" class="algorithm" id="1mQt" text-anchor="start" x="630" y="565">
database (01TRIP30)
</text>
</g>
</g>
<g cb-alg-zWe="$92$cb-alg-out$" cb-alg-zWq="$65$cb-alg-out$" cb-algorithm-id="007" cb-classname="FastBooleanAlgorithm" cb-function-name="OR" id="2xX">
<ellipse cb-classname="GraphicEllipseEntity" class="algorithm" cx="1890" cy="250" id="2xa" rx="30" ry="30"/>
<line cb-classname="GraphicLineEntity" class="algorithm" id="2x0" x1="1860" x2="1860" y1="210" y2="290"/>
<text baseline-shift="-50%" cb-classname="GraphicTextEntity" class="algorithm" fill="#000000" font-family="MS Shell Dlg" font-size="18" id="2hj" text-anchor="middle" x="1889" y="245">
OR
</text>
<g cb-classname="ControlPin" cb-pin-name="gi-0ZX-Br2" id="2h6">
<line cb-classname="GraphicLineEntity" class="signalline" id="2h8" x1="1840" x2="1860" y1="230" y2="230"/>
<polygon cb-classname="GraphicPolygonEntity" class="signal" id="2hQ" points="1860,230 1849,224 1849,235"/>
<g cb-classname="DynamicText" cb-source="cL-ulF-WyoC" class="signal" id="2hl" text-anchor="end">
<text cb-classname="GraphicTextEntity" class="signal" fill="black" font-style="normal" font-weight="normal" id="2hZ" text-anchor="end" text-decoration="normal" x="1845" y="227"/>
</g>
</g>
<g cb-classname="ControlPin" cb-pin-name="nb-JUC-Ul2" id="2hM">
<line cb-classname="GraphicLineEntity" class="signalline" id="2hX" x1="1840" x2="1860" y1="270" y2="270"/>
<polygon cb-classname="GraphicPolygonEntity" class="signal" id="2ha" points="1860,270 1849,264 1849,275"/>
<g cb-classname="DynamicText" cb-source="32-pUl-d0c3" class="signal" id="2h0" text-anchor="end">
<text cb-classname="GraphicTextEntity" class="signal" fill="black" font-style="normal" font-weight="normal" id="2ej" text-anchor="end" text-decoration="normal" x="1845" y="267"/>
</g>
</g>
<g cb-classname="ControlPin" cb-pin-name="sd-OIv-LOJ" id="2e6">
<line cb-classname="GraphicLineEntity" class="signalline" id="2e8" x1="1920" x2="1940" y1="250" y2="250"/>
<g cb-classname="DynamicText" cb-source="43-Y5F-ALih" class="signal" id="2eQ" text-anchor="start">
<text cb-classname="GraphicTextEntity" class="signal" fill="black" font-style="normal" font-weight="normal" id="2el" text-anchor="start" text-decoration="normal" x="1934" y="247"/>
</g>
<g cb-classname="SignalSegment" id="3T6">
<line cb-classname="GraphicLineEntity" class="signalline" id="3T8" stroke="#1e12bf" stroke-dasharray="5,4" x1="1940" x2="3200" y1="250" y2="250"/>
<g cb-classname="SignalConnection" cb-graphic-line="$302$" cb-input-pin="$x1P$" id="3TQ"/>
</g>
</g>
</g>
<g cb-alg-JLl0="NO" cb-alg-Ji7="01TRIP33" cb-algorithm-id="003" cb-classname="ExternalPointInterface" cb-function-name="INPUT" id="190">
<ellipse cb-classname="GraphicEllipseEntity" class="algorithm" cx="560" cy="820" id="1xj" rx="50" ry="50"/>
<rect cb-classname="GraphicRectangleEntity" class="algorithm" height="100" id="1x6" width="40" x="470" y="770"/>
<line cb-classname="GraphicLineEntity" class="algorithm" id="1x8" x1="470" x2="510" y1="820" y2="820"/>
<g cb-classname="ControlPin" cb-pin-name="rG-icO-2RZ" id="1xQ">
<line cb-classname="GraphicLineEntity" class="signalline" id="1xl" x1="610" x2="640" y1="820" y2="820"/>
<g cb-classname="DynamicText" cb-source="57-HOg-kyN3" class="signal" id="1xZ" text-anchor="start">
<text cb-classname="GraphicTextEntity" class="signal" fill="black" font-style="normal" font-weight="normal" id="1xM" text-anchor="start" text-decoration="normal" x="624" y="817"/>
</g>
<g cb-classname="SignalSegment" id="99X">
<line cb-classname="GraphicLineEntity" class="signalline" id="9x8" stroke="#1e12bf" stroke-dasharray="5,4" x1="640" x2="1760" y1="820" y2="820"/>
<g cb-classname="SignalSegment" id="9xQ">
<line cb-classname="GraphicLineEntity" class="signalline" id="9xl" stroke="#1e12bf" stroke-dasharray="5,4" x1="1760" x2="1760" y1="820" y2="860"/>
<g cb-classname="SignalSegment" id="9xZ">
<line cb-classname="GraphicLineEntity" class="signalline" id="9xM" stroke="#1e12bf" stroke-dasharray="5,4" x1="1760" x2="1840" y1="860" y2="860"/>
<g cb-classname="SignalConnection" cb-graphic-line="$926$" cb-input-pin="$xjK$" id="9xX"/>
</g>
<line cb-classname="GraphicLineEntity" class="signalline" id="9xj" stroke="#1e12bf" stroke-dasharray="5,4" x1="1760" x2="1840" y1="820" y2="820"/>
<g cb-classname="SignalConnection" cb-graphic-line="$920$" cb-input-pin="$D1G$" id="9x6"/>
<ellipse cb-classname="GraphicEllipseEntity" class="signal" cx="1760" cy="820" fill="#1e12bf" id="9xa" rx="5" ry="5" stroke="#1e12bf" stroke-dasharray="5,4"/>
</g>
</g>
</g>
<g cb-classname="PointStatusIndicator" cb-indicator-type="Highway" cb-source="gi-0ZX-1qV" id="1xX" visibility="hidden">
<line cb-classname="GraphicLineEntity" class="algorithmline" id="1xa" x1="510" x2="560" y1="820" y2="770"/>
<line cb-classname="GraphicLineEntity" class="algorithmline" id="1x0" x1="560" x2="610" y1="770" y2="820"/>
<line cb-classname="GraphicLineEntity" class="algorithmline" id="1hj" x1="610" x2="560" y1="820" y2="870"/>
<line cb-classname="GraphicLineEntity" class="algorithmline" id="1h6" x1="560" x2="510" y1="870" y2="820"/>
</g>
<g cb-classname="PointStatusIndicator" cb-indicator-type="hardware" cb-source="nb-JUC-bpW" id="1h8" visibility="visible">
<line cb-classname="GraphicLineEntity" class="algorithmline" id="1hQ" x1="510" x2="610" y1="770" y2="770"/>
<line cb-classname="GraphicLineEntity" class="algorithmline" id="1hl" x1="610" x2="610" y1="770" y2="870"/>
<line cb-classname="GraphicLineEntity" class="algorithmline" id="1hZ" x1="610" x2="510" y1="870" y2="870"/>
</g>
<g cb-classname="PointStatusIndicator" cb-indicator-type="alarm" cb-source="rG-icO-2RZ" id="1hM" visibility="hidden">
<text cb-classname="GraphicTextEntity" class="algorithm" fill="#000000" font-family="arial" font-size="20" id="1hX" x="480" y="805">
A
</text>
</g>
<g cb-classname="PointStatusIndicator" cb-indicator-type="ingraphic" cb-source="57-4SI-fi2" id="1ha" visibility="visible">
<text cb-classname="GraphicTextEntity" class="algorithm" fill="#000000" font-family="Arial" font-size="20" id="1h0" x="480" y="855">
G
</text>
</g>
<g baseline-shift="-50%" cb-anchor-x="460" cb-anchor-y="834" cb-classname="PointDescription" cb-content="extended" cb-labeled="false" cb-max-width="220" cb-source="gi-0ZX-1qV" class="algorithm" id="1ej" text-anchor="end">
<text baseline-shift="-50%" cb-classname="GraphicTextEntity" class="algorithm" id="1e6" text-anchor="end" x="460" y="822">
DESC: Point not found in
</text>
<text baseline-shift="-50%" cb-classname="GraphicTextEntity" class="algorithm" id="99M" text-anchor="end" x="460" y="847">
database (01TRIP33)
</text>
</g>
<g cb-classname="DynamicText" cb-labeled="false" cb-pin-name="szB" cb-source="9q-i2G-Izf" class="algorithm" id="1e8" text-anchor="start">
<text baseline-shift="0%" cb-classname="GraphicTextEntity" class="algorithm" fill="black" font-family="arial" font-size="20" font-style="normal" font-weight="normal" id="1eQ" text-anchor="start" text-decoration="normal" x="630" y="790"/>
</g>
<g baseline-shift="-100%" cb-anchor-x="630" cb-anchor-y="830" cb-classname="PointReferences" cb-max-width="230" cb-originator="true" cb-source="Br-B5B-kfY" class="signal" id="1el" text-anchor="start">
<text baseline-shift="-100%" cb-classname="GraphicTextEntity" class="algorithm" id="1eZ" text-anchor="start" x="630" y="830">
REF: Point not found in
</text>
<text baseline-shift="-100%" cb-classname="GraphicTextEntity" class="algorithm" id="1ml4" text-anchor="start" x="630" y="855">
database (01TRIP33)
</text>
</g>
</g>
<g cb-alg-frE="$119$cb-alg-out$" cb-alg-frv="$119$cb-alg-out$" cb-algorithm-id="008" cb-classname="FastBooleanAlgorithm" cb-function-name="OR" id="2mZ">
<ellipse cb-classname="GraphicEllipseEntity" class="algorithm" cx="1890" cy="840" id="2mM" rx="30" ry="30"/>
<line cb-classname="GraphicLineEntity" class="algorithm" id="2mX" x1="1860" x2="1860" y1="800" y2="880"/>
<text baseline-shift="-50%" cb-classname="GraphicTextEntity" class="algorithm" fill="#000000" font-family="MS Shell Dlg" font-size="18" id="2ma" text-anchor="middle" x="1889" y="835">
OR
</text>
<g cb-classname="ControlPin" cb-pin-name="9q-i2G-kQa" id="2m0">
<line cb-classname="GraphicLineEntity" class="signalline" id="24j" x1="1840" x2="1860" y1="820" y2="820"/>
<polygon cb-classname="GraphicPolygonEntity" class="signal" id="246" points="1860,820 1849,814 1849,825"/>
<g cb-classname="DynamicText" cb-source="nb-CzW-rOrW" class="signal" id="248" text-anchor="end">
<text cb-classname="GraphicTextEntity" class="signal" fill="black" font-style="normal" font-weight="normal" id="24Q" text-anchor="end" text-decoration="normal" x="1845" y="817"/>
</g>
</g>
<g cb-classname="ControlPin" cb-pin-name="RL-0gy-zdk" id="24l">
<line cb-classname="GraphicLineEntity" class="signalline" id="24Z" x1="1840" x2="1860" y1="860" y2="860"/>
<polygon cb-classname="GraphicPolygonEntity" class="signal" id="24M" points="1860,860 1849,854 1849,865"/>
<g cb-classname="DynamicText" cb-source="sd-0zd-Fi9U" class="signal" id="24X" text-anchor="end">
<text cb-classname="GraphicTextEntity" class="signal" fill="black" font-style="normal" font-weight="normal" id="24a" text-anchor="end" text-decoration="normal" x="1845" y="857"/>
</g>
</g>
<g cb-classname="ControlPin" cb-pin-name="43-oww-Y0K" id="240">
<line cb-classname="GraphicLineEntity" class="signalline" id="2Ej" x1="1920" x2="1940" y1="840" y2="840"/>
<g cb-classname="DynamicText" cb-source="AE-vcA-rGCY" class="signal" id="2E6" text-anchor="start">
<text cb-classname="GraphicTextEntity" class="signal" fill="black" font-style="normal" font-weight="normal" id="2E8" text-anchor="start" text-decoration="normal" x="1934" y="837"/>
</g>
<g cb-classname="SignalSegment" id="3x8">
<line cb-classname="GraphicLineEntity" class="signalline" id="3m0" stroke="#1e12bf" stroke-dasharray="5,4" x1="1940" x2="2790" y1="840" y2="840"/>
<g cb-classname="SignalSegment" id="34j">
<line cb-classname="GraphicLineEntity" class="signalline" id="346" stroke="#1e12bf" stroke-dasharray="5,4" x1="2790" x2="2790" y1="840" y2="290"/>
<g cb-classname="SignalSegment" id="348">
<line cb-classname="GraphicLineEntity" class="signalline" id="34Q" stroke="#1e12bf" stroke-dasharray="5,4" x1="2790" x2="2910" y1="290" y2="290"/>
<g cb-classname="SignalConnection" cb-graphic-line="$363$" cb-input-pin="$h8G$" id="34l"/>
</g>
<line cb-classname="GraphicLineEntity" class="signalline" id="3xQ" stroke="#1e12bf" stroke-dasharray="5,4" x1="2790" x2="3200" y1="840" y2="840"/>
<g cb-classname="SignalConnection" cb-graphic-line="$323$" cb-input-pin="$Alh$" id="3xl"/>
<ellipse cb-classname="GraphicEllipseEntity" class="signal" cx="2790" cy="840" fill="#1e12bf" id="34Z" rx="5" ry="5" stroke="#1e12bf" stroke-dasharray="5,4"/>
</g>
</g>
</g>
</g>
<g cb-alg-iQ6="$255$cb-alg-out$" cb-algorithm-id="00b" cb-classname="FastBooleanAlgorithm" cb-function-name="NOT" id="3xZ">
<rect cb-classname="GraphicRectangleEntity" class="algorithm" height="40" id="3xM" width="40" x="2930" y="270"/>
<g cb-classname="ControlPin" cb-pin-name="nb-JUC-UlM" id="3xX">
<line cb-classname="GraphicLineEntity" class="signalline" id="3xa" x1="2910" x2="2930" y1="290" y2="290"/>
<polygon cb-classname="GraphicPolygonEntity" class="signal" id="3x0" points="2930,290 2919,284 2919,295"/>
<g cb-classname="DynamicText" cb-source="32-pUl-d0c3" class="signal" id="3hj" text-anchor="end">
<text cb-classname="GraphicTextEntity" class="signal" fill="black" font-style="normal" font-weight="normal" id="3h6" text-anchor="end" text-decoration="normal" x="2915" y="287"/>
</g>
</g>
<g cb-classname="ControlPin" cb-pin-name="sd-OIv-LOJ" id="3h8">
<line cb-classname="GraphicLineEntity" class="signalline" id="3hQ" x1="2970" x2="2990" y1="290" y2="290"/>
<g cb-classname="DynamicText" cb-source="43-Y5F-ALih" class="signal" id="3hl" text-anchor="start">
<text cb-classname="GraphicTextEntity" class="signal" fill="black" font-style="normal" font-weight="normal" id="3hZ" text-anchor="start" text-decoration="normal" x="2984" y="287"/>
</g>
<g cb-classname="SignalSegment" id="3mQ">
<line cb-classname="GraphicLineEntity" class="signalline" id="3ml" stroke="#1e12bf" stroke-dasharray="5,4" x1="2990" x2="3200" y1="290" y2="290"/>
<g cb-classname="SignalConnection" cb-graphic-line="$354$" cb-input-pin="$xo9$" id="3mZ"/>
</g>
</g>
<line cb-classname="GraphicLineEntity" class="algorithm" id="3hM" x1="2940" x2="2940" y1="280" y2="300"/>
<line cb-classname="GraphicLineEntity" class="algorithm" id="3hX" x1="2940" x2="2960" y1="280" y2="300"/>
<line cb-classname="GraphicLineEntity" class="algorithm" id="3ha" x1="2960" x2="2960" y1="300" y2="280"/>
</g>
<g cb-alg-beD="$325$cb-alg-out$" cb-alg-beR="$227$cb-alg-out$" cb-alg-zCe="01B0200G05-P01" cb-algorithm-id="009" cb-classname="FastBooleanAlgorithm" cb-function-name="AND" id="2YQ">
<rect cb-classname="GraphicRectangleEntity" class="algorithm" height="60" id="2Yl" width="60" x="3220" y="240"/>
<g cb-classname="ControlPin" cb-pin-name="9q-i2G-kQa" id="2YZ">
<line cb-classname="GraphicLineEntity" class="signalline" id="2YM" x1="3200" x2="3220" y1="250" y2="250"/>
<polygon cb-classname="GraphicPolygonEntity" class="signal" id="2YX" points="3220,250 3209,244 3209,255"/>
<g cb-classname="DynamicText" cb-source="nb-CzW-rOrW" class="signal" id="2Ya" text-anchor="end">
<text cb-classname="GraphicTextEntity" class="signal" fill="black" font-style="normal" font-weight="normal" id="2Y0" text-anchor="end" text-decoration="normal" x="3205" y="247"/>
</g>
</g>
<g cb-classname="ControlPin" cb-pin-name="RL-0gy-zdk" id="2Pj">
<line cb-classname="GraphicLineEntity" class="signalline" id="2P6" x1="3200" x2="3220" y1="290" y2="290"/>
<polygon cb-classname="GraphicPolygonEntity" class="signal" id="2P8" points="3220,290 3209,284 3209,295"/>
<g cb-classname="DynamicText" cb-source="sd-0zd-Fi9U" class="signal" id="2PQ" text-anchor="end">
<text cb-classname="GraphicTextEntity" class="signal" fill="black" font-style="normal" font-weight="normal" id="2Pl" text-anchor="end" text-decoration="normal" x="3205" y="287"/>
</g>
</g>
<line cb-classname="GraphicLineEntity" class="algorithm" id="2PZ" x1="3220" x2="3220" y1="230" y2="310"/>
<g cb-classname="ControlPin" cb-pin-name="gi-0ZX-1qV" id="2PM">
<line cb-classname="GraphicLineEntity" class="signalline" id="2PX" x1="3280" x2="3300" y1="270" y2="270"/>
<g cb-classname="DynamicText" cb-source="9q-bSc-ajnz" class="signal" id="2Pa" text-anchor="start">
<text cb-classname="GraphicTextEntity" class="signal" fill="black" font-style="normal" font-weight="normal" id="2P0" text-anchor="start" text-decoration="normal" x="3294" y="267"/>
</g>
<g cb-classname="SignalSegment" id="5ma">
<line cb-classname="GraphicLineEntity" class="signalline" id="5m0" stroke="#1e12bf" stroke-dasharray="5,4" x1="3300" x2="4740" y1="270" y2="270"/>
<g cb-classname="SignalConnection" cb-graphic-line="$559$" cb-input-pin="$l89$" id="54j"/>
</g>
</g>
<text baseline-shift="-50%" cb-classname="GraphicTextEntity" class="algorithm" fill="#000000" font-family="MS Shell Dlg" id="3Tj" text-anchor="middle" x="3251" y="266">
AND
</text>
</g>
<g cb-alg-Ul="$283$cb-alg-out$" cb-alg-aCl9="BRG. VIBRATION ABNORMAL LVL 1" cb-alg-rOrW="BRG. VIBRATION ABNORMAL LVL 1" cb-algorithm-id="010" cb-classname="ExternalPointInterface" cb-function-name="OUTPUT" id="44l">
<ellipse cb-classname="GraphicEllipseEntity" class="algorithm" cx="4820" cy="270" id="44Z" rx="50" ry="50"/>
<rect cb-classname="GraphicRectangleEntity" class="algorithm" height="100" id="44M" width="40" x="4870" y="220"/>
<line cb-classname="GraphicLineEntity" class="algorithm" id="44X" x1="4870" x2="4910" y1="270" y2="270"/>
<g cb-classname="ControlPin" cb-pin-name="cL-PZ0-x6" id="44a">
<line cb-classname="GraphicLineEntity" class="signalline" id="440" x1="4740" x2="4770" y1="270" y2="270"/>
<polygon cb-classname="GraphicPolygonEntity" class="signal" id="4Ej" points="4770,270 4759,264 4759,275"/>
<g cb-classname="DynamicText" cb-source="0D-ux6-l41e" class="signal" id="4E6" text-anchor="end">
<text cb-classname="GraphicTextEntity" class="signal" fill="black" font-style="normal" font-weight="normal" id="4E8" text-anchor="end" text-decoration="normal" x="4755" y="267"/>
</g>
</g>
<g cb-classname="PointStatusIndicator" cb-indicator-type="highway" cb-source="32-yR7-Og" id="4EQ" visibility="hidden">
<line cb-classname="GraphicLineEntity" class="algorithmline" id="4El" x1="4770" x2="4820" y1="270" y2="220"/>
<line cb-classname="GraphicLineEntity" class="algorithmline" id="4EZ" x1="4820" x2="4870" y1="220" y2="270"/>
<line cb-classname="GraphicLineEntity" class="algorithmline" id="4EM" x1="4870" x2="4820" y1="270" y2="320"/>
<line cb-classname="GraphicLineEntity" class="algorithmline" id="4EX" x1="4820" x2="4770" y1="320" y2="270"/>
</g>
<g cb-classname="PointStatusIndicator" cb-indicator-type="hardware" cb-source="gi-0ZX-Br" id="4Ea" visibility="hidden">
<line cb-classname="GraphicLineEntity" class="algorithmline" id="4E0" x1="4870" x2="4770" y1="220" y2="220"/>
<line cb-classname="GraphicLineEntity" class="algorithmline" id="4Yj" x1="4770" x2="4770" y1="220" y2="320"/>
<line cb-classname="GraphicLineEntity" class="algorithmline" id="4Y6" x1="4770" x2="4870" y1="320" y2="320"/>
</g>
<g cb-classname="PointStatusIndicator" cb-indicator-type="alarm" cb-source="Br-B5B-fr" id="4Y8" visibility="hidden">
<text cb-classname="GraphicTextEntity" class="algorithm" fill="#000000" font-family="Arial" font-size="20" id="4YQ" x="4880" y="305">
A
</text>
</g>
<g cb-classname="PointStatusIndicator" cb-indicator-type="ingraphic" cb-source="0D-tOu-be" id="4Yl" visibility="hidden">
<text cb-classname="GraphicTextEntity" class="algorithm" fill="#000000" font-family="Arial" font-size="20" id="4YZ" x="4880" y="255">
G
</text>
</g>
<g cb-classname="DynamicText" cb-labeled="false" cb-pin-name="P4" cb-source="32-yR7-Og" class="algorithm" id="4YM" text-anchor="end">
<text baseline-shift="0%" cb-classname="GraphicTextEntity" class="algorithm" fill="black" font-family="arial" font-size="20" font-style="normal" font-weight="normal" id="4YX" text-anchor="end" text-decoration="normal" x="4745" y="245"/>
</g>
<g baseline-shift="-100%" cb-anchor-x="4745" cb-anchor-y="280" cb-classname="PointReferences" cb-max-width="130" cb-originator="false" cb-source="sd-OIv-Ik" class="signal" id="4Ya" text-anchor="end">
<text baseline-shift="-100%" cb-classname="GraphicTextEntity" class="algorithm" id="4Y0" text-anchor="end" x="4745" y="280">
REF: Point not
</text>
<text baseline-shift="-100%" cb-classname="GraphicTextEntity" class="algorithm" id="1mlY" text-anchor="end" x="4745" y="305">
found in
</text>
<text baseline-shift="-100%" cb-classname="GraphicTextEntity" class="algorithm" id="1mlr" text-anchor="end" x="4745" y="330">
database
</text>
<text baseline-shift="-100%" cb-classname="GraphicTextEntity" class="algorithm" id="1mlf" text-anchor="end" x="4745" y="355">
(01B0200G05-P01)
</text>
</g>
<g baseline-shift="-50%" cb-anchor-x="4925" cb-anchor-y="285" cb-classname="PointDescription" cb-content="extended" cb-labeled="false" cb-max-width="240" cb-source="43-oww-Sc" class="algorithm" id="4Pj" text-anchor="start">
<text baseline-shift="-50%" cb-classname="GraphicTextEntity" class="algorithm" id="4P6" text-anchor="start" x="4925" y="273">
DESC: Point not found in
</text>
<text baseline-shift="-50%" cb-classname="GraphicTextEntity" class="algorithm" id="7m0" text-anchor="start" x="4925" y="298">
database (01B0200G05-P01)
</text>
</g>
</g>
<g cb-alg-pRw="01TRIP31" cb-alg-pgzC="NO" cb-algorithm-id="005" cb-classname="ExternalPointInterface" cb-function-name="INPUT" id="1EQ">
<ellipse cb-classname="GraphicEllipseEntity" class="algorithm" cx="560" cy="1410" id="1El" rx="50" ry="50"/>
<rect cb-classname="GraphicRectangleEntity" class="algorithm" height="100" id="1EZ" width="40" x="470" y="1360"/>
<line cb-classname="GraphicLineEntity" class="algorithm" id="1EM" x1="470" x2="510" y1="1410" y2="1410"/>
<g cb-classname="ControlPin" cb-pin-name="57-4SI-fi2" id="1EX">
<line cb-classname="GraphicLineEntity" class="signalline" id="1Ea" x1="610" x2="640" y1="1410" y2="1410"/>
<g cb-classname="DynamicText" cb-source="gi-XIk-ceuw" class="signal" id="1E0" text-anchor="start">
<text cb-classname="GraphicTextEntity" class="signal" fill="black" font-style="normal" font-weight="normal" id="1Yj" text-anchor="start" text-decoration="normal" x="624" y="1407"/>
</g>
<g cb-classname="SignalSegment" id="3Yl">
<line cb-classname="GraphicLineEntity" class="signalline" id="3YZ" stroke="#1e12bf" stroke-dasharray="5,4" x1="640" x2="1840" y1="1410" y2="1410"/>
<g cb-classname="SignalConnection" cb-graphic-line="$385$" cb-input-pin="$jwm$" id="3YM"/>
</g>
</g>
<g cb-classname="PointStatusIndicator" cb-indicator-type="Highway" cb-source="9q-i2G-Izf" id="1Y6" visibility="hidden">
<line cb-classname="GraphicLineEntity" class="algorithmline" id="1Y8" x1="510" x2="560" y1="1410" y2="1360"/>
<line cb-classname="GraphicLineEntity" class="algorithmline" id="1YQ" x1="560" x2="610" y1="1360" y2="1410"/>
<line cb-classname="GraphicLineEntity" class="algorithmline" id="1Yl" x1="610" x2="560" y1="1410" y2="1460"/>
<line cb-classname="GraphicLineEntity" class="algorithmline" id="1YZ" x1="560" x2="510" y1="1460" y2="1410"/>
</g>
<g cb-classname="PointStatusIndicator" cb-indicator-type="hardware" cb-source="RL-0gy-ZbY" id="1YM" visibility="visible">
<line cb-classname="GraphicLineEntity" class="algorithmline" id="1YX" x1="510" x2="610" y1="1360" y2="1360"/>
<line cb-classname="GraphicLineEntity" class="algorithmline" id="1Ya" x1="610" x2="610" y1="1360" y2="1460"/>
<line cb-classname="GraphicLineEntity" class="algorithmline" id="1Y0" x1="610" x2="510" y1="1460" y2="1460"/>
</g>
<g cb-classname="PointStatusIndicator" cb-indicator-type="alarm" cb-source="57-4SI-fi2" id="1Pj" visibility="hidden">
<text cb-classname="GraphicTextEntity" class="algorithm" fill="#000000" font-family="arial" font-size="20" id="1P6" x="480" y="1395">
A
</text>
</g>
<g cb-classname="PointStatusIndicator" cb-indicator-type="ingraphic" cb-source="gi-0ZX-1qV" id="1P8" visibility="visible">
<text cb-classname="GraphicTextEntity" class="algorithm" fill="#000000" font-family="Arial" font-size="20" id="1PQ" x="480" y="1445">
G
</text>
</g>
<g baseline-shift="-50%" cb-anchor-x="460" cb-anchor-y="1424" cb-classname="PointDescription" cb-content="extended" cb-labeled="false" cb-max-width="220" cb-source="9q-i2G-Izf" class="algorithm" id="1Pl" text-anchor="end">
<text baseline-shift="-50%" cb-classname="GraphicTextEntity" class="algorithm" id="1PZ" text-anchor="end" x="460" y="1412">
DESC: Point not found in
</text>
<text baseline-shift="-50%" cb-classname="GraphicTextEntity" class="algorithm" id="7Ej" text-anchor="end" x="460" y="1437">
database (01TRIP31)
</text>
</g>
<g cb-classname="DynamicText" cb-labeled="false" cb-pin-name="Hxk" cb-source="Br-B5B-kfY" class="algorithm" id="1PM" text-anchor="start">
<text baseline-shift="0%" cb-classname="GraphicTextEntity" class="algorithm" fill="black" font-family="arial" font-size="20" font-style="normal" font-weight="normal" id="1PX" text-anchor="start" text-decoration="normal" x="630" y="1380"/>
</g>
<g baseline-shift="-100%" cb-anchor-x="630" cb-anchor-y="1420" cb-classname="PointReferences" cb-max-width="230" cb-originator="true" cb-source="0D-tOu-zCe" class="signal" id="1Pa" text-anchor="start">
<text baseline-shift="-100%" cb-classname="GraphicTextEntity" class="algorithm" id="1P0" text-anchor="start" x="630" y="1420">
REF: Point not found in
</text>
<text baseline-shift="-100%" cb-classname="GraphicTextEntity" class="algorithm" id="1mlt" text-anchor="start" x="630" y="1445">
database (01TRIP31)
</text>
</g>
</g>
<g cb-alg-fxU="$92$cb-alg-out$" cb-alg-fxe="$173$cb-alg-out$" cb-algorithm-id="00d" cb-classname="FastBooleanAlgorithm" cb-function-name="AND" id="34M">
<rect cb-classname="GraphicRectangleEntity" class="algorithm" height="60" id="34X" width="60" x="1860" y="1360"/>
<g cb-classname="ControlPin" cb-pin-name="RL-0gy-zdt" id="34a">
<line cb-classname="GraphicLineEntity" class="signalline" id="340" x1="1840" x2="1860" y1="1370" y2="1370"/>
<polygon cb-classname="GraphicPolygonEntity" class="signal" id="3Ej" points="1860,1370 1849,1364 1849,1375"/>
<g cb-classname="DynamicText" cb-source="sd-0zd-Fi9U" class="signal" id="3E6" text-anchor="end">
<text cb-classname="GraphicTextEntity" class="signal" fill="black" font-style="normal" font-weight="normal" id="3E8" text-anchor="end" text-decoration="normal" x="1845" y="1367"/>
</g>
</g>
<g cb-classname="ControlPin" cb-pin-name="43-oww-ScO" id="3EQ">
<line cb-classname="GraphicLineEntity" class="signalline" id="3El" x1="1840" x2="1860" y1="1410" y2="1410"/>
<polygon cb-classname="GraphicPolygonEntity" class="signal" id="3EZ" points="1860,1410 1849,1404 1849,1415"/>
<g cb-classname="DynamicText" cb-source="9q-bSc-ajnz" class="signal" id="3EM" text-anchor="end">
<text cb-classname="GraphicTextEntity" class="signal" fill="black" font-style="normal" font-weight="normal" id="3EX" text-anchor="end" text-decoration="normal" x="1845" y="1407"/>
</g>
</g>
<line cb-classname="GraphicLineEntity" class="algorithm" id="3Ea" x1="1860" x2="1860" y1="1350" y2="1430"/>
<g cb-classname="ControlPin" cb-pin-name="nb-JUC-bpW" id="3E0">
<line cb-classname="GraphicLineEntity" class="signalline" id="3Yj" x1="1920" x2="1940" y1="1390" y2="1390"/>
<g cb-classname="DynamicText" cb-source="RL-vfr-eo3O" class="signal" id="3Y6" text-anchor="start">
<text cb-classname="GraphicTextEntity" class="signal" fill="black" font-style="normal" font-weight="normal" id="3Y8" text-anchor="start" text-decoration="normal" x="1934" y="1387"/>
</g>
<g cb-classname="SignalSegment" id="4eZ">
<g cb-classname="SignalConnection" cb-graphic-line="$448$" cb-input-pin="$08v$" id="4e0"/>
<line cb-classname="GraphicLineEntity" class="signalline" id="4ea" stroke="#1e12bf" stroke-dasharray="5,4" x1="1940" x2="2220" y1="1390" y2="1390"/>
</g>
</g>
<text baseline-shift="-50%" cb-classname="GraphicTextEntity" class="algorithm" fill="#000000" font-family="MS Shell Dlg" id="3YQ" text-anchor="middle" x="1891" y="1386">
AND
</text>
</g>
<g cb-alg-mLU="01TRIP32" cb-alg-mpxu="NO" cb-algorithm-id="006" cb-classname="ExternalPointInterface" cb-function-name="INPUT" id="2Tj">
<ellipse cb-classname="GraphicEllipseEntity" class="algorithm" cx="560" cy="1710" id="2T6" rx="50" ry="50"/>
<rect cb-classname="GraphicRectangleEntity" class="algorithm" height="100" id="2T8" width="40" x="470" y="1660"/>
<line cb-classname="GraphicLineEntity" class="algorithm" id="2TQ" x1="470" x2="510" y1="1710" y2="1710"/>
<g cb-classname="ControlPin" cb-pin-name="43-oww-Y0K" id="2Tl">
<line cb-classname="GraphicLineEntity" class="signalline" id="2TZ" x1="610" x2="640" y1="1710" y2="1710"/>
<g cb-classname="DynamicText" cb-source="AE-vcA-rGCY" class="signal" id="2TM" text-anchor="start">
<text cb-classname="GraphicTextEntity" class="signal" fill="black" font-style="normal" font-weight="normal" id="2TX" text-anchor="start" text-decoration="normal" x="624" y="1707"/>
</g>
<g cb-classname="SignalSegment" id="49j">
<line cb-classname="GraphicLineEntity" class="signalline" id="496" stroke="#1e12bf" stroke-dasharray="5,4" x1="640" x2="1840" y1="1710" y2="1710"/>
<g cb-classname="SignalConnection" cb-graphic-line="$411$" cb-input-pin="$jqt$" id="498"/>
</g>
</g>
<g cb-classname="PointStatusIndicator" cb-indicator-type="Highway" cb-source="cL-PZ0-fCd" id="2Ta" visibility="hidden">
<line cb-classname="GraphicLineEntity" class="algorithmline" id="2T0" x1="510" x2="560" y1="1710" y2="1660"/>
<line cb-classname="GraphicLineEntity" class="algorithmline" id="29j" x1="560" x2="610" y1="1660" y2="1710"/>
<line cb-classname="GraphicLineEntity" class="algorithmline" id="296" x1="610" x2="560" y1="1710" y2="1760"/>
<line cb-classname="GraphicLineEntity" class="algorithmline" id="298" x1="560" x2="510" y1="1760" y2="1710"/>
</g>
<g cb-classname="PointStatusIndicator" cb-indicator-type="hardware" cb-source="32-yR7-n9N" id="29Q" visibility="visible">
<line cb-classname="GraphicLineEntity" class="algorithmline" id="29l" x1="510" x2="610" y1="1660" y2="1660"/>
<line cb-classname="GraphicLineEntity" class="algorithmline" id="29Z" x1="610" x2="610" y1="1660" y2="1760"/>
<line cb-classname="GraphicLineEntity" class="algorithmline" id="29M" x1="610" x2="510" y1="1760" y2="1760"/>
</g>
<g cb-classname="PointStatusIndicator" cb-indicator-type="alarm" cb-source="43-oww-Y0K" id="29X" visibility="hidden">
<text cb-classname="GraphicTextEntity" class="algorithm" fill="#000000" font-family="arial" font-size="20" id="29a" x="480" y="1695">
A
</text>
</g>
<g cb-classname="PointStatusIndicator" cb-indicator-type="ingraphic" cb-source="AE-J1R-w6e" id="290" visibility="visible">
<text cb-classname="GraphicTextEntity" class="algorithm" fill="#000000" font-family="Arial" font-size="20" id="2xj" x="480" y="1745">
G
</text>
</g>
<g baseline-shift="-50%" cb-anchor-x="460" cb-anchor-y="1724" cb-classname="PointDescription" cb-content="extended" cb-labeled="false" cb-max-width="220" cb-source="cL-PZ0-fCd" class="algorithm" id="2x6" text-anchor="end">
<text baseline-shift="-50%" cb-classname="GraphicTextEntity" class="algorithm" id="2x8" text-anchor="end" x="460" y="1712">
DESC: Point not found in
</text>
<text baseline-shift="-50%" cb-classname="GraphicTextEntity" class="algorithm" id="7E8" text-anchor="end" x="460" y="1737">
database (01TRIP32)
</text>
</g>
<g cb-classname="DynamicText" cb-labeled="false" cb-pin-name="U9J" cb-source="nb-JUC-bpW" class="algorithm" id="2xQ" text-anchor="start">
<text baseline-shift="0%" cb-classname="GraphicTextEntity" class="algorithm" fill="black" font-family="arial" font-size="20" font-style="normal" font-weight="normal" id="2xl" text-anchor="start" text-decoration="normal" x="630" y="1680"/>
</g>
<g baseline-shift="-100%" cb-anchor-x="630" cb-anchor-y="1720" cb-classname="PointReferences" cb-max-width="230" cb-originator="true" cb-source="RL-0gy-ZbY" class="signal" id="2xZ" text-anchor="start">
<text baseline-shift="-100%" cb-classname="GraphicTextEntity" class="algorithm" id="2xM" text-anchor="start" x="630" y="1720">
REF: Point not found in
</text>
<text baseline-shift="-100%" cb-classname="GraphicTextEntity" class="algorithm" id="1mZ4" text-anchor="start" x="630" y="1745">
database (01TRIP32)
</text>
</g>
</g>
<g cb-alg-fxU="$65$cb-alg-out$" cb-alg-fxe="$200$cb-alg-out$" cb-algorithm-id="00e" cb-classname="FastBooleanAlgorithm" cb-function-name="AND" id="3P8">
<rect cb-classname="GraphicRectangleEntity" class="algorithm" height="60" id="3PQ" width="60" x="1860" y="1660"/>
<g cb-classname="ControlPin" cb-pin-name="RL-0gy-zdt" id="3Pl">
<line cb-classname="GraphicLineEntity" class="signalline" id="3PZ" x1="1840" x2="1860" y1="1670" y2="1670"/>
<polygon cb-classname="GraphicPolygonEntity" class="signal" id="3PM" points="1860,1670 1849,1664 1849,1675"/>
<g cb-classname="DynamicText" cb-source="sd-0zd-Fi9U" class="signal" id="3PX" text-anchor="end">
<text cb-classname="GraphicTextEntity" class="signal" fill="black" font-style="normal" font-weight="normal" id="3Pa" text-anchor="end" text-decoration="normal" x="1845" y="1667"/>
</g>
</g>
<g cb-classname="ControlPin" cb-pin-name="43-oww-ScO" id="3P0">
<line cb-classname="GraphicLineEntity" class="signalline" id="4Tj" x1="1840" x2="1860" y1="1710" y2="1710"/>
<polygon cb-classname="GraphicPolygonEntity" class="signal" id="4T6" points="1860,1710 1849,1704 1849,1715"/>
<g cb-classname="DynamicText" cb-source="9q-bSc-ajnz" class="signal" id="4T8" text-anchor="end">
<text cb-classname="GraphicTextEntity" class="signal" fill="black" font-style="normal" font-weight="normal" id="4TQ" text-anchor="end" text-decoration="normal" x="1845" y="1707"/>
</g>
</g>
<line cb-classname="GraphicLineEntity" class="algorithm" id="4Tl" x1="1860" x2="1860" y1="1650" y2="1730"/>
<g cb-classname="ControlPin" cb-pin-name="nb-JUC-bpW" id="4TZ">
<line cb-classname="GraphicLineEntity" class="signalline" id="4TM" x1="1920" x2="1940" y1="1690" y2="1690"/>
<g cb-classname="DynamicText" cb-source="RL-vfr-eo3O" class="signal" id="4TX" text-anchor="start">
<text cb-classname="GraphicTextEntity" class="signal" fill="black" font-style="normal" font-weight="normal" id="4Ta" text-anchor="start" text-decoration="normal" x="1934" y="1687"/>
</g>
<g cb-classname="SignalSegment" id="4mj">
<line cb-classname="GraphicLineEntity" class="signalline" id="4m6" stroke="#1e12bf" stroke-dasharray="5,4" x1="1940" x2="2090" y1="1690" y2="1690"/>
<g cb-classname="SignalSegment" id="4m8">
<line cb-classname="GraphicLineEntity" class="signalline" id="4mQ" stroke="#1e12bf" stroke-dasharray="5,4" x1="2090" x2="2090" y1="1690" y2="1430"/>
<g cb-classname="SignalSegment" id="4ml">
<line cb-classname="GraphicLineEntity" class="signalline" id="4mZ" stroke="#1e12bf" stroke-dasharray="5,4" x1="2090" x2="2220" y1="1430" y2="1430"/>
<g cb-classname="SignalConnection" cb-graphic-line="$455$" cb-input-pin="$lYr$" id="4mM"/>
</g>
</g>
</g>
</g>
<text baseline-shift="-50%" cb-classname="GraphicTextEntity" class="algorithm" fill="#000000" font-family="MS Shell Dlg" id="4T0" text-anchor="middle" x="1891" y="1686">
AND
</text>
</g>
<g cb-alg-ZbY="01B0200G05-P03" cb-alg-zdk="$392$cb-alg-out$" cb-alg-zdt="$366$cb-alg-out$" cb-algorithm-id="00f" cb-classname="FastBooleanAlgorithm" cb-function-name="OR" id="4xX">
<ellipse cb-classname="GraphicEllipseEntity" class="algorithm" cx="2270" cy="1410" id="4xa" rx="30" ry="30"/>
<line cb-classname="GraphicLineEntity" class="algorithm" id="4x0" x1="2240" x2="2240" y1="1370" y2="1450"/>
<text baseline-shift="-50%" cb-classname="GraphicTextEntity" class="algorithm" fill="#000000" font-family="MS Shell Dlg" font-size="18" id="4hj" text-anchor="middle" x="2269" y="1405">
OR
</text>
<g cb-classname="ControlPin" cb-pin-name="nb-JUC-UlM" id="4h6">
<line cb-classname="GraphicLineEntity" class="signalline" id="4h8" x1="2220" x2="2240" y1="1390" y2="1390"/>
<polygon cb-classname="GraphicPolygonEntity" class="signal" id="4hQ" points="2240,1390 2229,1384 2229,1395"/>
<g cb-classname="DynamicText" cb-source="32-pUl-d0c3" class="signal" id="4hl" text-anchor="end">
<text cb-classname="GraphicTextEntity" class="signal" fill="black" font-style="normal" font-weight="normal" id="4hZ" text-anchor="end" text-decoration="normal" x="2225" y="1387"/>
</g>
</g>
<g cb-classname="ControlPin" cb-pin-name="sd-OIv-IkW" id="4hM">
<line cb-classname="GraphicLineEntity" class="signalline" id="4hX" x1="2220" x2="2240" y1="1430" y2="1430"/>
<polygon cb-classname="GraphicPolygonEntity" class="signal" id="4ha" points="2240,1430 2229,1424 2229,1435"/>
<g cb-classname="DynamicText" cb-source="gi-XIk-ceuw" class="signal" id="4h0" text-anchor="end">
<text cb-classname="GraphicTextEntity" class="signal" fill="black" font-style="normal" font-weight="normal" id="4ej" text-anchor="end" text-decoration="normal" x="2225" y="1427"/>
</g>
</g>
<g cb-classname="ControlPin" cb-pin-name="9q-i2G-Izf" id="4e6">
<line cb-classname="GraphicLineEntity" class="signalline" id="4e8" x1="2300" x2="2320" y1="1410" y2="1410"/>
<g cb-classname="DynamicText" cb-source="Br-kzM-6iL8" class="signal" id="4eQ" text-anchor="start">
<text cb-classname="GraphicTextEntity" class="signal" fill="black" font-style="normal" font-weight="normal" id="4el" text-anchor="start" text-decoration="normal" x="2314" y="1407"/>
</g>
<g cb-classname="SignalSegment" id="4mX">
<line cb-classname="GraphicLineEntity" class="signalline" id="4ma" stroke="#1e12bf" stroke-dasharray="5,4" x1="2320" x2="2790" y1="1410" y2="1410"/>
<g cb-classname="SignalSegment" id="4m0">
<line cb-classname="GraphicLineEntity" class="signalline" id="5m8" stroke="#1e12bf" stroke-dasharray="5,4" x1="2790" x2="4740" y1="1410" y2="1410"/>
<g cb-classname="SignalConnection" cb-graphic-line="$552$" cb-input-pin="$wtU$" id="5mQ"/>
<line cb-classname="GraphicLineEntity" class="signalline" id="44j" stroke="#1e12bf" stroke-dasharray="5,4" x1="2790" x2="2790" y1="1410" y2="880"/>
<g cb-classname="SignalSegment" id="446">
<line cb-classname="GraphicLineEntity" class="signalline" id="448" stroke="#1e12bf" stroke-dasharray="5,4" x1="2790" x2="2930" y1="880" y2="880"/>
<g cb-classname="SignalConnection" cb-graphic-line="$462$" cb-input-pin="$8UM$" id="44Q"/>
</g>
<ellipse cb-classname="GraphicEllipseEntity" class="signal" cx="2790" cy="1410" fill="#1e12bf" id="54Q" rx="5" ry="5" stroke="#1e12bf" stroke-dasharray="5,4"/>
</g>
</g>
</g>
</g>
<g cb-alg-kS4="$427$cb-alg-out$" cb-algorithm-id="00c" cb-classname="FastBooleanAlgorithm" cb-function-name="NOT" id="3h0">
<rect cb-classname="GraphicRectangleEntity" class="algorithm" height="40" id="3ej" width="40" x="2950" y="860"/>
<g cb-classname="ControlPin" cb-pin-name="0D-tOu-beR" id="3e6">
<line cb-classname="GraphicLineEntity" class="signalline" id="3e8" x1="2930" x2="2950" y1="880" y2="880"/>
<polygon cb-classname="GraphicPolygonEntity" class="signal" id="3eQ" points="2950,880 2939,874 2939,885"/>
<g cb-classname="DynamicText" cb-source="rG-mbe-gJ48" class="signal" id="3el" text-anchor="end">
<text cb-classname="GraphicTextEntity" class="signal" fill="black" font-style="normal" font-weight="normal" id="3eZ" text-anchor="end" text-decoration="normal" x="2935" y="877"/>
</g>
</g>
<g cb-classname="ControlPin" cb-pin-name="57-4SI-fi2" id="3eM">
<line cb-classname="GraphicLineEntity" class="signalline" id="3eX" x1="2990" x2="3010" y1="880" y2="880"/>
<g cb-classname="DynamicText" cb-source="gi-XIk-ceuw" class="signal" id="3ea" text-anchor="start">
<text cb-classname="GraphicTextEntity" class="signal" fill="black" font-style="normal" font-weight="normal" id="3e0" text-anchor="start" text-decoration="normal" x="3004" y="877"/>
</g>
<g cb-classname="SignalSegment" id="3mM">
<line cb-classname="GraphicLineEntity" class="signalline" id="3mX" stroke="#1e12bf" stroke-dasharray="5,4" x1="3010" x2="3200" y1="880" y2="880"/>
<g cb-classname="SignalConnection" cb-graphic-line="$357$" cb-input-pin="$LWv$" id="3ma"/>
</g>
</g>
<line cb-classname="GraphicLineEntity" class="algorithm" id="3mj" x1="2960" x2="2960" y1="870" y2="890"/>
<line cb-classname="GraphicLineEntity" class="algorithm" id="3m6" x1="2960" x2="2980" y1="870" y2="890"/>
<line cb-classname="GraphicLineEntity" class="algorithm" id="3m8" x1="2980" x2="2980" y1="890" y2="870"/>
</g>
<g cb-alg-mLU="01B0200G05-P02" cb-alg-zMZ="$255$cb-alg-out$" cb-alg-zMh="$339$cb-alg-out$" cb-algorithm-id="00a" cb-classname="FastBooleanAlgorithm" cb-function-name="AND" id="3Tl">
<rect cb-classname="GraphicRectangleEntity" class="algorithm" height="60" id="3TZ" width="60" x="3220" y="830"/>
<g cb-classname="ControlPin" cb-pin-name="sd-OIv-IkV" id="3TM">
<line cb-classname="GraphicLineEntity" class="signalline" id="3TX" x1="3200" x2="3220" y1="840" y2="840"/>
<polygon cb-classname="GraphicPolygonEntity" class="signal" id="3Ta" points="3220,840 3209,834 3209,845"/>
<g cb-classname="DynamicText" cb-source="gi-XIk-ceuw" class="signal" id="3T0" text-anchor="end">
<text cb-classname="GraphicTextEntity" class="signal" fill="black" font-style="normal" font-weight="normal" id="39j" text-anchor="end" text-decoration="normal" x="3205" y="837"/>
</g>
</g>
<g cb-classname="ControlPin" cb-pin-name="9q-i2G-kQe" id="396">
<line cb-classname="GraphicLineEntity" class="signalline" id="398" x1="3200" x2="3220" y1="880" y2="880"/>
<polygon cb-classname="GraphicPolygonEntity" class="signal" id="39Q" points="3220,880 3209,874 3209,885"/>
<g cb-classname="DynamicText" cb-source="nb-CzW-rOrW" class="signal" id="39l" text-anchor="end">
<text cb-classname="GraphicTextEntity" class="signal" fill="black" font-style="normal" font-weight="normal" id="39Z" text-anchor="end" text-decoration="normal" x="3205" y="877"/>
</g>
</g>
<line cb-classname="GraphicLineEntity" class="algorithm" id="39M" x1="3220" x2="3220" y1="820" y2="900"/>
<g cb-classname="ControlPin" cb-pin-name="32-yR7-n9N" id="39X">
<line cb-classname="GraphicLineEntity" class="signalline" id="39a" x1="3280" x2="3300" y1="860" y2="860"/>
<g cb-classname="DynamicText" cb-source="sd-0zd-Fi9U" class="signal" id="390" text-anchor="start">
<text cb-classname="GraphicTextEntity" class="signal" fill="black" font-style="normal" font-weight="normal" id="3xj" text-anchor="start" text-decoration="normal" x="3294" y="857"/>
</g>
<g cb-classname="SignalSegment" id="5mZ">
<line cb-classname="GraphicLineEntity" class="signalline" id="5mM" stroke="#1e12bf" stroke-dasharray="5,4" x1="3300" x2="4740" y1="860" y2="860"/>
<g cb-classname="SignalConnection" cb-graphic-line="$556$" cb-input-pin="$8ir$" id="5mX"/>
</g>
</g>
<text baseline-shift="-50%" cb-classname="GraphicTextEntity" class="algorithm" fill="#000000" font-family="MS Shell Dlg" id="3x6" text-anchor="middle" x="3251" y="856">
AND
</text>
</g>
<g cb-alg-eo3O="BRG. VIBRATION ABNORMAL LVL 2" cb-alg-vWUd="BRG. VIBRATION ABNORMAL LVL 2" cb-alg-zd="$304$cb-alg-out$" cb-algorithm-id="011" cb-classname="ExternalPointInterface" cb-function-name="OUTPUT" id="4P8">
<ellipse cb-classname="GraphicEllipseEntity" class="algorithm" cx="4820" cy="860" id="4PQ" rx="50" ry="50"/>
<rect cb-classname="GraphicRectangleEntity" class="algorithm" height="100" id="4Pl" width="40" x="4870" y="810"/>
<line cb-classname="GraphicLineEntity" class="algorithm" id="4PZ" x1="4870" x2="4910" y1="860" y2="860"/>
<g cb-classname="ControlPin" cb-pin-name="nb-JUC-Ul" id="4PM">
<line cb-classname="GraphicLineEntity" class="signalline" id="4PX" x1="4740" x2="4770" y1="860" y2="860"/>
<polygon cb-classname="GraphicPolygonEntity" class="signal" id="4Pa" points="4770,860 4759,854 4759,865"/>
<g cb-classname="DynamicText" cb-source="32-pUl-d0c3" class="signal" id="4P0" text-anchor="end">
<text cb-classname="GraphicTextEntity" class="signal" fill="black" font-style="normal" font-weight="normal" id="5Tj" text-anchor="end" text-decoration="normal" x="4755" y="857"/>
</g>
</g>
<g cb-classname="PointStatusIndicator" cb-indicator-type="highway" cb-source="sd-OIv-Ik" id="5T6" visibility="hidden">
<line cb-classname="GraphicLineEntity" class="algorithmline" id="5T8" x1="4770" x2="4820" y1="860" y2="810"/>
<line cb-classname="GraphicLineEntity" class="algorithmline" id="5TQ" x1="4820" x2="4870" y1="810" y2="860"/>
<line cb-classname="GraphicLineEntity" class="algorithmline" id="5Tl" x1="4870" x2="4820" y1="860" y2="910"/>
<line cb-classname="GraphicLineEntity" class="algorithmline" id="5TZ" x1="4820" x2="4770" y1="910" y2="860"/>
</g>
<g cb-classname="PointStatusIndicator" cb-indicator-type="hardware" cb-source="9q-i2G-kQ" id="5TM" visibility="hidden">
<line cb-classname="GraphicLineEntity" class="algorithmline" id="5TX" x1="4870" x2="4770" y1="810" y2="810"/>
<line cb-classname="GraphicLineEntity" class="algorithmline" id="5Ta" x1="4770" x2="4770" y1="810" y2="910"/>
<line cb-classname="GraphicLineEntity" class="algorithmline" id="5T0" x1="4770" x2="4870" y1="910" y2="910"/>
</g>
<g cb-classname="PointStatusIndicator" cb-indicator-type="alarm" cb-source="0D-tOu-be" id="59j" visibility="hidden">
<text cb-classname="GraphicTextEntity" class="algorithm" fill="#000000" font-family="Arial" font-size="20" id="596" x="4880" y="895">
A
</text>
</g>
<g cb-classname="PointStatusIndicator" cb-indicator-type="ingraphic" cb-source="32-yR7-Og" id="598" visibility="hidden">
<text cb-classname="GraphicTextEntity" class="algorithm" fill="#000000" font-family="Arial" font-size="20" id="59Q" x="4880" y="845">
G
</text>
</g>
<g cb-classname="DynamicText" cb-labeled="false" cb-pin-name="SS" cb-source="sd-OIv-Ik" class="algorithm" id="59l" text-anchor="end">
<text baseline-shift="0%" cb-classname="GraphicTextEntity" class="algorithm" fill="black" font-family="arial" font-size="20" font-style="normal" font-weight="normal" id="59Z" text-anchor="end" text-decoration="normal" x="4745" y="835"/>
</g>
<g baseline-shift="-100%" cb-anchor-x="4745" cb-anchor-y="870" cb-classname="PointReferences" cb-max-width="130" cb-originator="false" cb-source="43-oww-Sc" class="signal" id="59M" text-anchor="end">
<text baseline-shift="-100%" cb-classname="GraphicTextEntity" class="algorithm" id="59X" text-anchor="end" x="4745" y="870">
REF: Point not
</text>
<text baseline-shift="-100%" cb-classname="GraphicTextEntity" class="algorithm" id="1mZY" text-anchor="end" x="4745" y="895">
found in
</text>
<text baseline-shift="-100%" cb-classname="GraphicTextEntity" class="algorithm" id="1mZr" text-anchor="end" x="4745" y="920">
database
</text>
<text baseline-shift="-100%" cb-classname="GraphicTextEntity" class="algorithm" id="1mZf" text-anchor="end" x="4745" y="945">
(01B0200G05-P02)
</text>
</g>
<g baseline-shift="-50%" cb-anchor-x="4925" cb-anchor-y="875" cb-classname="PointDescription" cb-content="extended" cb-labeled="false" cb-max-width="240" cb-source="AE-J1R-Ba" class="algorithm" id="59a" text-anchor="start">
<text baseline-shift="-50%" cb-classname="GraphicTextEntity" class="algorithm" id="590" text-anchor="start" x="4925" y="863">
DESC: Point not found in
</text>
<text baseline-shift="-50%" cb-classname="GraphicTextEntity" class="algorithm" id="748" text-anchor="start" x="4925" y="888">
database (01B0200G05-P02)
</text>
</g>
</g>
<g cb-alg-dt90="BRG. VIBRATION ABNORMAL LVL 3" cb-alg-iQ="$427$cb-alg-out$" cb-alg-nRFK="BRG. VIBRATION ABNORMAL LVL 3" cb-algorithm-id="012" cb-classname="ExternalPointInterface" cb-function-name="OUTPUT" id="5xj">
<ellipse cb-classname="GraphicEllipseEntity" class="algorithm" cx="4820" cy="1410" id="5x6" rx="50" ry="50"/>
<rect cb-classname="GraphicRectangleEntity" class="algorithm" height="100" id="5x8" width="40" x="4870" y="1360"/>
<line cb-classname="GraphicLineEntity" class="algorithm" id="5xQ" x1="4870" x2="4910" y1="1410" y2="1410"/>
<g cb-classname="ControlPin" cb-pin-name="RL-0gy-zd" id="5xl">
<line cb-classname="GraphicLineEntity" class="signalline" id="5xZ" x1="4740" x2="4770" y1="1410" y2="1410"/>
<polygon cb-classname="GraphicPolygonEntity" class="signal" id="5xM" points="4770,1410 4759,1404 4759,1415"/>
<g cb-classname="DynamicText" cb-source="sd-0zd-Fi9U" class="signal" id="5xX" text-anchor="end">
<text cb-classname="GraphicTextEntity" class="signal" fill="black" font-style="normal" font-weight="normal" id="5xa" text-anchor="end" text-decoration="normal" x="4755" y="1407"/>
</g>
</g>
<g cb-classname="PointStatusIndicator" cb-indicator-type="highway" cb-source="43-oww-Sc" id="5x0" visibility="hidden">
<line cb-classname="GraphicLineEntity" class="algorithmline" id="5hj" x1="4770" x2="4820" y1="1410" y2="1360"/>
<line cb-classname="GraphicLineEntity" class="algorithmline" id="5h6" x1="4820" x2="4870" y1="1360" y2="1410"/>
<line cb-classname="GraphicLineEntity" class="algorithmline" id="5h8" x1="4870" x2="4820" y1="1410" y2="1460"/>
<line cb-classname="GraphicLineEntity" class="algorithmline" id="5hQ" x1="4820" x2="4770" y1="1460" y2="1410"/>
</g>
<g cb-classname="PointStatusIndicator" cb-indicator-type="hardware" cb-source="Br-B5B-fr" id="5hl" visibility="hidden">
<line cb-classname="GraphicLineEntity" class="algorithmline" id="5hZ" x1="4870" x2="4770" y1="1360" y2="1360"/>
<line cb-classname="GraphicLineEntity" class="algorithmline" id="5hM" x1="4770" x2="4770" y1="1360" y2="1460"/>
<line cb-classname="GraphicLineEntity" class="algorithmline" id="5hX" x1="4770" x2="4870" y1="1460" y2="1460"/>
</g>
<g cb-classname="PointStatusIndicator" cb-indicator-type="alarm" cb-source="32-yR7-Og" id="5ha" visibility="visible">
<text cb-classname="GraphicTextEntity" class="algorithm" fill="#000000" font-family="Arial" font-size="20" id="5h0" x="4880" y="1445">
A
</text>
</g>
<g cb-classname="PointStatusIndicator" cb-indicator-type="ingraphic" cb-source="sd-OIv-Ik" id="5ej" visibility="visible">
<text cb-classname="GraphicTextEntity" class="algorithm" fill="#000000" font-family="Arial" font-size="20" id="5e6" x="4880" y="1395">
G
</text>
</g>
<g cb-classname="DynamicText" cb-labeled="false" cb-pin-name="9H" cb-source="43-oww-Sc" class="algorithm" id="5e8" text-anchor="end">
<text baseline-shift="0%" cb-classname="GraphicTextEntity" class="algorithm" fill="black" font-family="arial" font-size="20" font-style="normal" font-weight="normal" id="5eQ" text-anchor="end" text-decoration="normal" x="4745" y="1385"/>
</g>
<g baseline-shift="-100%" cb-anchor-x="4745" cb-anchor-y="1420" cb-classname="PointReferences" cb-max-width="130" cb-originator="false" cb-source="AE-J1R-Ba" class="signal" id="5el" text-anchor="end">
<text baseline-shift="-100%" cb-classname="GraphicTextEntity" class="algorithm" id="5eZ" text-anchor="end" x="4745" y="1420">
REF: Point not
</text>
<text baseline-shift="-100%" cb-classname="GraphicTextEntity" class="algorithm" id="1mZG" text-anchor="end" x="4745" y="1445">
found in
</text>
<text baseline-shift="-100%" cb-classname="GraphicTextEntity" class="algorithm" id="1mZt" text-anchor="end" x="4745" y="1470">
database
</text>
<text baseline-shift="-100%" cb-classname="GraphicTextEntity" class="algorithm" id="1mZe" text-anchor="end" x="4745" y="1495">
(01B0200G05-P03)
</text>
</g>
<g baseline-shift="-50%" cb-anchor-x="4925" cb-anchor-y="1425" cb-classname="PointDescription" cb-content="extended" cb-labeled="false" cb-max-width="240" cb-source="cL-PZ0-x6" class="algorithm" id="5eM" text-anchor="start">
<text baseline-shift="-50%" cb-classname="GraphicTextEntity" class="algorithm" id="5eX" text-anchor="start" x="4925" y="1413">
DESC: Point not found in
</text>
<text baseline-shift="-50%" cb-classname="GraphicTextEntity" class="algorithm" id="74Q" text-anchor="start" x="4925" y="1438">
database (01B0200G05-P03)
</text>
</g>
</g>
</g>
<g cb-classname="IncludeDocument" cb-modify-time="09/25/2018 01:40:30" cb-objectname="Frame" id="5">
<text cb-classname="GraphicTextEntity" class="frame" font-size="50" id="148Q" x="3660" y="3146">
Project Title &lt;Edit in FRAME.SVG&gt;
</text>
<g baseline-shift="-50%" cb-classname="DynamicText" cb-source="AE-AqYz-kr" class="frame" id="148Y">
<text cb-classname="GraphicTextEntity" class="frame" fill="black" font-family="arial" font-size="25" font-style="normal" font-weight="normal" id="148r" text-decoration="normal" x="4715" y="3325">
13
</text>
</g>
<g baseline-shift="-50%" cb-classname="DynamicText" cb-source="cL-6Gmu-fa" class="frame" id="148f" text-anchor="middle">
<text cb-classname="GraphicTextEntity" class="frame" fill="black" font-family="arial" font-size="48" font-style="normal" font-weight="normal" id="1488" text-anchor="middle" text-decoration="normal" x="4900" y="3320">
13
</text>
</g>
<g baseline-shift="-50%" cb-classname="DynamicText" cb-source="nb-ZtwK-bv" class="frame" id="148G" text-anchor="middle">
<text cb-classname="GraphicTextEntity" class="frame" fill="black" font-family="arial" font-size="48" font-style="normal" font-weight="normal" id="148t" text-anchor="middle" text-decoration="normal" x="5067" y="3324">
5
</text>
</g>
<g cb-classname="DynamicText" cb-source="RL-w8pCW-YIZ2U" class="frame" id="148e">
<text cb-classname="GraphicTextEntity" class="frame" fill="black" font-family="arial" font-size="48" font-style="normal" font-weight="normal" id="14Qz" text-decoration="normal" x="3660" y="3224">
BFPT MONITOR PART VIBRATION 03B0200G05
</text>
</g>
<g baseline-shift="-50%" cb-classname="DynamicText" cb-source="rG-6y8WY-kiNDh2" class="frame" id="14Q4" text-anchor="middle">
<text cb-classname="GraphicTextEntity" class="frame" fill="black" font-family="arial" font-size="48" font-style="normal" font-weight="normal" id="14QQ" text-anchor="middle" text-decoration="normal" x="5270" y="3324">
406
</text>
</g>
<g baseline-shift="0%" cb-classname="DynamicText" cb-source="57-xWOINS1r" class="frame" id="14QY" text-anchor="middle">
<text cb-classname="GraphicTextEntity" class="frame" fill="black" font-family="arial" font-size="36" font-style="normal" font-weight="normal" id="14Qr" text-anchor="middle" text-decoration="normal" x="5270" y="3150">
A
</text>
</g>
<g baseline-shift="0%" cb-classname="DynamicText" cb-source="gi-mOLSfBIQ-PBRW" class="frame" id="14Qf" text-anchor="middle">
<text cb-classname="GraphicTextEntity" class="frame" fill="black" font-family="arial" font-size="20" font-style="normal" font-weight="normal" id="14Q8" text-anchor="middle" text-decoration="normal" x="5270" y="3230">
12/28/2010
</text>
</g>
<g baseline-shift="-50%" cb-classname="DynamicText" cb-source="9q-3AGBawYh" class="frame" id="14QG" text-anchor="end">
<text cb-classname="GraphicTextEntity" class="frame" fill="black" font-family="arial" font-size="26" font-style="normal" font-weight="normal" id="14Qt" text-anchor="end" text-decoration="normal" x="4500" y="3420">
Heczko
</text>
</g>
<g baseline-shift="-50%" cb-classname="DynamicText" cb-source="Br-GvqxAeCx" class="frame" id="14Qe" text-anchor="end">
<text cb-classname="GraphicTextEntity" class="frame" fill="black" font-family="arial" font-size="26" font-style="normal" font-weight="normal" id="14lz" text-anchor="end" text-decoration="normal" x="5353" y="3420">
Nemec
</text>
</g>
<g cb-classname="GraphicShape" cb-tag="BORDER" id="14l4">
<line cb-classname="GraphicLineEntity" class="frameline" id="14lQ" x1="40" x2="40" y1="40" y2="3460"/>
<line cb-classname="GraphicLineEntity" class="frameline" id="14lY" x1="40" x2="5380" y1="3460" y2="3460"/>
<line cb-classname="GraphicLineEntity" class="frameline" id="14lr" x1="5380" x2="5380" y1="3460" y2="40"/>
<line cb-classname="GraphicLineEntity" class="frameline" id="14lf" x1="5380" x2="40" y1="40" y2="40"/>
<line cb-classname="GraphicLineEntity" class="frame" id="14l8" x1="5430" x2="5440" y1="3510" y2="3510"/>
</g>
<g cb-classname="GraphicShape" cb-tag="TITLE BOX" id="14lG">
<line cb-classname="GraphicLineEntity" class="frameline" id="14lt" x1="2340" x2="2340" y1="3080" y2="3460"/>
<line cb-classname="GraphicLineEntity" class="frameline" id="14le" x1="2340" x2="5380" y1="3080" y2="3080"/>
<line cb-classname="GraphicLineEntity" class="frameline" id="14Zz" x1="3650" x2="3650" y1="3460" y2="3080"/>
<line cb-classname="GraphicLineEntity" class="frameline" id="14Z4" x1="3650" x2="5380" y1="3240" y2="3240"/>
<line cb-classname="GraphicLineEntity" class="frameline" id="14ZQ" x1="3650" x2="5380" y1="3390" y2="3390"/>
<line cb-classname="GraphicLineEntity" class="frameline" id="14ZY" x1="3650" x2="5380" y1="3160" y2="3160"/>
<line cb-classname="GraphicLineEntity" class="frameline" id="14Zr" x1="3650" x2="4520" y1="3320" y2="3320"/>
<line cb-classname="GraphicLineEntity" class="frameline" id="14Zf" x1="4520" x2="5380" y1="3290" y2="3290"/>
<line cb-classname="GraphicLineEntity" class="frameline" id="14Z8" x1="4520" x2="5380" y1="3240" y2="3240"/>
<line cb-classname="GraphicLineEntity" class="frameline" id="14ZG" x1="4520" x2="4520" y1="3240" y2="3460"/>
<line cb-classname="GraphicLineEntity" class="frameline" id="14Zt" x1="4810" x2="4810" y1="3240" y2="3390"/>
<line cb-classname="GraphicLineEntity" class="frameline" id="14Ze" x1="4990" x2="4990" y1="3240" y2="3390"/>
<line cb-classname="GraphicLineEntity" class="frameline" id="14Mz" x1="5150" x2="5150" y1="3080" y2="3390"/>
</g>
<g cb-classname="GraphicShape" cb-tag="TEXT LABELS" id="14M4">
<text baseline-shift="-50%" cb-classname="GraphicTextEntity" class="frame" font-size="25" id="14MQ" text-anchor="middle" x="4890" y="3252">
Drop
</text>
<text baseline-shift="-50%" cb-classname="GraphicTextEntity" class="frame" font-size="25" id="14MY" text-anchor="middle" x="5075" y="3252">
Task
</text>
<text baseline-shift="-50%" cb-classname="GraphicTextEntity" class="frame" font-size="25" id="14Mr" text-anchor="middle" x="5265" y="3252">
Sheet
</text>
<text cb-classname="GraphicTextEntity" class="frame" font-size="25" id="14Mf" x="5152" y="3107">
Rev.
</text>
<text cb-classname="GraphicTextEntity" class="frame" font-size="25" id="14M8" x="3653" y="3418">
Engineer
</text>
<text cb-classname="GraphicTextEntity" class="frame" font-size="25" id="14MG" x="4528" y="3419">
Approved
</text>
<text cb-classname="GraphicTextEntity" class="frame" font-size="25" id="14Mt" x="5152" y="3187">
Date
</text>
<text baseline-shift="-50%" cb-classname="GraphicTextEntity" class="frame" font-size="25" id="14Me" text-anchor="middle" x="4660" y="3252">
Drawing Number
</text>
<text baseline-shift="-50%" cb-classname="GraphicTextEntity" class="frame" font-size="25" id="14Xz" text-anchor="middle" x="4680" y="3325">
CTL
</text>
</g>
<text baseline-shift="-50%" cb-classname="GraphicTextEntity" class="frame" font-size="48" id="14X4" text-anchor="middle" x="3000" y="3100">
EMERSON PROCESS MANAGEMENT
</text>
<g baseline-shift="-100%" cb-anchor-x="2360" cb-anchor-y="3140" cb-classname="GroupText" cb-max-width="1260" fill="black" id="14XQ">
<text baseline-shift="-100%" cb-classname="GraphicTextEntity" class="frame" fill="black" font-family="arial" font-size="22" font-weight="normal" id="14XY" text-anchor="start" text-decoration="normal" x="2360" y="3140">
THIS DOCUMENT CONTAINS INFORMATION PROPRIETARY TO EMERSON PROCESS
</text>
<text baseline-shift="-100%" cb-classname="GraphicTextEntity" class="frame" fill="black" font-family="arial" font-size="22" font-weight="normal" id="14Xr" text-anchor="start" text-decoration="normal" x="2360" y="3176">
MANAGEMENT POWER &amp; WATER SOLUTIONS, INC. IT IS SUBMITTED IN CONFIDENCE AND
</text>
<text baseline-shift="-100%" cb-classname="GraphicTextEntity" class="frame" fill="black" font-family="arial" font-size="22" font-weight="normal" id="14Xf" text-anchor="start" text-decoration="normal" x="2360" y="3212">
TRUST, IS TO BE USED BY YOU SOLELY FOR THE PURPOSES FOR WHICH IT IS
</text>
<text baseline-shift="-100%" cb-classname="GraphicTextEntity" class="frame" fill="black" font-family="arial" font-size="22" font-weight="normal" id="14X8" text-anchor="start" text-decoration="normal" x="2360" y="3248">
FURNISHED AND IS TO BE RETURNED UPON REQUEST. THIS DOCUMENT AND ANY
</text>
<text baseline-shift="-100%" cb-classname="GraphicTextEntity" class="frame" fill="black" font-family="arial" font-size="22" font-weight="normal" id="14XG" text-anchor="start" text-decoration="normal" x="2360" y="3284">
OTHER INFORMATION PROVIDED TO YOU IS NOT TO BE REPRODUCED, TRANSMITTED,
</text>
<text baseline-shift="-100%" cb-classname="GraphicTextEntity" class="frame" fill="black" font-family="arial" font-size="22" font-weight="normal" id="14Xt" text-anchor="start" text-decoration="normal" x="2360" y="3320">
DISCLOSED, OR USED OTHERWISE IN WHOLE OR IN PART WITHOUT THE PRIOR
</text>
<text baseline-shift="-100%" cb-classname="GraphicTextEntity" class="frame" fill="black" font-family="arial" font-size="22" font-weight="normal" id="14Xe" text-anchor="start" text-decoration="normal" x="2360" y="3356">
WRITTEN AUTHORIZATION OF EMERSON PROCESS MANAGEMENT POWER &amp; WATER
</text>
<text baseline-shift="-100%" cb-classname="GraphicTextEntity" class="frame" fill="black" font-family="arial" font-size="22" font-weight="normal" id="14az" text-anchor="start" text-decoration="normal" x="2360" y="3392">
SOLUTIONS,INC.
</text>
</g>
</g>
</svg>