<?xml version="1.0" ?><svg cb-auto-time="03/18/2008 11:40:49" cb-classname="ControlFunction" cb-create-time="03/12/2008" cb-drop-id="14" cb-engineer="Heczko" cb-filename="Z:\OVATION\NET0\UNIT0\CONTROLFUNCTIONS\0213.svg" cb-function-id="0213" cb-key="433215255112" cb-modified-timestamp="1489319186" cb-modify-id="00000001" cb-ortho-mode="enabled" cb-path="Z:/OVATION/NET0/UNIT0/CONTROLFUNCTIONS" cb-reviewer="Nemec" cb-revision="A" cb-revision-time="12/28/2010" cb-sheet-number="170" cb-sheet-title="T06G01-FG HP HTR EXTRACTION pt.1" cb-snap-grid="10" cb-task-id="2" height="3707" id="1" width="5450" xmlns="http://www.w3.org/2000/svg">
<style cb-classname="EntityStyle" id="2" type="text/css">
	.algorithm { fill: white; stroke: black; stroke-linecap: round; stroke-width: 2 }
	.algorithm-function { fill: none; stroke: black; stroke-linecap: round; stroke-width: 2 }
	.algorithm-functionline { fill: none; stroke: black; stroke-linecap: round; stroke-width: 2 }
	.algorithm-name { fill: none; stroke: black; stroke-linecap: round; stroke-width: 2 }
	.algorithm-nameline { fill: none; stroke: black; stroke-linecap: round; stroke-width: 2 }
	.algorithm-sequence { fill: none; stroke: black; stroke-linecap: round; stroke-width: 2 }
	.algorithm-sequenceline { fill: none; stroke: black; stroke-linecap: round; stroke-width: 2 }
	.algorithmline { fill: none; stroke: black; stroke-linecap: round; stroke-width: 2 }
	.annotation { fill: none; stroke: black; stroke-linecap: round; stroke-width: 2 }
	.annotationline { fill: none; stroke: black; stroke-linecap: round; stroke-width: 2 }
	.frame { fill: none; stroke: black; stroke-linecap: round; stroke-width: 2 }
	.frameline { fill: none; stroke: black; stroke-linecap: round; stroke-width: 2 }
	.signal { fill: black; stroke: black; stroke-linecap: round; stroke-width: 2 }
	.signalline { fill: none; stroke: black; stroke-linecap: round; stroke-width: 2 }
	text.algorithm { fill: black; font-family: MS Shell Dlg 2; font-size: 14; stroke: none }
	text.algorithm-function { fill: black; font-family: MS Shell Dlg 2; font-size: 16; stroke: none }
	text.algorithm-name { fill: black; font-family: MS Shell Dlg 2; font-size: 16; stroke: none }
	text.algorithm-sequence { fill: black; font-family: MS Shell Dlg 2; font-size: 16; stroke: none }
	text.annotation { fill: black; font-family: MS Shell Dlg 2; font-size: 16; stroke: none }
	text.frame { fill: black; font-family: MS Shell Dlg 2; font-size: 16; stroke: none }
	text.signal { fill: black; font-family: MS Shell Dlg 2; font-size: 12; stroke: none }
</style>
<g cb-classname="NamedObject" cb-objectname="Comments" id="3"/>
<g cb-classname="AlgorithmContainer" cb-objectname="Algorithms" id="4">
<g cb-alg-AjP="01T06KB" cb-alg-gJa9="2" cb-alg-iXL9="128" cb-algorithm-id="001" cb-classname="ControlAlgorithm" cb-function-name="KEYBOARD" cb-modify-id="00000001" id="7R">
<rect cb-classname="GraphicRectangleEntity" class="algorithm" height="110" id="7H" width="160" x="1180" y="370"/>
<text baseline-shift="-50%" cb-classname="GraphicTextEntity" class="algorithm" fill="#000000" font-family="MS Shell Dlg" font-size="16" id="7x" text-anchor="middle" x="1260" y="420">
KEYBOARD
</text>
<g cb-classname="ControlPin" cb-pin-name="Cq-jNj-f0a" id="7b">
<line cb-classname="GraphicLineEntity" class="signalline" id="7g" x1="1340" x2="1360" y1="380" y2="380"/>
<g cb-classname="DynamicText" cb-source="Jl-ejy-CV0T" class="signal" id="7o" text-anchor="start">
<text cb-classname="GraphicTextEntity" class="signal" fill="black" font-style="normal" font-weight="normal" id="7y" text-anchor="start" text-decoration="normal" x="1354" y="377"/>
</g>
<g cb-classname="SignalSegment" id="7G">
<line cb-classname="GraphicLineEntity" class="signalline" id="8K" stroke="#1e12bf" stroke-dasharray="5,4" x1="1360" x2="1570" y1="380" y2="380"/>
<g cb-classname="SignalSegment" id="8Q">
<line cb-classname="GraphicLineEntity" class="signalline" id="8R" stroke="#1e12bf" stroke-dasharray="5,4" x1="1570" x2="1570" y1="380" y2="630"/>
<g cb-classname="SignalSegment" id="8H">
<line cb-classname="GraphicLineEntity" class="signalline" id="8x" stroke="#1e12bf" stroke-dasharray="5,4" x1="1570" x2="1830" y1="630" y2="630"/>
<g cb-classname="SignalConnection" cb-graphic-line="$84$" cb-input-pin="$kmZ$" id="8b"/>
</g>
</g>
</g>
</g>
<g cb-classname="ControlPin" cb-pin-name="FK-jdT-euT" id="8g">
<line cb-classname="GraphicLineEntity" class="signalline" id="8o" x1="1340" x2="1360" y1="410" y2="410"/>
<g cb-classname="DynamicText" cb-source="Cq-OKZ-yeYa" class="signal" id="8y" text-anchor="start">
<text cb-classname="GraphicTextEntity" class="signal" fill="black" font-style="normal" font-weight="normal" id="8G" text-anchor="start" text-decoration="normal" x="1354" y="407"/>
</g>
<g cb-classname="SignalSegment" id="9K">
<line cb-classname="GraphicLineEntity" class="signalline" id="9Q" stroke="#1e12bf" stroke-dasharray="5,4" x1="1360" x2="1540" y1="410" y2="410"/>
<g cb-classname="SignalSegment" id="9R">
<line cb-classname="GraphicLineEntity" class="signalline" id="9H" stroke="#1e12bf" stroke-dasharray="5,4" x1="1540" x2="1540" y1="410" y2="670"/>
<g cb-classname="SignalSegment" id="9x">
<line cb-classname="GraphicLineEntity" class="signalline" id="9b" stroke="#1e12bf" stroke-dasharray="5,4" x1="1540" x2="1830" y1="670" y2="670"/>
<g cb-classname="SignalConnection" cb-graphic-line="$95$" cb-input-pin="$Gjp$" id="9g"/>
</g>
</g>
</g>
</g>
<g cb-classname="ControlPin" cb-pin-name="rX-Lmp-LiRh" id="9o">
<line cb-classname="GraphicLineEntity" class="signalline" id="9y" x1="1340" x2="1360" y1="440" y2="440"/>
<g cb-classname="DynamicText" cb-source="FK-3fv-Z1pL" class="signal" id="9G" text-anchor="start">
<text cb-classname="GraphicTextEntity" class="signal" fill="black" font-style="normal" font-weight="normal" id="1Kd" text-anchor="start" text-decoration="normal" x="1354" y="437"/>
</g>
<g cb-classname="SignalSegment" id="1K7">
<line cb-classname="GraphicLineEntity" class="signalline" id="1Kw" stroke="#1e12bf" stroke-dasharray="5,4" x1="1360" x2="1510" y1="440" y2="440"/>
<g cb-classname="SignalSegment" id="1KP">
<line cb-classname="GraphicLineEntity" class="signalline" id="1KI" stroke="#1e12bf" stroke-dasharray="5,4" x1="1510" x2="1510" y1="440" y2="1030"/>
<g cb-classname="SignalSegment" id="1Ke">
<line cb-classname="GraphicLineEntity" class="signalline" id="1KL" stroke="#1e12bf" stroke-dasharray="5,4" x1="1510" x2="1870" y1="1030" y2="1030"/>
<g cb-classname="SignalConnection" cb-graphic-line="$106$" cb-input-pin="$Jmi$" id="1KA"/>
</g>
</g>
</g>
</g>
<g cb-classname="ControlPin" cb-pin-name="Xw-AjP-TdLx" id="1Kx">
<line cb-classname="GraphicLineEntity" class="signalline" id="1KZ" x1="1340" x2="1360" y1="470" y2="470"/>
<g cb-classname="DynamicText" cb-source="rX-vLD-vQow" class="signal" id="1Qd" text-anchor="start">
<text cb-classname="GraphicTextEntity" class="signal" fill="black" font-style="normal" font-weight="normal" id="1Q7" text-anchor="start" text-decoration="normal" x="1354" y="467"/>
</g>
<g cb-classname="SignalSegment" id="1Qw">
<line cb-classname="GraphicLineEntity" class="signalline" id="1QP" stroke="#1e12bf" stroke-dasharray="5,4" x1="1360" x2="1480" y1="470" y2="470"/>
<g cb-classname="SignalSegment" id="1QI">
<line cb-classname="GraphicLineEntity" class="signalline" id="1Qe" stroke="#1e12bf" stroke-dasharray="5,4" x1="1480" x2="1480" y1="470" y2="1680"/>
<g cb-classname="SignalSegment" id="1QL">
<line cb-classname="GraphicLineEntity" class="signalline" id="1QA" stroke="#1e12bf" stroke-dasharray="5,4" x1="1480" x2="1870" y1="1680" y2="1680"/>
<g cb-classname="SignalConnection" cb-graphic-line="$117$" cb-input-pin="$wvm$" id="1Qx"/>
</g>
</g>
</g>
</g>
<g cb-classname="DynamicText" cb-labeled="false" cb-source="AF-tzu-1VX" class="algorithm" id="4Re" text-anchor="start">
<text cb-classname="GraphicTextEntity" class="algorithm" fill="black" font-style="normal" font-weight="normal" id="4RL" text-anchor="start" text-decoration="normal" x="1210" y="360"/>
</g>
</g>
<g cb-alg-CVG="$72$cb-alg-pk1$" cb-alg-cfG="01T06G01-LLK" cb-alg-fKAu="RESET" cb-alg-ueja="$72$cb-alg-pk2$" cb-algorithm-id="002" cb-classname="FastBooleanAlgorithm" cb-function-name="FLIPFLOP" cb-modify-id="00000001" id="1QZ">
<rect cb-classname="GraphicRectangleEntity" class="algorithm" height="100" id="1Rd" width="140" x="1850" y="600"/>
<g cb-classname="ControlPin" cb-pin-name="Xw-AjP-wS0" id="1R7">
<line cb-classname="GraphicLineEntity" class="signalline" id="1Rw" x1="1830" x2="1850" y1="630" y2="630"/>
<polygon cb-classname="GraphicPolygonEntity" class="signal" id="1RP" points="1850,630 1839,624 1839,635"/>
<g cb-classname="DynamicText" cb-source="qH-rLM-GkqY" class="signal" id="1RI" text-anchor="end">
<text cb-classname="GraphicTextEntity" class="signal" fill="black" font-style="normal" font-weight="normal" id="1Re" text-anchor="end" text-decoration="normal" x="1835" y="627"/>
</g>
</g>
<g cb-classname="ControlPin" cb-pin-name="AF-tzu-YdLd" id="1RL">
<line cb-classname="GraphicLineEntity" class="signalline" id="1RA" x1="1830" x2="1850" y1="670" y2="670"/>
<polygon cb-classname="GraphicPolygonEntity" class="signal" id="1Rx" points="1850,670 1839,664 1839,675"/>
<g cb-classname="DynamicText" cb-source="Jl-ejy-CV0T" class="signal" id="1RZ" text-anchor="end">
<text cb-classname="GraphicTextEntity" class="signal" fill="black" font-style="normal" font-weight="normal" id="1Hd" text-anchor="end" text-decoration="normal" x="1835" y="667"/>
</g>
</g>
<g cb-classname="ControlPin" cb-pin-name="Fv-d6D-doG" id="1H7">
<line cb-classname="GraphicLineEntity" class="signalline" id="1Hw" x1="1990" x2="2010" y1="630" y2="630"/>
<g cb-classname="DynamicText" cb-source="0t-VDE-2jbK" class="signal" id="1HP" text-anchor="start">
<text cb-classname="GraphicTextEntity" class="signal" fill="black" font-style="normal" font-weight="normal" id="1HI" text-anchor="start" text-decoration="normal" x="2004" y="627"/>
</g>
<g cb-classname="SignalSegment" id="1He">
<g cb-classname="SignalSegment" id="1KPi">
<line cb-classname="GraphicLineEntity" class="signalline" id="9b7" stroke="#1e12bf" stroke-dasharray="5,4" x1="3290" x2="4500" y1="630" y2="630"/>
<g cb-classname="SignalConnection" cb-graphic-line="$951$" cb-input-pin="$lhi$" id="9bw"/>
<g cb-classname="SignalConnection" cb-graphic-line="$1033$" cb-input-pin="$kOx7$" id="1KPm"/>
<line cb-classname="GraphicLineEntity" class="signalline" id="1KPP" stroke="#1e12bf" stroke-dasharray="5,4" x1="3290" x2="3290" y1="630" y2="820"/>
<ellipse cb-classname="GraphicEllipseEntity" class="signal" cx="3290" cy="630" fill="#1e12bf" id="1KPW" rx="5" ry="5" stroke="#1e12bf" stroke-dasharray="5,4"/>
</g>
<line cb-classname="GraphicLineEntity" class="signalline" id="1KwD" stroke="#1e12bf" stroke-dasharray="5,4" x1="2010" x2="3290" y1="630" y2="630"/>
</g>
</g>
<text baseline-shift="-50%" cb-classname="GraphicTextEntity" class="algorithm" fill="#000000" font-family="MS Shell Dlg" font-size="18" id="1xA" text-anchor="middle" x="1870" y="620">
S
</text>
<text baseline-shift="-50%" cb-classname="GraphicTextEntity" class="algorithm" fill="#000000" font-family="MS Shell Dlg" font-size="18" id="1xx" text-anchor="middle" x="1870" y="660">
R
</text>
<text baseline-shift="-50%" cb-classname="GraphicTextEntity" class="algorithm" fill="#000000" font-family="MS Shell Dlg" font-size="18" id="1xZ" text-anchor="middle" x="1970" y="620">
1
</text>
<text baseline-shift="-50%" cb-classname="GraphicTextEntity" class="algorithm" fill="#000000" font-family="MS Shell Dlg" font-size="18" id="1bd" text-anchor="middle" x="1970" y="660">
0
</text>
</g>
<g cb-alg-LM="$119$cb-alg-out$" cb-algorithm-id="00e" cb-classname="ExternalPointInterface" cb-function-name="OUTPUT" id="9R7">
<ellipse cb-classname="GraphicEllipseEntity" class="algorithm" cx="4580" cy="630" id="9Rw" rx="50" ry="50"/>
<rect cb-classname="GraphicRectangleEntity" class="algorithm" height="100" id="9RP" width="40" x="4630" y="580"/>
<line cb-classname="GraphicLineEntity" class="algorithm" id="9RI" x1="4630" x2="4670" y1="630" y2="630"/>
<g cb-classname="ControlPin" cb-pin-name="rF-Qhw-H2" id="9Re">
<line cb-classname="GraphicLineEntity" class="signalline" id="9RL" x1="4500" x2="4530" y1="630" y2="630"/>
<polygon cb-classname="GraphicPolygonEntity" class="signal" id="9RA" points="4530,630 4519,624 4519,635"/>
<g cb-classname="DynamicText" cb-source="x3-IH2-MjUR" class="signal" id="9Rx" text-anchor="end">
<text cb-classname="GraphicTextEntity" class="signal" fill="black" font-style="normal" font-weight="normal" id="9RZ" text-anchor="end" text-decoration="normal" x="4515" y="627"/>
</g>
</g>
<g cb-classname="PointStatusIndicator" cb-indicator-type="highway" cb-source="qH-le8-KZ" id="9Hd" visibility="hidden">
<line cb-classname="GraphicLineEntity" class="algorithmline" id="9H7" x1="4530" x2="4580" y1="630" y2="580"/>
<line cb-classname="GraphicLineEntity" class="algorithmline" id="9Hw" x1="4580" x2="4630" y1="580" y2="630"/>
<line cb-classname="GraphicLineEntity" class="algorithmline" id="9HP" x1="4630" x2="4580" y1="630" y2="680"/>
<line cb-classname="GraphicLineEntity" class="algorithmline" id="9HI" x1="4580" x2="4530" y1="680" y2="630"/>
</g>
<g cb-classname="PointStatusIndicator" cb-indicator-type="hardware" cb-source="Jl-knc-XD" id="9He" visibility="hidden">
<line cb-classname="GraphicLineEntity" class="algorithmline" id="9HL" x1="4630" x2="4530" y1="580" y2="580"/>
<line cb-classname="GraphicLineEntity" class="algorithmline" id="9HA" x1="4530" x2="4530" y1="580" y2="680"/>
<line cb-classname="GraphicLineEntity" class="algorithmline" id="9Hx" x1="4530" x2="4630" y1="680" y2="680"/>
</g>
<g cb-classname="PointStatusIndicator" cb-indicator-type="alarm" cb-source="0t-5gg-LD" id="9HZ" visibility="hidden">
<text cb-classname="GraphicTextEntity" class="algorithm" fill="#000000" font-family="Arial" font-size="20" id="9xd" x="4640" y="665">
A
</text>
</g>
<g cb-classname="PointStatusIndicator" cb-indicator-type="ingraphic" cb-source="x3-6T9-fv" id="9x7" visibility="visible">
<text cb-classname="GraphicTextEntity" class="algorithm" fill="#000000" font-family="Arial" font-size="20" id="9xw" x="4640" y="615">
G
</text>
</g>
<g cb-classname="DynamicText" cb-labeled="false" cb-pin-name="EA" cb-source="qH-le8-KZ" class="algorithm" id="9xP" text-anchor="end">
<text baseline-shift="0%" cb-classname="GraphicTextEntity" class="algorithm" fill="black" font-family="arial" font-size="20" font-style="normal" font-weight="normal" id="9xI" text-anchor="end" text-decoration="normal" x="4505" y="605"/>
</g>
<g baseline-shift="-100%" cb-anchor-x="4505" cb-anchor-y="640" cb-classname="PointReferences" cb-max-width="130" cb-originator="false" cb-source="AF-tzu-jy" class="signal" id="9xe" text-anchor="end">
<text baseline-shift="-100%" cb-classname="GraphicTextEntity" class="algorithm" id="9xL" text-anchor="end" x="4505" y="640">
REF: Point not
</text>
<text baseline-shift="-100%" cb-classname="GraphicTextEntity" class="algorithm" id="1ydv" text-anchor="end" x="4505" y="665">
found in
</text>
<text baseline-shift="-100%" cb-classname="GraphicTextEntity" class="algorithm" id="1ydc" text-anchor="end" x="4505" y="690">
database
</text>
<text baseline-shift="-100%" cb-classname="GraphicTextEntity" class="algorithm" id="1ydL" text-anchor="end" x="4505" y="715">
(01T06G01-LLK)
</text>
</g>
<g baseline-shift="-50%" cb-anchor-x="4685" cb-anchor-y="645" cb-classname="PointDescription" cb-content="extended" cb-labeled="false" cb-max-width="240" cb-source="Th-QWU-cC" class="algorithm" id="9xA" text-anchor="start">
<text baseline-shift="-50%" cb-classname="GraphicTextEntity" class="algorithm" id="9xx" text-anchor="start" x="4685" y="633">
DESC: Point not found in
</text>
<text baseline-shift="-50%" cb-classname="GraphicTextEntity" class="algorithm" id="1ydD" text-anchor="start" x="4685" y="658">
database (01T06G01-LLK)
</text>
</g>
</g>
<g cb-alg-DEh="$119$cb-alg-out$" cb-algorithm-id="011" cb-classname="FastBooleanAlgorithm" cb-function-name="NOT" id="9Ge">
<rect cb-classname="GraphicRectangleEntity" class="algorithm" height="40" id="9GL" width="40" x="3270" y="840"/>
<line cb-classname="GraphicLineEntity" class="algorithm" id="9GA" x1="3280" x2="3280" y1="850" y2="870"/>
<line cb-classname="GraphicLineEntity" class="algorithm" id="9Gx" x1="3280" x2="3300" y1="850" y2="870"/>
<line cb-classname="GraphicLineEntity" class="algorithm" id="9GZ" x1="3300" x2="3300" y1="870" y2="850"/>
<g cb-classname="ControlPin" cb-pin-name="Jl-knc-XDT" id="1Kdi">
<line cb-classname="GraphicLineEntity" class="signalline" id="1KdG" x1="3290" x2="3290" y1="820" y2="840"/>
<polygon cb-classname="GraphicPolygonEntity" class="signal" id="1Kd3" points="3290,840 3295,829 3284,829"/>
<g cb-classname="DynamicText" cb-source="rF-iZt-alVS" class="signal" id="1KdP" text-anchor="start">
<text cb-classname="GraphicTextEntity" class="signal" fill="black" font-style="normal" font-weight="normal" id="1Kdm" text-anchor="start" text-decoration="normal" transform="translate(3287,825)rotate(-90)"/>
</g>
</g>
<g cb-classname="ControlPin" cb-pin-name="Xw-AjP-fY0" id="1KdW">
<line cb-classname="GraphicLineEntity" class="signalline" id="1Kdv" x1="3290" x2="3290" y1="880" y2="900"/>
<g cb-classname="DynamicText" cb-source="rX-vLD-vQow" class="signal" id="1Kdc" text-anchor="end">
<text cb-classname="GraphicTextEntity" class="signal" fill="black" font-style="normal" font-weight="normal" id="1KdL" text-anchor="end" text-decoration="normal" transform="translate(3287,894)rotate(-90)"/>
</g>
<g cb-classname="SignalSegment" id="1KPv">
<line cb-classname="GraphicLineEntity" class="signalline" id="1KPc" stroke="#1e12bf" stroke-dasharray="5,4" x1="3290" x2="3290" y1="900" y2="1010"/>
<g cb-classname="SignalSegment" id="1KPL">
<line cb-classname="GraphicLineEntity" class="signalline" id="1KPD" stroke="#1e12bf" stroke-dasharray="5,4" x1="3290" x2="3490" y1="1010" y2="1010"/>
<g cb-classname="SignalConnection" cb-graphic-line="$1039$" cb-input-pin="$GLG$" id="1KIi"/>
<line cb-classname="GraphicLineEntity" class="signalline" id="1KIG" stroke="#1e12bf" stroke-dasharray="5,4" x1="3290" x2="3290" y1="1010" y2="1660"/>
<g cb-classname="SignalSegment" id="1KI3">
<line cb-classname="GraphicLineEntity" class="signalline" id="1KIP" stroke="#1e12bf" stroke-dasharray="5,4" x1="3290" x2="3490" y1="1660" y2="1660"/>
<g cb-classname="SignalConnection" cb-graphic-line="$1043$" cb-input-pin="$kf7$" id="1KIm"/>
</g>
<ellipse cb-classname="GraphicEllipseEntity" class="signal" cx="3290" cy="1010" fill="#1e12bf" id="1KIW" rx="5" ry="5" stroke="#1e12bf" stroke-dasharray="5,4"/>
</g>
</g>
</g>
</g>
<g cb-alg-d9Lp="NO" cb-alg-doG="01TG07U01-SZ2" cb-algorithm-id="006" cb-classname="ExternalPointInterface" cb-function-name="INPUT" id="1b7">
<ellipse cb-classname="GraphicEllipseEntity" class="algorithm" cx="820" cy="1070" id="1bw" rx="50" ry="50"/>
<rect cb-classname="GraphicRectangleEntity" class="algorithm" height="100" id="1bP" width="40" x="730" y="1020"/>
<line cb-classname="GraphicLineEntity" class="algorithm" id="1bI" x1="730" x2="770" y1="1070" y2="1070"/>
<g cb-classname="ControlPin" cb-pin-name="Jl-knc-OMZ" id="1be">
<line cb-classname="GraphicLineEntity" class="signalline" id="1bL" x1="870" x2="900" y1="1070" y2="1070"/>
<g cb-classname="DynamicText" cb-source="Fv-ABv-ELQW" class="signal" id="1bA" text-anchor="start">
<text cb-classname="GraphicTextEntity" class="signal" fill="black" font-style="normal" font-weight="normal" id="1bx" text-anchor="start" text-decoration="normal" x="884" y="1067"/>
</g>
<g cb-classname="SignalSegment" id="1bZ">
<line cb-classname="GraphicLineEntity" class="signalline" id="1gd" stroke="#1e12bf" stroke-dasharray="5,4" x1="900" x2="1870" y1="1070" y2="1070"/>
<g cb-classname="SignalConnection" cb-graphic-line="$160$" cb-input-pin="$G7c$" id="1g7"/>
</g>
</g>
<g cb-classname="PointStatusIndicator" cb-indicator-type="Highway" cb-source="rX-Lmp-Ly2" id="1gw" visibility="visible">
<line cb-classname="GraphicLineEntity" class="algorithmline" id="1gP" x1="770" x2="820" y1="1070" y2="1020"/>
<line cb-classname="GraphicLineEntity" class="algorithmline" id="1gI" x1="820" x2="870" y1="1020" y2="1070"/>
<line cb-classname="GraphicLineEntity" class="algorithmline" id="1ge" x1="870" x2="820" y1="1070" y2="1120"/>
<line cb-classname="GraphicLineEntity" class="algorithmline" id="1gL" x1="820" x2="770" y1="1120" y2="1070"/>
</g>
<g cb-classname="PointStatusIndicator" cb-indicator-type="hardware" cb-source="Th-QWU-MFG" id="1gA" visibility="hidden">
<line cb-classname="GraphicLineEntity" class="algorithmline" id="1gx" x1="770" x2="870" y1="1020" y2="1020"/>
<line cb-classname="GraphicLineEntity" class="algorithmline" id="1gZ" x1="870" x2="870" y1="1020" y2="1120"/>
<line cb-classname="GraphicLineEntity" class="algorithmline" id="1od" x1="870" x2="770" y1="1120" y2="1120"/>
</g>
<g cb-classname="PointStatusIndicator" cb-indicator-type="alarm" cb-source="rF-Qhw-b8X" id="1o7" visibility="hidden">
<text cb-classname="GraphicTextEntity" class="algorithm" fill="#000000" font-family="arial" font-size="20" id="1ow" x="740" y="1055">
A
</text>
</g>
<g cb-classname="PointStatusIndicator" cb-indicator-type="ingraphic" cb-source="Xw-AjP-fY0" id="1oP" visibility="hidden">
<text cb-classname="GraphicTextEntity" class="algorithm" fill="#000000" font-family="Arial" font-size="20" id="1oI" x="740" y="1105">
G
</text>
</g>
<g baseline-shift="-50%" cb-anchor-x="720" cb-anchor-y="1084" cb-classname="PointDescription" cb-content="extended" cb-labeled="false" cb-max-width="220" cb-source="rX-Lmp-Ly2" class="algorithm" id="1oe" text-anchor="end">
<text baseline-shift="-50%" cb-classname="GraphicTextEntity" class="algorithm" id="1oL" text-anchor="end" x="720" y="1059">
DESC: Point not found in
</text>
<text baseline-shift="-50%" cb-classname="GraphicTextEntity" class="algorithm" id="9Qe" text-anchor="end" x="720" y="1084">
database
</text>
<text baseline-shift="-50%" cb-classname="GraphicTextEntity" class="algorithm" id="1y7G" text-anchor="end" x="720" y="1109">
(01TG07U01-SZ2)
</text>
</g>
<g cb-classname="DynamicText" cb-labeled="false" cb-pin-name="Srd" cb-source="FK-jdT-5et" class="algorithm" id="1oA" text-anchor="start">
<text baseline-shift="0%" cb-classname="GraphicTextEntity" class="algorithm" fill="black" font-family="arial" font-size="20" font-style="normal" font-weight="normal" id="1ox" text-anchor="start" text-decoration="normal" x="890" y="1040"/>
</g>
<g baseline-shift="-100%" cb-anchor-x="890" cb-anchor-y="1080" cb-classname="PointReferences" cb-max-width="230" cb-originator="true" cb-source="Cq-jNj-vyd" class="signal" id="1oZ" text-anchor="start">
<text baseline-shift="-100%" cb-classname="GraphicTextEntity" class="algorithm" id="1yd" text-anchor="start" x="890" y="1080">
REF: Point not found in
</text>
<text baseline-shift="-100%" cb-classname="GraphicTextEntity" class="algorithm" id="1y73" text-anchor="start" x="890" y="1105">
database (01TG07U01-SZ2)
</text>
</g>
</g>
<g cb-alg-oNzT="NO" cb-alg-olf="01TG11U01-SZ2" cb-algorithm-id="009" cb-classname="ExternalPointInterface" cb-function-name="INPUT" id="2HI">
<ellipse cb-classname="GraphicEllipseEntity" class="algorithm" cx="820" cy="1720" id="2He" rx="50" ry="50"/>
<rect cb-classname="GraphicRectangleEntity" class="algorithm" height="100" id="2HL" width="40" x="730" y="1670"/>
<line cb-classname="GraphicLineEntity" class="algorithm" id="2HA" x1="730" x2="770" y1="1720" y2="1720"/>
<g cb-classname="ControlPin" cb-pin-name="Xw-AjP-fY0" id="2Hx">
<line cb-classname="GraphicLineEntity" class="signalline" id="2HZ" x1="870" x2="900" y1="1720" y2="1720"/>
<g cb-classname="DynamicText" cb-source="rX-vLD-vQow" class="signal" id="2xd" text-anchor="start">
<text cb-classname="GraphicTextEntity" class="signal" fill="black" font-style="normal" font-weight="normal" id="2x7" text-anchor="start" text-decoration="normal" x="884" y="1717"/>
</g>
<g cb-classname="SignalSegment" id="2xw">
<line cb-classname="GraphicLineEntity" class="signalline" id="2xP" stroke="#1e12bf" stroke-dasharray="5,4" x1="900" x2="1870" y1="1720" y2="1720"/>
<g cb-classname="SignalConnection" cb-graphic-line="$243$" cb-input-pin="$d25$" id="2xI"/>
</g>
</g>
<g cb-classname="PointStatusIndicator" cb-indicator-type="Highway" cb-source="Th-QWU-MFG" id="2xe" visibility="visible">
<line cb-classname="GraphicLineEntity" class="algorithmline" id="2xL" x1="770" x2="820" y1="1720" y2="1670"/>
<line cb-classname="GraphicLineEntity" class="algorithmline" id="2xA" x1="820" x2="870" y1="1670" y2="1720"/>
<line cb-classname="GraphicLineEntity" class="algorithmline" id="2xx" x1="870" x2="820" y1="1720" y2="1770"/>
<line cb-classname="GraphicLineEntity" class="algorithmline" id="2xZ" x1="820" x2="770" y1="1770" y2="1720"/>
</g>
<g cb-classname="PointStatusIndicator" cb-indicator-type="hardware" cb-source="0t-5gg-02C" id="2bd" visibility="hidden">
<line cb-classname="GraphicLineEntity" class="algorithmline" id="2b7" x1="770" x2="870" y1="1670" y2="1670"/>
<line cb-classname="GraphicLineEntity" class="algorithmline" id="2bw" x1="870" x2="870" y1="1670" y2="1770"/>
<line cb-classname="GraphicLineEntity" class="algorithmline" id="2bP" x1="870" x2="770" y1="1770" y2="1770"/>
</g>
<g cb-classname="PointStatusIndicator" cb-indicator-type="alarm" cb-source="qH-le8-J3E" id="2bI" visibility="hidden">
<text cb-classname="GraphicTextEntity" class="algorithm" fill="#000000" font-family="arial" font-size="20" id="2be" x="740" y="1705">
A
</text>
</g>
<g cb-classname="PointStatusIndicator" cb-indicator-type="ingraphic" cb-source="AF-tzu-K5K" id="2bL" visibility="hidden">
<text cb-classname="GraphicTextEntity" class="algorithm" fill="#000000" font-family="Arial" font-size="20" id="2bA" x="740" y="1755">
G
</text>
</g>
<g baseline-shift="-50%" cb-anchor-x="720" cb-anchor-y="1734" cb-classname="PointDescription" cb-content="extended" cb-labeled="false" cb-max-width="220" cb-source="Th-QWU-MFG" class="algorithm" id="2bx" text-anchor="end">
<text baseline-shift="-50%" cb-classname="GraphicTextEntity" class="algorithm" id="2bZ" text-anchor="end" x="720" y="1709">
DESC: Point not found in
</text>
<text baseline-shift="-50%" cb-classname="GraphicTextEntity" class="algorithm" id="9QA" text-anchor="end" x="720" y="1734">
database
</text>
<text baseline-shift="-50%" cb-classname="GraphicTextEntity" class="algorithm" id="1y7m" text-anchor="end" x="720" y="1759">
(01TG11U01-SZ2)
</text>
</g>
<g cb-classname="DynamicText" cb-labeled="false" cb-pin-name="O72" cb-source="cL-43Z-Sn8" class="algorithm" id="2gd" text-anchor="start">
<text baseline-shift="0%" cb-classname="GraphicTextEntity" class="algorithm" fill="black" font-family="arial" font-size="20" font-style="normal" font-weight="normal" id="2g7" text-anchor="start" text-decoration="normal" x="890" y="1690"/>
</g>
<g baseline-shift="-100%" cb-anchor-x="890" cb-anchor-y="1730" cb-classname="PointReferences" cb-max-width="230" cb-originator="true" cb-source="rF-Qhw-b8X" class="signal" id="2gw" text-anchor="start">
<text baseline-shift="-100%" cb-classname="GraphicTextEntity" class="algorithm" id="2gP" text-anchor="start" x="890" y="1730">
REF: Point not found in
</text>
<text baseline-shift="-100%" cb-classname="GraphicTextEntity" class="algorithm" id="1y7W" text-anchor="start" x="890" y="1755">
database (01TG11U01-SZ2)
</text>
</g>
</g>
<g cb-alg-TNG="$72$cb-alg-clos$" cb-alg-TNg="$234$cb-alg-out$" cb-algorithm-id="00a" cb-classname="FastBooleanAlgorithm" cb-function-name="OR" id="2gI">
<ellipse cb-classname="GraphicEllipseEntity" class="algorithm" cx="1920" cy="1700" id="2ge" rx="30" ry="30"/>
<line cb-classname="GraphicLineEntity" class="algorithm" id="2gL" x1="1890" x2="1890" y1="1660" y2="1740"/>
<text baseline-shift="-50%" cb-classname="GraphicTextEntity" class="algorithm" fill="#000000" font-family="MS Shell Dlg" font-size="18" id="2gA" text-anchor="middle" x="1919" y="1695">
OR
</text>
<g cb-classname="ControlPin" cb-pin-name="FK-jdT-shD" id="2gx">
<line cb-classname="GraphicLineEntity" class="signalline" id="2gZ" x1="1870" x2="1890" y1="1680" y2="1680"/>
<polygon cb-classname="GraphicPolygonEntity" class="signal" id="2od" points="1890,1680 1879,1674 1879,1685"/>
<g cb-classname="DynamicText" cb-source="Th-ish-qIsQ" class="signal" id="2o7" text-anchor="end">
<text cb-classname="GraphicTextEntity" class="signal" fill="black" font-style="normal" font-weight="normal" id="2ow" text-anchor="end" text-decoration="normal" x="1875" y="1677"/>
</g>
</g>
<g cb-classname="ControlPin" cb-pin-name="cL-43Z-DEm" id="2oP">
<line cb-classname="GraphicLineEntity" class="signalline" id="2oI" x1="1870" x2="1890" y1="1720" y2="1720"/>
<polygon cb-classname="GraphicPolygonEntity" class="signal" id="2oe" points="1890,1720 1879,1714 1879,1725"/>
<g cb-classname="DynamicText" cb-source="0t-VDE-2jbK" class="signal" id="2oL" text-anchor="end">
<text cb-classname="GraphicTextEntity" class="signal" fill="black" font-style="normal" font-weight="normal" id="2oA" text-anchor="end" text-decoration="normal" x="1875" y="1717"/>
</g>
</g>
<g cb-classname="ControlPin" cb-pin-name="x3-6T9-Bd3" id="2ox">
<line cb-classname="GraphicLineEntity" class="signalline" id="2oZ" x1="1950" x2="1970" y1="1700" y2="1700"/>
<g cb-classname="DynamicText" cb-source="qH-rLM-GkqY" class="signal" id="2yd" text-anchor="start">
<text cb-classname="GraphicTextEntity" class="signal" fill="black" font-style="normal" font-weight="normal" id="2y7" text-anchor="start" text-decoration="normal" x="1964" y="1697"/>
</g>
<g cb-classname="SignalSegment" id="2yw">
<line cb-classname="GraphicLineEntity" class="signalline" id="2yP" stroke="#1e12bf" stroke-dasharray="5,4" x1="1970" x2="2431" y1="1700" y2="1700"/>
<g cb-classname="SignalSegment" id="2yI">
<line cb-classname="GraphicLineEntity" class="signalline" id="2ye" stroke="#1e12bf" stroke-dasharray="5,4" x1="2431" x2="2431" y1="1700" y2="1230"/>
<g cb-classname="SignalSegment" id="2yL">
<line cb-classname="GraphicLineEntity" class="signalline" id="2yA" stroke="#1e12bf" stroke-dasharray="5,4" x1="2431" x2="2500" y1="1230" y2="1230"/>
<g cb-classname="SignalConnection" cb-graphic-line="$287$" cb-input-pin="$PCE$" id="2yx"/>
<line cb-classname="GraphicLineEntity" class="signalline" id="1KIL" stroke="#1e12bf" stroke-dasharray="5,4" x1="2431" x2="2431" y1="1230" y2="1190"/>
<g cb-classname="SignalSegment" id="1KID">
<line cb-classname="GraphicLineEntity" class="signalline" id="1Kei" stroke="#1e12bf" stroke-dasharray="5,4" x1="2431" x2="2500" y1="1190" y2="1190"/>
<g cb-classname="SignalConnection" cb-graphic-line="$1050$" cb-input-pin="$zEl$" id="1KeG"/>
</g>
<ellipse cb-classname="GraphicEllipseEntity" class="signal" cx="2431" cy="1230" fill="#1e12bf" id="1Ke3" rx="5" ry="5" stroke="#1e12bf" stroke-dasharray="5,4"/>
</g>
<line cb-classname="GraphicLineEntity" class="signalline" id="2yZ" stroke="#1e12bf" stroke-dasharray="5,4" x1="2431" x2="2820" y1="1700" y2="1700"/>
<g cb-classname="SignalConnection" cb-graphic-line="$289$" cb-input-pin="$yfJ$" id="2Gd"/>
<ellipse cb-classname="GraphicEllipseEntity" class="signal" cx="2431" cy="1700" fill="#1e12bf" id="2G7" rx="5" ry="5" stroke="#1e12bf" stroke-dasharray="5,4"/>
</g>
</g>
</g>
</g>
<g cb-alg-ZtT="$264$cb-alg-out$" cb-alg-Ztk="$264$cb-alg-out$" cb-algorithm-id="005" cb-classname="FastBooleanAlgorithm" cb-function-name="OR" id="2Gw">
<ellipse cb-classname="GraphicEllipseEntity" class="algorithm" cx="2550" cy="1210" id="2GP" rx="30" ry="30"/>
<line cb-classname="GraphicLineEntity" class="algorithm" id="2GI" x1="2520" x2="2520" y1="1170" y2="1250"/>
<text baseline-shift="-50%" cb-classname="GraphicTextEntity" class="algorithm" fill="#000000" font-family="MS Shell Dlg" font-size="18" id="2Ge" text-anchor="middle" x="2549" y="1205">
OR
</text>
<g cb-classname="ControlPin" cb-pin-name="Cq-jNj-uqa" id="2GL">
<line cb-classname="GraphicLineEntity" class="signalline" id="2GA" x1="2500" x2="2520" y1="1190" y2="1190"/>
<polygon cb-classname="GraphicPolygonEntity" class="signal" id="2Gx" points="2520,1190 2509,1184 2509,1195"/>
<g cb-classname="DynamicText" cb-source="cL-5TN-t6ph" class="signal" id="2GZ" text-anchor="end">
<text cb-classname="GraphicTextEntity" class="signal" fill="black" font-style="normal" font-weight="normal" id="3Kd" text-anchor="end" text-decoration="normal" x="2505" y="1187"/>
</g>
</g>
<g cb-classname="ControlPin" cb-pin-name="rF-Qhw-H2d" id="3K7">
<line cb-classname="GraphicLineEntity" class="signalline" id="3Kw" x1="2500" x2="2520" y1="1230" y2="1230"/>
<polygon cb-classname="GraphicPolygonEntity" class="signal" id="3KP" points="2520,1230 2509,1224 2509,1235"/>
<g cb-classname="DynamicText" cb-source="x3-IH2-MjUR" class="signal" id="3KI" text-anchor="end">
<text cb-classname="GraphicTextEntity" class="signal" fill="black" font-style="normal" font-weight="normal" id="3Ke" text-anchor="end" text-decoration="normal" x="2505" y="1227"/>
</g>
</g>
<g cb-classname="ControlPin" cb-pin-name="qH-le8-J3E" id="3KL">
<line cb-classname="GraphicLineEntity" class="signalline" id="3KA" x1="2580" x2="2600" y1="1210" y2="1210"/>
<g cb-classname="DynamicText" cb-source="AF-0fG-h6bm" class="signal" id="3Kx" text-anchor="start">
<text cb-classname="GraphicTextEntity" class="signal" fill="black" font-style="normal" font-weight="normal" id="3KZ" text-anchor="start" text-decoration="normal" x="2594" y="1207"/>
</g>
<g cb-classname="SignalSegment" id="3Qd">
<line cb-classname="GraphicLineEntity" class="signalline" id="3Q7" stroke="#1e12bf" stroke-dasharray="5,4" x1="2600" x2="2730" y1="1210" y2="1210"/>
<g cb-classname="SignalSegment" id="3Qw">
<line cb-classname="GraphicLineEntity" class="signalline" id="3QP" stroke="#1e12bf" stroke-dasharray="5,4" x1="2730" x2="2730" y1="1210" y2="1090"/>
<g cb-classname="SignalSegment" id="3QI">
<line cb-classname="GraphicLineEntity" class="signalline" id="3Qe" stroke="#1e12bf" stroke-dasharray="5,4" x1="2730" x2="2820" y1="1090" y2="1090"/>
<g cb-classname="SignalConnection" cb-graphic-line="$315$" cb-input-pin="$ygG$" id="3QL"/>
</g>
</g>
</g>
</g>
</g>
<g cb-alg-zHz="01TG03U01-SO3" cb-alg-zLZw="NO" cb-algorithm-id="00d" cb-classname="ExternalPointInterface" cb-function-name="INPUT" id="4HP">
<ellipse cb-classname="GraphicEllipseEntity" class="algorithm" cx="820" cy="950" id="4HI" rx="50" ry="50"/>
<rect cb-classname="GraphicRectangleEntity" class="algorithm" height="100" id="4He" width="40" x="730" y="900"/>
<line cb-classname="GraphicLineEntity" class="algorithm" id="4HL" x1="730" x2="770" y1="950" y2="950"/>
<g cb-classname="ControlPin" cb-pin-name="FK-jdT-5et" id="4HA">
<line cb-classname="GraphicLineEntity" class="signalline" id="4Hx" x1="870" x2="900" y1="950" y2="950"/>
<g cb-classname="DynamicText" cb-source="Cq-OKZ-yeYa" class="signal" id="4HZ" text-anchor="start">
<text cb-classname="GraphicTextEntity" class="signal" fill="black" font-style="normal" font-weight="normal" id="4xd" text-anchor="start" text-decoration="normal" x="884" y="947"/>
</g>
<g cb-classname="SignalSegment" id="4gd">
<line cb-classname="GraphicLineEntity" class="signalline" id="4g7" stroke="#1e12bf" stroke-dasharray="5,4" x1="900" x2="1450" y1="950" y2="950"/>
<g cb-classname="SignalSegment" id="4gw">
<line cb-classname="GraphicLineEntity" class="signalline" id="4gP" stroke="#1e12bf" stroke-dasharray="5,4" x1="1450" x2="1450" y1="950" y2="1050"/>
<g cb-classname="SignalSegment" id="4gI">
<line cb-classname="GraphicLineEntity" class="signalline" id="4ge" stroke="#1e12bf" stroke-dasharray="5,4" x1="1450" x2="1870" y1="1050" y2="1050"/>
<g cb-classname="SignalConnection" cb-graphic-line="$465$" cb-input-pin="$kNo$" id="4gL"/>
</g>
</g>
</g>
</g>
<g cb-classname="PointStatusIndicator" cb-indicator-type="Highway" cb-source="Jl-knc-OMZ" id="4x7" visibility="visible">
<line cb-classname="GraphicLineEntity" class="algorithmline" id="4xw" x1="770" x2="820" y1="950" y2="900"/>
<line cb-classname="GraphicLineEntity" class="algorithmline" id="4xP" x1="820" x2="870" y1="900" y2="950"/>
<line cb-classname="GraphicLineEntity" class="algorithmline" id="4xI" x1="870" x2="820" y1="950" y2="1000"/>
<line cb-classname="GraphicLineEntity" class="algorithmline" id="4xe" x1="820" x2="770" y1="1000" y2="950"/>
</g>
<g cb-classname="PointStatusIndicator" cb-indicator-type="hardware" cb-source="Xw-AjP-fY0" id="4xL" visibility="hidden">
<line cb-classname="GraphicLineEntity" class="algorithmline" id="4xA" x1="770" x2="870" y1="900" y2="900"/>
<line cb-classname="GraphicLineEntity" class="algorithmline" id="4xx" x1="870" x2="870" y1="900" y2="1000"/>
<line cb-classname="GraphicLineEntity" class="algorithmline" id="4xZ" x1="870" x2="770" y1="1000" y2="1000"/>
</g>
<g cb-classname="PointStatusIndicator" cb-indicator-type="alarm" cb-source="FK-jdT-5et" id="4bd" visibility="hidden">
<text cb-classname="GraphicTextEntity" class="algorithm" fill="#000000" font-family="arial" font-size="20" id="4b7" x="740" y="935">
A
</text>
</g>
<g cb-classname="PointStatusIndicator" cb-indicator-type="ingraphic" cb-source="Cq-jNj-vyd" id="4bw" visibility="hidden">
<text cb-classname="GraphicTextEntity" class="algorithm" fill="#000000" font-family="Arial" font-size="20" id="4bP" x="740" y="985">
G
</text>
</g>
<g baseline-shift="-50%" cb-anchor-x="720" cb-anchor-y="964" cb-classname="PointDescription" cb-content="extended" cb-labeled="false" cb-max-width="220" cb-source="Jl-knc-OMZ" class="algorithm" id="4bI" text-anchor="end">
<text baseline-shift="-50%" cb-classname="GraphicTextEntity" class="algorithm" id="4be" text-anchor="end" x="720" y="939">
DESC: Point not found in
</text>
<text baseline-shift="-50%" cb-classname="GraphicTextEntity" class="algorithm" id="1y7c" text-anchor="end" x="720" y="964">
database
</text>
<text baseline-shift="-50%" cb-classname="GraphicTextEntity" class="algorithm" id="1y7L" text-anchor="end" x="720" y="989">
(01TG03U01-SO3)
</text>
</g>
<g cb-classname="DynamicText" cb-labeled="false" cb-pin-name="k5y" cb-source="Fv-d6D-doG" class="algorithm" id="4bL" text-anchor="start">
<text baseline-shift="0%" cb-classname="GraphicTextEntity" class="algorithm" fill="black" font-family="arial" font-size="20" font-style="normal" font-weight="normal" id="4bA" text-anchor="start" text-decoration="normal" x="890" y="920"/>
</g>
<g baseline-shift="-100%" cb-anchor-x="890" cb-anchor-y="960" cb-classname="PointReferences" cb-max-width="230" cb-originator="true" cb-source="0t-5gg-02C" class="signal" id="4bx" text-anchor="start">
<text baseline-shift="-100%" cb-classname="GraphicTextEntity" class="algorithm" id="4bZ" text-anchor="start" x="890" y="960">
REF: Point not found in
</text>
<text baseline-shift="-100%" cb-classname="GraphicTextEntity" class="algorithm" id="1y7D" text-anchor="start" x="890" y="985">
database (01TG03U01-SO3)
</text>
</g>
</g>
<g cb-alg-fv2="$72$cb-alg-open$" cb-alg-fvW="$151$cb-alg-out$" cb-alg-fvg="$433$cb-alg-out$" cb-algorithm-id="003" cb-classname="FastBooleanAlgorithm" cb-function-name="OR" id="1y7">
<ellipse cb-classname="GraphicEllipseEntity" class="algorithm" cx="1920" cy="1050" id="1yw" rx="30" ry="30"/>
<line cb-classname="GraphicLineEntity" class="algorithm" id="1yP" x1="1890" x2="1890" y1="1010" y2="1090"/>
<text baseline-shift="-50%" cb-classname="GraphicTextEntity" class="algorithm" fill="#000000" font-family="MS Shell Dlg" font-size="18" id="1yI" text-anchor="middle" x="1919" y="1045">
OR
</text>
<g cb-classname="ControlPin" cb-pin-name="0t-5gg-LDH" id="1ye">
<line cb-classname="GraphicLineEntity" class="signalline" id="1yL" x1="1870" x2="1890" y1="1030" y2="1030"/>
<polygon cb-classname="GraphicPolygonEntity" class="signal" id="1yA" points="1890,1030 1879,1024 1879,1035"/>
<g cb-classname="DynamicText" cb-source="rX-vLD-vQow" class="signal" id="1yx" text-anchor="end">
<text cb-classname="GraphicTextEntity" class="signal" fill="black" font-style="normal" font-weight="normal" id="1yZ" text-anchor="end" text-decoration="normal" x="1875" y="1027"/>
</g>
</g>
<g cb-classname="ControlPin" cb-pin-name="FK-jdT-shT" id="1Gd">
<line cb-classname="GraphicLineEntity" class="signalline" id="1G7" x1="1870" x2="1890" y1="1070" y2="1070"/>
<polygon cb-classname="GraphicPolygonEntity" class="signal" id="1Gw" points="1890,1070 1879,1064 1879,1075"/>
<g cb-classname="DynamicText" cb-source="Th-ish-qIsQ" class="signal" id="1GP" text-anchor="end">
<text cb-classname="GraphicTextEntity" class="signal" fill="black" font-style="normal" font-weight="normal" id="1GI" text-anchor="end" text-decoration="normal" x="1875" y="1067"/>
</g>
</g>
<g cb-classname="ControlPin" cb-pin-name="cL-43Z-Sn8" id="1Ge">
<line cb-classname="GraphicLineEntity" class="signalline" id="1GL" x1="1950" x2="1970" y1="1050" y2="1050"/>
<g cb-classname="DynamicText" cb-source="rF-iZt-alVS" class="signal" id="1GA" text-anchor="start">
<text cb-classname="GraphicTextEntity" class="signal" fill="black" font-style="normal" font-weight="normal" id="1Gx" text-anchor="start" text-decoration="normal" x="1964" y="1047"/>
</g>
<g cb-classname="SignalSegment" id="1GZ">
<line cb-classname="GraphicLineEntity" class="signalline" id="2Kd" stroke="#1e12bf" stroke-dasharray="5,4" x1="1970" x2="2371" y1="1050" y2="1050"/>
<g cb-classname="SignalSegment" id="2K7">
<line cb-classname="GraphicLineEntity" class="signalline" id="2KL" stroke="#1e12bf" stroke-dasharray="5,4" x1="2371" x2="2820" y1="1050" y2="1050"/>
<g cb-classname="SignalConnection" cb-graphic-line="$206$" cb-input-pin="$52X$" id="2KA"/>
<ellipse cb-classname="GraphicEllipseEntity" class="signal" cx="2371" cy="1050" fill="#1e12bf" id="2Kx" rx="5" ry="5" stroke="#1e12bf" stroke-dasharray="5,4"/>
<line cb-classname="GraphicLineEntity" class="signalline" id="1KeP" stroke="#1e12bf" stroke-dasharray="5,4" x1="2371" x2="2371" y1="1050" y2="1840"/>
<g cb-classname="SignalSegment" id="1Kem">
<line cb-classname="GraphicLineEntity" class="signalline" id="2Kw" stroke="#1e12bf" stroke-dasharray="5,4" x1="2371" x2="2371" y1="1840" y2="1880"/>
<g cb-classname="SignalSegment" id="2KP">
<line cb-classname="GraphicLineEntity" class="signalline" id="2KI" stroke="#1e12bf" stroke-dasharray="5,4" x1="2371" x2="2500" y1="1880" y2="1880"/>
<g cb-classname="SignalConnection" cb-graphic-line="$204$" cb-input-pin="$dH7$" id="2Ke"/>
</g>
<g cb-classname="SignalConnection" cb-graphic-line="$1057$" cb-input-pin="$gJ4$" id="1KeL"/>
<line cb-classname="GraphicLineEntity" class="signalline" id="1Kec" stroke="#1e12bf" stroke-dasharray="5,4" x1="2371" x2="2500" y1="1840" y2="1840"/>
<ellipse cb-classname="GraphicEllipseEntity" class="signal" cx="2371" cy="1840" fill="#1e12bf" id="1KeD" rx="5" ry="5" stroke="#1e12bf" stroke-dasharray="5,4"/>
</g>
</g>
</g>
</g>
<g cb-classname="ControlPin" cb-pin-name="Jl-knc-XDE" id="4Rx">
<line cb-classname="GraphicLineEntity" class="signalline" id="4RZ" x1="1870" x2="1890" y1="1050" y2="1050"/>
<polygon cb-classname="GraphicPolygonEntity" class="signal" id="4Hd" points="1890,1050 1879,1044 1879,1055"/>
<g cb-classname="DynamicText" cb-source="rF-iZt-alVS" class="signal" id="4H7" text-anchor="end">
<text cb-classname="GraphicTextEntity" class="signal" fill="black" font-style="normal" font-weight="normal" id="4Hw" text-anchor="end" text-decoration="normal" transform="translate(1875,1047)rotate(360)"/>
</g>
</g>
</g>
<g cb-alg-iM3="$181$cb-alg-out$" cb-alg-iMG="$181$cb-alg-out$" cb-algorithm-id="008" cb-classname="FastBooleanAlgorithm" cb-function-name="OR" id="2KZ">
<ellipse cb-classname="GraphicEllipseEntity" class="algorithm" cx="2550" cy="1860" id="2Qd" rx="30" ry="30"/>
<line cb-classname="GraphicLineEntity" class="algorithm" id="2Q7" x1="2520" x2="2520" y1="1820" y2="1900"/>
<text baseline-shift="-50%" cb-classname="GraphicTextEntity" class="algorithm" fill="#000000" font-family="MS Shell Dlg" font-size="18" id="2Qw" text-anchor="middle" x="2549" y="1855">
OR
</text>
<g cb-classname="ControlPin" cb-pin-name="x3-6T9-fv2" id="2QP">
<line cb-classname="GraphicLineEntity" class="signalline" id="2QI" x1="2500" x2="2520" y1="1840" y2="1840"/>
<polygon cb-classname="GraphicPolygonEntity" class="signal" id="2Qe" points="2520,1840 2509,1834 2509,1845"/>
<g cb-classname="DynamicText" cb-source="FK-3fv-Z1pL" class="signal" id="2QL" text-anchor="end">
<text cb-classname="GraphicTextEntity" class="signal" fill="black" font-style="normal" font-weight="normal" id="2QA" text-anchor="end" text-decoration="normal" x="2505" y="1837"/>
</g>
</g>
<g cb-classname="ControlPin" cb-pin-name="Cq-jNj-uqw" id="2Qx">
<line cb-classname="GraphicLineEntity" class="signalline" id="2QZ" x1="2500" x2="2520" y1="1880" y2="1880"/>
<polygon cb-classname="GraphicPolygonEntity" class="signal" id="2Rd" points="2520,1880 2509,1874 2509,1885"/>
<g cb-classname="DynamicText" cb-source="cL-5TN-t6ph" class="signal" id="2R7" text-anchor="end">
<text cb-classname="GraphicTextEntity" class="signal" fill="black" font-style="normal" font-weight="normal" id="2Rw" text-anchor="end" text-decoration="normal" x="2505" y="1877"/>
</g>
</g>
<g cb-classname="ControlPin" cb-pin-name="rF-Qhw-b8X" id="2RP">
<line cb-classname="GraphicLineEntity" class="signalline" id="2RI" x1="2580" x2="2600" y1="1860" y2="1860"/>
<g cb-classname="DynamicText" cb-source="Xw-UXa-DtI6" class="signal" id="2Re" text-anchor="start">
<text cb-classname="GraphicTextEntity" class="signal" fill="black" font-style="normal" font-weight="normal" id="2RL" text-anchor="start" text-decoration="normal" x="2594" y="1857"/>
</g>
<g cb-classname="SignalSegment" id="2RA">
<line cb-classname="GraphicLineEntity" class="signalline" id="2Rx" stroke="#1e12bf" stroke-dasharray="5,4" x1="2600" x2="2730" y1="1860" y2="1860"/>
<g cb-classname="SignalSegment" id="2RZ">
<line cb-classname="GraphicLineEntity" class="signalline" id="2Hd" stroke="#1e12bf" stroke-dasharray="5,4" x1="2730" x2="2730" y1="1860" y2="1740"/>
<g cb-classname="SignalSegment" id="2H7">
<line cb-classname="GraphicLineEntity" class="signalline" id="2Hw" stroke="#1e12bf" stroke-dasharray="5,4" x1="2730" x2="2820" y1="1740" y2="1740"/>
<g cb-classname="SignalConnection" cb-graphic-line="$232$" cb-input-pin="$5Iq$" id="2HP"/>
</g>
</g>
</g>
</g>
</g>
<g cb-alg-L1sM="$209$cb-alg-out$" cb-alg-a4UJ="RESET" cb-alg-lOl="$264$cb-alg-out$" cb-algorithm-id="00b" cb-classname="FastBooleanAlgorithm" cb-function-name="FLIPFLOP" cb-modify-id="00000001" id="3gZ">
<rect cb-classname="GraphicRectangleEntity" class="algorithm" height="100" id="3od" width="140" x="2840" y="1670"/>
<g cb-classname="ControlPin" cb-pin-name="qH-le8-xRE" id="3o7">
<line cb-classname="GraphicLineEntity" class="signalline" id="3ow" x1="2820" x2="2840" y1="1700" y2="1700"/>
<polygon cb-classname="GraphicPolygonEntity" class="signal" id="3oP" points="2840,1700 2829,1694 2829,1705"/>
<g cb-classname="DynamicText" cb-source="Cq-OKZ-yeYa" class="signal" id="3oI" text-anchor="end">
<text cb-classname="GraphicTextEntity" class="signal" fill="black" font-style="normal" font-weight="normal" id="3oe" text-anchor="end" text-decoration="normal" x="2825" y="1697"/>
</g>
</g>
<g cb-classname="ControlPin" cb-pin-name="Jl-knc-U2QE" id="3oL">
<line cb-classname="GraphicLineEntity" class="signalline" id="3oA" x1="2820" x2="2840" y1="1740" y2="1740"/>
<polygon cb-classname="GraphicPolygonEntity" class="signal" id="3ox" points="2840,1740 2829,1734 2829,1745"/>
<g cb-classname="DynamicText" cb-source="rF-iZt-alVS" class="signal" id="3oZ" text-anchor="end">
<text cb-classname="GraphicTextEntity" class="signal" fill="black" font-style="normal" font-weight="normal" id="3yd" text-anchor="end" text-decoration="normal" x="2825" y="1737"/>
</g>
</g>
<g cb-classname="ControlPin" cb-pin-name="Xw-AjP-fY0" id="3y7">
<line cb-classname="GraphicLineEntity" class="signalline" id="3yw" x1="2980" x2="3000" y1="1700" y2="1700"/>
<g cb-classname="DynamicText" cb-source="rX-vLD-vQow" class="signal" id="3yP" text-anchor="start">
<text cb-classname="GraphicTextEntity" class="signal" fill="black" font-style="normal" font-weight="normal" id="3yI" text-anchor="start" text-decoration="normal" x="2994" y="1697"/>
</g>
<g cb-classname="SignalSegment" id="1K7m">
<g cb-classname="SignalConnection" cb-graphic-line="$1017$" cb-input-pin="$kHG$" id="1K7L"/>
<line cb-classname="GraphicLineEntity" class="signalline" id="1K7c" stroke="#1e12bf" stroke-dasharray="5,4" x1="3000" x2="3490" y1="1700" y2="1700"/>
</g>
</g>
<text baseline-shift="-50%" cb-classname="GraphicTextEntity" class="algorithm" fill="#000000" font-family="MS Shell Dlg" font-size="18" id="3yx" text-anchor="middle" x="2860" y="1690">
S
</text>
<text baseline-shift="-50%" cb-classname="GraphicTextEntity" class="algorithm" fill="#000000" font-family="MS Shell Dlg" font-size="18" id="3yZ" text-anchor="middle" x="2860" y="1730">
R
</text>
<text baseline-shift="-50%" cb-classname="GraphicTextEntity" class="algorithm" fill="#000000" font-family="MS Shell Dlg" font-size="18" id="3Gd" text-anchor="middle" x="2960" y="1690">
1
</text>
<text baseline-shift="-50%" cb-classname="GraphicTextEntity" class="algorithm" fill="#000000" font-family="MS Shell Dlg" font-size="18" id="3G7" text-anchor="middle" x="2960" y="1730">
0
</text>
</g>
<g cb-alg-cfG="01T06G01-CZ" cb-alg-z86="$369$cb-alg-out$" cb-alg-z8J="$995$cb-alg-out$" cb-algorithm-id="010" cb-classname="FastBooleanAlgorithm" cb-function-name="AND" id="9oA">
<rect cb-classname="GraphicRectangleEntity" class="algorithm" height="60" id="9ox" width="60" x="3510" y="1650"/>
<g cb-classname="ControlPin" cb-pin-name="Xw-AjP-LM6" id="9oZ">
<line cb-classname="GraphicLineEntity" class="signalline" id="9yd" x1="3490" x2="3510" y1="1660" y2="1660"/>
<polygon cb-classname="GraphicPolygonEntity" class="signal" id="9y7" points="3510,1660 3499,1654 3499,1665"/>
<g cb-classname="DynamicText" cb-source="qH-rLM-GkqY" class="signal" id="9yw" text-anchor="end">
<text cb-classname="GraphicTextEntity" class="signal" fill="black" font-style="normal" font-weight="normal" id="9yP" text-anchor="end" text-decoration="normal" x="3495" y="1657"/>
</g>
</g>
<g cb-classname="ControlPin" cb-pin-name="AF-tzu-jy8" id="9yI">
<line cb-classname="GraphicLineEntity" class="signalline" id="9ye" x1="3490" x2="3510" y1="1700" y2="1700"/>
<polygon cb-classname="GraphicPolygonEntity" class="signal" id="9yL" points="3510,1700 3499,1694 3499,1705"/>
<g cb-classname="DynamicText" cb-source="Jl-ejy-CV0T" class="signal" id="9yA" text-anchor="end">
<text cb-classname="GraphicTextEntity" class="signal" fill="black" font-style="normal" font-weight="normal" id="9yx" text-anchor="end" text-decoration="normal" x="3495" y="1697"/>
</g>
</g>
<line cb-classname="GraphicLineEntity" class="algorithm" id="9yZ" x1="3510" x2="3510" y1="1640" y2="1720"/>
<g cb-classname="ControlPin" cb-pin-name="rF-Qhw-b8X" id="9Gd">
<line cb-classname="GraphicLineEntity" class="signalline" id="9G7" x1="3570" x2="3590" y1="1680" y2="1680"/>
<g cb-classname="DynamicText" cb-source="Xw-UXa-DtI6" class="signal" id="9Gw" text-anchor="start">
<text cb-classname="GraphicTextEntity" class="signal" fill="black" font-style="normal" font-weight="normal" id="9GP" text-anchor="start" text-decoration="normal" x="3584" y="1677"/>
</g>
<g cb-classname="SignalSegment" id="1Kwm">
<g cb-classname="SignalConnection" cb-graphic-line="$1027$" cb-input-pin="$PD4$" id="1KwL"/>
<line cb-classname="GraphicLineEntity" class="signalline" id="1Kwc" stroke="#1e12bf" stroke-dasharray="5,4" x1="3590" x2="4500" y1="1680" y2="1680"/>
</g>
</g>
<text baseline-shift="-50%" cb-classname="GraphicTextEntity" class="algorithm" fill="#000000" font-family="MS Shell Dlg" id="9GI" text-anchor="middle" x="3541" y="1676">
AND
</text>
</g>
<g cb-alg-z8="$977$cb-alg-out$" cb-algorithm-id="00c" cb-classname="ExternalPointInterface" cb-function-name="OUTPUT" id="3Gw">
<ellipse cb-classname="GraphicEllipseEntity" class="algorithm" cx="4580" cy="1680" id="3GP" rx="50" ry="50"/>
<rect cb-classname="GraphicRectangleEntity" class="algorithm" height="100" id="3GI" width="40" x="4630" y="1630"/>
<line cb-classname="GraphicLineEntity" class="algorithm" id="3Ge" x1="4630" x2="4670" y1="1680" y2="1680"/>
<g cb-classname="ControlPin" cb-pin-name="rX-Lmp-fG" id="3GL">
<line cb-classname="GraphicLineEntity" class="signalline" id="3GA" x1="4500" x2="4530" y1="1680" y2="1680"/>
<polygon cb-classname="GraphicPolygonEntity" class="signal" id="3Gx" points="4530,1680 4519,1674 4519,1685"/>
<g cb-classname="DynamicText" cb-source="AF-0fG-h6bm" class="signal" id="3GZ" text-anchor="end">
<text cb-classname="GraphicTextEntity" class="signal" fill="black" font-style="normal" font-weight="normal" id="4Kd" text-anchor="end" text-decoration="normal" x="4515" y="1677"/>
</g>
</g>
<g cb-classname="PointStatusIndicator" cb-indicator-type="highway" cb-source="Th-QWU-cC" id="4K7" visibility="hidden">
<line cb-classname="GraphicLineEntity" class="algorithmline" id="4Kw" x1="4530" x2="4580" y1="1680" y2="1630"/>
<line cb-classname="GraphicLineEntity" class="algorithmline" id="4KP" x1="4580" x2="4630" y1="1630" y2="1680"/>
<line cb-classname="GraphicLineEntity" class="algorithmline" id="4KI" x1="4630" x2="4580" y1="1680" y2="1730"/>
<line cb-classname="GraphicLineEntity" class="algorithmline" id="4Ke" x1="4580" x2="4530" y1="1730" y2="1680"/>
</g>
<g cb-classname="PointStatusIndicator" cb-indicator-type="hardware" cb-source="0t-5gg-LD" id="4KL" visibility="hidden">
<line cb-classname="GraphicLineEntity" class="algorithmline" id="4KA" x1="4630" x2="4530" y1="1630" y2="1630"/>
<line cb-classname="GraphicLineEntity" class="algorithmline" id="4Kx" x1="4530" x2="4530" y1="1630" y2="1730"/>
<line cb-classname="GraphicLineEntity" class="algorithmline" id="4KZ" x1="4530" x2="4630" y1="1730" y2="1730"/>
</g>
<g cb-classname="PointStatusIndicator" cb-indicator-type="alarm" cb-source="qH-le8-KZ" id="4Qd" visibility="hidden">
<text cb-classname="GraphicTextEntity" class="algorithm" fill="#000000" font-family="Arial" font-size="20" id="4Q7" x="4640" y="1715">
A
</text>
</g>
<g cb-classname="PointStatusIndicator" cb-indicator-type="ingraphic" cb-source="AF-tzu-jy" id="4Qw" visibility="visible">
<text cb-classname="GraphicTextEntity" class="algorithm" fill="#000000" font-family="Arial" font-size="20" id="4QP" x="4640" y="1665">
G
</text>
</g>
<g cb-classname="DynamicText" cb-labeled="false" cb-pin-name="gy" cb-source="Th-QWU-cC" class="algorithm" id="4QI" text-anchor="end">
<text baseline-shift="0%" cb-classname="GraphicTextEntity" class="algorithm" fill="black" font-family="arial" font-size="20" font-style="normal" font-weight="normal" id="4Qe" text-anchor="end" text-decoration="normal" x="4505" y="1655"/>
</g>
<g baseline-shift="-100%" cb-anchor-x="4505" cb-anchor-y="1690" cb-classname="PointReferences" cb-max-width="130" cb-originator="false" cb-source="cL-43Z-DE" class="signal" id="4QL" text-anchor="end">
<text baseline-shift="-100%" cb-classname="GraphicTextEntity" class="algorithm" id="4QA" text-anchor="end" x="4505" y="1690">
REF: Point not
</text>
<text baseline-shift="-100%" cb-classname="GraphicTextEntity" class="algorithm" id="1ywG" text-anchor="end" x="4505" y="1715">
found in
</text>
<text baseline-shift="-100%" cb-classname="GraphicTextEntity" class="algorithm" id="1yw3" text-anchor="end" x="4505" y="1740">
database
</text>
<text baseline-shift="-100%" cb-classname="GraphicTextEntity" class="algorithm" id="1ywP" text-anchor="end" x="4505" y="1765">
(01T06G01-CZ)
</text>
</g>
<g baseline-shift="-50%" cb-anchor-x="4685" cb-anchor-y="1695" cb-classname="PointDescription" cb-content="extended" cb-labeled="false" cb-max-width="240" cb-source="0t-5gg-LD" class="algorithm" id="4QZ" text-anchor="start">
<text baseline-shift="-50%" cb-classname="GraphicTextEntity" class="algorithm" id="4Rd" text-anchor="start" x="4685" y="1683">
DESC: Point not found in
</text>
<text baseline-shift="-50%" cb-classname="GraphicTextEntity" class="algorithm" id="1KIc" text-anchor="start" x="4685" y="1708">
database (01T06G01-CZ)
</text>
</g>
</g>
<g cb-alg-L1sM="$292$cb-alg-out$" cb-alg-a4UJ="RESET" cb-alg-lOl="$181$cb-alg-out$" cb-algorithm-id="004" cb-classname="FastBooleanAlgorithm" cb-function-name="FLIPFLOP" cb-modify-id="00000001" id="3QA">
<rect cb-classname="GraphicRectangleEntity" class="algorithm" height="100" id="3Qx" width="140" x="2840" y="1020"/>
<g cb-classname="ControlPin" cb-pin-name="qH-le8-xRE" id="3QZ">
<line cb-classname="GraphicLineEntity" class="signalline" id="3Rd" x1="2820" x2="2840" y1="1050" y2="1050"/>
<polygon cb-classname="GraphicPolygonEntity" class="signal" id="3R7" points="2840,1050 2829,1044 2829,1055"/>
<g cb-classname="DynamicText" cb-source="Cq-OKZ-yeYa" class="signal" id="3Rw" text-anchor="end">
<text cb-classname="GraphicTextEntity" class="signal" fill="black" font-style="normal" font-weight="normal" id="3RP" text-anchor="end" text-decoration="normal" x="2825" y="1047"/>
</g>
</g>
<g cb-classname="ControlPin" cb-pin-name="Jl-knc-U2QE" id="3RI">
<line cb-classname="GraphicLineEntity" class="signalline" id="3Re" x1="2820" x2="2840" y1="1090" y2="1090"/>
<polygon cb-classname="GraphicPolygonEntity" class="signal" id="3RL" points="2840,1090 2829,1084 2829,1095"/>
<g cb-classname="DynamicText" cb-source="rF-iZt-alVS" class="signal" id="3RA" text-anchor="end">
<text cb-classname="GraphicTextEntity" class="signal" fill="black" font-style="normal" font-weight="normal" id="3Rx" text-anchor="end" text-decoration="normal" x="2825" y="1087"/>
</g>
</g>
<g cb-classname="ControlPin" cb-pin-name="Xw-AjP-fY0" id="3RZ">
<line cb-classname="GraphicLineEntity" class="signalline" id="3Hd" x1="2980" x2="3000" y1="1050" y2="1050"/>
<g cb-classname="DynamicText" cb-source="rX-vLD-vQow" class="signal" id="3H7" text-anchor="start">
<text cb-classname="GraphicTextEntity" class="signal" fill="black" font-style="normal" font-weight="normal" id="3Hw" text-anchor="start" text-decoration="normal" x="2994" y="1047"/>
</g>
<g cb-classname="SignalSegment" id="1KdD">
<g cb-classname="SignalConnection" cb-graphic-line="$1012$" cb-input-pin="$Elq$" id="1K7P"/>
<line cb-classname="GraphicLineEntity" class="signalline" id="1K73" stroke="#1e12bf" stroke-dasharray="5,4" x1="3000" x2="3490" y1="1050" y2="1050"/>
</g>
</g>
<text baseline-shift="-50%" cb-classname="GraphicTextEntity" class="algorithm" fill="#000000" font-family="MS Shell Dlg" font-size="18" id="3HL" text-anchor="middle" x="2860" y="1040">
S
</text>
<text baseline-shift="-50%" cb-classname="GraphicTextEntity" class="algorithm" fill="#000000" font-family="MS Shell Dlg" font-size="18" id="3HA" text-anchor="middle" x="2860" y="1080">
R
</text>
<text baseline-shift="-50%" cb-classname="GraphicTextEntity" class="algorithm" fill="#000000" font-family="MS Shell Dlg" font-size="18" id="3Hx" text-anchor="middle" x="2960" y="1040">
1
</text>
<text baseline-shift="-50%" cb-classname="GraphicTextEntity" class="algorithm" fill="#000000" font-family="MS Shell Dlg" font-size="18" id="3HZ" text-anchor="middle" x="2960" y="1080">
0
</text>
</g>
<g cb-alg-02C="01T06G01-CO" cb-alg-LDH="$995$cb-alg-out$" cb-alg-LDz="$317$cb-alg-out$" cb-algorithm-id="00f" cb-classname="FastBooleanAlgorithm" cb-function-name="AND" id="9bZ">
<rect cb-classname="GraphicRectangleEntity" class="algorithm" height="60" id="9gd" width="60" x="3510" y="1000"/>
<g cb-classname="ControlPin" cb-pin-name="Jl-knc-XDT" id="9g7">
<line cb-classname="GraphicLineEntity" class="signalline" id="9gw" x1="3490" x2="3510" y1="1010" y2="1010"/>
<polygon cb-classname="GraphicPolygonEntity" class="signal" id="9gP" points="3510,1010 3499,1004 3499,1015"/>
<g cb-classname="DynamicText" cb-source="rF-iZt-alVS" class="signal" id="9gI" text-anchor="end">
<text cb-classname="GraphicTextEntity" class="signal" fill="black" font-style="normal" font-weight="normal" id="9ge" text-anchor="end" text-decoration="normal" x="3495" y="1007"/>
</g>
</g>
<g cb-classname="ControlPin" cb-pin-name="Xw-AjP-LMN" id="9gL">
<line cb-classname="GraphicLineEntity" class="signalline" id="9gA" x1="3490" x2="3510" y1="1050" y2="1050"/>
<polygon cb-classname="GraphicPolygonEntity" class="signal" id="9gx" points="3510,1050 3499,1044 3499,1055"/>
<g cb-classname="DynamicText" cb-source="qH-rLM-GkqY" class="signal" id="9gZ" text-anchor="end">
<text cb-classname="GraphicTextEntity" class="signal" fill="black" font-style="normal" font-weight="normal" id="9od" text-anchor="end" text-decoration="normal" x="3495" y="1047"/>
</g>
</g>
<line cb-classname="GraphicLineEntity" class="algorithm" id="9o7" x1="3510" x2="3510" y1="990" y2="1070"/>
<g cb-classname="ControlPin" cb-pin-name="Cq-jNj-vyd" id="9ow">
<line cb-classname="GraphicLineEntity" class="signalline" id="9oP" x1="3570" x2="3590" y1="1030" y2="1030"/>
<g cb-classname="DynamicText" cb-source="Jl-ejy-CV0T" class="signal" id="9oI" text-anchor="start">
<text cb-classname="GraphicTextEntity" class="signal" fill="black" font-style="normal" font-weight="normal" id="9oe" text-anchor="start" text-decoration="normal" x="3584" y="1027"/>
</g>
<g cb-classname="SignalSegment" id="1K7D">
<g cb-classname="SignalConnection" cb-graphic-line="$1022$" cb-input-pin="$XZk$" id="1KwP"/>
<line cb-classname="GraphicLineEntity" class="signalline" id="1Kw3" stroke="#1e12bf" stroke-dasharray="5,4" x1="3590" x2="4500" y1="1030" y2="1030"/>
</g>
</g>
<text baseline-shift="-50%" cb-classname="GraphicTextEntity" class="algorithm" fill="#000000" font-family="MS Shell Dlg" id="9oL" text-anchor="middle" x="3541" y="1026">
AND
</text>
</g>
<g cb-alg-z8="$959$cb-alg-out$" cb-algorithm-id="007" cb-classname="ExternalPointInterface" cb-function-name="OUTPUT" id="3xd">
<ellipse cb-classname="GraphicEllipseEntity" class="algorithm" cx="4580" cy="1030" id="3x7" rx="50" ry="50"/>
<rect cb-classname="GraphicRectangleEntity" class="algorithm" height="100" id="3xw" width="40" x="4630" y="980"/>
<line cb-classname="GraphicLineEntity" class="algorithm" id="3xP" x1="4630" x2="4670" y1="1030" y2="1030"/>
<g cb-classname="ControlPin" cb-pin-name="rX-Lmp-fG" id="3xI">
<line cb-classname="GraphicLineEntity" class="signalline" id="3xe" x1="4500" x2="4530" y1="1030" y2="1030"/>
<polygon cb-classname="GraphicPolygonEntity" class="signal" id="3xL" points="4530,1030 4519,1024 4519,1035"/>
<g cb-classname="DynamicText" cb-source="AF-0fG-h6bm" class="signal" id="3xA" text-anchor="end">
<text cb-classname="GraphicTextEntity" class="signal" fill="black" font-style="normal" font-weight="normal" id="3xx" text-anchor="end" text-decoration="normal" x="4515" y="1027"/>
</g>
</g>
<g cb-classname="PointStatusIndicator" cb-indicator-type="highway" cb-source="Th-QWU-cC" id="3xZ" visibility="hidden">
<line cb-classname="GraphicLineEntity" class="algorithmline" id="3bd" x1="4530" x2="4580" y1="1030" y2="980"/>
<line cb-classname="GraphicLineEntity" class="algorithmline" id="3b7" x1="4580" x2="4630" y1="980" y2="1030"/>
<line cb-classname="GraphicLineEntity" class="algorithmline" id="3bw" x1="4630" x2="4580" y1="1030" y2="1080"/>
<line cb-classname="GraphicLineEntity" class="algorithmline" id="3bP" x1="4580" x2="4530" y1="1080" y2="1030"/>
</g>
<g cb-classname="PointStatusIndicator" cb-indicator-type="hardware" cb-source="0t-5gg-LD" id="3bI" visibility="hidden">
<line cb-classname="GraphicLineEntity" class="algorithmline" id="3be" x1="4630" x2="4530" y1="980" y2="980"/>
<line cb-classname="GraphicLineEntity" class="algorithmline" id="3bL" x1="4530" x2="4530" y1="980" y2="1080"/>
<line cb-classname="GraphicLineEntity" class="algorithmline" id="3bA" x1="4530" x2="4630" y1="1080" y2="1080"/>
</g>
<g cb-classname="PointStatusIndicator" cb-indicator-type="alarm" cb-source="qH-le8-KZ" id="3bx" visibility="hidden">
<text cb-classname="GraphicTextEntity" class="algorithm" fill="#000000" font-family="Arial" font-size="20" id="3bZ" x="4640" y="1065">
A
</text>
</g>
<g cb-classname="PointStatusIndicator" cb-indicator-type="ingraphic" cb-source="AF-tzu-jy" id="3gd" visibility="visible">
<text cb-classname="GraphicTextEntity" class="algorithm" fill="#000000" font-family="Arial" font-size="20" id="3g7" x="4640" y="1015">
G
</text>
</g>
<g cb-classname="DynamicText" cb-labeled="false" cb-pin-name="gy" cb-source="Th-QWU-cC" class="algorithm" id="3gw" text-anchor="end">
<text baseline-shift="0%" cb-classname="GraphicTextEntity" class="algorithm" fill="black" font-family="arial" font-size="20" font-style="normal" font-weight="normal" id="3gP" text-anchor="end" text-decoration="normal" x="4505" y="1005"/>
</g>
<g baseline-shift="-100%" cb-anchor-x="4505" cb-anchor-y="1040" cb-classname="PointReferences" cb-max-width="130" cb-originator="false" cb-source="cL-43Z-DE" class="signal" id="3gI" text-anchor="end">
<text baseline-shift="-100%" cb-classname="GraphicTextEntity" class="algorithm" id="3ge" text-anchor="end" x="4505" y="1040">
REF: Point not
</text>
<text baseline-shift="-100%" cb-classname="GraphicTextEntity" class="algorithm" id="1ydW" text-anchor="end" x="4505" y="1065">
found in
</text>
<text baseline-shift="-100%" cb-classname="GraphicTextEntity" class="algorithm" id="1ywW" text-anchor="end" x="4505" y="1090">
database
</text>
<text baseline-shift="-100%" cb-classname="GraphicTextEntity" class="algorithm" id="1ywv" text-anchor="end" x="4505" y="1115">
(01T06G01-CO)
</text>
</g>
<g baseline-shift="-50%" cb-anchor-x="4685" cb-anchor-y="1045" cb-classname="PointDescription" cb-content="extended" cb-labeled="false" cb-max-width="240" cb-source="0t-5gg-LD" class="algorithm" id="3gA" text-anchor="start">
<text baseline-shift="-50%" cb-classname="GraphicTextEntity" class="algorithm" id="3gx" text-anchor="start" x="4685" y="1033">
DESC: Point not found in
</text>
<text baseline-shift="-50%" cb-classname="GraphicTextEntity" class="algorithm" id="1KIv" text-anchor="start" x="4685" y="1058">
database (01T06G01-CO)
</text>
</g>
</g>
</g>
<g cb-classname="IncludeDocument" cb-modify-time="09/25/2018 01:40:30" cb-objectname="Frame" id="5">
<text cb-classname="GraphicTextEntity" class="frame" font-size="50" id="1yxD" x="3660" y="3146">
Project Title &lt;Edit in FRAME.SVG&gt;
</text>
<g baseline-shift="-50%" cb-classname="DynamicText" cb-source="x3-f903-fB" class="frame" id="1yZi">
<text cb-classname="GraphicTextEntity" class="frame" fill="black" font-family="arial" font-size="25" font-style="normal" font-weight="normal" id="1yZG" text-decoration="normal" x="4715" y="3325">
14
</text>
</g>
<g baseline-shift="-50%" cb-classname="DynamicText" cb-source="qH-NvBO-sg" class="frame" id="1yZ3" text-anchor="middle">
<text cb-classname="GraphicTextEntity" class="frame" fill="black" font-family="arial" font-size="48" font-style="normal" font-weight="normal" id="1yZP" text-anchor="middle" text-decoration="normal" x="4900" y="3320">
14
</text>
</g>
<g baseline-shift="-50%" cb-classname="DynamicText" cb-source="AF-Cjxy-u7" class="frame" id="1yZm" text-anchor="middle">
<text cb-classname="GraphicTextEntity" class="frame" fill="black" font-family="arial" font-size="48" font-style="normal" font-weight="normal" id="1yZW" text-anchor="middle" text-decoration="normal" x="5067" y="3324">
2
</text>
</g>
<g cb-classname="DynamicText" cb-source="Th-xBwYK-G5ESO" class="frame" id="1yZv">
<text cb-classname="GraphicTextEntity" class="frame" fill="black" font-family="arial" font-size="48" font-style="normal" font-weight="normal" id="1yZc" text-decoration="normal" x="3660" y="3224">
T06G01-FG HP HTR EXTRACTION pt.1
</text>
</g>
<g baseline-shift="-50%" cb-classname="DynamicText" cb-source="cL-eZuOl-a8VhKY" class="frame" id="1yZL" text-anchor="middle">
<text cb-classname="GraphicTextEntity" class="frame" fill="black" font-family="arial" font-size="48" font-style="normal" font-weight="normal" id="1yZD" text-anchor="middle" text-decoration="normal" x="5270" y="3324">
170
</text>
</g>
<g baseline-shift="0%" cb-classname="DynamicText" cb-source="rF-LOhXiLfM" class="frame" id="1Gdi" text-anchor="middle">
<text cb-classname="GraphicTextEntity" class="frame" fill="black" font-family="arial" font-size="36" font-style="normal" font-weight="normal" id="1GdG" text-anchor="middle" text-decoration="normal" x="5270" y="3150">
A
</text>
</g>
<g baseline-shift="0%" cb-classname="DynamicText" cb-source="Xw-YJILwfLG-Eubm" class="frame" id="1Gd3" text-anchor="middle">
<text cb-classname="GraphicTextEntity" class="frame" fill="black" font-family="arial" font-size="20" font-style="normal" font-weight="normal" id="1GdP" text-anchor="middle" text-decoration="normal" x="5270" y="3230">
12/28/2010
</text>
</g>
<g baseline-shift="-50%" cb-classname="DynamicText" cb-source="rX-U2pfv6RY" class="frame" id="1Gdm" text-anchor="end">
<text cb-classname="GraphicTextEntity" class="frame" fill="black" font-family="arial" font-size="26" font-style="normal" font-weight="normal" id="1GdW" text-anchor="end" text-decoration="normal" x="4500" y="3420">
Heczko
</text>
</g>
<g baseline-shift="-50%" cb-classname="DynamicText" cb-source="FK-vS3KRsYF" class="frame" id="1Gdv" text-anchor="end">
<text cb-classname="GraphicTextEntity" class="frame" fill="black" font-family="arial" font-size="26" font-style="normal" font-weight="normal" id="1Gdc" text-anchor="end" text-decoration="normal" x="5353" y="3420">
Nemec
</text>
</g>
<g cb-classname="GraphicShape" cb-tag="BORDER" id="1GdL">
<line cb-classname="GraphicLineEntity" class="frameline" id="1GdD" x1="40" x2="40" y1="40" y2="3460"/>
<line cb-classname="GraphicLineEntity" class="frameline" id="1G7i" x1="40" x2="5380" y1="3460" y2="3460"/>
<line cb-classname="GraphicLineEntity" class="frameline" id="1G7G" x1="5380" x2="5380" y1="3460" y2="40"/>
<line cb-classname="GraphicLineEntity" class="frameline" id="1G73" x1="5380" x2="40" y1="40" y2="40"/>
<line cb-classname="GraphicLineEntity" class="frame" id="1G7P" x1="5430" x2="5440" y1="3510" y2="3510"/>
</g>
<g cb-classname="GraphicShape" cb-tag="TITLE BOX" id="1G7m">
<line cb-classname="GraphicLineEntity" class="frameline" id="1G7W" x1="2340" x2="2340" y1="3080" y2="3460"/>
<line cb-classname="GraphicLineEntity" class="frameline" id="1G7v" x1="2340" x2="5380" y1="3080" y2="3080"/>
<line cb-classname="GraphicLineEntity" class="frameline" id="1G7c" x1="3650" x2="3650" y1="3460" y2="3080"/>
<line cb-classname="GraphicLineEntity" class="frameline" id="1G7L" x1="3650" x2="5380" y1="3240" y2="3240"/>
<line cb-classname="GraphicLineEntity" class="frameline" id="1G7D" x1="3650" x2="5380" y1="3390" y2="3390"/>
<line cb-classname="GraphicLineEntity" class="frameline" id="1Gwi" x1="3650" x2="5380" y1="3160" y2="3160"/>
<line cb-classname="GraphicLineEntity" class="frameline" id="1GwG" x1="3650" x2="4520" y1="3320" y2="3320"/>
<line cb-classname="GraphicLineEntity" class="frameline" id="1Gw3" x1="4520" x2="5380" y1="3290" y2="3290"/>
<line cb-classname="GraphicLineEntity" class="frameline" id="1GwP" x1="4520" x2="5380" y1="3240" y2="3240"/>
<line cb-classname="GraphicLineEntity" class="frameline" id="1Gwm" x1="4520" x2="4520" y1="3240" y2="3460"/>
<line cb-classname="GraphicLineEntity" class="frameline" id="1GwW" x1="4810" x2="4810" y1="3240" y2="3390"/>
<line cb-classname="GraphicLineEntity" class="frameline" id="1Gwv" x1="4990" x2="4990" y1="3240" y2="3390"/>
<line cb-classname="GraphicLineEntity" class="frameline" id="1Gwc" x1="5150" x2="5150" y1="3080" y2="3390"/>
</g>
<g cb-classname="GraphicShape" cb-tag="TEXT LABELS" id="1GwL">
<text baseline-shift="-50%" cb-classname="GraphicTextEntity" class="frame" font-size="25" id="1GwD" text-anchor="middle" x="4890" y="3252">
Drop
</text>
<text baseline-shift="-50%" cb-classname="GraphicTextEntity" class="frame" font-size="25" id="1GPi" text-anchor="middle" x="5075" y="3252">
Task
</text>
<text baseline-shift="-50%" cb-classname="GraphicTextEntity" class="frame" font-size="25" id="1GPG" text-anchor="middle" x="5265" y="3252">
Sheet
</text>
<text cb-classname="GraphicTextEntity" class="frame" font-size="25" id="1GP3" x="5152" y="3107">
Rev.
</text>
<text cb-classname="GraphicTextEntity" class="frame" font-size="25" id="1GPP" x="3653" y="3418">
Engineer
</text>
<text cb-classname="GraphicTextEntity" class="frame" font-size="25" id="1GPm" x="4528" y="3419">
Approved
</text>
<text cb-classname="GraphicTextEntity" class="frame" font-size="25" id="1GPW" x="5152" y="3187">
Date
</text>
<text baseline-shift="-50%" cb-classname="GraphicTextEntity" class="frame" font-size="25" id="1GPv" text-anchor="middle" x="4660" y="3252">
Drawing Number
</text>
<text baseline-shift="-50%" cb-classname="GraphicTextEntity" class="frame" font-size="25" id="1GPc" text-anchor="middle" x="4680" y="3325">
CTL
</text>
</g>
<text baseline-shift="-50%" cb-classname="GraphicTextEntity" class="frame" font-size="48" id="1GPL" text-anchor="middle" x="3000" y="3100">
EMERSON PROCESS MANAGEMENT
</text>
<g baseline-shift="-100%" cb-anchor-x="2360" cb-anchor-y="3140" cb-classname="GroupText" cb-max-width="1260" fill="black" id="1GPD">
<text baseline-shift="-100%" cb-classname="GraphicTextEntity" class="frame" fill="black" font-family="arial" font-size="22" font-weight="normal" id="1GIi" text-anchor="start" text-decoration="normal" x="2360" y="3140">
THIS DOCUMENT CONTAINS INFORMATION PROPRIETARY TO EMERSON PROCESS
</text>
<text baseline-shift="-100%" cb-classname="GraphicTextEntity" class="frame" fill="black" font-family="arial" font-size="22" font-weight="normal" id="1GIG" text-anchor="start" text-decoration="normal" x="2360" y="3176">
MANAGEMENT POWER &amp; WATER SOLUTIONS, INC. IT IS SUBMITTED IN CONFIDENCE AND
</text>
<text baseline-shift="-100%" cb-classname="GraphicTextEntity" class="frame" fill="black" font-family="arial" font-size="22" font-weight="normal" id="1GI3" text-anchor="start" text-decoration="normal" x="2360" y="3212">
TRUST, IS TO BE USED BY YOU SOLELY FOR THE PURPOSES FOR WHICH IT IS
</text>
<text baseline-shift="-100%" cb-classname="GraphicTextEntity" class="frame" fill="black" font-family="arial" font-size="22" font-weight="normal" id="1GIP" text-anchor="start" text-decoration="normal" x="2360" y="3248">
FURNISHED AND IS TO BE RETURNED UPON REQUEST. THIS DOCUMENT AND ANY
</text>
<text baseline-shift="-100%" cb-classname="GraphicTextEntity" class="frame" fill="black" font-family="arial" font-size="22" font-weight="normal" id="1GIm" text-anchor="start" text-decoration="normal" x="2360" y="3284">
OTHER INFORMATION PROVIDED TO YOU IS NOT TO BE REPRODUCED, TRANSMITTED,
</text>
<text baseline-shift="-100%" cb-classname="GraphicTextEntity" class="frame" fill="black" font-family="arial" font-size="22" font-weight="normal" id="1GIW" text-anchor="start" text-decoration="normal" x="2360" y="3320">
DISCLOSED, OR USED OTHERWISE IN WHOLE OR IN PART WITHOUT THE PRIOR
</text>
<text baseline-shift="-100%" cb-classname="GraphicTextEntity" class="frame" fill="black" font-family="arial" font-size="22" font-weight="normal" id="1GIv" text-anchor="start" text-decoration="normal" x="2360" y="3356">
WRITTEN AUTHORIZATION OF EMERSON PROCESS MANAGEMENT POWER &amp; WATER
</text>
<text baseline-shift="-100%" cb-classname="GraphicTextEntity" class="frame" fill="black" font-family="arial" font-size="22" font-weight="normal" id="1GIc" text-anchor="start" text-decoration="normal" x="2360" y="3392">
SOLUTIONS,INC.
</text>
</g>
</g>
</svg>