<?xml version="1.0" ?><svg cb-auto-time="01/27/2008 11:08:40" cb-classname="ControlFunction" cb-create-time="03/12/2008" cb-drop-id="14" cb-engineer="Heczko" cb-filename="Z:\OVATION\NET0\UNIT0\CONTROLFUNCTIONS\0217.svg" cb-function-id="0217" cb-key="255112342443" cb-modified-timestamp="1489319200" cb-ortho-mode="enabled" cb-path="Z:/OVATION/NET0/UNIT0/CONTROLFUNCTIONS" cb-reviewer="Nemec" cb-revision="A" cb-revision-time="12/28/2010" cb-sheet-number="209" cb-sheet-title="T11SG02-SG B COND. PUMP SHUT DOWN" cb-snap-grid="10" cb-task-id="2" height="3707" id="1" width="5450" xmlns="http://www.w3.org/2000/svg">
<style cb-classname="EntityStyle" id="2" type="text/css">
	.algorithm { fill: white; stroke: black; stroke-linecap: round; stroke-width: 2 }
	.algorithm-function { fill: none; stroke: black; stroke-linecap: round; stroke-width: 2 }
	.algorithm-functionline { fill: none; stroke: black; stroke-linecap: round; stroke-width: 2 }
	.algorithm-name { fill: none; stroke: black; stroke-linecap: round; stroke-width: 2 }
	.algorithm-nameline { fill: none; stroke: black; stroke-linecap: round; stroke-width: 2 }
	.algorithm-sequence { fill: none; stroke: black; stroke-linecap: round; stroke-width: 2 }
	.algorithm-sequenceline { fill: none; stroke: black; stroke-linecap: round; stroke-width: 2 }
	.algorithmline { fill: none; stroke: black; stroke-linecap: round; stroke-width: 2 }
	.annotation { fill: none; stroke: black; stroke-linecap: round; stroke-width: 2 }
	.annotationline { fill: none; stroke: black; stroke-linecap: round; stroke-width: 2 }
	.frame { fill: none; stroke: black; stroke-linecap: round; stroke-width: 2 }
	.frameline { fill: none; stroke: black; stroke-linecap: round; stroke-width: 2 }
	.signal { fill: black; stroke: black; stroke-linecap: round; stroke-width: 2 }
	.signalline { fill: none; stroke: black; stroke-linecap: round; stroke-width: 2 }
	text.algorithm { fill: black; font-family: MS Shell Dlg 2; font-size: 14; stroke: none }
	text.algorithm-function { fill: black; font-family: MS Shell Dlg 2; font-size: 16; stroke: none }
	text.algorithm-name { fill: black; font-family: MS Shell Dlg 2; font-size: 16; stroke: none }
	text.algorithm-sequence { fill: black; font-family: MS Shell Dlg 2; font-size: 16; stroke: none }
	text.annotation { fill: black; font-family: MS Shell Dlg 2; font-size: 16; stroke: none }
	text.frame { fill: black; font-family: MS Shell Dlg 2; font-size: 16; stroke: none }
	text.signal { fill: black; font-family: MS Shell Dlg 2; font-size: 12; stroke: none }
</style>
<g cb-classname="NamedObject" cb-objectname="Comments" id="3"/>
<g cb-classname="AlgorithmContainer" cb-objectname="Algorithms" id="4">
<g cb-alg-Cv3o="0" cb-alg-Gcot="69" cb-algorithm-id="005" cb-classname="ControlAlgorithm" cb-function-name="DVALGEN" cb-modify-id="00000001" id="1E4l">
<rect cb-classname="GraphicRectangleEntity" class="algorithm" height="100" id="1E4o" width="140" x="3660" y="620"/>
<text baseline-shift="-50%" cb-classname="GraphicTextEntity" class="algorithm" fill="#000000" font-family="MS Shell Dlg" font-size="18" id="1E4w" text-anchor="middle" x="3730" y="670">
DVALGEN
</text>
<g cb-classname="ControlPin" cb-pin-name="Ug-7OO-wHx" id="1E4e">
<line cb-classname="GraphicLineEntity" class="signalline" id="1E4O" x1="3800" x2="3820" y1="670" y2="670"/>
<g cb-classname="DynamicText" cb-source="N1-pSg-fAiS" class="signal" id="1E4j" text-anchor="start">
<text cb-classname="GraphicTextEntity" class="signal" fill="black" font-style="normal" font-weight="normal" id="1E42" text-anchor="start" text-decoration="normal" x="3814" y="667"/>
</g>
<g cb-classname="SignalSegment" id="1E4r">
<line cb-classname="GraphicLineEntity" class="signalline" id="1E4G" stroke="#1e12bf" stroke-dasharray="5,4" x1="3820" x2="3920" y1="670" y2="670"/>
<g cb-classname="SignalSegment" id="1Eyi">
<line cb-classname="GraphicLineEntity" class="signalline" id="1Eyl" stroke="#1e12bf" stroke-dasharray="5,4" x1="3920" x2="3920" y1="670" y2="810"/>
<g cb-classname="SignalSegment" id="1Eyo">
<line cb-classname="GraphicLineEntity" class="signalline" id="1Eyw" stroke="#1e12bf" stroke-dasharray="5,4" x1="3920" x2="4110" y1="810" y2="810"/>
<g cb-classname="SignalConnection" cb-graphic-line="$1823$" cb-input-pin="$rSwu$" id="1Eye"/>
</g>
</g>
</g>
</g>
<g cb-classname="DynamicText" cb-labeled="true" cb-source="At-6u8-AoHH" class="algorithm" id="1EyO" text-anchor="start">
<text cb-classname="GraphicTextEntity" class="algorithm" fill="black" font-family="arial" font-size="12" font-style="normal" font-weight="normal" id="1Eyj" text-anchor="start" text-decoration="normal" x="3700" y="610"/>
</g>
</g>
<g cb-alg-eKy="01T11SG02-PCK" cb-alg-eSD8="NO" cb-algorithm-id="012" cb-classname="ExternalPointInterface" cb-function-name="INPUT" id="1Ey2">
<ellipse cb-classname="GraphicEllipseEntity" class="algorithm" cx="590" cy="1080" id="1Eyr" rx="50" ry="50"/>
<rect cb-classname="GraphicRectangleEntity" class="algorithm" height="100" id="1EyG" width="40" x="500" y="1030"/>
<line cb-classname="GraphicLineEntity" class="algorithm" id="1EXi" x1="500" x2="540" y1="1080" y2="1080"/>
<g cb-classname="ControlPin" cb-pin-name="AC-YV4-eKn" id="1EXl">
<line cb-classname="GraphicLineEntity" class="signalline" id="1EXo" x1="640" x2="670" y1="1080" y2="1080"/>
<g cb-classname="DynamicText" cb-source="cD-MDS-y6zC" class="signal" id="1EXw" text-anchor="start">
<text cb-classname="GraphicTextEntity" class="signal" fill="black" font-style="normal" font-weight="normal" id="1EXe" text-anchor="start" text-decoration="normal" x="654" y="1077"/>
</g>
<g cb-classname="SignalSegment" id="1EXO">
<line cb-classname="GraphicLineEntity" class="signalline" id="1EXj" x1="670" x2="1540" y1="1080" y2="1080"/>
<g cb-classname="SignalConnection" cb-graphic-line="$1836$" cb-input-pin="$JE4s$" id="1EX2"/>
</g>
</g>
<g cb-classname="PointStatusIndicator" cb-indicator-type="Highway" cb-source="At-6u8-KNj" id="1EXr" visibility="hidden">
<line cb-classname="GraphicLineEntity" class="algorithmline" id="1EXG" x1="540" x2="590" y1="1080" y2="1030"/>
<line cb-classname="GraphicLineEntity" class="algorithmline" id="1EJi" x1="590" x2="640" y1="1030" y2="1080"/>
<line cb-classname="GraphicLineEntity" class="algorithmline" id="1EJl" x1="640" x2="590" y1="1080" y2="1130"/>
<line cb-classname="GraphicLineEntity" class="algorithmline" id="1EJo" x1="590" x2="540" y1="1130" y2="1080"/>
</g>
<g cb-classname="PointStatusIndicator" cb-indicator-type="hardware" cb-source="p4-oHE-qa5" id="1EJw" visibility="hidden">
<line cb-classname="GraphicLineEntity" class="algorithmline" id="1EJe" x1="540" x2="640" y1="1030" y2="1030"/>
<line cb-classname="GraphicLineEntity" class="algorithmline" id="1EJO" x1="640" x2="640" y1="1030" y2="1130"/>
<line cb-classname="GraphicLineEntity" class="algorithmline" id="1EJj" x1="640" x2="540" y1="1130" y2="1130"/>
</g>
<g cb-classname="PointStatusIndicator" cb-indicator-type="alarm" cb-source="9O-HRz-J46" id="1EJ2" visibility="hidden">
<text cb-classname="GraphicTextEntity" class="algorithm" fill="#000000" font-family="arial" font-size="20" id="1EJr" x="510" y="1065">
A
</text>
</g>
<g cb-classname="PointStatusIndicator" cb-indicator-type="ingraphic" cb-source="C0-olp-GV3" id="1EJG" visibility="hidden">
<text cb-classname="GraphicTextEntity" class="algorithm" fill="#000000" font-family="Arial" font-size="20" id="1EDi" x="510" y="1115">
G
</text>
</g>
<g baseline-shift="-50%" cb-anchor-x="490" cb-anchor-y="1094" cb-classname="PointDescription" cb-content="extended" cb-labeled="false" cb-max-width="220" cb-source="At-6u8-KNj" class="algorithm" id="1EDl" text-anchor="end">
<text baseline-shift="-50%" cb-classname="GraphicTextEntity" class="algorithm" id="1EDo" text-anchor="end" x="490" y="1069">
DESC: Point not found in
</text>
<text baseline-shift="-50%" cb-classname="GraphicTextEntity" class="algorithm" id="2MN2" text-anchor="end" x="490" y="1094">
database
</text>
<text baseline-shift="-50%" cb-classname="GraphicTextEntity" class="algorithm" id="324l" text-anchor="end" x="490" y="1119">
(01T11SG02-PCK)
</text>
</g>
<g cb-classname="DynamicText" cb-labeled="false" cb-pin-name="AWf" cb-source="Ug-7OO-wHx" class="algorithm" id="1EDw" text-anchor="start">
<text baseline-shift="0%" cb-classname="GraphicTextEntity" class="algorithm" fill="black" font-family="arial" font-size="20" font-style="normal" font-weight="normal" id="1EDe" text-anchor="start" text-decoration="normal" x="660" y="1050"/>
</g>
<g baseline-shift="-100%" cb-anchor-x="660" cb-anchor-y="1090" cb-classname="PointReferences" cb-max-width="230" cb-originator="true" cb-source="N1-lzd-U0S" class="signal" id="1EDO" text-anchor="start">
<text baseline-shift="-100%" cb-classname="GraphicTextEntity" class="algorithm" id="1EDj" text-anchor="start" x="660" y="1090">
REF: Point not found in
</text>
<text baseline-shift="-100%" cb-classname="GraphicTextEntity" class="algorithm" id="324o" text-anchor="start" x="660" y="1115">
database (01T11SG02-PCK)
</text>
</g>
</g>
<g cb-alg-qSd="$1827$cb-alg-out$" cb-algorithm-id="010" cb-classname="ControlAlgorithm" cb-function-name="UNPACK16" cb-modify-id="00000001" id="1ED2">
<rect cb-classname="GraphicRectangleEntity" class="algorithm" height="100" id="1EDr" width="140" x="1560" y="1030"/>
<text baseline-shift="-50%" cb-classname="GraphicTextEntity" class="algorithm" fill="#000000" font-family="MS Shell Dlg" font-size="18" id="1EDG" text-anchor="middle" x="1628" y="1075">
UNPACK16
</text>
<g cb-classname="ControlPin" cb-pin-name="9O-HRz-hDT" id="1ETi">
<line cb-classname="GraphicLineEntity" class="signalline" id="1ETl" x1="1540" x2="1560" y1="1080" y2="1080"/>
<polygon cb-classname="GraphicPolygonEntity" class="signal" id="1ETo" points="1560,1080 1549,1074 1549,1085"/>
<g cb-classname="DynamicText" cb-source="UT-YDM-klk7" class="signal" id="1ETw" text-anchor="end">
<text cb-classname="GraphicTextEntity" class="signal" fill="black" font-style="normal" font-weight="normal" id="1ETe" text-anchor="end" text-decoration="normal" x="1545" y="1077"/>
</g>
</g>
<g cb-classname="ControlPin" cb-pin-name="9e-XNy-FF" id="2EF2">
<line cb-classname="GraphicLineEntity" class="signalline" id="2EFr" x1="1700" x2="1720" y1="1050" y2="1050"/>
<g cb-classname="DynamicText" cb-source="9O-PcM-2cBS" class="signal" id="2EFG" text-anchor="start">
<text cb-classname="GraphicTextEntity" class="signal" fill="black" font-style="normal" font-weight="normal" id="2E4i" text-anchor="start" text-decoration="normal" transform="translate(1714,1047)rotate(360)"/>
</g>
<g cb-classname="SignalSegment" id="2Eyj">
<g cb-classname="SignalConnection" cb-graphic-line="$2829$" cb-input-pin="$KnyL$" id="2EXi"/>
<line cb-classname="GraphicLineEntity" class="signalline" id="2EyG" stroke="#1e12bf" stroke-dasharray="5,4" x1="1720" x2="2010" y1="1050" y2="1050"/>
</g>
</g>
<g cb-classname="ControlPin" cb-pin-name="UT-p4g-tD" id="2E4o">
<line cb-classname="GraphicLineEntity" class="signalline" id="2E4w" x1="1700" x2="1720" y1="1070" y2="1070"/>
<g cb-classname="DynamicText" cb-source="G7-Cgk-dYFs" class="signal" id="2E4e" text-anchor="start">
<text cb-classname="GraphicTextEntity" class="signal" fill="black" font-style="normal" font-weight="normal" id="2E4O" text-anchor="start" text-decoration="normal" transform="translate(1714,1067)rotate(360)"/>
</g>
<g cb-classname="SignalSegment" id="2EXl">
<g cb-classname="SignalConnection" cb-graphic-line="$2834$" cb-input-pin="$4G1r$" id="2EXO"/>
<line cb-classname="GraphicLineEntity" class="signalline" id="2EXe" stroke="#1e12bf" stroke-dasharray="5,4" x1="1720" x2="2010" y1="1070" y2="1070"/>
</g>
</g>
<g cb-classname="ControlPin" cb-pin-name="N1-lzd-Pu" id="2E42">
<line cb-classname="GraphicLineEntity" class="signalline" id="2E4r" x1="1700" x2="1720" y1="1090" y2="1090"/>
<g cb-classname="DynamicText" cb-source="AC-E5f-Wpgh" class="signal" id="2E4G" text-anchor="start">
<text cb-classname="GraphicTextEntity" class="signal" fill="black" font-style="normal" font-weight="normal" id="2Eyi" text-anchor="start" text-decoration="normal" transform="translate(1714,1087)rotate(360)"/>
</g>
<g cb-classname="SignalSegment" id="2EXj">
<g cb-classname="SignalConnection" cb-graphic-line="$2839$" cb-input-pin="$VNFe$" id="2EJi"/>
<line cb-classname="GraphicLineEntity" class="signalline" id="2EXG" stroke="#1e12bf" stroke-dasharray="5,4" x1="1720" x2="2010" y1="1090" y2="1090"/>
</g>
</g>
<g cb-classname="ControlPin" cb-pin-name="9O-HRz-qr" id="2Eyo">
<line cb-classname="GraphicLineEntity" class="signalline" id="2Eyw" x1="1700" x2="1720" y1="1110" y2="1110"/>
<g cb-classname="DynamicText" cb-source="C0-1D2-TD1f" class="signal" id="2Eye" text-anchor="start">
<text cb-classname="GraphicTextEntity" class="signal" fill="black" font-style="normal" font-weight="normal" id="2EyO" text-anchor="start" text-decoration="normal" transform="translate(1714,1107)rotate(360)"/>
</g>
<g cb-classname="SignalSegment" id="2EJl">
<g cb-classname="SignalConnection" cb-graphic-line="$2844$" cb-input-pin="$gWqK$" id="2EJO"/>
<line cb-classname="GraphicLineEntity" class="signalline" id="2EJe" stroke="#1e12bf" stroke-dasharray="5,4" x1="1720" x2="2010" y1="1110" y2="1110"/>
</g>
</g>
</g>
<g cb-alg-1OoS="ADVISORY" cb-alg-2zgk="1" cb-alg-5M1O="$1857$cb-alg-d4$" cb-alg-J6rt="$1857$cb-alg-d5$" cb-alg-SwCF="$1857$cb-alg-d7$" cb-alg-byCq="01T11SG02-SNRZ" cb-alg-byK6="0" cb-alg-byK9="0" cb-alg-byKJ="0" cb-alg-byKX="0" cb-alg-byKa="0" cb-alg-byKc="0" cb-alg-byKi="0" cb-alg-byKn="0" cb-alg-byKu="0" cb-alg-byKw="0" cb-alg-byQ6="0" cb-alg-byQ9="0" cb-alg-byQJ="0" cb-alg-byQX="0" cb-alg-byQa="0" cb-alg-byQc="0" cb-alg-byQi="0" cb-alg-byQn="0" cb-alg-byQu="0" cb-alg-byQw="0" cb-alg-byW6="0" cb-alg-byW9="0" cb-alg-byWJ="0" cb-alg-byWX="0" cb-alg-byWc="0" cb-alg-byWi="1" cb-alg-byWn="0" cb-alg-byWu="0" cb-alg-byWw="0" cb-alg-byya="0" cb-alg-hnpt="$1857$cb-alg-d6$" cb-alg-q6Wi="01T11SG02-ZDV01" cb-alg-qD7Z="3" cb-algorithm-id="001" cb-classname="ControlAlgorithm" cb-function-name="MASTERSEQ" cb-modify-id="00000001" id="1Euw">
<rect cb-classname="GraphicRectangleEntity" class="algorithm" height="660" id="1Eue" width="140" x="2030" y="780"/>
<text baseline-shift="-50%" cb-classname="GraphicTextEntity" class="algorithm" fill="#000000" font-family="MS Shell Dlg" font-size="18" id="1EuO" text-anchor="middle" x="2100" y="1080">
MASTER
</text>
<text baseline-shift="-50%" cb-classname="GraphicTextEntity" class="algorithm" fill="#000000" font-family="MS Shell Dlg" font-size="18" id="1Euj" text-anchor="middle" x="2100" y="1110">
SEQ
</text>
<g cb-classname="ControlPin" cb-pin-name="9e-XNy-SLYi" id="1Eu2">
<line cb-classname="GraphicLineEntity" class="signalline" id="1Eur" x1="2010" x2="2030" y1="1050" y2="1050"/>
<polygon cb-classname="GraphicPolygonEntity" class="signal" id="1EuG" points="2030,1050 2019,1044 2019,1055"/>
<g cb-classname="DynamicText" cb-source="Rp-LWy-M7mj" class="signal" id="1MFi" text-anchor="end">
<text cb-classname="GraphicTextEntity" class="signal" fill="black" font-style="normal" font-weight="normal" id="1MFl" text-anchor="end" text-decoration="normal" x="2015" y="1047"/>
</g>
</g>
<g cb-classname="ControlPin" cb-pin-name="UT-p4g-NAmx" id="1MFo">
<line cb-classname="GraphicLineEntity" class="signalline" id="1MFw" x1="2010" x2="2030" y1="1070" y2="1070"/>
<polygon cb-classname="GraphicPolygonEntity" class="signal" id="1MFe" points="2030,1070 2019,1064 2019,1075"/>
<g cb-classname="DynamicText" cb-source="Ug-f8x-gX9a" class="signal" id="1MFO" text-anchor="end">
<text cb-classname="GraphicTextEntity" class="signal" fill="black" font-style="normal" font-weight="normal" id="1MFj" text-anchor="end" text-decoration="normal" x="2015" y="1067"/>
</g>
</g>
<g cb-classname="ControlPin" cb-pin-name="N1-lzd-okPF" id="1MF2">
<line cb-classname="GraphicLineEntity" class="signalline" id="1MFr" x1="2010" x2="2030" y1="1090" y2="1090"/>
<polygon cb-classname="GraphicPolygonEntity" class="signal" id="1MFG" points="2030,1090 2019,1084 2019,1095"/>
<g cb-classname="DynamicText" cb-source="9e-Weh-nzf8" class="signal" id="1M4i" text-anchor="end">
<text cb-classname="GraphicTextEntity" class="signal" fill="black" font-style="normal" font-weight="normal" id="1M4l" text-anchor="end" text-decoration="normal" x="2015" y="1087"/>
</g>
</g>
<g cb-classname="ControlPin" cb-pin-name="9O-HRz-SwCF" id="1M4o">
<line cb-classname="GraphicLineEntity" class="signalline" id="1M4w" x1="2010" x2="2030" y1="1110" y2="1110"/>
<polygon cb-classname="GraphicPolygonEntity" class="signal" id="1M4e" points="2030,1110 2019,1104 2019,1115"/>
<g cb-classname="DynamicText" cb-source="UT-YDM-klk7" class="signal" id="1M4O" text-anchor="end">
<text cb-classname="GraphicTextEntity" class="signal" fill="black" font-style="normal" font-weight="normal" id="1M4j" text-anchor="end" text-decoration="normal" x="2015" y="1107"/>
</g>
</g>
<g cb-classname="ControlPin" cb-pin-name="G7-cZZ-RY5N" id="1M42">
<line cb-classname="GraphicLineEntity" class="signalline" id="1M4r" x1="2170" x2="2190" y1="1390" y2="1390"/>
<g cb-classname="DynamicText" cb-source="8V-qSd-ubzZ" class="signal" id="1M4G" text-anchor="start">
<text cb-classname="GraphicTextEntity" class="signal" fill="black" font-style="normal" font-weight="normal" id="1Myi" text-anchor="start" text-decoration="normal" x="2185" y="1385"/>
</g>
<g cb-classname="SignalSegment" id="1Myl">
<line cb-classname="GraphicLineEntity" class="signalline" id="1Myo" stroke="#1e12bf" stroke-dasharray="5,4" x1="2190" x2="2320" y1="1390" y2="1390"/>
<g cb-classname="SignalSegment" id="1Myw">
<line cb-classname="GraphicLineEntity" class="signalline" id="1Mye" stroke="#1e12bf" stroke-dasharray="5,4" x1="2320" x2="2320" y1="1390" y2="1320"/>
<g cb-classname="SignalSegment" id="1MyO">
<line cb-classname="GraphicLineEntity" class="signalline" id="1Myj" stroke="#1e12bf" stroke-dasharray="5,4" x1="2320" x2="4110" y1="1320" y2="1320"/>
<g cb-classname="SignalConnection" cb-graphic-line="$1926$" cb-input-pin="$BJ5r$" id="1My2"/>
</g>
</g>
</g>
</g>
<g cb-classname="ControlPin" cb-pin-name="UT-p4g-oKzx" id="1Myr">
<line cb-classname="GraphicLineEntity" class="signalline" id="1MyG" x1="2170" x2="2190" y1="1410" y2="1410"/>
<g cb-classname="DynamicText" cb-source="G7-Cgk-dYFs" class="signal" id="1MXi" text-anchor="start">
<text cb-classname="GraphicTextEntity" class="signal" fill="black" font-style="normal" font-weight="normal" id="1MXl" text-anchor="start" text-decoration="normal" x="2184" y="1407"/>
</g>
<g cb-classname="SignalSegment" id="1MXo">
<line cb-classname="GraphicLineEntity" class="signalline" id="1MXw" stroke="#1e12bf" stroke-dasharray="5,4" x1="2190" x2="2360" y1="1410" y2="1410"/>
<g cb-classname="SignalSegment" id="1MXe">
<line cb-classname="GraphicLineEntity" class="signalline" id="1MXO" stroke="#1e12bf" stroke-dasharray="5,4" x1="2360" x2="2360" y1="1410" y2="1350"/>
<g cb-classname="SignalSegment" id="1MXj">
<line cb-classname="GraphicLineEntity" class="signalline" id="1MX2" stroke="#1e12bf" stroke-dasharray="5,4" x1="2360" x2="4110" y1="1350" y2="1350"/>
<g cb-classname="SignalConnection" cb-graphic-line="$1937$" cb-input-pin="$yl7C$" id="1MXr"/>
</g>
</g>
</g>
</g>
<g cb-classname="ControlPin" cb-pin-name="Rp-v3t-PGkj" id="1MXG">
<line cb-classname="GraphicLineEntity" class="signalline" id="1MJi" x1="2170" x2="2190" y1="1430" y2="1430"/>
<g cb-classname="DynamicText" cb-source="UT-YDM-klk7" class="signal" id="1MJl" text-anchor="start">
<text cb-classname="GraphicTextEntity" class="signal" fill="black" font-style="normal" font-weight="normal" id="1MJo" text-anchor="start" text-decoration="normal" x="2184" y="1427"/>
</g>
<g cb-classname="SignalSegment" id="1MJw">
<line cb-classname="GraphicLineEntity" class="signalline" id="1MJe" stroke="#1e12bf" stroke-dasharray="5,4" x1="2190" x2="2400" y1="1430" y2="1430"/>
<g cb-classname="SignalSegment" id="1MJO">
<line cb-classname="GraphicLineEntity" class="signalline" id="1MJj" stroke="#1e12bf" stroke-dasharray="5,4" x1="2400" x2="2400" y1="1430" y2="1380"/>
<g cb-classname="SignalSegment" id="1MJ2">
<line cb-classname="GraphicLineEntity" class="signalline" id="1MJr" stroke="#1e12bf" stroke-dasharray="5,4" x1="2400" x2="4110" y1="1380" y2="1380"/>
<g cb-classname="SignalConnection" cb-graphic-line="$1948$" cb-input-pin="$6qJl$" id="1MJG"/>
</g>
</g>
</g>
</g>
<g cb-classname="ControlPin" cb-pin-name="cD-sj9-BySf" id="1MDi">
<line cb-classname="GraphicLineEntity" class="signalline" id="1MDl" x1="2100" x2="2100" y1="1440" y2="1460"/>
<g cb-classname="DynamicText" cb-source="Rp-LWy-M7mj" class="signal" id="1MDo" text-anchor="end">
<text cb-classname="GraphicTextEntity" class="signal" fill="black" font-style="normal" font-weight="normal" id="1MDw" text-anchor="end" text-decoration="normal" transform="translate(2097,1454)rotate(-90)"/>
</g>
<g cb-classname="SignalSegment" id="1MDe">
<line cb-classname="GraphicLineEntity" class="signalline" id="1MDO" x1="2100" x2="2100" y1="1460" y2="1510"/>
<g cb-classname="SignalSegment" id="1MDj">
<g cb-classname="SignalConnection" cb-graphic-line="$1961$" cb-input-pin="$6q25$" id="1MTo"/>
<line cb-classname="GraphicLineEntity" class="signalline" id="1MTl" x1="2100" x2="4690" y1="1510" y2="1510"/>
</g>
</g>
</g>
<g cb-classname="ControlPin" cb-pin-name="cD-sj9-R1Oo" id="1MTw">
<line cb-classname="GraphicLineEntity" class="signalline" id="1MTe" x1="2010" x2="2030" y1="1130" y2="1130"/>
<polygon cb-classname="GraphicPolygonEntity" class="signal" id="1MTO" points="2030,1130 2019,1124 2019,1135"/>
<g cb-classname="DynamicText" cb-source="C0-1D2-TD1f" class="signal" id="1MTj" text-anchor="end">
<text cb-classname="GraphicTextEntity" class="signal" fill="black" font-style="normal" font-weight="normal" id="1MT2" text-anchor="end" text-decoration="normal" x="2015" y="1127"/>
</g>
</g>
<g cb-classname="ControlPin" cb-pin-name="At-6u8-cjMJ" id="1MTr">
<line cb-classname="GraphicLineEntity" class="signalline" id="1MTG" x1="2170" x2="2190" y1="790" y2="790"/>
<g cb-classname="DynamicText" cb-source="Ug-f8x-gX9a" class="signal" id="1MNi" text-anchor="start">
<text cb-classname="GraphicTextEntity" class="signal" fill="black" font-style="normal" font-weight="normal" id="1MNl" text-anchor="start" text-decoration="normal" x="2184" y="787"/>
</g>
<g cb-classname="SignalSegment" id="1MNo">
<line cb-classname="GraphicLineEntity" class="signalline" id="1MNw" x1="2190" x2="4110" y1="790" y2="790"/>
<g cb-classname="SignalConnection" cb-graphic-line="$1973$" cb-input-pin="$LpMJ$" id="1MNe"/>
</g>
</g>
<g cb-classname="ControlPin" cb-pin-name="9e-XNy-FwMt" id="1MNO">
<line cb-classname="GraphicLineEntity" class="signalline" id="1MNj" x1="2170" x2="2190" y1="810" y2="810"/>
<g cb-classname="DynamicText" cb-source="9O-PcM-2cBS" class="signal" id="1MN2" text-anchor="start">
<text cb-classname="GraphicTextEntity" class="signal" fill="black" font-style="normal" font-weight="normal" id="1MNr" text-anchor="start" text-decoration="normal" x="2184" y="807"/>
</g>
</g>
<g cb-classname="ControlPin" cb-pin-name="C0-olp-o707" id="1MNG">
<line cb-classname="GraphicLineEntity" class="signalline" id="1MHi" x1="2170" x2="2190" y1="830" y2="830"/>
<g cb-classname="DynamicText" cb-source="At-hDT-xoae" class="signal" id="1MHl" text-anchor="start">
<text cb-classname="GraphicTextEntity" class="signal" fill="black" font-style="normal" font-weight="normal" id="1MHo" text-anchor="start" text-decoration="normal" x="2184" y="827"/>
</g>
</g>
<g cb-classname="ControlPin" cb-pin-name="Ug-7OO-xxgt" id="1MHw">
<line cb-classname="GraphicLineEntity" class="signalline" id="1MHe" x1="2170" x2="2190" y1="850" y2="850"/>
<g cb-classname="DynamicText" cb-source="N1-pSg-fAiS" class="signal" id="1MHO" text-anchor="start">
<text cb-classname="GraphicTextEntity" class="signal" fill="black" font-style="normal" font-weight="normal" id="1MHj" text-anchor="start" text-decoration="normal" x="2184" y="847"/>
</g>
</g>
<g cb-classname="ControlPin" cb-pin-name="AC-YV4-8ZXU" id="1MH2">
<line cb-classname="GraphicLineEntity" class="signalline" id="1MHr" x1="2170" x2="2190" y1="870" y2="870"/>
<g cb-classname="DynamicText" cb-source="cD-MDS-y6zC" class="signal" id="1MHG" text-anchor="start">
<text cb-classname="GraphicTextEntity" class="signal" fill="black" font-style="normal" font-weight="normal" id="1Mui" text-anchor="start" text-decoration="normal" x="2184" y="867"/>
</g>
</g>
<g cb-classname="ControlPin" cb-pin-name="Rp-v3t-PSaz" id="1Mul">
<line cb-classname="GraphicLineEntity" class="signalline" id="1Muo" x1="2170" x2="2190" y1="890" y2="890"/>
<g cb-classname="DynamicText" cb-source="UT-YDM-klk7" class="signal" id="1Muw" text-anchor="start">
<text cb-classname="GraphicTextEntity" class="signal" fill="black" font-style="normal" font-weight="normal" id="1Mue" text-anchor="start" text-decoration="normal" x="2184" y="887"/>
</g>
</g>
<g cb-classname="ControlPin" cb-pin-name="G7-cZZ-DySj" id="1MuO">
<line cb-classname="GraphicLineEntity" class="signalline" id="1Muj" x1="2170" x2="2190" y1="910" y2="910"/>
<g cb-classname="DynamicText" cb-source="8V-qSd-ubzZ" class="signal" id="1Mu2" text-anchor="start">
<text cb-classname="GraphicTextEntity" class="signal" fill="black" font-style="normal" font-weight="normal" id="1Mur" text-anchor="start" text-decoration="normal" x="2184" y="907"/>
</g>
</g>
<g cb-classname="ControlPin" cb-pin-name="p4-oHE-j7sG" id="1MuG">
<line cb-classname="GraphicLineEntity" class="signalline" id="2WFi" x1="2170" x2="2190" y1="930" y2="930"/>
<g cb-classname="DynamicText" cb-source="9e-Weh-nzf8" class="signal" id="2WFl" text-anchor="start">
<text cb-classname="GraphicTextEntity" class="signal" fill="black" font-style="normal" font-weight="normal" id="2WFo" text-anchor="start" text-decoration="normal" x="2184" y="927"/>
</g>
</g>
<g cb-classname="ControlPin" cb-pin-name="9O-HRz-q6WX" id="2WFw">
<line cb-classname="GraphicLineEntity" class="signalline" id="2WFe" x1="2170" x2="2190" y1="950" y2="950"/>
<g cb-classname="DynamicText" cb-source="C0-1D2-TD1f" class="signal" id="2WFO" text-anchor="start">
<text cb-classname="GraphicTextEntity" class="signal" fill="black" font-style="normal" font-weight="normal" id="2WFj" text-anchor="start" text-decoration="normal" x="2184" y="947"/>
</g>
</g>
<g cb-classname="ControlPin" cb-pin-name="At-6u8-cjqS" id="2WF2">
<line cb-classname="GraphicLineEntity" class="signalline" id="2WFr" x1="2170" x2="2190" y1="970" y2="970"/>
<g cb-classname="DynamicText" cb-source="Ug-f8x-gX9a" class="signal" id="2WFG" text-anchor="start">
<text cb-classname="GraphicTextEntity" class="signal" fill="black" font-style="normal" font-weight="normal" id="2W4i" text-anchor="start" text-decoration="normal" x="2184" y="967"/>
</g>
</g>
<g cb-classname="ControlPin" cb-pin-name="N1-lzd-PUFY" id="2W4l">
<line cb-classname="GraphicLineEntity" class="signalline" id="2W4o" x1="2170" x2="2190" y1="990" y2="990"/>
<g cb-classname="DynamicText" cb-source="AC-E5f-Wpgh" class="signal" id="2W4w" text-anchor="start">
<text cb-classname="GraphicTextEntity" class="signal" fill="black" font-style="normal" font-weight="normal" id="2W4e" text-anchor="start" text-decoration="normal" x="2184" y="987"/>
</g>
</g>
<g cb-classname="ControlPin" cb-pin-name="cD-sj9-f7oQ" id="2W4O">
<line cb-classname="GraphicLineEntity" class="signalline" id="2W4j" x1="2170" x2="2190" y1="1010" y2="1010"/>
<g cb-classname="DynamicText" cb-source="Rp-LWy-M7mj" class="signal" id="2W42" text-anchor="start">
<text cb-classname="GraphicTextEntity" class="signal" fill="black" font-style="normal" font-weight="normal" id="2W4r" text-anchor="start" text-decoration="normal" x="2184" y="1007"/>
</g>
</g>
<g cb-classname="ControlPin" cb-pin-name="UT-p4g-tAZZ" id="2W4G">
<line cb-classname="GraphicLineEntity" class="signalline" id="2Wyi" x1="2170" x2="2190" y1="1030" y2="1030"/>
<g cb-classname="DynamicText" cb-source="G7-Cgk-dYFs" class="signal" id="2Wyl" text-anchor="start">
<text cb-classname="GraphicTextEntity" class="signal" fill="black" font-style="normal" font-weight="normal" id="2Wyo" text-anchor="start" text-decoration="normal" x="2184" y="1027"/>
</g>
</g>
<g cb-classname="ControlPin" cb-pin-name="8V-DJ4-c8mh" id="2Wyw">
<line cb-classname="GraphicLineEntity" class="signalline" id="2Wye" x1="2170" x2="2190" y1="1050" y2="1050"/>
<g cb-classname="DynamicText" cb-source="p4-i4u-hKND" class="signal" id="2WyO" text-anchor="start">
<text cb-classname="GraphicTextEntity" class="signal" fill="black" font-style="normal" font-weight="normal" id="2Wyj" text-anchor="start" text-decoration="normal" x="2184" y="1047"/>
</g>
</g>
<g cb-classname="ControlPin" cb-pin-name="9e-XNy-FwK9" id="2Wy2">
<line cb-classname="GraphicLineEntity" class="signalline" id="2Wyr" x1="2170" x2="2190" y1="1070" y2="1070"/>
<g cb-classname="DynamicText" cb-source="9O-PcM-2cBS" class="signal" id="2WyG" text-anchor="start">
<text cb-classname="GraphicTextEntity" class="signal" fill="black" font-style="normal" font-weight="normal" id="2WXi" text-anchor="start" text-decoration="normal" x="2184" y="1067"/>
</g>
</g>
<g cb-classname="ControlPin" cb-pin-name="C0-olp-o7gH" id="2WXl">
<line cb-classname="GraphicLineEntity" class="signalline" id="2WXo" x1="2170" x2="2190" y1="1090" y2="1090"/>
<g cb-classname="DynamicText" cb-source="At-hDT-xoae" class="signal" id="2WXw" text-anchor="start">
<text cb-classname="GraphicTextEntity" class="signal" fill="black" font-style="normal" font-weight="normal" id="2WXe" text-anchor="start" text-decoration="normal" x="2184" y="1087"/>
</g>
</g>
<g cb-classname="ControlPin" cb-pin-name="Ug-7OO-xxw6" id="2WXO">
<line cb-classname="GraphicLineEntity" class="signalline" id="2WXj" x1="2170" x2="2190" y1="1110" y2="1110"/>
<g cb-classname="DynamicText" cb-source="N1-pSg-fAiS" class="signal" id="2WX2" text-anchor="start">
<text cb-classname="GraphicTextEntity" class="signal" fill="black" font-style="normal" font-weight="normal" id="2WXr" text-anchor="start" text-decoration="normal" x="2184" y="1107"/>
</g>
</g>
<g cb-classname="ControlPin" cb-pin-name="AC-YV4-8ZxA" id="2WXG">
<line cb-classname="GraphicLineEntity" class="signalline" id="2WJi" x1="2170" x2="2190" y1="1130" y2="1130"/>
<g cb-classname="DynamicText" cb-source="cD-MDS-y6zC" class="signal" id="2WJl" text-anchor="start">
<text cb-classname="GraphicTextEntity" class="signal" fill="black" font-style="normal" font-weight="normal" id="2WJo" text-anchor="start" text-decoration="normal" x="2184" y="1127"/>
</g>
</g>
<g cb-classname="ControlPin" cb-pin-name="Rp-v3t-PSiy" id="2WJw">
<line cb-classname="GraphicLineEntity" class="signalline" id="2WJe" x1="2170" x2="2190" y1="1150" y2="1150"/>
<g cb-classname="DynamicText" cb-source="UT-YDM-klk7" class="signal" id="2WJO" text-anchor="start">
<text cb-classname="GraphicTextEntity" class="signal" fill="black" font-style="normal" font-weight="normal" id="2WJj" text-anchor="start" text-decoration="normal" x="2184" y="1147"/>
</g>
</g>
<g cb-classname="ControlPin" cb-pin-name="G7-cZZ-DyKg" id="2WJ2">
<line cb-classname="GraphicLineEntity" class="signalline" id="2WJr" x1="2170" x2="2190" y1="1170" y2="1170"/>
<g cb-classname="DynamicText" cb-source="8V-qSd-ubzZ" class="signal" id="2WJG" text-anchor="start">
<text cb-classname="GraphicTextEntity" class="signal" fill="black" font-style="normal" font-weight="normal" id="2WDi" text-anchor="start" text-decoration="normal" x="2184" y="1167"/>
</g>
</g>
<g cb-classname="ControlPin" cb-pin-name="p4-oHE-j7Ax" id="2WDl">
<line cb-classname="GraphicLineEntity" class="signalline" id="2WDo" x1="2170" x2="2190" y1="1190" y2="1190"/>
<g cb-classname="DynamicText" cb-source="9e-Weh-nzf8" class="signal" id="2WDw" text-anchor="start">
<text cb-classname="GraphicTextEntity" class="signal" fill="black" font-style="normal" font-weight="normal" id="2WDe" text-anchor="start" text-decoration="normal" x="2184" y="1187"/>
</g>
</g>
<g cb-classname="ControlPin" cb-pin-name="9O-HRz-q6Qw" id="2WDO">
<line cb-classname="GraphicLineEntity" class="signalline" id="2WDj" x1="2170" x2="2190" y1="1210" y2="1210"/>
<g cb-classname="DynamicText" cb-source="C0-1D2-TD1f" class="signal" id="2WD2" text-anchor="start">
<text cb-classname="GraphicTextEntity" class="signal" fill="black" font-style="normal" font-weight="normal" id="2WDr" text-anchor="start" text-decoration="normal" x="2184" y="1207"/>
</g>
</g>
<g cb-classname="ControlPin" cb-pin-name="At-6u8-cjns" id="2WDG">
<line cb-classname="GraphicLineEntity" class="signalline" id="2WTi" x1="2170" x2="2190" y1="1230" y2="1230"/>
<g cb-classname="DynamicText" cb-source="Ug-f8x-gX9a" class="signal" id="2WTl" text-anchor="start">
<text cb-classname="GraphicTextEntity" class="signal" fill="black" font-style="normal" font-weight="normal" id="2WTo" text-anchor="start" text-decoration="normal" x="2184" y="1227"/>
</g>
</g>
<g cb-classname="ControlPin" cb-pin-name="N1-lzd-PUX2" id="2WTw">
<line cb-classname="GraphicLineEntity" class="signalline" id="2WTe" x1="2170" x2="2190" y1="1250" y2="1250"/>
<g cb-classname="DynamicText" cb-source="AC-E5f-Wpgh" class="signal" id="2WTO" text-anchor="start">
<text cb-classname="GraphicTextEntity" class="signal" fill="black" font-style="normal" font-weight="normal" id="2WTj" text-anchor="start" text-decoration="normal" x="2184" y="1247"/>
</g>
</g>
<g cb-classname="ControlPin" cb-pin-name="cD-sj9-f7kc" id="2WT2">
<line cb-classname="GraphicLineEntity" class="signalline" id="2WTr" x1="2170" x2="2190" y1="1270" y2="1270"/>
<g cb-classname="DynamicText" cb-source="Rp-LWy-M7mj" class="signal" id="2WTG" text-anchor="start">
<text cb-classname="GraphicTextEntity" class="signal" fill="black" font-style="normal" font-weight="normal" id="2WNi" text-anchor="start" text-decoration="normal" x="2184" y="1267"/>
</g>
</g>
<g cb-classname="ControlPin" cb-pin-name="UT-p4g-tA6V" id="2WNl">
<line cb-classname="GraphicLineEntity" class="signalline" id="2WNo" x1="2170" x2="2190" y1="1290" y2="1290"/>
<g cb-classname="DynamicText" cb-source="G7-Cgk-dYFs" class="signal" id="2WNw" text-anchor="start">
<text cb-classname="GraphicTextEntity" class="signal" fill="black" font-style="normal" font-weight="normal" id="2WNe" text-anchor="start" text-decoration="normal" x="2184" y="1287"/>
</g>
</g>
<g cb-classname="ControlPin" cb-pin-name="8V-DJ4-c8RT" id="2WNO">
<line cb-classname="GraphicLineEntity" class="signalline" id="2WNj" x1="2170" x2="2190" y1="1310" y2="1310"/>
<g cb-classname="DynamicText" cb-source="p4-i4u-hKND" class="signal" id="2WN2" text-anchor="start">
<text cb-classname="GraphicTextEntity" class="signal" fill="black" font-style="normal" font-weight="normal" id="2WNr" text-anchor="start" text-decoration="normal" x="2184" y="1307"/>
</g>
</g>
<g cb-classname="ControlPin" cb-pin-name="9e-XNy-FwHG" id="2WNG">
<line cb-classname="GraphicLineEntity" class="signalline" id="2WHi" x1="2170" x2="2190" y1="1330" y2="1330"/>
<g cb-classname="DynamicText" cb-source="9O-PcM-2cBS" class="signal" id="2WHl" text-anchor="start">
<text cb-classname="GraphicTextEntity" class="signal" fill="black" font-style="normal" font-weight="normal" id="2WHo" text-anchor="start" text-decoration="normal" x="2184" y="1327"/>
</g>
</g>
<g cb-classname="ControlPin" cb-pin-name="C0-olp-o7LW" id="2WHw">
<line cb-classname="GraphicLineEntity" class="signalline" id="2WHe" x1="2170" x2="2190" y1="1350" y2="1350"/>
<g cb-classname="DynamicText" cb-source="At-hDT-xoae" class="signal" id="2WHO" text-anchor="start">
<text cb-classname="GraphicTextEntity" class="signal" fill="black" font-style="normal" font-weight="normal" id="2WHj" text-anchor="start" text-decoration="normal" x="2184" y="1347"/>
</g>
</g>
<g cb-classname="ControlPin" cb-pin-name="Ug-7OO-xxLE" id="2WH2">
<line cb-classname="GraphicLineEntity" class="signalline" id="2WHr" x1="2170" x2="2190" y1="1370" y2="1370"/>
<g cb-classname="DynamicText" cb-source="N1-pSg-fAiS" class="signal" id="2WHG" text-anchor="start">
<text cb-classname="GraphicTextEntity" class="signal" fill="black" font-style="normal" font-weight="normal" id="2Wui" text-anchor="start" text-decoration="normal" x="2184" y="1367"/>
</g>
</g>
<g cb-classname="ControlPin" cb-pin-name="AC-YV4-SHeW" id="2Wul">
<line cb-classname="GraphicLineEntity" class="signalline" id="2Wuo" x1="2010" x2="2030" y1="1150" y2="1150"/>
<polygon cb-classname="GraphicPolygonEntity" class="signal" id="2Wuw" points="2030,1150 2019,1144 2019,1155"/>
<g cb-classname="DynamicText" cb-source="9O-PcM-2cBS" class="signal" id="2Wue" text-anchor="end">
<text cb-classname="GraphicTextEntity" class="signal" fill="black" font-style="normal" font-weight="normal" id="2WuO" text-anchor="end" text-decoration="normal" x="2015" y="1147"/>
</g>
</g>
<g cb-classname="DynamicText" cb-labeled="true" cb-source="C0-olp-TmSd" class="algorithm" id="2Wuj" text-anchor="start">
<text cb-classname="GraphicTextEntity" class="algorithm" fill="black" font-style="normal" font-weight="normal" id="2Wu2" text-anchor="start" text-decoration="normal" x="2070" y="770"/>
</g>
</g>
<g cb-alg-LDoy="01T11SG02-FDBZ" cb-alg-e5="$1893$cb-alg-fail$" cb-alg-ef="$1893$cb-alg-hold$" cb-alg-es="$1893$cb-alg-done$" cb-algorithm-id="00e" cb-classname="ControlAlgorithm" cb-function-name="PACK16" id="2Wur">
<rect cb-classname="GraphicRectangleEntity" class="algorithm" height="100" id="2WuG" width="140" x="4130" y="1300"/>
<text baseline-shift="-50%" cb-classname="GraphicTextEntity" class="algorithm" fill="#000000" font-family="MS Shell Dlg" font-size="18" id="2XFi" text-anchor="middle" x="4200" y="1350">
PACK16
</text>
<g cb-classname="ControlPin" cb-pin-name="8V-DJ4-WU0S" id="2XFl">
<line cb-classname="GraphicLineEntity" class="signalline" id="2XFo" x1="4270" x2="4290" y1="1350" y2="1350"/>
<g cb-classname="DynamicText" cb-source="p4-i4u-hKND" class="signal" id="2XFw" text-anchor="start">
<text cb-classname="GraphicTextEntity" class="signal" fill="black" font-style="normal" font-weight="normal" id="2XFe" text-anchor="start" text-decoration="normal" x="4284" y="1347"/>
</g>
<g cb-classname="SignalSegment" id="2XFO">
<line cb-classname="GraphicLineEntity" class="signalline" id="2XFj" x1="4290" x2="4690" y1="1350" y2="1350"/>
<g cb-classname="SignalConnection" cb-graphic-line="$2106$" cb-input-pin="$ylBN$" id="2XF2"/>
</g>
</g>
<g cb-classname="ControlPin" cb-pin-name="Rp-v3t-PW" id="2XFr">
<line cb-classname="GraphicLineEntity" class="signalline" id="2XFG" x1="4110" x2="4130" y1="1320" y2="1320"/>
<polygon cb-classname="GraphicPolygonEntity" class="signal" id="2X4i" points="4130,1320 4119,1314 4119,1325"/>
<g cb-classname="DynamicText" cb-source="At-hDT-xoae" class="signal" id="2X4l" text-anchor="end">
<text cb-classname="GraphicTextEntity" class="signal" fill="black" font-style="normal" font-weight="normal" id="2X4o" text-anchor="end" text-decoration="normal" x="4115" y="1317"/>
</g>
</g>
<g cb-classname="ControlPin" cb-pin-name="Ug-7OO-xJ" id="2X4w">
<line cb-classname="GraphicLineEntity" class="signalline" id="2X4e" x1="4110" x2="4130" y1="1350" y2="1350"/>
<polygon cb-classname="GraphicPolygonEntity" class="signal" id="2X4O" points="4130,1350 4119,1344 4119,1355"/>
<g cb-classname="DynamicText" cb-source="p4-i4u-hKND" class="signal" id="2X4j" text-anchor="end">
<text cb-classname="GraphicTextEntity" class="signal" fill="black" font-style="normal" font-weight="normal" id="2X42" text-anchor="end" text-decoration="normal" x="4115" y="1347"/>
</g>
</g>
<g cb-classname="ControlPin" cb-pin-name="9e-XNy-Fu" id="2X4r">
<line cb-classname="GraphicLineEntity" class="signalline" id="2X4G" x1="4110" x2="4130" y1="1380" y2="1380"/>
<polygon cb-classname="GraphicPolygonEntity" class="signal" id="2Xyi" points="4130,1380 4119,1374 4119,1385"/>
<g cb-classname="DynamicText" cb-source="Rp-LWy-M7mj" class="signal" id="2Xyl" text-anchor="end">
<text cb-classname="GraphicTextEntity" class="signal" fill="black" font-style="normal" font-weight="normal" id="2Xyo" text-anchor="end" text-decoration="normal" x="4115" y="1377"/>
</g>
</g>
</g>
<g cb-alg-DS="$2098$cb-alg-pout$" cb-algorithm-id="00f" cb-classname="ExternalPointInterface" cb-function-name="OUTPUT" id="2Xyw">
<ellipse cb-classname="GraphicEllipseEntity" class="algorithm" cx="4770" cy="1350" id="2Xye" rx="50" ry="50"/>
<rect cb-classname="GraphicRectangleEntity" class="algorithm" height="100" id="2XyO" width="40" x="4820" y="1300"/>
<line cb-classname="GraphicLineEntity" class="algorithm" id="2Xyj" x1="4820" x2="4860" y1="1350" y2="1350"/>
<g cb-classname="ControlPin" cb-pin-name="8V-DJ4-5f" id="2Xy2">
<line cb-classname="GraphicLineEntity" class="signalline" id="2Xyr" x1="4690" x2="4720" y1="1350" y2="1350"/>
<polygon cb-classname="GraphicPolygonEntity" class="signal" id="2XyG" points="4720,1350 4709,1344 4709,1355"/>
<g cb-classname="DynamicText" cb-source="AC-E5f-Wpgh" class="signal" id="2XXi" text-anchor="end">
<text cb-classname="GraphicTextEntity" class="signal" fill="black" font-style="normal" font-weight="normal" id="2XXl" text-anchor="end" text-decoration="normal" x="4705" y="1347"/>
</g>
</g>
<g cb-classname="PointStatusIndicator" cb-indicator-type="highway" cb-source="cD-sj9-D2" id="2XXo" visibility="hidden">
<line cb-classname="GraphicLineEntity" class="algorithmline" id="2XXw" x1="4720" x2="4770" y1="1350" y2="1300"/>
<line cb-classname="GraphicLineEntity" class="algorithmline" id="2XXe" x1="4770" x2="4820" y1="1300" y2="1350"/>
<line cb-classname="GraphicLineEntity" class="algorithmline" id="2XXO" x1="4820" x2="4770" y1="1350" y2="1400"/>
<line cb-classname="GraphicLineEntity" class="algorithmline" id="2XXj" x1="4770" x2="4720" y1="1400" y2="1350"/>
</g>
<g cb-classname="PointStatusIndicator" cb-indicator-type="hardware" cb-source="At-6u8-Sd" id="2XX2" visibility="hidden">
<line cb-classname="GraphicLineEntity" class="algorithmline" id="2XXr" x1="4820" x2="4720" y1="1300" y2="1300"/>
<line cb-classname="GraphicLineEntity" class="algorithmline" id="2XXG" x1="4720" x2="4720" y1="1300" y2="1400"/>
<line cb-classname="GraphicLineEntity" class="algorithmline" id="2XJi" x1="4720" x2="4820" y1="1400" y2="1400"/>
</g>
<g cb-classname="PointStatusIndicator" cb-indicator-type="alarm" cb-source="N1-lzd-eh" id="2XJl" visibility="hidden">
<text cb-classname="GraphicTextEntity" class="algorithm" fill="#000000" font-family="Arial" font-size="20" id="2XJo" x="4830" y="1385">
A
</text>
</g>
<g cb-classname="PointStatusIndicator" cb-indicator-type="ingraphic" cb-source="AC-YV4-In" id="2XJw" visibility="visible">
<text cb-classname="GraphicTextEntity" class="algorithm" fill="#000000" font-family="Arial" font-size="20" id="2XJe" x="4830" y="1335">
G
</text>
</g>
<g cb-classname="DynamicText" cb-labeled="false" cb-pin-name="Iy" cb-source="cD-sj9-D2" class="algorithm" id="2XJO" text-anchor="end">
<text baseline-shift="0%" cb-classname="GraphicTextEntity" class="algorithm" fill="black" font-family="arial" font-size="20" font-style="normal" font-weight="normal" id="2XJj" text-anchor="end" text-decoration="normal" x="4695" y="1325"/>
</g>
<g baseline-shift="-100%" cb-anchor-x="4695" cb-anchor-y="1360" cb-classname="PointReferences" cb-max-width="130" cb-originator="false" cb-source="Rp-v3t-DT" class="signal" id="2XJ2" text-anchor="end">
<text baseline-shift="-100%" cb-classname="GraphicTextEntity" class="algorithm" id="2XJr" text-anchor="end" x="4695" y="1360">
REF: Point not
</text>
<text baseline-shift="-100%" cb-classname="GraphicTextEntity" class="algorithm" id="324e" text-anchor="end" x="4695" y="1385">
found in
</text>
<text baseline-shift="-100%" cb-classname="GraphicTextEntity" class="algorithm" id="324O" text-anchor="end" x="4695" y="1410">
database
</text>
<text baseline-shift="-100%" cb-classname="GraphicTextEntity" class="algorithm" id="324j" text-anchor="end" x="4695" y="1435">
(01T11SG02-FDBZ)
</text>
</g>
<g baseline-shift="-50%" cb-anchor-x="4875" cb-anchor-y="1365" cb-classname="PointDescription" cb-content="extended" cb-labeled="false" cb-max-width="240" cb-source="At-6u8-Sd" class="algorithm" id="2XDi" text-anchor="start">
<text baseline-shift="-50%" cb-classname="GraphicTextEntity" class="algorithm" id="2XDl" text-anchor="start" x="4875" y="1353">
DESC: Point not found in
</text>
<text baseline-shift="-50%" cb-classname="GraphicTextEntity" class="algorithm" id="2MTj" text-anchor="start" x="4875" y="1378">
database (01T11SG02-FDBZ)
</text>
</g>
</g>
<g cb-alg-D2="$1893$cb-alg-step$" cb-algorithm-id="011" cb-classname="ExternalPointInterface" cb-function-name="OUTPUT" id="2XDo">
<ellipse cb-classname="GraphicEllipseEntity" class="algorithm" cx="4770" cy="1510" id="2XDw" rx="50" ry="50"/>
<rect cb-classname="GraphicRectangleEntity" class="algorithm" height="100" id="2XDe" width="40" x="4820" y="1460"/>
<line cb-classname="GraphicLineEntity" class="algorithm" id="2XDO" x1="4820" x2="4860" y1="1510" y2="1510"/>
<g cb-classname="ControlPin" cb-pin-name="AC-YV4-In" id="2XDj">
<line cb-classname="GraphicLineEntity" class="signalline" id="2XD2" x1="4690" x2="4720" y1="1510" y2="1510"/>
<polygon cb-classname="GraphicPolygonEntity" class="signal" id="2XDr" points="4720,1510 4709,1504 4709,1515"/>
<g cb-classname="DynamicText" cb-source="9O-PcM-2cBS" class="signal" id="2XDG" text-anchor="end">
<text cb-classname="GraphicTextEntity" class="signal" fill="black" font-style="normal" font-weight="normal" id="2XTi" text-anchor="end" text-decoration="normal" x="4705" y="1507"/>
</g>
</g>
<g cb-classname="PointStatusIndicator" cb-indicator-type="highway" cb-source="C0-olp-gk" id="2XTl" visibility="hidden">
<line cb-classname="GraphicLineEntity" class="algorithmline" id="2XTo" x1="4720" x2="4770" y1="1510" y2="1460"/>
<line cb-classname="GraphicLineEntity" class="algorithmline" id="2XTw" x1="4770" x2="4820" y1="1460" y2="1510"/>
<line cb-classname="GraphicLineEntity" class="algorithmline" id="2XTe" x1="4820" x2="4770" y1="1510" y2="1560"/>
<line cb-classname="GraphicLineEntity" class="algorithmline" id="2XTO" x1="4770" x2="4720" y1="1560" y2="1510"/>
</g>
<g cb-classname="PointStatusIndicator" cb-indicator-type="hardware" cb-source="8V-DJ4-5f" id="2XTj" visibility="hidden">
<line cb-classname="GraphicLineEntity" class="algorithmline" id="2XT2" x1="4820" x2="4720" y1="1460" y2="1460"/>
<line cb-classname="GraphicLineEntity" class="algorithmline" id="2XTr" x1="4720" x2="4720" y1="1460" y2="1560"/>
<line cb-classname="GraphicLineEntity" class="algorithmline" id="2XTG" x1="4720" x2="4820" y1="1560" y2="1560"/>
</g>
<g cb-classname="PointStatusIndicator" cb-indicator-type="alarm" cb-source="9e-XNy-eL" id="2XNi" visibility="hidden">
<text cb-classname="GraphicTextEntity" class="algorithm" fill="#000000" font-family="Arial" font-size="20" id="2XNl" x="4830" y="1545">
A
</text>
</g>
<g cb-classname="PointStatusIndicator" cb-indicator-type="ingraphic" cb-source="9O-HRz-DM" id="2XNo" visibility="visible">
<text cb-classname="GraphicTextEntity" class="algorithm" fill="#000000" font-family="Arial" font-size="20" id="2XNw" x="4830" y="1495">
G
</text>
</g>
<g cb-classname="DynamicText" cb-labeled="false" cb-pin-name="YT" cb-source="C0-olp-gk" class="algorithm" id="2XNe" text-anchor="end">
<text baseline-shift="0%" cb-classname="GraphicTextEntity" class="algorithm" fill="black" font-family="arial" font-size="20" font-style="normal" font-weight="normal" id="2XNO" text-anchor="end" text-decoration="normal" x="4695" y="1485"/>
</g>
<g baseline-shift="-100%" cb-anchor-x="4695" cb-anchor-y="1520" cb-classname="PointReferences" cb-max-width="130" cb-originator="false" cb-source="At-6u8-Sd" class="signal" id="2XNj" text-anchor="end">
<text baseline-shift="-100%" cb-classname="GraphicTextEntity" class="algorithm" id="2XN2" text-anchor="end" x="4695" y="1520">
REF: Point not
</text>
<text baseline-shift="-100%" cb-classname="GraphicTextEntity" class="algorithm" id="324r" text-anchor="end" x="4695" y="1545">
found in
</text>
<text baseline-shift="-100%" cb-classname="GraphicTextEntity" class="algorithm" id="324G" text-anchor="end" x="4695" y="1570">
database
</text>
<text baseline-shift="-100%" cb-classname="GraphicTextEntity" class="algorithm" id="32yi" text-anchor="end" x="4695" y="1595">
(01T11SG02-SNRZ)
</text>
</g>
<g baseline-shift="-50%" cb-anchor-x="4875" cb-anchor-y="1525" cb-classname="PointDescription" cb-content="extended" cb-labeled="false" cb-max-width="240" cb-source="8V-DJ4-5f" class="algorithm" id="2XNG" text-anchor="start">
<text baseline-shift="-50%" cb-classname="GraphicTextEntity" class="algorithm" id="2XHi" text-anchor="start" x="4875" y="1513">
DESC: Point not found in
</text>
<text baseline-shift="-50%" cb-classname="GraphicTextEntity" class="algorithm" id="2MT2" text-anchor="start" x="4875" y="1538">
database (01T11SG02-SNRZ)
</text>
</g>
</g>
<g cb-alg-G3S4="NO" cb-alg-GV3="01T11G01-P04" cb-algorithm-id="014" cb-classname="ExternalPointInterface" cb-function-name="INPUT" id="2XHl">
<ellipse cb-classname="GraphicEllipseEntity" class="algorithm" cx="600" cy="1530" id="2XHo" rx="50" ry="50"/>
<rect cb-classname="GraphicRectangleEntity" class="algorithm" height="100" id="2XHw" width="40" x="510" y="1480"/>
<line cb-classname="GraphicLineEntity" class="algorithm" id="2XHe" x1="510" x2="550" y1="1530" y2="1530"/>
<g cb-classname="ControlPin" cb-pin-name="9O-HRz-J46" id="2XHO">
<line cb-classname="GraphicLineEntity" class="signalline" id="2XHj" x1="650" x2="680" y1="1530" y2="1530"/>
<g cb-classname="DynamicText" cb-source="C0-1D2-TD1f" class="signal" id="2XH2" text-anchor="start">
<text cb-classname="GraphicTextEntity" class="signal" fill="black" font-style="normal" font-weight="normal" id="2XHr" text-anchor="start" text-decoration="normal" x="664" y="1527"/>
</g>
<g cb-classname="SignalSegment" id="2XHG">
<line cb-classname="GraphicLineEntity" class="signalline" id="2Xui" stroke="#1e12bf" stroke-dasharray="5,4" x1="680" x2="1540" y1="1530" y2="1530"/>
<g cb-classname="SignalConnection" cb-graphic-line="$2190$" cb-input-pin="$3kMX$" id="2Xul"/>
</g>
</g>
<g cb-classname="PointStatusIndicator" cb-indicator-type="Highway" cb-source="8V-DJ4-GuZ" id="2Xuo" visibility="hidden">
<line cb-classname="GraphicLineEntity" class="algorithmline" id="2Xuw" x1="550" x2="600" y1="1530" y2="1480"/>
<line cb-classname="GraphicLineEntity" class="algorithmline" id="2Xue" x1="600" x2="650" y1="1480" y2="1530"/>
<line cb-classname="GraphicLineEntity" class="algorithmline" id="2XuO" x1="650" x2="600" y1="1530" y2="1580"/>
<line cb-classname="GraphicLineEntity" class="algorithmline" id="2Xuj" x1="600" x2="550" y1="1580" y2="1530"/>
</g>
<g cb-classname="PointStatusIndicator" cb-indicator-type="hardware" cb-source="cD-sj9-eKy" id="2Xu2" visibility="hidden">
<line cb-classname="GraphicLineEntity" class="algorithmline" id="2Xur" x1="550" x2="650" y1="1480" y2="1480"/>
<line cb-classname="GraphicLineEntity" class="algorithmline" id="2XuG" x1="650" x2="650" y1="1480" y2="1580"/>
<line cb-classname="GraphicLineEntity" class="algorithmline" id="2NFi" x1="650" x2="550" y1="1580" y2="1580"/>
</g>
<g cb-classname="PointStatusIndicator" cb-indicator-type="alarm" cb-source="UT-p4g-NBA" id="2NFl" visibility="hidden">
<text cb-classname="GraphicTextEntity" class="algorithm" fill="#000000" font-family="arial" font-size="20" id="2NFo" x="520" y="1515">
A
</text>
</g>
<g cb-classname="PointStatusIndicator" cb-indicator-type="ingraphic" cb-source="G7-cZZ-rCy" id="2NFw" visibility="visible">
<text cb-classname="GraphicTextEntity" class="algorithm" fill="#000000" font-family="Arial" font-size="20" id="2NFe" x="520" y="1565">
G
</text>
</g>
<g baseline-shift="-50%" cb-anchor-x="500" cb-anchor-y="1544" cb-classname="PointDescription" cb-content="extended" cb-labeled="false" cb-max-width="220" cb-source="8V-DJ4-GuZ" class="algorithm" id="2NFO" text-anchor="end">
<text baseline-shift="-50%" cb-classname="GraphicTextEntity" class="algorithm" id="2NFj" text-anchor="end" x="500" y="1532">
DESC: Point not found in
</text>
<text baseline-shift="-50%" cb-classname="GraphicTextEntity" class="algorithm" id="2MTG" text-anchor="end" x="500" y="1557">
database (01T11G01-P04)
</text>
</g>
<g cb-classname="DynamicText" cb-labeled="false" cb-pin-name="dyV" cb-source="p4-oHE-qa5" class="algorithm" id="2NF2" text-anchor="start">
<text baseline-shift="0%" cb-classname="GraphicTextEntity" class="algorithm" fill="black" font-family="arial" font-size="20" font-style="normal" font-weight="normal" id="2NFr" text-anchor="start" text-decoration="normal" x="670" y="1500"/>
</g>
<g baseline-shift="-100%" cb-anchor-x="670" cb-anchor-y="1540" cb-classname="PointReferences" cb-max-width="230" cb-originator="true" cb-source="9e-XNy-jEn" class="signal" id="2NFG" text-anchor="start">
<text baseline-shift="-100%" cb-classname="GraphicTextEntity" class="algorithm" id="2N4i" text-anchor="start" x="670" y="1540">
REF: Point not found in
</text>
<text baseline-shift="-100%" cb-classname="GraphicTextEntity" class="algorithm" id="32yo" text-anchor="start" x="670" y="1565">
database (01T11G01-P04)
</text>
</g>
</g>
<g cb-alg-Y8Rh="NO" cb-alg-Yb9="01T11SG01-CEO" cb-algorithm-id="015" cb-classname="ExternalPointInterface" cb-function-name="INPUT" id="2N4l">
<ellipse cb-classname="GraphicEllipseEntity" class="algorithm" cx="600" cy="1690" id="2N4o" rx="50" ry="50"/>
<rect cb-classname="GraphicRectangleEntity" class="algorithm" height="100" id="2N4w" width="40" x="510" y="1640"/>
<line cb-classname="GraphicLineEntity" class="algorithm" id="2N4e" x1="510" x2="550" y1="1690" y2="1690"/>
<g cb-classname="ControlPin" cb-pin-name="At-6u8-KNj" id="2N4O">
<line cb-classname="GraphicLineEntity" class="signalline" id="2N4j" x1="650" x2="680" y1="1690" y2="1690"/>
<g cb-classname="DynamicText" cb-source="Ug-f8x-gX9a" class="signal" id="2N42" text-anchor="start">
<text cb-classname="GraphicTextEntity" class="signal" fill="black" font-style="normal" font-weight="normal" id="2N4r" text-anchor="start" text-decoration="normal" x="664" y="1687"/>
</g>
<g cb-classname="SignalSegment" id="2N4G">
<line cb-classname="GraphicLineEntity" class="signalline" id="2Nyi" stroke="#1e12bf" stroke-dasharray="5,4" x1="680" x2="1330" y1="1690" y2="1690"/>
<g cb-classname="SignalSegment" id="2Nyl">
<line cb-classname="GraphicLineEntity" class="signalline" id="2Nyo" stroke="#1e12bf" stroke-dasharray="5,4" x1="1330" x2="1330" y1="1690" y2="1570"/>
<g cb-classname="SignalSegment" id="2Nyw">
<line cb-classname="GraphicLineEntity" class="signalline" id="2Nye" stroke="#1e12bf" stroke-dasharray="5,4" x1="1330" x2="1540" y1="1570" y2="1570"/>
<g cb-classname="SignalConnection" cb-graphic-line="$2224$" cb-input-pin="$oBUS$" id="2NyO"/>
</g>
</g>
</g>
</g>
<g cb-classname="PointStatusIndicator" cb-indicator-type="Highway" cb-source="C0-olp-GV3" id="2Nyj" visibility="hidden">
<line cb-classname="GraphicLineEntity" class="algorithmline" id="2Ny2" x1="550" x2="600" y1="1690" y2="1640"/>
<line cb-classname="GraphicLineEntity" class="algorithmline" id="2Nyr" x1="600" x2="650" y1="1640" y2="1690"/>
<line cb-classname="GraphicLineEntity" class="algorithmline" id="2NyG" x1="650" x2="600" y1="1690" y2="1740"/>
<line cb-classname="GraphicLineEntity" class="algorithmline" id="2NXi" x1="600" x2="550" y1="1740" y2="1690"/>
</g>
<g cb-classname="PointStatusIndicator" cb-indicator-type="hardware" cb-source="8V-DJ4-GuZ" id="2NXl" visibility="hidden">
<line cb-classname="GraphicLineEntity" class="algorithmline" id="2NXo" x1="550" x2="650" y1="1640" y2="1640"/>
<line cb-classname="GraphicLineEntity" class="algorithmline" id="2NXw" x1="650" x2="650" y1="1640" y2="1740"/>
<line cb-classname="GraphicLineEntity" class="algorithmline" id="2NXe" x1="650" x2="550" y1="1740" y2="1740"/>
</g>
<g cb-classname="PointStatusIndicator" cb-indicator-type="alarm" cb-source="9e-XNy-jEn" id="2NXO" visibility="hidden">
<text cb-classname="GraphicTextEntity" class="algorithm" fill="#000000" font-family="arial" font-size="20" id="2NXj" x="520" y="1675">
A
</text>
</g>
<g cb-classname="PointStatusIndicator" cb-indicator-type="ingraphic" cb-source="9O-HRz-J46" id="2NX2" visibility="visible">
<text cb-classname="GraphicTextEntity" class="algorithm" fill="#000000" font-family="Arial" font-size="20" id="2NXr" x="520" y="1725">
G
</text>
</g>
<g baseline-shift="-50%" cb-anchor-x="500" cb-anchor-y="1704" cb-classname="PointDescription" cb-content="extended" cb-labeled="false" cb-max-width="220" cb-source="C0-olp-GV3" class="algorithm" id="2NXG" text-anchor="end">
<text baseline-shift="-50%" cb-classname="GraphicTextEntity" class="algorithm" id="2NJi" text-anchor="end" x="500" y="1679">
DESC: Point not found in
</text>
<text baseline-shift="-50%" cb-classname="GraphicTextEntity" class="algorithm" id="2MNl" text-anchor="end" x="500" y="1704">
database
</text>
<text baseline-shift="-50%" cb-classname="GraphicTextEntity" class="algorithm" id="32ye" text-anchor="end" x="500" y="1729">
(01T11SG01-CEO)
</text>
</g>
<g cb-classname="DynamicText" cb-labeled="false" cb-pin-name="Mnh" cb-source="At-6u8-KNj" class="algorithm" id="2NJl" text-anchor="start">
<text baseline-shift="0%" cb-classname="GraphicTextEntity" class="algorithm" fill="black" font-family="arial" font-size="20" font-style="normal" font-weight="normal" id="2NJo" text-anchor="start" text-decoration="normal" x="670" y="1660"/>
</g>
<g baseline-shift="-100%" cb-anchor-x="670" cb-anchor-y="1700" cb-classname="PointReferences" cb-max-width="230" cb-originator="true" cb-source="Ug-7OO-wHx" class="signal" id="2NJw" text-anchor="start">
<text baseline-shift="-100%" cb-classname="GraphicTextEntity" class="algorithm" id="2NJe" text-anchor="start" x="670" y="1700">
REF: Point not found in
</text>
<text baseline-shift="-100%" cb-classname="GraphicTextEntity" class="algorithm" id="32yO" text-anchor="start" x="670" y="1725">
database (01T11SG01-CEO)
</text>
</g>
</g>
<g cb-alg-DTi="$2181$cb-alg-out$" cb-alg-DTw="$2211$cb-alg-out$" cb-algorithm-id="004" cb-classname="FastBooleanAlgorithm" cb-function-name="OR" cb-modify-id="00000001" id="2NJO">
<ellipse cb-classname="GraphicEllipseEntity" class="algorithm" cx="1590" cy="1550" id="2NJj" rx="30" ry="30"/>
<line cb-classname="GraphicLineEntity" class="algorithm" id="2NJ2" x1="1560" x2="1560" y1="1510" y2="1590"/>
<text baseline-shift="-50%" cb-classname="GraphicTextEntity" class="algorithm" fill="#000000" font-family="MS Shell Dlg" font-size="18" id="2NJr" text-anchor="middle" x="1589" y="1545">
OR
</text>
<g cb-classname="ControlPin" cb-pin-name="cD-sj9-D2o" id="2NJG">
<line cb-classname="GraphicLineEntity" class="signalline" id="2NDi" x1="1540" x2="1560" y1="1530" y2="1530"/>
<polygon cb-classname="GraphicPolygonEntity" class="signal" id="2NDl" points="1560,1530 1549,1524 1549,1535"/>
<g cb-classname="DynamicText" cb-source="C0-1D2-TD1f" class="signal" id="2NDo" text-anchor="end">
<text cb-classname="GraphicTextEntity" class="signal" fill="black" font-style="normal" font-weight="normal" id="2NDw" text-anchor="end" text-decoration="normal" x="1545" y="1527"/>
</g>
</g>
<g cb-classname="ControlPin" cb-pin-name="At-6u8-Sdn" id="2NDe">
<line cb-classname="GraphicLineEntity" class="signalline" id="2NDO" x1="1540" x2="1560" y1="1570" y2="1570"/>
<polygon cb-classname="GraphicPolygonEntity" class="signal" id="2NDj" points="1560,1570 1549,1564 1549,1575"/>
<g cb-classname="DynamicText" cb-source="8V-qSd-ubzZ" class="signal" id="2ND2" text-anchor="end">
<text cb-classname="GraphicTextEntity" class="signal" fill="black" font-style="normal" font-weight="normal" id="2NDr" text-anchor="end" text-decoration="normal" x="1545" y="1567"/>
</g>
</g>
<g cb-classname="ControlPin" cb-pin-name="p4-oHE-qa5" id="2NDG">
<line cb-classname="GraphicLineEntity" class="signalline" id="2NTi" x1="1620" x2="1640" y1="1550" y2="1550"/>
<g cb-classname="DynamicText" cb-source="9e-Weh-nzf8" class="signal" id="2NTl" text-anchor="start">
<text cb-classname="GraphicTextEntity" class="signal" fill="black" font-style="normal" font-weight="normal" id="2NTo" text-anchor="start" text-decoration="normal" x="1634" y="1547"/>
</g>
<g cb-classname="SignalSegment" id="2NTw">
<g cb-classname="SignalSegment" id="2NTG">
<g cb-classname="SignalSegment" id="2NNi">
<line cb-classname="GraphicLineEntity" class="signalline" id="2NNl" stroke="#1e12bf" stroke-dasharray="5,4" x1="2440" x2="4110" y1="850" y2="850"/>
<g cb-classname="SignalConnection" cb-graphic-line="$2271$" cb-input-pin="$wqZV$" id="2NNo"/>
</g>
<line cb-classname="GraphicLineEntity" class="signalline" id="2NNw" stroke="#1e12bf" stroke-dasharray="5,4" x1="2440" x2="2440" y1="1550" y2="850"/>
</g>
<line cb-classname="GraphicLineEntity" class="signalline" id="2NTr" stroke="#1e12bf" stroke-dasharray="5,4" x1="1640" x2="2440" y1="1550" y2="1550"/>
</g>
</g>
</g>
<g cb-alg-KNj="01T1102D01B-EPZ" cb-alg-Km4E="NO" cb-algorithm-id="016" cb-classname="ExternalPointInterface" cb-function-name="INPUT" id="2NNe">
<ellipse cb-classname="GraphicEllipseEntity" class="algorithm" cx="600" cy="1850" id="2NNO" rx="50" ry="50"/>
<rect cb-classname="GraphicRectangleEntity" class="algorithm" height="100" id="2NNj" width="40" x="510" y="1800"/>
<line cb-classname="GraphicLineEntity" class="algorithm" id="2NN2" x1="510" x2="550" y1="1850" y2="1850"/>
<g cb-classname="ControlPin" cb-pin-name="C0-olp-GV3" id="2NNr">
<line cb-classname="GraphicLineEntity" class="signalline" id="2NNG" x1="650" x2="680" y1="1850" y2="1850"/>
<g cb-classname="DynamicText" cb-source="At-hDT-xoae" class="signal" id="2NHi" text-anchor="start">
<text cb-classname="GraphicTextEntity" class="signal" fill="black" font-style="normal" font-weight="normal" id="2NHl" text-anchor="start" text-decoration="normal" x="664" y="1847"/>
</g>
<g cb-classname="SignalSegment" id="2NHo">
<line cb-classname="GraphicLineEntity" class="signalline" id="22u2" stroke="#1e12bf" stroke-dasharray="5,4" x1="680" x2="1540" y1="1850" y2="1850"/>
<g cb-classname="SignalConnection" cb-graphic-line="$2797$" cb-input-pin="$BC8O$" id="22ur"/>
</g>
</g>
<g cb-classname="PointStatusIndicator" cb-indicator-type="Highway" cb-source="p4-oHE-qa5" id="2NHO" visibility="hidden">
<line cb-classname="GraphicLineEntity" class="algorithmline" id="2NHj" x1="550" x2="600" y1="1850" y2="1800"/>
<line cb-classname="GraphicLineEntity" class="algorithmline" id="2NH2" x1="600" x2="650" y1="1800" y2="1850"/>
<line cb-classname="GraphicLineEntity" class="algorithmline" id="2NHr" x1="650" x2="600" y1="1850" y2="1900"/>
<line cb-classname="GraphicLineEntity" class="algorithmline" id="2NHG" x1="600" x2="550" y1="1900" y2="1850"/>
</g>
<g cb-classname="PointStatusIndicator" cb-indicator-type="hardware" cb-source="Rp-v3t-O9F" id="2Nui" visibility="visible">
<line cb-classname="GraphicLineEntity" class="algorithmline" id="2Nul" x1="550" x2="650" y1="1800" y2="1800"/>
<line cb-classname="GraphicLineEntity" class="algorithmline" id="2Nuo" x1="650" x2="650" y1="1800" y2="1900"/>
<line cb-classname="GraphicLineEntity" class="algorithmline" id="2Nuw" x1="650" x2="550" y1="1900" y2="1900"/>
</g>
<g cb-classname="PointStatusIndicator" cb-indicator-type="alarm" cb-source="G7-cZZ-rCy" id="2Nue" visibility="hidden">
<text cb-classname="GraphicTextEntity" class="algorithm" fill="#000000" font-family="arial" font-size="20" id="2NuO" x="520" y="1835">
A
</text>
</g>
<g cb-classname="PointStatusIndicator" cb-indicator-type="ingraphic" cb-source="8V-DJ4-GuZ" id="2Nuj" visibility="visible">
<text cb-classname="GraphicTextEntity" class="algorithm" fill="#000000" font-family="Arial" font-size="20" id="2Nu2" x="520" y="1885">
G
</text>
</g>
<g baseline-shift="-50%" cb-anchor-x="500" cb-anchor-y="1864" cb-classname="PointDescription" cb-content="extended" cb-labeled="false" cb-max-width="220" cb-source="p4-oHE-qa5" class="algorithm" id="2Nur" text-anchor="end">
<text baseline-shift="-50%" cb-classname="GraphicTextEntity" class="algorithm" id="2NuG" text-anchor="end" x="500" y="1839">
DESC: Point not found in
</text>
<text baseline-shift="-50%" cb-classname="GraphicTextEntity" class="algorithm" id="2MNw" text-anchor="end" x="500" y="1864">
database
</text>
<text baseline-shift="-50%" cb-classname="GraphicTextEntity" class="algorithm" id="32y2" text-anchor="end" x="500" y="1889">
(01T1102D01B-EPZ)
</text>
</g>
<g cb-classname="DynamicText" cb-labeled="false" cb-pin-name="23p" cb-source="9e-XNy-jEn" class="algorithm" id="2BFi" text-anchor="start">
<text baseline-shift="0%" cb-classname="GraphicTextEntity" class="algorithm" fill="black" font-family="arial" font-size="20" font-style="normal" font-weight="normal" id="2BFl" text-anchor="start" text-decoration="normal" x="670" y="1820"/>
</g>
<g baseline-shift="-100%" cb-anchor-x="670" cb-anchor-y="1860" cb-classname="PointReferences" cb-max-width="230" cb-originator="true" cb-source="9O-HRz-J46" class="signal" id="2BFo" text-anchor="start">
<text baseline-shift="-100%" cb-classname="GraphicTextEntity" class="algorithm" id="2BFw" text-anchor="start" x="670" y="1860">
REF: Point not found in
</text>
<text baseline-shift="-100%" cb-classname="GraphicTextEntity" class="algorithm" id="32yr" text-anchor="start" x="670" y="1885">
database
</text>
<text baseline-shift="-100%" cb-classname="GraphicTextEntity" class="algorithm" id="32yG" text-anchor="start" x="670" y="1910">
(01T1102D01B-EPZ)
</text>
</g>
</g>
<g cb-alg-eKy="01T1102D02B-EPZ" cb-alg-eSD8="NO" cb-algorithm-id="017" cb-classname="ExternalPointInterface" cb-function-name="INPUT" id="2Byl">
<ellipse cb-classname="GraphicEllipseEntity" class="algorithm" cx="600" cy="2020" id="2Byo" rx="50" ry="50"/>
<rect cb-classname="GraphicRectangleEntity" class="algorithm" height="100" id="2Byw" width="40" x="510" y="1970"/>
<line cb-classname="GraphicLineEntity" class="algorithm" id="2Bye" x1="510" x2="550" y1="2020" y2="2020"/>
<g cb-classname="ControlPin" cb-pin-name="AC-YV4-eKn" id="2ByO">
<line cb-classname="GraphicLineEntity" class="signalline" id="2Byj" x1="650" x2="680" y1="2020" y2="2020"/>
<g cb-classname="DynamicText" cb-source="cD-MDS-y6zC" class="signal" id="2By2" text-anchor="start">
<text cb-classname="GraphicTextEntity" class="signal" fill="black" font-style="normal" font-weight="normal" id="2Byr" text-anchor="start" text-decoration="normal" x="664" y="2017"/>
</g>
<g cb-classname="SignalSegment" id="2ByG">
<g cb-classname="SignalSegment" id="2EFl">
<line cb-classname="GraphicLineEntity" class="signalline" id="2EFo" stroke="#1e12bf" stroke-dasharray="5,4" x1="1330" x2="1330" y1="2020" y2="1890"/>
<g cb-classname="SignalSegment" id="2EFw">
<line cb-classname="GraphicLineEntity" class="signalline" id="2EFe" stroke="#1e12bf" stroke-dasharray="5,4" x1="1330" x2="1540" y1="1890" y2="1890"/>
<g cb-classname="SignalConnection" cb-graphic-line="$2804$" cb-input-pin="$wuLB$" id="2EFO"/>
</g>
</g>
<line cb-classname="GraphicLineEntity" class="signalline" id="2EFi" stroke="#1e12bf" stroke-dasharray="5,4" x1="680" x2="1330" y1="2020" y2="2020"/>
</g>
</g>
<g cb-classname="PointStatusIndicator" cb-indicator-type="Highway" cb-source="At-6u8-KNj" id="2BXo" visibility="hidden">
<line cb-classname="GraphicLineEntity" class="algorithmline" id="2BXw" x1="550" x2="600" y1="2020" y2="1970"/>
<line cb-classname="GraphicLineEntity" class="algorithmline" id="2BXe" x1="600" x2="650" y1="1970" y2="2020"/>
<line cb-classname="GraphicLineEntity" class="algorithmline" id="2BXO" x1="650" x2="600" y1="2020" y2="2070"/>
<line cb-classname="GraphicLineEntity" class="algorithmline" id="2BXj" x1="600" x2="550" y1="2070" y2="2020"/>
</g>
<g cb-classname="PointStatusIndicator" cb-indicator-type="hardware" cb-source="p4-oHE-qa5" id="2BX2" visibility="visible">
<line cb-classname="GraphicLineEntity" class="algorithmline" id="2BXr" x1="550" x2="650" y1="1970" y2="1970"/>
<line cb-classname="GraphicLineEntity" class="algorithmline" id="2BXG" x1="650" x2="650" y1="1970" y2="2070"/>
<line cb-classname="GraphicLineEntity" class="algorithmline" id="2BJi" x1="650" x2="550" y1="2070" y2="2070"/>
</g>
<g cb-classname="PointStatusIndicator" cb-indicator-type="alarm" cb-source="9O-HRz-J46" id="2BJl" visibility="hidden">
<text cb-classname="GraphicTextEntity" class="algorithm" fill="#000000" font-family="arial" font-size="20" id="2BJo" x="520" y="2005">
A
</text>
</g>
<g cb-classname="PointStatusIndicator" cb-indicator-type="ingraphic" cb-source="C0-olp-GV3" id="2BJw" visibility="visible">
<text cb-classname="GraphicTextEntity" class="algorithm" fill="#000000" font-family="Arial" font-size="20" id="2BJe" x="520" y="2055">
G
</text>
</g>
<g baseline-shift="-50%" cb-anchor-x="500" cb-anchor-y="2034" cb-classname="PointDescription" cb-content="extended" cb-labeled="false" cb-max-width="220" cb-source="At-6u8-KNj" class="algorithm" id="2BJO" text-anchor="end">
<text baseline-shift="-50%" cb-classname="GraphicTextEntity" class="algorithm" id="2BJj" text-anchor="end" x="500" y="2009">
DESC: Point not found in
</text>
<text baseline-shift="-50%" cb-classname="GraphicTextEntity" class="algorithm" id="2MNe" text-anchor="end" x="500" y="2034">
database
</text>
<text baseline-shift="-50%" cb-classname="GraphicTextEntity" class="algorithm" id="2MNO" text-anchor="end" x="500" y="2059">
(01T1102D02B-EPZ)
</text>
</g>
<g cb-classname="DynamicText" cb-labeled="false" cb-pin-name="AWf" cb-source="Ug-7OO-wHx" class="algorithm" id="2BJ2" text-anchor="start">
<text baseline-shift="0%" cb-classname="GraphicTextEntity" class="algorithm" fill="black" font-family="arial" font-size="20" font-style="normal" font-weight="normal" id="2BJr" text-anchor="start" text-decoration="normal" x="670" y="1990"/>
</g>
<g baseline-shift="-100%" cb-anchor-x="670" cb-anchor-y="2030" cb-classname="PointReferences" cb-max-width="230" cb-originator="true" cb-source="N1-lzd-U0S" class="signal" id="2BJG" text-anchor="start">
<text baseline-shift="-100%" cb-classname="GraphicTextEntity" class="algorithm" id="2BDi" text-anchor="start" x="670" y="2030">
REF: Point not found in
</text>
<text baseline-shift="-100%" cb-classname="GraphicTextEntity" class="algorithm" id="32Xi" text-anchor="start" x="670" y="2055">
database
</text>
<text baseline-shift="-100%" cb-classname="GraphicTextEntity" class="algorithm" id="32Xl" text-anchor="start" x="670" y="2080">
(01T1102D02B-EPZ)
</text>
</g>
</g>
<g cb-alg-Wy3="$2321$cb-alg-out$" cb-alg-Wyn="$2274$cb-alg-out$" cb-algorithm-id="006" cb-classname="FastBooleanAlgorithm" cb-function-name="AND" cb-modify-id="00000001" id="2BNo">
<rect cb-classname="GraphicRectangleEntity" class="algorithm" height="60" id="2BNw" width="60" x="1560" y="1840"/>
<g cb-classname="ControlPin" cb-pin-name="8V-DJ4-5fm" id="2BNe">
<line cb-classname="GraphicLineEntity" class="signalline" id="2BNO" x1="1540" x2="1560" y1="1850" y2="1850"/>
<polygon cb-classname="GraphicPolygonEntity" class="signal" id="2BNj" points="1560,1850 1549,1844 1549,1855"/>
<g cb-classname="DynamicText" cb-source="AC-E5f-Wpgh" class="signal" id="2BN2" text-anchor="end">
<text cb-classname="GraphicTextEntity" class="signal" fill="black" font-style="normal" font-weight="normal" id="2BNr" text-anchor="end" text-decoration="normal" x="1545" y="1847"/>
</g>
</g>
<g cb-classname="ControlPin" cb-pin-name="cD-sj9-D2k" id="2BNG">
<line cb-classname="GraphicLineEntity" class="signalline" id="2BHi" x1="1540" x2="1560" y1="1890" y2="1890"/>
<polygon cb-classname="GraphicPolygonEntity" class="signal" id="2BHl" points="1560,1890 1549,1884 1549,1895"/>
<g cb-classname="DynamicText" cb-source="C0-1D2-TD1f" class="signal" id="2BHo" text-anchor="end">
<text cb-classname="GraphicTextEntity" class="signal" fill="black" font-style="normal" font-weight="normal" id="2BHw" text-anchor="end" text-decoration="normal" x="1545" y="1887"/>
</g>
</g>
<line cb-classname="GraphicLineEntity" class="algorithm" id="2BHe" x1="1560" x2="1560" y1="1830" y2="1910"/>
<g cb-classname="ControlPin" cb-pin-name="G7-cZZ-rCy" id="2BHO">
<line cb-classname="GraphicLineEntity" class="signalline" id="2BHj" x1="1620" x2="1640" y1="1870" y2="1870"/>
<g cb-classname="DynamicText" cb-source="8V-qSd-ubzZ" class="signal" id="2BH2" text-anchor="start">
<text cb-classname="GraphicTextEntity" class="signal" fill="black" font-style="normal" font-weight="normal" id="2BHr" text-anchor="start" text-decoration="normal" x="1634" y="1867"/>
</g>
<g cb-classname="SignalSegment" id="2BHG">
<line cb-classname="GraphicLineEntity" class="signalline" id="2Bui" stroke="#1e12bf" stroke-dasharray="5,4" x1="1640" x2="2480" y1="1870" y2="1870"/>
<g cb-classname="SignalSegment" id="2Bul">
<g cb-classname="SignalSegment" id="2Buo">
<line cb-classname="GraphicLineEntity" class="signalline" id="2Buw" stroke="#1e12bf" stroke-dasharray="5,4" x1="2480" x2="4110" y1="830" y2="830"/>
<g cb-classname="SignalConnection" cb-graphic-line="$2393$" cb-input-pin="$oMJf$" id="2Bue"/>
</g>
<line cb-classname="GraphicLineEntity" class="signalline" id="2BuO" stroke="#1e12bf" stroke-dasharray="5,4" x1="2480" x2="2480" y1="1870" y2="830"/>
</g>
</g>
</g>
<text baseline-shift="-50%" cb-classname="GraphicTextEntity" class="algorithm" fill="#000000" font-family="MS Shell Dlg" id="2Buj" text-anchor="middle" x="1591" y="1866">
AND
</text>
</g>
<g cb-alg-6FRS="$1893$cb-alg-dv01$" cb-alg-ICI="$2245$cb-alg-out$" cb-alg-LoBb="$2372$cb-alg-out$" cb-alg-ToB5="1.000000" cb-alg-Wiby="01T11SG02-SZ1" cb-alg-Xobp="120" cb-alg-eWpp="5" cb-alg-zNP="NO_FREEZE" cb-alg-zoD4="$1811$cb-alg-out$" cb-algorithm-id="002" cb-classname="ControlAlgorithm" cb-function-name="DEVICESEQ" cb-modify-id="00000001" id="2Bu2">
<rect cb-classname="GraphicRectangleEntity" class="algorithm" height="100" id="2Bur" width="140" x="4130" y="770"/>
<text baseline-shift="-50%" cb-classname="GraphicTextEntity" class="algorithm" fill="#000000" font-family="MS Shell Dlg" id="2BuG" text-anchor="middle" x="4200" y="803">
DEVICE
</text>
<text baseline-shift="-50%" cb-classname="GraphicTextEntity" class="algorithm" fill="#000000" font-family="MS Shell Dlg" font-style="normal" id="2pFi" text-anchor="middle" x="4200" y="826">
SEQUENCER
</text>
<g cb-classname="ControlPin" cb-pin-name="N1-lzd-9ISC" id="2pFl">
<line cb-classname="GraphicLineEntity" class="signalline" id="2pFo" x1="4110" x2="4130" y1="790" y2="790"/>
<polygon cb-classname="GraphicPolygonEntity" class="signal" id="2pFw" points="4130,790 4119,784 4119,795"/>
<g cb-classname="DynamicText" cb-source="9e-Weh-nzf8" class="signal" id="2pFe" text-anchor="end">
<text cb-classname="GraphicTextEntity" class="signal" fill="black" font-style="normal" font-weight="normal" id="2pFO" text-anchor="end" text-decoration="normal" x="4115" y="787"/>
</g>
</g>
<g cb-classname="ControlPin" cb-pin-name="9O-HRz-lcgO" id="2pFj">
<line cb-classname="GraphicLineEntity" class="signalline" id="2pF2" x1="4110" x2="4130" y1="810" y2="810"/>
<polygon cb-classname="GraphicPolygonEntity" class="signal" id="2pFr" points="4130,810 4119,804 4119,815"/>
<g cb-classname="DynamicText" cb-source="UT-YDM-klk7" class="signal" id="2pFG" text-anchor="end">
<text cb-classname="GraphicTextEntity" class="signal" fill="black" font-style="normal" font-weight="normal" id="2p4i" text-anchor="end" text-decoration="normal" x="4115" y="807"/>
</g>
</g>
<g cb-classname="ControlPin" cb-pin-name="G7-cZZ-iYB2" id="2p4l">
<line cb-classname="GraphicLineEntity" class="signalline" id="2p4o" x1="4110" x2="4130" y1="830" y2="830"/>
<polygon cb-classname="GraphicPolygonEntity" class="signal" id="2p4w" points="4130,830 4119,824 4119,835"/>
<g cb-classname="DynamicText" cb-source="N1-pSg-fAiS" class="signal" id="2p4e" text-anchor="end">
<text cb-classname="GraphicTextEntity" class="signal" fill="black" font-style="normal" font-weight="normal" id="2p4O" text-anchor="end" text-decoration="normal" x="4115" y="827"/>
</g>
</g>
<g cb-classname="ControlPin" cb-pin-name="AC-YV4-6FR" id="2p4j">
<line cb-classname="GraphicLineEntity" class="signalline" id="2p42" x1="4110" x2="4130" y1="850" y2="850"/>
<polygon cb-classname="GraphicPolygonEntity" class="signal" id="2p4r" points="4130,850 4119,844 4119,855"/>
<g cb-classname="DynamicText" cb-source="9O-PcM-2cBS" class="signal" id="2p4G" text-anchor="end">
<text cb-classname="GraphicTextEntity" class="signal" fill="black" font-style="normal" font-weight="normal" id="2pyi" text-anchor="end" text-decoration="normal" x="4115" y="847"/>
</g>
</g>
<g cb-classname="ControlPin" cb-pin-name="C0-olp-hFRA" id="2pyl">
<line cb-classname="GraphicLineEntity" class="signalline" id="2pyo" x1="4270" x2="4290" y1="820" y2="820"/>
<g cb-classname="DynamicText" cb-source="At-hDT-xoae" class="signal" id="2pyw" text-anchor="start">
<text cb-classname="GraphicTextEntity" class="signal" fill="black" font-style="normal" font-weight="normal" id="2pye" text-anchor="start" text-decoration="normal" x="4284" y="817"/>
</g>
<g cb-classname="SignalSegment" id="2pyO">
<line cb-classname="GraphicLineEntity" class="signalline" id="2pyj" stroke="#1e12bf" stroke-dasharray="5,4" x1="4290" x2="4690" y1="820" y2="820"/>
<g cb-classname="SignalConnection" cb-graphic-line="$2426$" cb-input-pin="$Q6up$" id="2py2"/>
</g>
</g>
<g cb-classname="DynamicText" cb-labeled="true" cb-source="p4-oHE-ZKCp" class="algorithm" id="2pyr" text-anchor="start">
<text cb-classname="GraphicTextEntity" class="algorithm" fill="black" font-style="normal" font-weight="normal" id="2pyG" text-anchor="start" text-decoration="normal" x="4160" y="760"/>
</g>
</g>
<g cb-alg-Sd="$2397$cb-alg-strt$" cb-algorithm-id="003" cb-classname="ExternalPointInterface" cb-function-name="OUTPUT" id="2pXi">
<ellipse cb-classname="GraphicEllipseEntity" class="algorithm" cx="4770" cy="820" id="2pXl" rx="50" ry="50"/>
<rect cb-classname="GraphicRectangleEntity" class="algorithm" height="100" id="2pXo" width="40" x="4820" y="770"/>
<line cb-classname="GraphicLineEntity" class="algorithm" id="2pXw" x1="4820" x2="4860" y1="820" y2="820"/>
<g cb-classname="ControlPin" cb-pin-name="C0-olp-gk" id="2pXe">
<line cb-classname="GraphicLineEntity" class="signalline" id="2pXO" x1="4690" x2="4720" y1="820" y2="820"/>
<polygon cb-classname="GraphicPolygonEntity" class="signal" id="2pXj" points="4720,820 4709,814 4709,825"/>
<g cb-classname="DynamicText" cb-source="G7-Cgk-dYFs" class="signal" id="2pX2" text-anchor="end">
<text cb-classname="GraphicTextEntity" class="signal" fill="black" font-style="normal" font-weight="normal" id="2pXr" text-anchor="end" text-decoration="normal" x="4705" y="817"/>
</g>
</g>
<g cb-classname="PointStatusIndicator" cb-indicator-type="highway" cb-source="8V-DJ4-5f" id="2pXG" visibility="hidden">
<line cb-classname="GraphicLineEntity" class="algorithmline" id="2pJi" x1="4720" x2="4770" y1="820" y2="770"/>
<line cb-classname="GraphicLineEntity" class="algorithmline" id="2pJl" x1="4770" x2="4820" y1="770" y2="820"/>
<line cb-classname="GraphicLineEntity" class="algorithmline" id="2pJo" x1="4820" x2="4770" y1="820" y2="870"/>
<line cb-classname="GraphicLineEntity" class="algorithmline" id="2pJw" x1="4770" x2="4720" y1="870" y2="820"/>
</g>
<g cb-classname="PointStatusIndicator" cb-indicator-type="hardware" cb-source="cD-sj9-D2" id="2pJe" visibility="hidden">
<line cb-classname="GraphicLineEntity" class="algorithmline" id="2pJO" x1="4820" x2="4720" y1="770" y2="770"/>
<line cb-classname="GraphicLineEntity" class="algorithmline" id="2pJj" x1="4720" x2="4720" y1="770" y2="870"/>
<line cb-classname="GraphicLineEntity" class="algorithmline" id="2pJ2" x1="4720" x2="4820" y1="870" y2="870"/>
</g>
<g cb-classname="PointStatusIndicator" cb-indicator-type="alarm" cb-source="UT-p4g-8x" id="2pJr" visibility="hidden">
<text cb-classname="GraphicTextEntity" class="algorithm" fill="#000000" font-family="Arial" font-size="20" id="2pJG" x="4830" y="855">
A
</text>
</g>
<g cb-classname="PointStatusIndicator" cb-indicator-type="ingraphic" cb-source="G7-cZZ-Sg" id="2pDi" visibility="hidden">
<text cb-classname="GraphicTextEntity" class="algorithm" fill="#000000" font-family="Arial" font-size="20" id="2pDl" x="4830" y="805">
G
</text>
</g>
<g cb-classname="DynamicText" cb-labeled="false" cb-pin-name="RK" cb-source="8V-DJ4-5f" class="algorithm" id="2pDo" text-anchor="end">
<text baseline-shift="0%" cb-classname="GraphicTextEntity" class="algorithm" fill="black" font-family="arial" font-size="20" font-style="normal" font-weight="normal" id="2pDw" text-anchor="end" text-decoration="normal" x="4695" y="795"/>
</g>
<g baseline-shift="-100%" cb-anchor-x="4695" cb-anchor-y="830" cb-classname="PointReferences" cb-max-width="130" cb-originator="false" cb-source="p4-oHE-9W" class="signal" id="2pDe" text-anchor="end">
<text baseline-shift="-100%" cb-classname="GraphicTextEntity" class="algorithm" id="2pDO" text-anchor="end" x="4695" y="830">
REF: Point not
</text>
<text baseline-shift="-100%" cb-classname="GraphicTextEntity" class="algorithm" id="32Xo" text-anchor="end" x="4695" y="855">
found in
</text>
<text baseline-shift="-100%" cb-classname="GraphicTextEntity" class="algorithm" id="32Xw" text-anchor="end" x="4695" y="880">
database
</text>
<text baseline-shift="-100%" cb-classname="GraphicTextEntity" class="algorithm" id="32Xe" text-anchor="end" x="4695" y="905">
(01T11SG02-SZ1)
</text>
</g>
<g baseline-shift="-50%" cb-anchor-x="4875" cb-anchor-y="835" cb-classname="PointDescription" cb-content="extended" cb-labeled="false" cb-max-width="240" cb-source="cD-sj9-D2" class="algorithm" id="2pD2" text-anchor="start">
<text baseline-shift="-50%" cb-classname="GraphicTextEntity" class="algorithm" id="2pDr" text-anchor="start" x="4875" y="823">
DESC: Point not found in
</text>
<text baseline-shift="-50%" cb-classname="GraphicTextEntity" class="algorithm" id="2MNj" text-anchor="start" x="4875" y="848">
database (01T11SG02-SZ1)
</text>
</g>
</g>
</g>
<g cb-classname="IncludeDocument" cb-modify-time="09/25/2018 01:40:30" cb-objectname="Frame" id="5">
<text cb-classname="GraphicTextEntity" class="frame" font-size="50" id="32u2" x="3660" y="3146">
Project Title &lt;Edit in FRAME.SVG&gt;
</text>
<g baseline-shift="-50%" cb-classname="DynamicText" cb-source="Rp-eNeh-gt" class="frame" id="32ur">
<text cb-classname="GraphicTextEntity" class="frame" fill="black" font-family="arial" font-size="25" font-style="normal" font-weight="normal" id="32uG" text-decoration="normal" x="4715" y="3325">
14
</text>
</g>
<g baseline-shift="-50%" cb-classname="DynamicText" cb-source="UT-fSOf-SD" class="frame" id="3EFi" text-anchor="middle">
<text cb-classname="GraphicTextEntity" class="frame" fill="black" font-family="arial" font-size="48" font-style="normal" font-weight="normal" id="3EFl" text-anchor="middle" text-decoration="normal" x="4900" y="3320">
14
</text>
</g>
<g baseline-shift="-50%" cb-classname="DynamicText" cb-source="G7-y7eH-4c" class="frame" id="3EFo" text-anchor="middle">
<text cb-classname="GraphicTextEntity" class="frame" fill="black" font-family="arial" font-size="48" font-style="normal" font-weight="normal" id="3EFw" text-anchor="middle" text-decoration="normal" x="5067" y="3324">
2
</text>
</g>
<g cb-classname="DynamicText" cb-source="8V-e4f7y-ZI5qh" class="frame" id="3EFe">
<text cb-classname="GraphicTextEntity" class="frame" fill="black" font-family="arial" font-size="48" font-style="normal" font-weight="normal" id="3EFO" text-decoration="normal" x="3660" y="3224">
T11SG02-SG B COND. PUMP SHUT DOWN
</text>
</g>
<g baseline-shift="-50%" cb-classname="DynamicText" cb-source="p4-uDesZ-nEfgh5" class="frame" id="3EFj" text-anchor="middle">
<text cb-classname="GraphicTextEntity" class="frame" fill="black" font-family="arial" font-size="48" font-style="normal" font-weight="normal" id="3EF2" text-anchor="middle" text-decoration="normal" x="5270" y="3324">
209
</text>
</g>
<g baseline-shift="0%" cb-classname="DynamicText" cb-source="9e-1sUI7e2V" class="frame" id="3EFr" text-anchor="middle">
<text cb-classname="GraphicTextEntity" class="frame" fill="black" font-family="arial" font-size="36" font-style="normal" font-weight="normal" id="3EFG" text-anchor="middle" text-decoration="normal" x="5270" y="3150">
A
</text>
</g>
<g baseline-shift="0%" cb-classname="DynamicText" cb-source="9O-XxBDbDGk-A4Fs" class="frame" id="3E4i" text-anchor="middle">
<text cb-classname="GraphicTextEntity" class="frame" fill="black" font-family="arial" font-size="20" font-style="normal" font-weight="normal" id="3E4l" text-anchor="middle" text-decoration="normal" x="5270" y="3230">
12/28/2010
</text>
</g>
<g baseline-shift="-50%" cb-classname="DynamicText" cb-source="C0-XypDTSjm" class="frame" id="3E4o" text-anchor="end">
<text cb-classname="GraphicTextEntity" class="frame" fill="black" font-family="arial" font-size="26" font-style="normal" font-weight="normal" id="3E4w" text-anchor="end" text-decoration="normal" x="4500" y="3420">
Heczko
</text>
</g>
<g baseline-shift="-50%" cb-classname="DynamicText" cb-source="At-SSS8jK71" class="frame" id="3E4e" text-anchor="end">
<text cb-classname="GraphicTextEntity" class="frame" fill="black" font-family="arial" font-size="26" font-style="normal" font-weight="normal" id="3E4O" text-anchor="end" text-decoration="normal" x="5353" y="3420">
Nemec
</text>
</g>
<g cb-classname="GraphicShape" cb-tag="BORDER" id="3E4j">
<line cb-classname="GraphicLineEntity" class="frameline" id="3E42" x1="40" x2="40" y1="40" y2="3460"/>
<line cb-classname="GraphicLineEntity" class="frameline" id="3E4r" x1="40" x2="5380" y1="3460" y2="3460"/>
<line cb-classname="GraphicLineEntity" class="frameline" id="3E4G" x1="5380" x2="5380" y1="3460" y2="40"/>
<line cb-classname="GraphicLineEntity" class="frameline" id="3Eyi" x1="5380" x2="40" y1="40" y2="40"/>
<line cb-classname="GraphicLineEntity" class="frame" id="3Eyl" x1="5430" x2="5440" y1="3510" y2="3510"/>
</g>
<g cb-classname="GraphicShape" cb-tag="TITLE BOX" id="3Eyo">
<line cb-classname="GraphicLineEntity" class="frameline" id="3Eyw" x1="2340" x2="2340" y1="3080" y2="3460"/>
<line cb-classname="GraphicLineEntity" class="frameline" id="3Eye" x1="2340" x2="5380" y1="3080" y2="3080"/>
<line cb-classname="GraphicLineEntity" class="frameline" id="3EyO" x1="3650" x2="3650" y1="3460" y2="3080"/>
<line cb-classname="GraphicLineEntity" class="frameline" id="3Eyj" x1="3650" x2="5380" y1="3240" y2="3240"/>
<line cb-classname="GraphicLineEntity" class="frameline" id="3Ey2" x1="3650" x2="5380" y1="3390" y2="3390"/>
<line cb-classname="GraphicLineEntity" class="frameline" id="3Eyr" x1="3650" x2="5380" y1="3160" y2="3160"/>
<line cb-classname="GraphicLineEntity" class="frameline" id="3EyG" x1="3650" x2="4520" y1="3320" y2="3320"/>
<line cb-classname="GraphicLineEntity" class="frameline" id="3EXi" x1="4520" x2="5380" y1="3290" y2="3290"/>
<line cb-classname="GraphicLineEntity" class="frameline" id="3EXl" x1="4520" x2="5380" y1="3240" y2="3240"/>
<line cb-classname="GraphicLineEntity" class="frameline" id="3EXo" x1="4520" x2="4520" y1="3240" y2="3460"/>
<line cb-classname="GraphicLineEntity" class="frameline" id="3EXw" x1="4810" x2="4810" y1="3240" y2="3390"/>
<line cb-classname="GraphicLineEntity" class="frameline" id="3EXe" x1="4990" x2="4990" y1="3240" y2="3390"/>
<line cb-classname="GraphicLineEntity" class="frameline" id="3EXO" x1="5150" x2="5150" y1="3080" y2="3390"/>
</g>
<g cb-classname="GraphicShape" cb-tag="TEXT LABELS" id="3EXj">
<text baseline-shift="-50%" cb-classname="GraphicTextEntity" class="frame" font-size="25" id="3EX2" text-anchor="middle" x="4890" y="3252">
Drop
</text>
<text baseline-shift="-50%" cb-classname="GraphicTextEntity" class="frame" font-size="25" id="3EXr" text-anchor="middle" x="5075" y="3252">
Task
</text>
<text baseline-shift="-50%" cb-classname="GraphicTextEntity" class="frame" font-size="25" id="3EXG" text-anchor="middle" x="5265" y="3252">
Sheet
</text>
<text cb-classname="GraphicTextEntity" class="frame" font-size="25" id="3EJi" x="5152" y="3107">
Rev.
</text>
<text cb-classname="GraphicTextEntity" class="frame" font-size="25" id="3EJl" x="3653" y="3418">
Engineer
</text>
<text cb-classname="GraphicTextEntity" class="frame" font-size="25" id="3EJo" x="4528" y="3419">
Approved
</text>
<text cb-classname="GraphicTextEntity" class="frame" font-size="25" id="3EJw" x="5152" y="3187">
Date
</text>
<text baseline-shift="-50%" cb-classname="GraphicTextEntity" class="frame" font-size="25" id="3EJe" text-anchor="middle" x="4660" y="3252">
Drawing Number
</text>
<text baseline-shift="-50%" cb-classname="GraphicTextEntity" class="frame" font-size="25" id="3EJO" text-anchor="middle" x="4680" y="3325">
CTL
</text>
</g>
<text baseline-shift="-50%" cb-classname="GraphicTextEntity" class="frame" font-size="48" id="3EJj" text-anchor="middle" x="3000" y="3100">
EMERSON PROCESS MANAGEMENT
</text>
<g baseline-shift="-100%" cb-anchor-x="2360" cb-anchor-y="3140" cb-classname="GroupText" cb-max-width="1260" fill="black" id="3EJ2">
<text baseline-shift="-100%" cb-classname="GraphicTextEntity" class="frame" fill="black" font-family="arial" font-size="22" font-weight="normal" id="3EJr" text-anchor="start" text-decoration="normal" x="2360" y="3140">
THIS DOCUMENT CONTAINS INFORMATION PROPRIETARY TO EMERSON PROCESS
</text>
<text baseline-shift="-100%" cb-classname="GraphicTextEntity" class="frame" fill="black" font-family="arial" font-size="22" font-weight="normal" id="3EJG" text-anchor="start" text-decoration="normal" x="2360" y="3176">
MANAGEMENT POWER &amp; WATER SOLUTIONS, INC. IT IS SUBMITTED IN CONFIDENCE AND
</text>
<text baseline-shift="-100%" cb-classname="GraphicTextEntity" class="frame" fill="black" font-family="arial" font-size="22" font-weight="normal" id="3EDi" text-anchor="start" text-decoration="normal" x="2360" y="3212">
TRUST, IS TO BE USED BY YOU SOLELY FOR THE PURPOSES FOR WHICH IT IS
</text>
<text baseline-shift="-100%" cb-classname="GraphicTextEntity" class="frame" fill="black" font-family="arial" font-size="22" font-weight="normal" id="3EDl" text-anchor="start" text-decoration="normal" x="2360" y="3248">
FURNISHED AND IS TO BE RETURNED UPON REQUEST. THIS DOCUMENT AND ANY
</text>
<text baseline-shift="-100%" cb-classname="GraphicTextEntity" class="frame" fill="black" font-family="arial" font-size="22" font-weight="normal" id="3EDo" text-anchor="start" text-decoration="normal" x="2360" y="3284">
OTHER INFORMATION PROVIDED TO YOU IS NOT TO BE REPRODUCED, TRANSMITTED,
</text>
<text baseline-shift="-100%" cb-classname="GraphicTextEntity" class="frame" fill="black" font-family="arial" font-size="22" font-weight="normal" id="3EDw" text-anchor="start" text-decoration="normal" x="2360" y="3320">
DISCLOSED, OR USED OTHERWISE IN WHOLE OR IN PART WITHOUT THE PRIOR
</text>
<text baseline-shift="-100%" cb-classname="GraphicTextEntity" class="frame" fill="black" font-family="arial" font-size="22" font-weight="normal" id="3EDe" text-anchor="start" text-decoration="normal" x="2360" y="3356">
WRITTEN AUTHORIZATION OF EMERSON PROCESS MANAGEMENT POWER &amp; WATER
</text>
<text baseline-shift="-100%" cb-classname="GraphicTextEntity" class="frame" fill="black" font-family="arial" font-size="22" font-weight="normal" id="3EDO" text-anchor="start" text-decoration="normal" x="2360" y="3392">
SOLUTIONS,INC.
</text>
</g>
</g>
</svg>