<?xml version="1.0" ?><svg cb-auto-time="12/22/2010 14:46:18" cb-classname="ControlFunction" cb-create-time="03/12/2008" cb-drop-id="14" cb-engineer="Heczko" cb-filename="Z:\OVATION\NET0\UNIT0\CONTROLFUNCTIONS\022D.svg" cb-function-id="022D" cb-key="342443321525" cb-modified-timestamp="1489319215" cb-ortho-mode="enabled" cb-path="Z:/OVATION/NET0/UNIT0/CONTROLFUNCTIONS" cb-reviewer="Nemec" cb-revision="A" cb-revision-time="12/28/2010" cb-sheet-number="261" cb-sheet-title="T13G01-FG COOLING WATER pt.2" cb-snap-grid="10" cb-task-id="2" height="3707" id="1" width="5450" xmlns="http://www.w3.org/2000/svg">
<style cb-classname="EntityStyle" id="2" type="text/css">
	.algorithm { fill: white; stroke: black; stroke-linecap: round; stroke-width: 2 }
	.algorithm-function { fill: none; stroke: black; stroke-linecap: round; stroke-width: 2 }
	.algorithm-functionline { fill: none; stroke: black; stroke-linecap: round; stroke-width: 2 }
	.algorithm-name { fill: none; stroke: black; stroke-linecap: round; stroke-width: 2 }
	.algorithm-nameline { fill: none; stroke: black; stroke-linecap: round; stroke-width: 2 }
	.algorithm-sequence { fill: none; stroke: black; stroke-linecap: round; stroke-width: 2 }
	.algorithm-sequenceline { fill: none; stroke: black; stroke-linecap: round; stroke-width: 2 }
	.algorithmline { fill: none; stroke: black; stroke-linecap: round; stroke-width: 2 }
	.annotation { fill: none; stroke: black; stroke-linecap: round; stroke-width: 2 }
	.annotationline { fill: none; stroke: black; stroke-linecap: round; stroke-width: 2 }
	.frame { fill: none; stroke: black; stroke-linecap: round; stroke-width: 2 }
	.frameline { fill: none; stroke: black; stroke-linecap: round; stroke-width: 2 }
	.signal { fill: black; stroke: black; stroke-linecap: round; stroke-width: 2 }
	.signalline { fill: none; stroke: black; stroke-linecap: round; stroke-width: 2 }
	text.algorithm { fill: black; font-family: MS Shell Dlg 2; font-size: 14; stroke: none }
	text.algorithm-function { fill: black; font-family: MS Shell Dlg 2; font-size: 16; stroke: none }
	text.algorithm-name { fill: black; font-family: MS Shell Dlg 2; font-size: 16; stroke: none }
	text.algorithm-sequence { fill: black; font-family: MS Shell Dlg 2; font-size: 16; stroke: none }
	text.annotation { fill: black; font-family: MS Shell Dlg 2; font-size: 16; stroke: none }
	text.frame { fill: black; font-family: MS Shell Dlg 2; font-size: 16; stroke: none }
	text.signal { fill: black; font-family: MS Shell Dlg 2; font-size: 12; stroke: none }
</style>
<g cb-classname="NamedObject" cb-objectname="Comments" id="3"/>
<g cb-classname="AlgorithmContainer" cb-objectname="Algorithms" id="4">
<g cb-alg-fCd="01T12G01-CEO" cb-alg-fZU7="NO" cb-algorithm-id="001" cb-classname="ExternalPointInterface" cb-function-name="INPUT" id="7x">
<ellipse cb-classname="GraphicEllipseEntity" class="algorithm" cx="790" cy="970" id="7h" rx="50" ry="50"/>
<rect cb-classname="GraphicRectangleEntity" class="algorithm" height="100" id="7e" width="40" x="700" y="920"/>
<line cb-classname="GraphicLineEntity" class="algorithm" id="7m" x1="700" x2="740" y1="970" y2="970"/>
<g cb-classname="ControlPin" cb-pin-name="AE-J1R-w6e" id="74">
<line cb-classname="GraphicLineEntity" class="signalline" id="7E" x1="840" x2="870" y1="970" y2="970"/>
<g cb-classname="DynamicText" cb-source="cL-ulF-WyoC" class="signal" id="7Y" text-anchor="start">
<text cb-classname="GraphicTextEntity" class="signal" fill="black" font-style="normal" font-weight="normal" id="7P" text-anchor="start" text-decoration="normal" x="854" y="967"/>
</g>
<g cb-classname="SignalSegment" id="2hl">
<line cb-classname="GraphicLineEntity" class="signalline" id="2hZ" stroke="#1e12bf" stroke-dasharray="5,4" x1="870" x2="2740" y1="970" y2="970"/>
<g cb-classname="SignalSegment" id="2hM">
<line cb-classname="GraphicLineEntity" class="signalline" id="2hX" stroke="#1e12bf" stroke-dasharray="5,4" x1="2740" x2="2740" y1="970" y2="1070"/>
<g cb-classname="SignalSegment" id="2ha">
<line cb-classname="GraphicLineEntity" class="signalline" id="2h0" stroke="#1e12bf" stroke-dasharray="5,4" x1="2740" x2="2890" y1="1070" y2="1070"/>
<g cb-classname="SignalConnection" cb-graphic-line="$239$" cb-input-pin="$hqN$" id="2ej"/>
</g>
</g>
</g>
</g>
<g cb-classname="PointStatusIndicator" cb-indicator-type="Highway" cb-source="nb-JUC-bpW" id="8T" visibility="hidden">
<line cb-classname="GraphicLineEntity" class="algorithmline" id="89" x1="740" x2="790" y1="970" y2="920"/>
<line cb-classname="GraphicLineEntity" class="algorithmline" id="8x" x1="790" x2="840" y1="920" y2="970"/>
<line cb-classname="GraphicLineEntity" class="algorithmline" id="8h" x1="840" x2="790" y1="970" y2="1020"/>
<line cb-classname="GraphicLineEntity" class="algorithmline" id="8e" x1="790" x2="740" y1="1020" y2="970"/>
</g>
<g cb-classname="PointStatusIndicator" cb-indicator-type="hardware" cb-source="sd-OIv-LOJ" id="8m" visibility="hidden">
<line cb-classname="GraphicLineEntity" class="algorithmline" id="84" x1="740" x2="840" y1="920" y2="920"/>
<line cb-classname="GraphicLineEntity" class="algorithmline" id="8E" x1="840" x2="840" y1="920" y2="1020"/>
<line cb-classname="GraphicLineEntity" class="algorithmline" id="8Y" x1="840" x2="740" y1="1020" y2="1020"/>
</g>
<g cb-classname="PointStatusIndicator" cb-indicator-type="alarm" cb-source="AE-J1R-w6e" id="8P" visibility="hidden">
<text cb-classname="GraphicTextEntity" class="algorithm" fill="#000000" font-family="arial" font-size="20" id="9T" x="710" y="955">
A
</text>
</g>
<g cb-classname="PointStatusIndicator" cb-indicator-type="ingraphic" cb-source="cL-PZ0-fCd" id="99" visibility="visible">
<text cb-classname="GraphicTextEntity" class="algorithm" fill="#000000" font-family="Arial" font-size="20" id="9x" x="710" y="1005">
G
</text>
</g>
<g baseline-shift="-50%" cb-anchor-x="690" cb-anchor-y="984" cb-classname="PointDescription" cb-content="extended" cb-labeled="false" cb-max-width="220" cb-source="nb-JUC-bpW" class="algorithm" id="9h" text-anchor="end">
<text baseline-shift="-50%" cb-classname="GraphicTextEntity" class="algorithm" id="9e" text-anchor="end" x="690" y="972">
DESC: Point not found in
</text>
<text baseline-shift="-50%" cb-classname="GraphicTextEntity" class="algorithm" id="19az" text-anchor="end" x="690" y="997">
database (01T12G01-CEO)
</text>
</g>
<g cb-classname="DynamicText" cb-labeled="false" cb-pin-name="oN9" cb-source="RL-0gy-ZbY" class="algorithm" id="9m" text-anchor="start">
<text baseline-shift="0%" cb-classname="GraphicTextEntity" class="algorithm" fill="black" font-family="arial" font-size="20" font-style="normal" font-weight="normal" id="94" text-anchor="start" text-decoration="normal" x="860" y="940"/>
</g>
<g baseline-shift="-100%" cb-anchor-x="860" cb-anchor-y="980" cb-classname="PointReferences" cb-max-width="230" cb-originator="true" cb-source="rG-icO-2RZ" class="signal" id="9E" text-anchor="start">
<text baseline-shift="-100%" cb-classname="GraphicTextEntity" class="algorithm" id="9Y" text-anchor="start" x="860" y="980">
REF: Point not found in
</text>
<text baseline-shift="-100%" cb-classname="GraphicTextEntity" class="algorithm" id="2TXQ" text-anchor="start" x="860" y="1005">
database (01T12G01-CEO)
</text>
</g>
</g>
<g cb-alg-kfY="01T1300D02-EPO" cb-alg-kqbO="NO" cb-algorithm-id="002" cb-classname="ExternalPointInterface" cb-function-name="INPUT" id="9P">
<ellipse cb-classname="GraphicEllipseEntity" class="algorithm" cx="790" cy="1090" id="1Tj" rx="50" ry="50"/>
<rect cb-classname="GraphicRectangleEntity" class="algorithm" height="100" id="1T6" width="40" x="700" y="1040"/>
<line cb-classname="GraphicLineEntity" class="algorithm" id="1T8" x1="700" x2="740" y1="1090" y2="1090"/>
<g cb-classname="ControlPin" cb-pin-name="9q-i2G-Izf" id="1TQ">
<line cb-classname="GraphicLineEntity" class="signalline" id="1Tl" x1="840" x2="870" y1="1090" y2="1090"/>
<g cb-classname="DynamicText" cb-source="Br-kzM-6iL8" class="signal" id="1TZ" text-anchor="start">
<text cb-classname="GraphicTextEntity" class="signal" fill="black" font-style="normal" font-weight="normal" id="1TM" text-anchor="start" text-decoration="normal" x="854" y="1087"/>
</g>
<g cb-classname="SignalSegment" id="1P0">
<g cb-classname="SignalConnection" cb-graphic-line="$202$" cb-input-pin="$WVf$" id="2TQ"/>
<line cb-classname="GraphicLineEntity" class="signalline" id="2T8" stroke="#1e12bf" stroke-dasharray="5,4" x1="870" x2="2070" y1="1090" y2="1090"/>
</g>
</g>
<g cb-classname="PointStatusIndicator" cb-indicator-type="Highway" cb-source="0D-tOu-zCe" id="1TX" visibility="hidden">
<line cb-classname="GraphicLineEntity" class="algorithmline" id="1Ta" x1="740" x2="790" y1="1090" y2="1040"/>
<line cb-classname="GraphicLineEntity" class="algorithmline" id="1T0" x1="790" x2="840" y1="1040" y2="1090"/>
<line cb-classname="GraphicLineEntity" class="algorithmline" id="19j" x1="840" x2="790" y1="1090" y2="1140"/>
<line cb-classname="GraphicLineEntity" class="algorithmline" id="196" x1="790" x2="740" y1="1140" y2="1090"/>
</g>
<g cb-classname="PointStatusIndicator" cb-indicator-type="hardware" cb-source="57-4SI-fi2" id="198" visibility="visible">
<line cb-classname="GraphicLineEntity" class="algorithmline" id="19Q" x1="740" x2="840" y1="1040" y2="1040"/>
<line cb-classname="GraphicLineEntity" class="algorithmline" id="19l" x1="840" x2="840" y1="1040" y2="1140"/>
<line cb-classname="GraphicLineEntity" class="algorithmline" id="19Z" x1="840" x2="740" y1="1140" y2="1140"/>
</g>
<g cb-classname="PointStatusIndicator" cb-indicator-type="alarm" cb-source="9q-i2G-Izf" id="19M" visibility="hidden">
<text cb-classname="GraphicTextEntity" class="algorithm" fill="#000000" font-family="arial" font-size="20" id="19X" x="710" y="1075">
A
</text>
</g>
<g cb-classname="PointStatusIndicator" cb-indicator-type="ingraphic" cb-source="Br-B5B-kfY" id="19a" visibility="visible">
<text cb-classname="GraphicTextEntity" class="algorithm" fill="#000000" font-family="Arial" font-size="20" id="190" x="710" y="1125">
G
</text>
</g>
<g baseline-shift="-50%" cb-anchor-x="690" cb-anchor-y="1104" cb-classname="PointDescription" cb-content="extended" cb-labeled="false" cb-max-width="220" cb-source="0D-tOu-zCe" class="algorithm" id="1xj" text-anchor="end">
<text baseline-shift="-50%" cb-classname="GraphicTextEntity" class="algorithm" id="1x6" text-anchor="end" x="690" y="1079">
DESC: Point not found in
</text>
<text baseline-shift="-50%" cb-classname="GraphicTextEntity" class="algorithm" id="19aQ" text-anchor="end" x="690" y="1104">
database
</text>
<text baseline-shift="-50%" cb-classname="GraphicTextEntity" class="algorithm" id="2TXr" text-anchor="end" x="690" y="1129">
(01T1300D02-EPO)
</text>
</g>
<g cb-classname="DynamicText" cb-labeled="false" cb-pin-name="MaF" cb-source="32-yR7-n9N" class="algorithm" id="1x8" text-anchor="start">
<text baseline-shift="0%" cb-classname="GraphicTextEntity" class="algorithm" fill="black" font-family="arial" font-size="20" font-style="normal" font-weight="normal" id="1xQ" text-anchor="start" text-decoration="normal" x="860" y="1060"/>
</g>
<g baseline-shift="-100%" cb-anchor-x="860" cb-anchor-y="1100" cb-classname="PointReferences" cb-max-width="230" cb-originator="true" cb-source="sd-OIv-LOJ" class="signal" id="1xl" text-anchor="start">
<text baseline-shift="-100%" cb-classname="GraphicTextEntity" class="algorithm" id="1xZ" text-anchor="start" x="860" y="1100">
REF: Point not found in
</text>
<text baseline-shift="-100%" cb-classname="GraphicTextEntity" class="algorithm" id="2TXf" text-anchor="start" x="860" y="1125">
database
</text>
<text baseline-shift="-100%" cb-classname="GraphicTextEntity" class="algorithm" id="2TX8" text-anchor="start" x="860" y="1150">
(01T1300D02-EPO)
</text>
</g>
</g>
<g cb-alg-b8zv="NO" cb-alg-bpW="01COMPINP-06" cb-algorithm-id="003" cb-classname="ExternalPointInterface" cb-function-name="INPUT" id="1xM">
<ellipse cb-classname="GraphicEllipseEntity" class="algorithm" cx="790" cy="1210" id="1xX" rx="50" ry="50"/>
<rect cb-classname="GraphicRectangleEntity" class="algorithm" height="100" id="1xa" width="40" x="700" y="1160"/>
<line cb-classname="GraphicLineEntity" class="algorithm" id="1x0" x1="700" x2="740" y1="1210" y2="1210"/>
<g cb-classname="ControlPin" cb-pin-name="cL-PZ0-fCd" id="1hj">
<line cb-classname="GraphicLineEntity" class="signalline" id="1h6" x1="840" x2="870" y1="1210" y2="1210"/>
<g cb-classname="DynamicText" cb-source="nb-CzW-rOrW" class="signal" id="1h8" text-anchor="start">
<text cb-classname="GraphicTextEntity" class="signal" fill="black" font-style="normal" font-weight="normal" id="1hQ" text-anchor="start" text-decoration="normal" x="854" y="1207"/>
</g>
<g cb-classname="SignalSegment" id="2Tl">
<line cb-classname="GraphicLineEntity" class="signalline" id="2TZ" stroke="#1e12bf" stroke-dasharray="5,4" x1="870" x2="1920" y1="1210" y2="1210"/>
<g cb-classname="SignalSegment" id="2TM">
<line cb-classname="GraphicLineEntity" class="signalline" id="2TX" stroke="#1e12bf" stroke-dasharray="5,4" x1="1920" x2="1920" y1="1210" y2="1130"/>
<g cb-classname="SignalSegment" id="2Ta">
<line cb-classname="GraphicLineEntity" class="signalline" id="2T0" stroke="#1e12bf" stroke-dasharray="5,4" x1="1920" x2="2070" y1="1130" y2="1130"/>
<g cb-classname="SignalConnection" cb-graphic-line="$209$" cb-input-pin="$498$" id="29j"/>
</g>
</g>
</g>
</g>
<g cb-classname="PointStatusIndicator" cb-indicator-type="Highway" cb-source="RL-0gy-ZbY" id="1hl" visibility="visible">
<line cb-classname="GraphicLineEntity" class="algorithmline" id="1hZ" x1="740" x2="790" y1="1210" y2="1160"/>
<line cb-classname="GraphicLineEntity" class="algorithmline" id="1hM" x1="790" x2="840" y1="1160" y2="1210"/>
<line cb-classname="GraphicLineEntity" class="algorithmline" id="1hX" x1="840" x2="790" y1="1210" y2="1260"/>
<line cb-classname="GraphicLineEntity" class="algorithmline" id="1ha" x1="790" x2="740" y1="1260" y2="1210"/>
</g>
<g cb-classname="PointStatusIndicator" cb-indicator-type="hardware" cb-source="43-oww-Y0K" id="1h0" visibility="visible">
<line cb-classname="GraphicLineEntity" class="algorithmline" id="1ej" x1="740" x2="840" y1="1160" y2="1160"/>
<line cb-classname="GraphicLineEntity" class="algorithmline" id="1e6" x1="840" x2="840" y1="1160" y2="1260"/>
<line cb-classname="GraphicLineEntity" class="algorithmline" id="1e8" x1="840" x2="740" y1="1260" y2="1260"/>
</g>
<g cb-classname="PointStatusIndicator" cb-indicator-type="alarm" cb-source="cL-PZ0-fCd" id="1eQ" visibility="hidden">
<text cb-classname="GraphicTextEntity" class="algorithm" fill="#000000" font-family="arial" font-size="20" id="1el" x="710" y="1195">
A
</text>
</g>
<g cb-classname="PointStatusIndicator" cb-indicator-type="ingraphic" cb-source="nb-JUC-bpW" id="1eZ" visibility="visible">
<text cb-classname="GraphicTextEntity" class="algorithm" fill="#000000" font-family="Arial" font-size="20" id="1eM" x="710" y="1245">
G
</text>
</g>
<g baseline-shift="-50%" cb-anchor-x="690" cb-anchor-y="1224" cb-classname="PointDescription" cb-content="extended" cb-labeled="false" cb-max-width="220" cb-source="RL-0gy-ZbY" class="algorithm" id="1eX" text-anchor="end">
<text baseline-shift="-50%" cb-classname="GraphicTextEntity" class="algorithm" id="1ea" text-anchor="end" x="690" y="1212">
DESC: Point not found in
</text>
<text baseline-shift="-50%" cb-classname="GraphicTextEntity" class="algorithm" id="1xjQ" text-anchor="end" x="690" y="1237">
database (01COMPINP-06)
</text>
</g>
<g cb-classname="DynamicText" cb-labeled="false" cb-pin-name="ea1" cb-source="rG-icO-2RZ" class="algorithm" id="1e0" text-anchor="start">
<text baseline-shift="0%" cb-classname="GraphicTextEntity" class="algorithm" fill="black" font-family="arial" font-size="20" font-style="normal" font-weight="normal" id="1mj" text-anchor="start" text-decoration="normal" x="860" y="1180"/>
</g>
<g baseline-shift="-100%" cb-anchor-x="860" cb-anchor-y="1220" cb-classname="PointReferences" cb-max-width="230" cb-originator="true" cb-source="57-4SI-fi2" class="signal" id="1m6" text-anchor="start">
<text baseline-shift="-100%" cb-classname="GraphicTextEntity" class="algorithm" id="1m8" text-anchor="start" x="860" y="1220">
REF: Point not found in
</text>
<text baseline-shift="-100%" cb-classname="GraphicTextEntity" class="algorithm" id="2TXt" text-anchor="start" x="860" y="1245">
database (01COMPINP-06)
</text>
</g>
</g>
<g cb-alg-OgQ="$99$cb-alg-out$" cb-alg-Ogh="$126$cb-alg-out$" cb-algorithm-id="005" cb-classname="FastBooleanAlgorithm" cb-function-name="AND" id="1Y6">
<rect cb-classname="GraphicRectangleEntity" class="algorithm" height="60" id="1Y8" width="60" x="2090" y="1080"/>
<g cb-classname="ControlPin" cb-pin-name="Br-B5B-frv" id="1YQ">
<line cb-classname="GraphicLineEntity" class="signalline" id="1Yl" x1="2070" x2="2090" y1="1090" y2="1090"/>
<polygon cb-classname="GraphicPolygonEntity" class="signal" id="1YZ" points="2090,1090 2079,1084 2079,1095"/>
<g cb-classname="DynamicText" cb-source="RL-vfr-eo3O" class="signal" id="1YM" text-anchor="end">
<text cb-classname="GraphicTextEntity" class="signal" fill="black" font-style="normal" font-weight="normal" id="1YX" text-anchor="end" text-decoration="normal" x="2075" y="1087"/>
</g>
</g>
<g cb-classname="ControlPin" cb-pin-name="rG-icO-5Fg" id="1Ya">
<line cb-classname="GraphicLineEntity" class="signalline" id="1Y0" x1="2070" x2="2090" y1="1130" y2="1130"/>
<polygon cb-classname="GraphicPolygonEntity" class="signal" id="1Pj" points="2090,1130 2079,1124 2079,1135"/>
<g cb-classname="DynamicText" cb-source="43-Y5F-ALih" class="signal" id="1P6" text-anchor="end">
<text cb-classname="GraphicTextEntity" class="signal" fill="black" font-style="normal" font-weight="normal" id="1P8" text-anchor="end" text-decoration="normal" x="2075" y="1127"/>
</g>
</g>
<line cb-classname="GraphicLineEntity" class="algorithm" id="1PQ" x1="2090" x2="2090" y1="1070" y2="1150"/>
<g cb-classname="ControlPin" cb-pin-name="9q-i2G-Izf" id="1Pl">
<line cb-classname="GraphicLineEntity" class="signalline" id="1PZ" x1="2150" x2="2170" y1="1110" y2="1110"/>
<g cb-classname="DynamicText" cb-source="Br-kzM-6iL8" class="signal" id="1PM" text-anchor="start">
<text cb-classname="GraphicTextEntity" class="signal" fill="black" font-style="normal" font-weight="normal" id="1PX" text-anchor="start" text-decoration="normal" x="2164" y="1107"/>
</g>
<g cb-classname="SignalSegment" id="2x0">
<g cb-classname="SignalConnection" cb-graphic-line="$232$" cb-input-pin="$khB$" id="2hQ"/>
<line cb-classname="GraphicLineEntity" class="signalline" id="2h8" stroke="#1e12bf" stroke-dasharray="5,4" x1="2170" x2="2890" y1="1110" y2="1110"/>
</g>
</g>
<text baseline-shift="-50%" cb-classname="GraphicTextEntity" class="algorithm" fill="#000000" font-family="MS Shell Dlg" id="1Pa" text-anchor="middle" x="2121" y="1106">
AND
</text>
</g>
<g cb-alg-FhK="$72$cb-alg-out$" cb-alg-Fhx="$181$cb-alg-out$" cb-algorithm-id="006" cb-classname="FastBooleanAlgorithm" cb-function-name="OR" id="296">
<ellipse cb-classname="GraphicEllipseEntity" class="algorithm" cx="2940" cy="1090" id="298" rx="30" ry="30"/>
<line cb-classname="GraphicLineEntity" class="algorithm" id="29Q" x1="2910" x2="2910" y1="1050" y2="1130"/>
<text baseline-shift="-50%" cb-classname="GraphicTextEntity" class="algorithm" fill="#000000" font-family="MS Shell Dlg" font-size="18" id="29l" text-anchor="middle" x="2939" y="1085">
OR
</text>
<g cb-classname="ControlPin" cb-pin-name="sd-OIv-IkV" id="29Z">
<line cb-classname="GraphicLineEntity" class="signalline" id="29M" x1="2890" x2="2910" y1="1070" y2="1070"/>
<polygon cb-classname="GraphicPolygonEntity" class="signal" id="29X" points="2910,1070 2899,1064 2899,1075"/>
<g cb-classname="DynamicText" cb-source="gi-XIk-ceuw" class="signal" id="29a" text-anchor="end">
<text cb-classname="GraphicTextEntity" class="signal" fill="black" font-style="normal" font-weight="normal" id="290" text-anchor="end" text-decoration="normal" x="2895" y="1067"/>
</g>
</g>
<g cb-classname="ControlPin" cb-pin-name="9q-i2G-kQe" id="2xj">
<line cb-classname="GraphicLineEntity" class="signalline" id="2x6" x1="2890" x2="2910" y1="1110" y2="1110"/>
<polygon cb-classname="GraphicPolygonEntity" class="signal" id="2x8" points="2910,1110 2899,1104 2899,1115"/>
<g cb-classname="DynamicText" cb-source="nb-CzW-rOrW" class="signal" id="2xQ" text-anchor="end">
<text cb-classname="GraphicTextEntity" class="signal" fill="black" font-style="normal" font-weight="normal" id="2xl" text-anchor="end" text-decoration="normal" x="2895" y="1107"/>
</g>
</g>
<g cb-classname="ControlPin" cb-pin-name="RL-0gy-ZbY" id="2xZ">
<line cb-classname="GraphicLineEntity" class="signalline" id="2xM" x1="2970" x2="2990" y1="1090" y2="1090"/>
<g cb-classname="DynamicText" cb-source="rG-mbe-gJ48" class="signal" id="2xX" text-anchor="start">
<text cb-classname="GraphicTextEntity" class="signal" fill="black" font-style="normal" font-weight="normal" id="2xa" text-anchor="start" text-decoration="normal" x="2984" y="1087"/>
</g>
<g cb-classname="SignalSegment" id="2m0">
<g cb-classname="SignalConnection" cb-graphic-line="$262$" cb-input-pin="$eDg$" id="24Q"/>
<line cb-classname="GraphicLineEntity" class="signalline" id="248" stroke="#1e12bf" stroke-dasharray="5,4" x1="2990" x2="3650" y1="1090" y2="1090"/>
</g>
</g>
</g>
<g cb-alg-zCe="01T13G01-CO" cb-alg-zxOI="NO" cb-algorithm-id="004" cb-classname="ExternalPointInterface" cb-function-name="INPUT" id="1mQ">
<ellipse cb-classname="GraphicEllipseEntity" class="algorithm" cx="790" cy="1330" id="1ml" rx="50" ry="50"/>
<rect cb-classname="GraphicRectangleEntity" class="algorithm" height="100" id="1mZ" width="40" x="700" y="1280"/>
<line cb-classname="GraphicLineEntity" class="algorithm" id="1mM" x1="700" x2="740" y1="1330" y2="1330"/>
<g cb-classname="ControlPin" cb-pin-name="Br-B5B-kfY" id="1mX">
<line cb-classname="GraphicLineEntity" class="signalline" id="1ma" x1="840" x2="870" y1="1330" y2="1330"/>
<g cb-classname="DynamicText" cb-source="0D-ux6-l41e" class="signal" id="1m0" text-anchor="start">
<text cb-classname="GraphicTextEntity" class="signal" fill="black" font-style="normal" font-weight="normal" id="14j" text-anchor="start" text-decoration="normal" x="854" y="1327"/>
</g>
<g cb-classname="SignalSegment" id="24l">
<line cb-classname="GraphicLineEntity" class="signalline" id="24Z" stroke="#1e12bf" stroke-dasharray="5,4" x1="870" x2="3470" y1="1330" y2="1330"/>
<g cb-classname="SignalSegment" id="24M">
<line cb-classname="GraphicLineEntity" class="signalline" id="24X" stroke="#1e12bf" stroke-dasharray="5,4" x1="3470" x2="3470" y1="1330" y2="1130"/>
<g cb-classname="SignalSegment" id="24a">
<line cb-classname="GraphicLineEntity" class="signalline" id="240" stroke="#1e12bf" stroke-dasharray="5,4" x1="3470" x2="3650" y1="1130" y2="1130"/>
<g cb-classname="SignalConnection" cb-graphic-line="$269$" cb-input-pin="$28P$" id="2Ej"/>
</g>
<g cb-classname="SignalConnection" cb-graphic-line="$659$" cb-input-pin="$kmu$" id="64j"/>
<line cb-classname="GraphicLineEntity" class="signalline" id="6m0" stroke="#1e12bf" stroke-dasharray="5,4" x1="3470" x2="3650" y1="1330" y2="1330"/>
<ellipse cb-classname="GraphicEllipseEntity" class="signal" cx="3470" cy="1330" fill="#1e12bf" id="646" rx="5" ry="5" stroke="#1e12bf" stroke-dasharray="5,4"/>
</g>
</g>
</g>
<g cb-classname="PointStatusIndicator" cb-indicator-type="Highway" cb-source="32-yR7-n9N" id="146" visibility="hidden">
<line cb-classname="GraphicLineEntity" class="algorithmline" id="148" x1="740" x2="790" y1="1330" y2="1280"/>
<line cb-classname="GraphicLineEntity" class="algorithmline" id="14Q" x1="790" x2="840" y1="1280" y2="1330"/>
<line cb-classname="GraphicLineEntity" class="algorithmline" id="14l" x1="840" x2="790" y1="1330" y2="1380"/>
<line cb-classname="GraphicLineEntity" class="algorithmline" id="14Z" x1="790" x2="740" y1="1380" y2="1330"/>
</g>
<g cb-classname="PointStatusIndicator" cb-indicator-type="hardware" cb-source="gi-0ZX-1qV" id="14M" visibility="hidden">
<line cb-classname="GraphicLineEntity" class="algorithmline" id="14X" x1="740" x2="840" y1="1280" y2="1280"/>
<line cb-classname="GraphicLineEntity" class="algorithmline" id="14a" x1="840" x2="840" y1="1280" y2="1380"/>
<line cb-classname="GraphicLineEntity" class="algorithmline" id="140" x1="840" x2="740" y1="1380" y2="1380"/>
</g>
<g cb-classname="PointStatusIndicator" cb-indicator-type="alarm" cb-source="Br-B5B-kfY" id="1Ej" visibility="hidden">
<text cb-classname="GraphicTextEntity" class="algorithm" fill="#000000" font-family="arial" font-size="20" id="1E6" x="710" y="1315">
A
</text>
</g>
<g cb-classname="PointStatusIndicator" cb-indicator-type="ingraphic" cb-source="0D-tOu-zCe" id="1E8" visibility="visible">
<text cb-classname="GraphicTextEntity" class="algorithm" fill="#000000" font-family="Arial" font-size="20" id="1EQ" x="710" y="1365">
G
</text>
</g>
<g baseline-shift="-50%" cb-anchor-x="690" cb-anchor-y="1344" cb-classname="PointDescription" cb-content="extended" cb-labeled="false" cb-max-width="220" cb-source="32-yR7-n9N" class="algorithm" id="1El" text-anchor="end">
<text baseline-shift="-50%" cb-classname="GraphicTextEntity" class="algorithm" id="1EZ" text-anchor="end" x="690" y="1332">
DESC: Point not found in
</text>
<text baseline-shift="-50%" cb-classname="GraphicTextEntity" class="algorithm" id="19aY" text-anchor="end" x="690" y="1357">
database (01T13G01-CO)
</text>
</g>
<g cb-classname="DynamicText" cb-labeled="false" cb-pin-name="4IZ" cb-source="sd-OIv-LOJ" class="algorithm" id="1EM" text-anchor="start">
<text baseline-shift="0%" cb-classname="GraphicTextEntity" class="algorithm" fill="black" font-family="arial" font-size="20" font-style="normal" font-weight="normal" id="1EX" text-anchor="start" text-decoration="normal" x="860" y="1300"/>
</g>
<g baseline-shift="-100%" cb-anchor-x="860" cb-anchor-y="1340" cb-classname="PointReferences" cb-max-width="230" cb-originator="true" cb-source="43-oww-Y0K" class="signal" id="1Ea" text-anchor="start">
<text baseline-shift="-100%" cb-classname="GraphicTextEntity" class="algorithm" id="1E0" text-anchor="start" x="860" y="1340">
REF: Point not found in
</text>
<text baseline-shift="-100%" cb-classname="GraphicTextEntity" class="algorithm" id="2Ta4" text-anchor="start" x="860" y="1365">
database (01T13G01-CO)
</text>
</g>
</g>
<g cb-alg-fCd="01T13G01-P01" cb-alg-x6W="$211$cb-alg-out$" cb-alg-x6t="$153$cb-alg-out$" cb-algorithm-id="007" cb-classname="FastBooleanAlgorithm" cb-function-name="AND" id="2e6">
<rect cb-classname="GraphicRectangleEntity" class="algorithm" height="60" id="2e8" width="60" x="3670" y="1080"/>
<g cb-classname="ControlPin" cb-pin-name="43-oww-ScA" id="2eQ">
<line cb-classname="GraphicLineEntity" class="signalline" id="2el" x1="3650" x2="3670" y1="1090" y2="1090"/>
<polygon cb-classname="GraphicPolygonEntity" class="signal" id="2eZ" points="3670,1090 3659,1084 3659,1095"/>
<g cb-classname="DynamicText" cb-source="9q-bSc-ajnz" class="signal" id="2eM" text-anchor="end">
<text cb-classname="GraphicTextEntity" class="signal" fill="black" font-style="normal" font-weight="normal" id="2eX" text-anchor="end" text-decoration="normal" x="3655" y="1087"/>
</g>
</g>
<g cb-classname="ControlPin" cb-pin-name="Br-B5B-frE" id="2ea">
<line cb-classname="GraphicLineEntity" class="signalline" id="2e0" x1="3650" x2="3670" y1="1130" y2="1130"/>
<polygon cb-classname="GraphicPolygonEntity" class="signal" id="2mj" points="3670,1130 3659,1124 3659,1135"/>
<g cb-classname="DynamicText" cb-source="RL-vfr-eo3O" class="signal" id="2m6" text-anchor="end">
<text cb-classname="GraphicTextEntity" class="signal" fill="black" font-style="normal" font-weight="normal" id="2m8" text-anchor="end" text-decoration="normal" x="3655" y="1127"/>
</g>
</g>
<line cb-classname="GraphicLineEntity" class="algorithm" id="2mQ" x1="3670" x2="3670" y1="1070" y2="1150"/>
<g cb-classname="ControlPin" cb-pin-name="sd-OIv-LOJ" id="2ml">
<line cb-classname="GraphicLineEntity" class="signalline" id="2mZ" x1="3730" x2="3750" y1="1110" y2="1110"/>
<g cb-classname="DynamicText" cb-source="43-Y5F-ALih" class="signal" id="2mM" text-anchor="start">
<text cb-classname="GraphicTextEntity" class="signal" fill="black" font-style="normal" font-weight="normal" id="2mX" text-anchor="start" text-decoration="normal" x="3744" y="1107"/>
</g>
<g cb-classname="SignalSegment" id="2P0">
<g cb-classname="SignalConnection" cb-graphic-line="$302$" cb-input-pin="$xIP$" id="3TQ"/>
<line cb-classname="GraphicLineEntity" class="signalline" id="3T8" stroke="#1e12bf" stroke-dasharray="5,4" x1="3750" x2="4500" y1="1110" y2="1110"/>
</g>
</g>
<text baseline-shift="-50%" cb-classname="GraphicTextEntity" class="algorithm" fill="#000000" font-family="MS Shell Dlg" id="2ma" text-anchor="middle" x="3701" y="1106">
AND
</text>
</g>
<g cb-alg-zd="$241$cb-alg-out$" cb-algorithm-id="008" cb-classname="ExternalPointInterface" cb-function-name="OUTPUT" id="2E6">
<ellipse cb-classname="GraphicEllipseEntity" class="algorithm" cx="4580" cy="1110" id="2E8" rx="50" ry="50"/>
<rect cb-classname="GraphicRectangleEntity" class="algorithm" height="100" id="2EQ" width="40" x="4630" y="1060"/>
<line cb-classname="GraphicLineEntity" class="algorithm" id="2El" x1="4630" x2="4670" y1="1110" y2="1110"/>
<g cb-classname="ControlPin" cb-pin-name="nb-JUC-Ul" id="2EZ">
<line cb-classname="GraphicLineEntity" class="signalline" id="2EM" x1="4500" x2="4530" y1="1110" y2="1110"/>
<polygon cb-classname="GraphicPolygonEntity" class="signal" id="2EX" points="4530,1110 4519,1104 4519,1115"/>
<g cb-classname="DynamicText" cb-source="32-pUl-d0c3" class="signal" id="2Ea" text-anchor="end">
<text cb-classname="GraphicTextEntity" class="signal" fill="black" font-style="normal" font-weight="normal" id="2E0" text-anchor="end" text-decoration="normal" x="4515" y="1107"/>
</g>
</g>
<g cb-classname="PointStatusIndicator" cb-indicator-type="highway" cb-source="sd-OIv-Ik" id="2Yj" visibility="hidden">
<line cb-classname="GraphicLineEntity" class="algorithmline" id="2Y6" x1="4530" x2="4580" y1="1110" y2="1060"/>
<line cb-classname="GraphicLineEntity" class="algorithmline" id="2Y8" x1="4580" x2="4630" y1="1060" y2="1110"/>
<line cb-classname="GraphicLineEntity" class="algorithmline" id="2YQ" x1="4630" x2="4580" y1="1110" y2="1160"/>
<line cb-classname="GraphicLineEntity" class="algorithmline" id="2Yl" x1="4580" x2="4530" y1="1160" y2="1110"/>
</g>
<g cb-classname="PointStatusIndicator" cb-indicator-type="hardware" cb-source="9q-i2G-kQ" id="2YZ" visibility="hidden">
<line cb-classname="GraphicLineEntity" class="algorithmline" id="2YM" x1="4630" x2="4530" y1="1060" y2="1060"/>
<line cb-classname="GraphicLineEntity" class="algorithmline" id="2YX" x1="4530" x2="4530" y1="1060" y2="1160"/>
<line cb-classname="GraphicLineEntity" class="algorithmline" id="2Ya" x1="4530" x2="4630" y1="1160" y2="1160"/>
</g>
<g cb-classname="PointStatusIndicator" cb-indicator-type="alarm" cb-source="0D-tOu-be" id="2Y0" visibility="hidden">
<text cb-classname="GraphicTextEntity" class="algorithm" fill="#000000" font-family="Arial" font-size="20" id="2Pj" x="4640" y="1145">
A
</text>
</g>
<g cb-classname="PointStatusIndicator" cb-indicator-type="ingraphic" cb-source="32-yR7-Og" id="2P6" visibility="hidden">
<text cb-classname="GraphicTextEntity" class="algorithm" fill="#000000" font-family="Arial" font-size="20" id="2P8" x="4640" y="1095">
G
</text>
</g>
<g cb-classname="DynamicText" cb-labeled="false" cb-pin-name="SS" cb-source="sd-OIv-Ik" class="algorithm" id="2PQ" text-anchor="end">
<text baseline-shift="0%" cb-classname="GraphicTextEntity" class="algorithm" fill="black" font-family="arial" font-size="20" font-style="normal" font-weight="normal" id="2Pl" text-anchor="end" text-decoration="normal" x="4505" y="1085"/>
</g>
<g baseline-shift="-100%" cb-anchor-x="4505" cb-anchor-y="1120" cb-classname="PointReferences" cb-max-width="130" cb-originator="false" cb-source="43-oww-Sc" class="signal" id="2PZ" text-anchor="end">
<text baseline-shift="-100%" cb-classname="GraphicTextEntity" class="algorithm" id="2PM" text-anchor="end" x="4505" y="1120">
REF: Point not
</text>
<text baseline-shift="-100%" cb-classname="GraphicTextEntity" class="algorithm" id="2TaY" text-anchor="end" x="4505" y="1145">
found in
</text>
<text baseline-shift="-100%" cb-classname="GraphicTextEntity" class="algorithm" id="2Tar" text-anchor="end" x="4505" y="1170">
database
</text>
<text baseline-shift="-100%" cb-classname="GraphicTextEntity" class="algorithm" id="2Taf" text-anchor="end" x="4505" y="1195">
(01T13G01-P01)
</text>
</g>
<g baseline-shift="-50%" cb-anchor-x="4685" cb-anchor-y="1125" cb-classname="PointDescription" cb-content="extended" cb-labeled="false" cb-max-width="240" cb-source="AE-J1R-Ba" class="algorithm" id="2PX" text-anchor="start">
<text baseline-shift="-50%" cb-classname="GraphicTextEntity" class="algorithm" id="2Pa" text-anchor="start" x="4685" y="1113">
DESC: Point not found in
</text>
<text baseline-shift="-50%" cb-classname="GraphicTextEntity" class="algorithm" id="19af" text-anchor="start" x="4685" y="1138">
database (01T13G01-P01)
</text>
</g>
</g>
<g cb-alg-mLU="01PS341-NO" cb-alg-mpxu="NO" cb-algorithm-id="009" cb-classname="ExternalPointInterface" cb-function-name="INPUT" id="3Tl">
<ellipse cb-classname="GraphicEllipseEntity" class="algorithm" cx="790" cy="1450" id="3TZ" rx="50" ry="50"/>
<rect cb-classname="GraphicRectangleEntity" class="algorithm" height="100" id="3TM" width="40" x="700" y="1400"/>
<line cb-classname="GraphicLineEntity" class="algorithm" id="3TX" x1="700" x2="740" y1="1450" y2="1450"/>
<g cb-classname="ControlPin" cb-pin-name="43-oww-Y0K" id="3Ta">
<line cb-classname="GraphicLineEntity" class="signalline" id="3T0" x1="840" x2="870" y1="1450" y2="1450"/>
<g cb-classname="DynamicText" cb-source="AE-vcA-rGCY" class="signal" id="39j" text-anchor="start">
<text cb-classname="GraphicTextEntity" class="signal" fill="black" font-style="normal" font-weight="normal" id="396" text-anchor="start" text-decoration="normal" x="854" y="1447"/>
</g>
<g cb-classname="SignalSegment" id="69a">
<line cb-classname="GraphicLineEntity" class="signalline" id="690" stroke="#1e12bf" stroke-dasharray="5,4" x1="870" x2="2740" y1="1450" y2="1450"/>
<g cb-classname="SignalSegment" id="6xj">
<line cb-classname="GraphicLineEntity" class="signalline" id="6x6" stroke="#1e12bf" stroke-dasharray="5,4" x1="2740" x2="2740" y1="1450" y2="1550"/>
<g cb-classname="SignalSegment" id="6x8">
<line cb-classname="GraphicLineEntity" class="signalline" id="6xQ" stroke="#1e12bf" stroke-dasharray="5,4" x1="2740" x2="2890" y1="1550" y2="1550"/>
<g cb-classname="SignalConnection" cb-graphic-line="$623$" cb-input-pin="$eMe$" id="6xl"/>
</g>
</g>
</g>
</g>
<g cb-classname="PointStatusIndicator" cb-indicator-type="Highway" cb-source="cL-PZ0-fCd" id="398" visibility="hidden">
<line cb-classname="GraphicLineEntity" class="algorithmline" id="39Q" x1="740" x2="790" y1="1450" y2="1400"/>
<line cb-classname="GraphicLineEntity" class="algorithmline" id="39l" x1="790" x2="840" y1="1400" y2="1450"/>
<line cb-classname="GraphicLineEntity" class="algorithmline" id="39Z" x1="840" x2="790" y1="1450" y2="1500"/>
<line cb-classname="GraphicLineEntity" class="algorithmline" id="39M" x1="790" x2="740" y1="1500" y2="1450"/>
</g>
<g cb-classname="PointStatusIndicator" cb-indicator-type="hardware" cb-source="32-yR7-n9N" id="39X" visibility="visible">
<line cb-classname="GraphicLineEntity" class="algorithmline" id="39a" x1="740" x2="840" y1="1400" y2="1400"/>
<line cb-classname="GraphicLineEntity" class="algorithmline" id="390" x1="840" x2="840" y1="1400" y2="1500"/>
<line cb-classname="GraphicLineEntity" class="algorithmline" id="3xj" x1="840" x2="740" y1="1500" y2="1500"/>
</g>
<g cb-classname="PointStatusIndicator" cb-indicator-type="alarm" cb-source="43-oww-Y0K" id="3x6" visibility="hidden">
<text cb-classname="GraphicTextEntity" class="algorithm" fill="#000000" font-family="arial" font-size="20" id="3x8" x="710" y="1435">
A
</text>
</g>
<g cb-classname="PointStatusIndicator" cb-indicator-type="ingraphic" cb-source="AE-J1R-w6e" id="3xQ" visibility="visible">
<text cb-classname="GraphicTextEntity" class="algorithm" fill="#000000" font-family="Arial" font-size="20" id="3xl" x="710" y="1485">
G
</text>
</g>
<g baseline-shift="-50%" cb-anchor-x="690" cb-anchor-y="1464" cb-classname="PointDescription" cb-content="extended" cb-labeled="false" cb-max-width="220" cb-source="cL-PZ0-fCd" class="algorithm" id="3xZ" text-anchor="end">
<text baseline-shift="-50%" cb-classname="GraphicTextEntity" class="algorithm" id="3xM" text-anchor="end" x="690" y="1452">
DESC: Point not found in
</text>
<text baseline-shift="-50%" cb-classname="GraphicTextEntity" class="algorithm" id="19aG" text-anchor="end" x="690" y="1477">
database (01PS341-NO)
</text>
</g>
<g cb-classname="DynamicText" cb-labeled="false" cb-pin-name="U9J" cb-source="nb-JUC-bpW" class="algorithm" id="3xX" text-anchor="start">
<text baseline-shift="0%" cb-classname="GraphicTextEntity" class="algorithm" fill="black" font-family="arial" font-size="20" font-style="normal" font-weight="normal" id="3xa" text-anchor="start" text-decoration="normal" x="860" y="1420"/>
</g>
<g baseline-shift="-100%" cb-anchor-x="860" cb-anchor-y="1460" cb-classname="PointReferences" cb-max-width="230" cb-originator="true" cb-source="RL-0gy-ZbY" class="signal" id="3x0" text-anchor="start">
<text baseline-shift="-100%" cb-classname="GraphicTextEntity" class="algorithm" id="3hj" text-anchor="start" x="860" y="1460">
REF: Point not found in
</text>
<text baseline-shift="-100%" cb-classname="GraphicTextEntity" class="algorithm" id="2TaG" text-anchor="start" x="860" y="1485">
database (01PS341-NO)
</text>
</g>
</g>
<g cb-alg-kfY="01PS342-NO" cb-alg-kqbO="NO" cb-algorithm-id="00a" cb-classname="ExternalPointInterface" cb-function-name="INPUT" id="3hQ">
<ellipse cb-classname="GraphicEllipseEntity" class="algorithm" cx="790" cy="1570" id="3hl" rx="50" ry="50"/>
<rect cb-classname="GraphicRectangleEntity" class="algorithm" height="100" id="3hZ" width="40" x="700" y="1520"/>
<line cb-classname="GraphicLineEntity" class="algorithm" id="3hM" x1="700" x2="740" y1="1570" y2="1570"/>
<g cb-classname="ControlPin" cb-pin-name="9q-i2G-Izf" id="3hX">
<line cb-classname="GraphicLineEntity" class="signalline" id="3ha" x1="840" x2="870" y1="1570" y2="1570"/>
<g cb-classname="DynamicText" cb-source="Br-kzM-6iL8" class="signal" id="3h0" text-anchor="start">
<text cb-classname="GraphicTextEntity" class="signal" fill="black" font-style="normal" font-weight="normal" id="3ej" text-anchor="start" text-decoration="normal" x="854" y="1567"/>
</g>
<g cb-classname="SignalSegment" id="6TM">
<g cb-classname="SignalConnection" cb-graphic-line="$609$" cb-input-pin="$Woh$" id="69j"/>
<line cb-classname="GraphicLineEntity" class="signalline" id="6T0" stroke="#1e12bf" stroke-dasharray="5,4" x1="870" x2="2890" y1="1570" y2="1570"/>
</g>
</g>
<g cb-classname="PointStatusIndicator" cb-indicator-type="Highway" cb-source="0D-tOu-zCe" id="3e6" visibility="hidden">
<line cb-classname="GraphicLineEntity" class="algorithmline" id="3e8" x1="740" x2="790" y1="1570" y2="1520"/>
<line cb-classname="GraphicLineEntity" class="algorithmline" id="3eQ" x1="790" x2="840" y1="1520" y2="1570"/>
<line cb-classname="GraphicLineEntity" class="algorithmline" id="3el" x1="840" x2="790" y1="1570" y2="1620"/>
<line cb-classname="GraphicLineEntity" class="algorithmline" id="3eZ" x1="790" x2="740" y1="1620" y2="1570"/>
</g>
<g cb-classname="PointStatusIndicator" cb-indicator-type="hardware" cb-source="57-4SI-fi2" id="3eM" visibility="visible">
<line cb-classname="GraphicLineEntity" class="algorithmline" id="3eX" x1="740" x2="840" y1="1520" y2="1520"/>
<line cb-classname="GraphicLineEntity" class="algorithmline" id="3ea" x1="840" x2="840" y1="1520" y2="1620"/>
<line cb-classname="GraphicLineEntity" class="algorithmline" id="3e0" x1="840" x2="740" y1="1620" y2="1620"/>
</g>
<g cb-classname="PointStatusIndicator" cb-indicator-type="alarm" cb-source="9q-i2G-Izf" id="3mj" visibility="hidden">
<text cb-classname="GraphicTextEntity" class="algorithm" fill="#000000" font-family="arial" font-size="20" id="3m6" x="710" y="1555">
A
</text>
</g>
<g cb-classname="PointStatusIndicator" cb-indicator-type="ingraphic" cb-source="Br-B5B-kfY" id="3m8" visibility="visible">
<text cb-classname="GraphicTextEntity" class="algorithm" fill="#000000" font-family="Arial" font-size="20" id="3mQ" x="710" y="1605">
G
</text>
</g>
<g baseline-shift="-50%" cb-anchor-x="690" cb-anchor-y="1584" cb-classname="PointDescription" cb-content="extended" cb-labeled="false" cb-max-width="220" cb-source="0D-tOu-zCe" class="algorithm" id="3ml" text-anchor="end">
<text baseline-shift="-50%" cb-classname="GraphicTextEntity" class="algorithm" id="3mZ" text-anchor="end" x="690" y="1572">
DESC: Point not found in
</text>
<text baseline-shift="-50%" cb-classname="GraphicTextEntity" class="algorithm" id="19at" text-anchor="end" x="690" y="1597">
database (01PS342-NO)
</text>
</g>
<g cb-classname="DynamicText" cb-labeled="false" cb-pin-name="MaF" cb-source="32-yR7-n9N" class="algorithm" id="3mM" text-anchor="start">
<text baseline-shift="0%" cb-classname="GraphicTextEntity" class="algorithm" fill="black" font-family="arial" font-size="20" font-style="normal" font-weight="normal" id="3mX" text-anchor="start" text-decoration="normal" x="860" y="1540"/>
</g>
<g baseline-shift="-100%" cb-anchor-x="860" cb-anchor-y="1580" cb-classname="PointReferences" cb-max-width="230" cb-originator="true" cb-source="sd-OIv-LOJ" class="signal" id="3ma" text-anchor="start">
<text baseline-shift="-100%" cb-classname="GraphicTextEntity" class="algorithm" id="3m0" text-anchor="start" x="860" y="1580">
REF: Point not found in
</text>
<text baseline-shift="-100%" cb-classname="GraphicTextEntity" class="algorithm" id="2Tae" text-anchor="start" x="860" y="1605">
database (01PS342-NO)
</text>
</g>
</g>
<g cb-alg-b8zv="NO" cb-alg-bpW="01T1300D01A-EPO" cb-algorithm-id="00b" cb-classname="ExternalPointInterface" cb-function-name="INPUT" id="34j">
<ellipse cb-classname="GraphicEllipseEntity" class="algorithm" cx="790" cy="1690" id="346" rx="50" ry="50"/>
<rect cb-classname="GraphicRectangleEntity" class="algorithm" height="100" id="348" width="40" x="700" y="1640"/>
<line cb-classname="GraphicLineEntity" class="algorithm" id="34Q" x1="700" x2="740" y1="1690" y2="1690"/>
<g cb-classname="ControlPin" cb-pin-name="cL-PZ0-fCd" id="34l">
<line cb-classname="GraphicLineEntity" class="signalline" id="34Z" x1="840" x2="870" y1="1690" y2="1690"/>
<g cb-classname="DynamicText" cb-source="nb-CzW-rOrW" class="signal" id="34M" text-anchor="start">
<text cb-classname="GraphicTextEntity" class="signal" fill="black" font-style="normal" font-weight="normal" id="34X" text-anchor="start" text-decoration="normal" x="854" y="1687"/>
</g>
<g cb-classname="SignalSegment" id="5P0">
<line cb-classname="GraphicLineEntity" class="signalline" id="6Tj" stroke="#1e12bf" stroke-dasharray="5,4" x1="870" x2="1920" y1="1690" y2="1690"/>
<g cb-classname="SignalSegment" id="6T6">
<line cb-classname="GraphicLineEntity" class="signalline" id="6T8" stroke="#1e12bf" stroke-dasharray="5,4" x1="1920" x2="1920" y1="1690" y2="1770"/>
<g cb-classname="SignalSegment" id="6TQ">
<line cb-classname="GraphicLineEntity" class="signalline" id="6Tl" stroke="#1e12bf" stroke-dasharray="5,4" x1="1920" x2="2070" y1="1770" y2="1770"/>
<g cb-classname="SignalConnection" cb-graphic-line="$604$" cb-input-pin="$0WV$" id="6TZ"/>
</g>
</g>
</g>
</g>
<g cb-classname="PointStatusIndicator" cb-indicator-type="Highway" cb-source="RL-0gy-ZbY" id="34a" visibility="hidden">
<line cb-classname="GraphicLineEntity" class="algorithmline" id="340" x1="740" x2="790" y1="1690" y2="1640"/>
<line cb-classname="GraphicLineEntity" class="algorithmline" id="3Ej" x1="790" x2="840" y1="1640" y2="1690"/>
<line cb-classname="GraphicLineEntity" class="algorithmline" id="3E6" x1="840" x2="790" y1="1690" y2="1740"/>
<line cb-classname="GraphicLineEntity" class="algorithmline" id="3E8" x1="790" x2="740" y1="1740" y2="1690"/>
</g>
<g cb-classname="PointStatusIndicator" cb-indicator-type="hardware" cb-source="43-oww-Y0K" id="3EQ" visibility="visible">
<line cb-classname="GraphicLineEntity" class="algorithmline" id="3El" x1="740" x2="840" y1="1640" y2="1640"/>
<line cb-classname="GraphicLineEntity" class="algorithmline" id="3EZ" x1="840" x2="840" y1="1640" y2="1740"/>
<line cb-classname="GraphicLineEntity" class="algorithmline" id="3EM" x1="840" x2="740" y1="1740" y2="1740"/>
</g>
<g cb-classname="PointStatusIndicator" cb-indicator-type="alarm" cb-source="cL-PZ0-fCd" id="3EX" visibility="hidden">
<text cb-classname="GraphicTextEntity" class="algorithm" fill="#000000" font-family="arial" font-size="20" id="3Ea" x="710" y="1675">
A
</text>
</g>
<g cb-classname="PointStatusIndicator" cb-indicator-type="ingraphic" cb-source="nb-JUC-bpW" id="3E0" visibility="visible">
<text cb-classname="GraphicTextEntity" class="algorithm" fill="#000000" font-family="Arial" font-size="20" id="3Yj" x="710" y="1725">
G
</text>
</g>
<g baseline-shift="-50%" cb-anchor-x="690" cb-anchor-y="1704" cb-classname="PointDescription" cb-content="extended" cb-labeled="false" cb-max-width="220" cb-source="RL-0gy-ZbY" class="algorithm" id="3Y6" text-anchor="end">
<text baseline-shift="-50%" cb-classname="GraphicTextEntity" class="algorithm" id="3Y8" text-anchor="end" x="690" y="1679">
DESC: Point not found in
</text>
<text baseline-shift="-50%" cb-classname="GraphicTextEntity" class="algorithm" id="19ae" text-anchor="end" x="690" y="1704">
database
</text>
<text baseline-shift="-50%" cb-classname="GraphicTextEntity" class="algorithm" id="2T04" text-anchor="end" x="690" y="1729">
(01T1300D01A-EPO)
</text>
</g>
<g cb-classname="DynamicText" cb-labeled="false" cb-pin-name="ea1" cb-source="rG-icO-2RZ" class="algorithm" id="3YQ" text-anchor="start">
<text baseline-shift="0%" cb-classname="GraphicTextEntity" class="algorithm" fill="black" font-family="arial" font-size="20" font-style="normal" font-weight="normal" id="3Yl" text-anchor="start" text-decoration="normal" x="860" y="1660"/>
</g>
<g baseline-shift="-100%" cb-anchor-x="860" cb-anchor-y="1700" cb-classname="PointReferences" cb-max-width="230" cb-originator="true" cb-source="57-4SI-fi2" class="signal" id="3YZ" text-anchor="start">
<text baseline-shift="-100%" cb-classname="GraphicTextEntity" class="algorithm" id="3YM" text-anchor="start" x="860" y="1700">
REF: Point not found in
</text>
<text baseline-shift="-100%" cb-classname="GraphicTextEntity" class="algorithm" id="2T0Q" text-anchor="start" x="860" y="1725">
database
</text>
<text baseline-shift="-100%" cb-classname="GraphicTextEntity" class="algorithm" id="2T0Y" text-anchor="start" x="860" y="1750">
(01T1300D01A-EPO)
</text>
</g>
</g>
<g cb-alg-zCe="01T1300D01B-EPO" cb-alg-zxOI="NO" cb-algorithm-id="00c" cb-classname="ExternalPointInterface" cb-function-name="INPUT" id="3YX">
<ellipse cb-classname="GraphicEllipseEntity" class="algorithm" cx="790" cy="1810" id="3Ya" rx="50" ry="50"/>
<rect cb-classname="GraphicRectangleEntity" class="algorithm" height="100" id="3Y0" width="40" x="700" y="1760"/>
<line cb-classname="GraphicLineEntity" class="algorithm" id="3Pj" x1="700" x2="740" y1="1810" y2="1810"/>
<g cb-classname="ControlPin" cb-pin-name="Br-B5B-kfY" id="3P6">
<line cb-classname="GraphicLineEntity" class="signalline" id="3P8" x1="840" x2="870" y1="1810" y2="1810"/>
<g cb-classname="DynamicText" cb-source="0D-ux6-l41e" class="signal" id="3PQ" text-anchor="start">
<text cb-classname="GraphicTextEntity" class="signal" fill="black" font-style="normal" font-weight="normal" id="3Pl" text-anchor="start" text-decoration="normal" x="854" y="1807"/>
</g>
<g cb-classname="SignalSegment" id="5Pl">
<g cb-classname="SignalConnection" cb-graphic-line="$597$" cb-input-pin="$e8Y$" id="5Pa"/>
<line cb-classname="GraphicLineEntity" class="signalline" id="5PX" stroke="#1e12bf" stroke-dasharray="5,4" x1="870" x2="2070" y1="1810" y2="1810"/>
</g>
</g>
<g cb-classname="PointStatusIndicator" cb-indicator-type="Highway" cb-source="32-yR7-n9N" id="3PZ" visibility="hidden">
<line cb-classname="GraphicLineEntity" class="algorithmline" id="3PM" x1="740" x2="790" y1="1810" y2="1760"/>
<line cb-classname="GraphicLineEntity" class="algorithmline" id="3PX" x1="790" x2="840" y1="1760" y2="1810"/>
<line cb-classname="GraphicLineEntity" class="algorithmline" id="3Pa" x1="840" x2="790" y1="1810" y2="1860"/>
<line cb-classname="GraphicLineEntity" class="algorithmline" id="3P0" x1="790" x2="740" y1="1860" y2="1810"/>
</g>
<g cb-classname="PointStatusIndicator" cb-indicator-type="hardware" cb-source="gi-0ZX-1qV" id="4Tj" visibility="visible">
<line cb-classname="GraphicLineEntity" class="algorithmline" id="4T6" x1="740" x2="840" y1="1760" y2="1760"/>
<line cb-classname="GraphicLineEntity" class="algorithmline" id="4T8" x1="840" x2="840" y1="1760" y2="1860"/>
<line cb-classname="GraphicLineEntity" class="algorithmline" id="4TQ" x1="840" x2="740" y1="1860" y2="1860"/>
</g>
<g cb-classname="PointStatusIndicator" cb-indicator-type="alarm" cb-source="Br-B5B-kfY" id="4Tl" visibility="hidden">
<text cb-classname="GraphicTextEntity" class="algorithm" fill="#000000" font-family="arial" font-size="20" id="4TZ" x="710" y="1795">
A
</text>
</g>
<g cb-classname="PointStatusIndicator" cb-indicator-type="ingraphic" cb-source="0D-tOu-zCe" id="4TM" visibility="visible">
<text cb-classname="GraphicTextEntity" class="algorithm" fill="#000000" font-family="Arial" font-size="20" id="4TX" x="710" y="1845">
G
</text>
</g>
<g baseline-shift="-50%" cb-anchor-x="690" cb-anchor-y="1824" cb-classname="PointDescription" cb-content="extended" cb-labeled="false" cb-max-width="220" cb-source="32-yR7-n9N" class="algorithm" id="4Ta" text-anchor="end">
<text baseline-shift="-50%" cb-classname="GraphicTextEntity" class="algorithm" id="4T0" text-anchor="end" x="690" y="1799">
DESC: Point not found in
</text>
<text baseline-shift="-50%" cb-classname="GraphicTextEntity" class="algorithm" id="190z" text-anchor="end" x="690" y="1824">
database
</text>
<text baseline-shift="-50%" cb-classname="GraphicTextEntity" class="algorithm" id="2T0r" text-anchor="end" x="690" y="1849">
(01T1300D01B-EPO)
</text>
</g>
<g cb-classname="DynamicText" cb-labeled="false" cb-pin-name="4IZ" cb-source="sd-OIv-LOJ" class="algorithm" id="49j" text-anchor="start">
<text baseline-shift="0%" cb-classname="GraphicTextEntity" class="algorithm" fill="black" font-family="arial" font-size="20" font-style="normal" font-weight="normal" id="496" text-anchor="start" text-decoration="normal" x="860" y="1780"/>
</g>
<g baseline-shift="-100%" cb-anchor-x="860" cb-anchor-y="1820" cb-classname="PointReferences" cb-max-width="230" cb-originator="true" cb-source="43-oww-Y0K" class="signal" id="498" text-anchor="start">
<text baseline-shift="-100%" cb-classname="GraphicTextEntity" class="algorithm" id="49Q" text-anchor="start" x="860" y="1820">
REF: Point not found in
</text>
<text baseline-shift="-100%" cb-classname="GraphicTextEntity" class="algorithm" id="2T0f" text-anchor="start" x="860" y="1845">
database
</text>
<text baseline-shift="-100%" cb-classname="GraphicTextEntity" class="algorithm" id="2T08" text-anchor="start" x="860" y="1870">
(01T1300D01B-EPO)
</text>
</g>
</g>
<g cb-alg-ZbY="01T13G01-P03" cb-alg-zdk="$387$cb-alg-out$" cb-alg-zdt="$360$cb-alg-out$" cb-algorithm-id="00d" cb-classname="FastBooleanAlgorithm" cb-function-name="OR" id="49l">
<ellipse cb-classname="GraphicEllipseEntity" class="algorithm" cx="2120" cy="1790" id="49Z" rx="30" ry="30"/>
<line cb-classname="GraphicLineEntity" class="algorithm" id="49M" x1="2090" x2="2090" y1="1750" y2="1830"/>
<text baseline-shift="-50%" cb-classname="GraphicTextEntity" class="algorithm" fill="#000000" font-family="MS Shell Dlg" font-size="18" id="49X" text-anchor="middle" x="2119" y="1785">
OR
</text>
<g cb-classname="ControlPin" cb-pin-name="nb-JUC-UlM" id="49a">
<line cb-classname="GraphicLineEntity" class="signalline" id="490" x1="2070" x2="2090" y1="1770" y2="1770"/>
<polygon cb-classname="GraphicPolygonEntity" class="signal" id="4xj" points="2090,1770 2079,1764 2079,1775"/>
<g cb-classname="DynamicText" cb-source="32-pUl-d0c3" class="signal" id="4x6" text-anchor="end">
<text cb-classname="GraphicTextEntity" class="signal" fill="black" font-style="normal" font-weight="normal" id="4x8" text-anchor="end" text-decoration="normal" x="2075" y="1767"/>
</g>
</g>
<g cb-classname="ControlPin" cb-pin-name="sd-OIv-IkW" id="4xQ">
<line cb-classname="GraphicLineEntity" class="signalline" id="4xl" x1="2070" x2="2090" y1="1810" y2="1810"/>
<polygon cb-classname="GraphicPolygonEntity" class="signal" id="4xZ" points="2090,1810 2079,1804 2079,1815"/>
<g cb-classname="DynamicText" cb-source="gi-XIk-ceuw" class="signal" id="4xM" text-anchor="end">
<text cb-classname="GraphicTextEntity" class="signal" fill="black" font-style="normal" font-weight="normal" id="4xX" text-anchor="end" text-decoration="normal" x="2075" y="1807"/>
</g>
</g>
<g cb-classname="ControlPin" cb-pin-name="9q-i2G-Izf" id="4xa">
<line cb-classname="GraphicLineEntity" class="signalline" id="4x0" x1="2150" x2="2170" y1="1790" y2="1790"/>
<g cb-classname="DynamicText" cb-source="Br-kzM-6iL8" class="signal" id="4hj" text-anchor="start">
<text cb-classname="GraphicTextEntity" class="signal" fill="black" font-style="normal" font-weight="normal" id="4h6" text-anchor="start" text-decoration="normal" x="2164" y="1787"/>
</g>
<g cb-classname="SignalSegment" id="696">
<line cb-classname="GraphicLineEntity" class="signalline" id="698" stroke="#1e12bf" stroke-dasharray="5,4" x1="2170" x2="2740" y1="1790" y2="1790"/>
<g cb-classname="SignalSegment" id="69Q">
<line cb-classname="GraphicLineEntity" class="signalline" id="69l" stroke="#1e12bf" stroke-dasharray="5,4" x1="2740" x2="2740" y1="1790" y2="1590"/>
<g cb-classname="SignalSegment" id="69Z">
<line cb-classname="GraphicLineEntity" class="signalline" id="69M" stroke="#1e12bf" stroke-dasharray="5,4" x1="2740" x2="2890" y1="1590" y2="1590"/>
<g cb-classname="SignalConnection" cb-graphic-line="$616$" cb-input-pin="$K4u$" id="69X"/>
</g>
<line cb-classname="GraphicLineEntity" class="signalline" id="6xX" stroke="#1e12bf" stroke-dasharray="5,4" visibility="visible" x1="2740" x2="2740" y1="1790" y2="2140"/>
<ellipse cb-classname="GraphicEllipseEntity" class="signal" cx="2740" cy="1790" fill="#1e12bf" id="6x0" rx="5" ry="5" stroke="#1e12bf" stroke-dasharray="5,4"/>
<g cb-classname="SignalSegment" id="8mj">
<line cb-classname="GraphicLineEntity" class="signalline" id="8m6" stroke="#1e12bf" stroke-dasharray="5,4" x1="2740" x2="4500" y1="2140" y2="2140"/>
<g cb-classname="SignalConnection" cb-graphic-line="$851$" cb-input-pin="$wIQ$" id="8m8"/>
</g>
</g>
</g>
</g>
</g>
<g cb-alg-OgQ="$304$cb-alg-out$" cb-alg-Ogg="$333$cb-alg-out$" cb-alg-Ogh="$414$cb-alg-out$" cb-alg-n9N="01T13G01-P04" cb-algorithm-id="00e" cb-classname="FastBooleanAlgorithm" cb-function-name="AND" id="44X">
<rect cb-classname="GraphicRectangleEntity" class="algorithm" height="60" id="44a" width="60" x="2910" y="1540"/>
<g cb-classname="ControlPin" cb-pin-name="Br-B5B-frv" id="440">
<line cb-classname="GraphicLineEntity" class="signalline" id="4Ej" x1="2890" x2="2910" y1="1550" y2="1550"/>
<polygon cb-classname="GraphicPolygonEntity" class="signal" id="4E6" points="2910,1550 2899,1544 2899,1555"/>
<g cb-classname="DynamicText" cb-source="RL-vfr-eo3O" class="signal" id="4E8" text-anchor="end">
<text cb-classname="GraphicTextEntity" class="signal" fill="black" font-style="normal" font-weight="normal" id="4EQ" text-anchor="end" text-decoration="normal" x="2895" y="1547"/>
</g>
</g>
<g cb-classname="ControlPin" cb-pin-name="rG-icO-5Fg" id="4El">
<line cb-classname="GraphicLineEntity" class="signalline" id="4EZ" x1="2890" x2="2910" y1="1590" y2="1590"/>
<polygon cb-classname="GraphicPolygonEntity" class="signal" id="4EM" points="2910,1590 2899,1584 2899,1595"/>
<g cb-classname="DynamicText" cb-source="43-Y5F-ALih" class="signal" id="4EX" text-anchor="end">
<text cb-classname="GraphicTextEntity" class="signal" fill="black" font-style="normal" font-weight="normal" id="4Ea" text-anchor="end" text-decoration="normal" x="2895" y="1587"/>
</g>
</g>
<line cb-classname="GraphicLineEntity" class="algorithm" id="4E0" x1="2910" x2="2910" y1="1530" y2="1610"/>
<g cb-classname="ControlPin" cb-pin-name="9q-i2G-Izf" id="4Yj">
<line cb-classname="GraphicLineEntity" class="signalline" id="4Y6" x1="2970" x2="2990" y1="1570" y2="1570"/>
<g cb-classname="DynamicText" cb-source="Br-kzM-6iL8" class="signal" id="4Y8" text-anchor="start">
<text cb-classname="GraphicTextEntity" class="signal" fill="black" font-style="normal" font-weight="normal" id="4YQ" text-anchor="start" text-decoration="normal" x="2984" y="1567"/>
</g>
<g cb-classname="SignalSegment" id="6hj">
<line cb-classname="GraphicLineEntity" class="signalline" id="648" stroke="#1e12bf" stroke-dasharray="5,4" x1="2990" x2="3470" y1="1570" y2="1570"/>
<g cb-classname="SignalSegment" id="64Q">
<line cb-classname="GraphicLineEntity" class="signalline" id="64l" stroke="#1e12bf" stroke-dasharray="5,4" x1="3470" x2="3470" y1="1570" y2="1370"/>
<g cb-classname="SignalSegment" id="64Z">
<line cb-classname="GraphicLineEntity" class="signalline" id="64M" stroke="#1e12bf" stroke-dasharray="5,4" x1="3470" x2="3650" y1="1370" y2="1370"/>
<g cb-classname="SignalConnection" cb-graphic-line="$666$" cb-input-pin="$6bh$" id="64X"/>
</g>
<ellipse cb-classname="GraphicEllipseEntity" class="signal" cx="3470" cy="1570" fill="#1e12bf" id="64a" rx="5" ry="5" stroke="#1e12bf" stroke-dasharray="5,4"/>
<line cb-classname="GraphicLineEntity" class="signalline" id="1xZY" stroke="#1e12bf" stroke-dasharray="5,4" x1="3470" x2="3580" y1="1570" y2="1570"/>
<g cb-classname="SignalSegment" id="1xZr">
<line cb-classname="GraphicLineEntity" class="signalline" id="1xZf" stroke="#1e12bf" stroke-dasharray="5,4" x1="3580" x2="3580" y1="1570" y2="1930"/>
<g cb-classname="SignalSegment" id="1xZ8">
<line cb-classname="GraphicLineEntity" class="signalline" id="1xZG" stroke="#1e12bf" stroke-dasharray="5,4" x1="3580" x2="3760" y1="1930" y2="1930"/>
<g cb-classname="SignalConnection" cb-graphic-line="$1257$" cb-input-pin="$MDpo$" id="1xZt"/>
</g>
<line cb-classname="GraphicLineEntity" class="signalline" id="6hQ" stroke="#1e12bf" stroke-dasharray="5,4" x1="3580" x2="4500" y1="1570" y2="1570"/>
<g cb-classname="SignalConnection" cb-graphic-line="$633$" cb-input-pin="$6RW$" id="6hl"/>
<ellipse cb-classname="GraphicEllipseEntity" class="signal" cx="3580" cy="1570" fill="#1e12bf" id="1xZe" rx="5" ry="5" stroke="#1e12bf" stroke-dasharray="5,4"/>
</g>
</g>
</g>
</g>
<text baseline-shift="-50%" cb-classname="GraphicTextEntity" class="algorithm" fill="#000000" font-family="MS Shell Dlg" id="4Yl" text-anchor="middle" x="2941" y="1566">
AND
</text>
<g cb-classname="ControlPin" cb-pin-name="32-yR7-Ogg" id="4YM">
<line cb-classname="GraphicLineEntity" class="signalline" id="4YX" x1="2890" x2="2910" y1="1570" y2="1570"/>
<polygon cb-classname="GraphicPolygonEntity" class="signal" id="4Ya" points="2910,1570 2899,1564 2899,1575"/>
<g cb-classname="DynamicText" cb-source="57-HOg-kyN3" class="signal" id="4Y0" text-anchor="end">
<text cb-classname="GraphicTextEntity" class="signal" fill="black" font-style="normal" font-weight="normal" id="4Pj" text-anchor="end" text-decoration="normal" x="2895" y="1567"/>
</g>
</g>
</g>
<g cb-alg-Fh="$467$cb-alg-out$" cb-algorithm-id="00f" cb-classname="ExternalPointInterface" cb-function-name="OUTPUT" id="59j">
<ellipse cb-classname="GraphicEllipseEntity" class="algorithm" cx="4580" cy="1570" id="596" rx="50" ry="50"/>
<rect cb-classname="GraphicRectangleEntity" class="algorithm" height="100" id="598" width="40" x="4630" y="1520"/>
<line cb-classname="GraphicLineEntity" class="algorithm" id="59Q" x1="4630" x2="4670" y1="1570" y2="1570"/>
<g cb-classname="ControlPin" cb-pin-name="sd-OIv-Ik" id="59l">
<line cb-classname="GraphicLineEntity" class="signalline" id="59Z" x1="4500" x2="4530" y1="1570" y2="1570"/>
<polygon cb-classname="GraphicPolygonEntity" class="signal" id="59M" points="4530,1570 4519,1564 4519,1575"/>
<g cb-classname="DynamicText" cb-source="gi-XIk-ceuw" class="signal" id="59X" text-anchor="end">
<text cb-classname="GraphicTextEntity" class="signal" fill="black" font-style="normal" font-weight="normal" id="59a" text-anchor="end" text-decoration="normal" x="4515" y="1567"/>
</g>
</g>
<g cb-classname="PointStatusIndicator" cb-indicator-type="highway" cb-source="9q-i2G-kQ" id="590" visibility="hidden">
<line cb-classname="GraphicLineEntity" class="algorithmline" id="5xj" x1="4530" x2="4580" y1="1570" y2="1520"/>
<line cb-classname="GraphicLineEntity" class="algorithmline" id="5x6" x1="4580" x2="4630" y1="1520" y2="1570"/>
<line cb-classname="GraphicLineEntity" class="algorithmline" id="5x8" x1="4630" x2="4580" y1="1570" y2="1620"/>
<line cb-classname="GraphicLineEntity" class="algorithmline" id="5xQ" x1="4580" x2="4530" y1="1620" y2="1570"/>
</g>
<g cb-classname="PointStatusIndicator" cb-indicator-type="hardware" cb-source="RL-0gy-zd" id="5xl" visibility="hidden">
<line cb-classname="GraphicLineEntity" class="algorithmline" id="5xZ" x1="4630" x2="4530" y1="1520" y2="1520"/>
<line cb-classname="GraphicLineEntity" class="algorithmline" id="5xM" x1="4530" x2="4530" y1="1520" y2="1620"/>
<line cb-classname="GraphicLineEntity" class="algorithmline" id="5xX" x1="4530" x2="4630" y1="1620" y2="1620"/>
</g>
<g cb-classname="PointStatusIndicator" cb-indicator-type="alarm" cb-source="57-4SI-cA" id="5xa" visibility="hidden">
<text cb-classname="GraphicTextEntity" class="algorithm" fill="#000000" font-family="Arial" font-size="20" id="5x0" x="4640" y="1605">
A
</text>
</g>
<g cb-classname="PointStatusIndicator" cb-indicator-type="ingraphic" cb-source="gi-0ZX-Br" id="5hj" visibility="visible">
<text cb-classname="GraphicTextEntity" class="algorithm" fill="#000000" font-family="Arial" font-size="20" id="5h6" x="4640" y="1555">
G
</text>
</g>
<g cb-classname="DynamicText" cb-labeled="false" cb-pin-name="4M" cb-source="9q-i2G-kQ" class="algorithm" id="5h8" text-anchor="end">
<text baseline-shift="0%" cb-classname="GraphicTextEntity" class="algorithm" fill="black" font-family="arial" font-size="20" font-style="normal" font-weight="normal" id="5hQ" text-anchor="end" text-decoration="normal" x="4505" y="1545"/>
</g>
<g baseline-shift="-100%" cb-anchor-x="4505" cb-anchor-y="1580" cb-classname="PointReferences" cb-max-width="130" cb-originator="false" cb-source="Br-B5B-fr" class="signal" id="5hl" text-anchor="end">
<text baseline-shift="-100%" cb-classname="GraphicTextEntity" class="algorithm" id="5hZ" text-anchor="end" x="4505" y="1580">
REF: Point not
</text>
<text baseline-shift="-100%" cb-classname="GraphicTextEntity" class="algorithm" id="2TMY" text-anchor="end" x="4505" y="1605">
found in
</text>
<text baseline-shift="-100%" cb-classname="GraphicTextEntity" class="algorithm" id="2TMr" text-anchor="end" x="4505" y="1630">
database
</text>
<text baseline-shift="-100%" cb-classname="GraphicTextEntity" class="algorithm" id="2TMf" text-anchor="end" x="4505" y="1655">
(01T13G01-P04)
</text>
</g>
<g baseline-shift="-50%" cb-anchor-x="4685" cb-anchor-y="1585" cb-classname="PointDescription" cb-content="extended" cb-labeled="false" cb-max-width="240" cb-source="0D-tOu-be" class="algorithm" id="5hM" text-anchor="start">
<text baseline-shift="-50%" cb-classname="GraphicTextEntity" class="algorithm" id="5hX" text-anchor="start" x="4685" y="1573">
DESC: Point not found in
</text>
<text baseline-shift="-50%" cb-classname="GraphicTextEntity" class="algorithm" id="190G" text-anchor="start" x="4685" y="1598">
database (01T13G01-P04)
</text>
</g>
</g>
<g cb-alg-ZbY="01T13G01-P02" cb-alg-zdk="$467$cb-alg-out$" cb-alg-zdt="$153$cb-alg-out$" cb-algorithm-id="012" cb-classname="FastBooleanAlgorithm" cb-function-name="AND" id="6hZ">
<rect cb-classname="GraphicRectangleEntity" class="algorithm" height="60" id="6hM" width="60" x="3670" y="1320"/>
<g cb-classname="ControlPin" cb-pin-name="cL-PZ0-x6W" id="6hX">
<line cb-classname="GraphicLineEntity" class="signalline" id="6ha" x1="3650" x2="3670" y1="1330" y2="1330"/>
<polygon cb-classname="GraphicPolygonEntity" class="signal" id="6h0" points="3670,1330 3659,1324 3659,1335"/>
<g cb-classname="DynamicText" cb-source="0D-ux6-l41e" class="signal" id="6ej" text-anchor="end">
<text cb-classname="GraphicTextEntity" class="signal" fill="black" font-style="normal" font-weight="normal" id="6e6" text-anchor="end" text-decoration="normal" x="3655" y="1327"/>
</g>
</g>
<g cb-classname="ControlPin" cb-pin-name="32-yR7-Ogh" id="6e8">
<line cb-classname="GraphicLineEntity" class="signalline" id="6eQ" x1="3650" x2="3670" y1="1370" y2="1370"/>
<polygon cb-classname="GraphicPolygonEntity" class="signal" id="6el" points="3670,1370 3659,1364 3659,1375"/>
<g cb-classname="DynamicText" cb-source="57-HOg-kyN3" class="signal" id="6eZ" text-anchor="end">
<text cb-classname="GraphicTextEntity" class="signal" fill="black" font-style="normal" font-weight="normal" id="6eM" text-anchor="end" text-decoration="normal" x="3655" y="1367"/>
</g>
</g>
<line cb-classname="GraphicLineEntity" class="algorithm" id="6eX" x1="3670" x2="3670" y1="1310" y2="1390"/>
<g cb-classname="ControlPin" cb-pin-name="AE-J1R-w6e" id="6ea">
<line cb-classname="GraphicLineEntity" class="signalline" id="6e0" x1="3730" x2="3750" y1="1350" y2="1350"/>
<g cb-classname="DynamicText" cb-source="cL-ulF-WyoC" class="signal" id="6mj" text-anchor="start">
<text cb-classname="GraphicTextEntity" class="signal" fill="black" font-style="normal" font-weight="normal" id="6m6" text-anchor="start" text-decoration="normal" x="3744" y="1347"/>
</g>
<g cb-classname="SignalSegment" id="640">
<g cb-classname="SignalConnection" cb-graphic-line="$672$" cb-input-pin="$68k$" id="6EQ"/>
<line cb-classname="GraphicLineEntity" class="signalline" id="6E8" stroke="#1e12bf" stroke-dasharray="5,4" x1="3750" x2="4500" y1="1350" y2="1350"/>
</g>
</g>
<text baseline-shift="-50%" cb-classname="GraphicTextEntity" class="algorithm" fill="#000000" font-family="MS Shell Dlg" id="6m8" text-anchor="middle" x="3701" y="1346">
AND
</text>
</g>
<g cb-alg-zM="$635$cb-alg-out$" cb-algorithm-id="010" cb-classname="ExternalPointInterface" cb-function-name="OUTPUT" id="5ha">
<ellipse cb-classname="GraphicEllipseEntity" class="algorithm" cx="4580" cy="1350" id="5h0" rx="50" ry="50"/>
<rect cb-classname="GraphicRectangleEntity" class="algorithm" height="100" id="5ej" width="40" x="4630" y="1300"/>
<line cb-classname="GraphicLineEntity" class="algorithm" id="5e6" x1="4630" x2="4670" y1="1350" y2="1350"/>
<g cb-classname="ControlPin" cb-pin-name="43-oww-Sc" id="5e8">
<line cb-classname="GraphicLineEntity" class="signalline" id="5eQ" x1="4500" x2="4530" y1="1350" y2="1350"/>
<polygon cb-classname="GraphicPolygonEntity" class="signal" id="5el" points="4530,1350 4519,1344 4519,1355"/>
<g cb-classname="DynamicText" cb-source="9q-bSc-ajnz" class="signal" id="5eZ" text-anchor="end">
<text cb-classname="GraphicTextEntity" class="signal" fill="black" font-style="normal" font-weight="normal" id="5eM" text-anchor="end" text-decoration="normal" x="4515" y="1347"/>
</g>
</g>
<g cb-classname="PointStatusIndicator" cb-indicator-type="highway" cb-source="Br-B5B-fr" id="5eX" visibility="hidden">
<line cb-classname="GraphicLineEntity" class="algorithmline" id="5ea" x1="4530" x2="4580" y1="1350" y2="1300"/>
<line cb-classname="GraphicLineEntity" class="algorithmline" id="5e0" x1="4580" x2="4630" y1="1300" y2="1350"/>
<line cb-classname="GraphicLineEntity" class="algorithmline" id="5mj" x1="4630" x2="4580" y1="1350" y2="1400"/>
<line cb-classname="GraphicLineEntity" class="algorithmline" id="5m6" x1="4580" x2="4530" y1="1400" y2="1350"/>
</g>
<g cb-classname="PointStatusIndicator" cb-indicator-type="hardware" cb-source="rG-icO-5F" id="5m8" visibility="hidden">
<line cb-classname="GraphicLineEntity" class="algorithmline" id="5mQ" x1="4630" x2="4530" y1="1300" y2="1300"/>
<line cb-classname="GraphicLineEntity" class="algorithmline" id="5ml" x1="4530" x2="4530" y1="1300" y2="1400"/>
<line cb-classname="GraphicLineEntity" class="algorithmline" id="5mZ" x1="4530" x2="4630" y1="1400" y2="1400"/>
</g>
<g cb-classname="PointStatusIndicator" cb-indicator-type="alarm" cb-source="gi-0ZX-Br" id="5mM" visibility="hidden">
<text cb-classname="GraphicTextEntity" class="algorithm" fill="#000000" font-family="Arial" font-size="20" id="5mX" x="4640" y="1385">
A
</text>
</g>
<g cb-classname="PointStatusIndicator" cb-indicator-type="ingraphic" cb-source="9q-i2G-kQ" id="5ma" visibility="hidden">
<text cb-classname="GraphicTextEntity" class="algorithm" fill="#000000" font-family="Arial" font-size="20" id="5m0" x="4640" y="1335">
G
</text>
</g>
<g cb-classname="DynamicText" cb-labeled="false" cb-pin-name="su" cb-source="Br-B5B-fr" class="algorithm" id="54j" text-anchor="end">
<text baseline-shift="0%" cb-classname="GraphicTextEntity" class="algorithm" fill="black" font-family="arial" font-size="20" font-style="normal" font-weight="normal" id="546" text-anchor="end" text-decoration="normal" x="4505" y="1325"/>
</g>
<g baseline-shift="-100%" cb-anchor-x="4505" cb-anchor-y="1360" cb-classname="PointReferences" cb-max-width="130" cb-originator="false" cb-source="0D-tOu-be" class="signal" id="548" text-anchor="end">
<text baseline-shift="-100%" cb-classname="GraphicTextEntity" class="algorithm" id="54Q" text-anchor="end" x="4505" y="1360">
REF: Point not
</text>
<text baseline-shift="-100%" cb-classname="GraphicTextEntity" class="algorithm" id="2T0t" text-anchor="end" x="4505" y="1385">
found in
</text>
<text baseline-shift="-100%" cb-classname="GraphicTextEntity" class="algorithm" id="2T0e" text-anchor="end" x="4505" y="1410">
database
</text>
<text baseline-shift="-100%" cb-classname="GraphicTextEntity" class="algorithm" id="29jz" text-anchor="end" x="4505" y="1435">
(01T13G01-P02)
</text>
</g>
<g baseline-shift="-50%" cb-anchor-x="4685" cb-anchor-y="1365" cb-classname="PointDescription" cb-content="extended" cb-labeled="false" cb-max-width="240" cb-source="32-yR7-Og" class="algorithm" id="54l" text-anchor="start">
<text baseline-shift="-50%" cb-classname="GraphicTextEntity" class="algorithm" id="54Z" text-anchor="start" x="4685" y="1353">
DESC: Point not found in
</text>
<text baseline-shift="-50%" cb-classname="GraphicTextEntity" class="algorithm" id="190t" text-anchor="start" x="4685" y="1378">
database (01T13G01-P02)
</text>
</g>
</g>
<g cb-alg-UlM="$467$cb-alg-out$" cb-alg-bpW="01T13G01-P11" cb-algorithm-id="013" cb-classname="FastBooleanAlgorithm" cb-function-name="NOT" id="1xjf">
<rect cb-classname="GraphicRectangleEntity" class="algorithm" height="40" id="1xj8" width="40" x="3780" y="1910"/>
<text baseline-shift="-50%" cb-classname="GraphicTextEntity" class="algorithm" font-size="28" id="1xjG" text-anchor="middle" x="3799" y="1922">
N
</text>
<g cb-classname="ControlPin" cb-pin-name="9q-i2G-kQa" id="1xjt">
<line cb-classname="GraphicLineEntity" class="signalline" id="1xje" x1="3760" x2="3780" y1="1930" y2="1930"/>
<polygon cb-classname="GraphicPolygonEntity" class="signal" id="1x6z" points="3780,1930 3769,1926 3769,1934"/>
<g cb-classname="DynamicText" cb-source="nb-CzW-rOrW" class="signal" id="1x64" text-anchor="end">
<text baseline-shift="5%" cb-classname="GraphicTextEntity" class="signal" fill="black" font-style="normal" font-weight="normal" id="1x6Q" text-anchor="end" text-decoration="normal" x="3775" y="1922"/>
</g>
</g>
<g cb-classname="ControlPin" cb-pin-name="RL-0gy-ZbY" id="1x6Y">
<line cb-classname="GraphicLineEntity" class="signalline" id="1x6r" x1="3820" x2="3840" y1="1930" y2="1930"/>
<g cb-classname="DynamicText" cb-source="rG-mbe-gJ48" class="signal" id="1x6f">
<text baseline-shift="5%" cb-classname="GraphicTextEntity" class="signal" fill="black" font-style="normal" font-weight="normal" id="1x68" text-decoration="normal" x="3832" y="1922"/>
</g>
<g cb-classname="SignalSegment" id="1xlt">
<g cb-classname="SignalConnection" cb-graphic-line="$1251$" cb-input-pin="$KiKw$" id="1xZQ"/>
<line cb-classname="GraphicLineEntity" class="signalline" id="1xZ4" stroke="#1e12bf" stroke-dasharray="5,4" x1="3840" x2="4510" y1="1930" y2="1930"/>
</g>
</g>
</g>
<g cb-alg-fr="$1205$cb-alg-out$" cb-algorithm-id="014" cb-classname="ExternalPointInterface" cb-function-name="OUTPUT" id="1x6G">
<ellipse cb-classname="GraphicEllipseEntity" class="algorithm" cx="4570" cy="1930" id="1x6t" rx="40" ry="40"/>
<rect cb-classname="GraphicRectangleEntity" class="algorithm" height="80" id="1x6e" width="30" x="4610" y="1890"/>
<line cb-classname="GraphicLineEntity" class="algorithm" id="1x8z" x1="4610" x2="4640" y1="1930" y2="1930"/>
<g cb-classname="PointStatusIndicator" cb-indicator-type="highway" cb-source="9q-i2G-kQ" id="1x84" visibility="hidden">
<line cb-classname="GraphicLineEntity" class="algorithmline" id="1x8Q" x1="4530" x2="4570" y1="1930" y2="1890"/>
<line cb-classname="GraphicLineEntity" class="algorithmline" id="1x8Y" x1="4570" x2="4610" y1="1890" y2="1930"/>
<line cb-classname="GraphicLineEntity" class="algorithmline" id="1x8r" x1="4610" x2="4570" y1="1930" y2="1970"/>
<line cb-classname="GraphicLineEntity" class="algorithmline" id="1x8f" x1="4570" x2="4530" y1="1970" y2="1930"/>
</g>
<g cb-classname="PointStatusIndicator" cb-indicator-type="hardware" cb-source="RL-0gy-zd" id="1x88" visibility="hidden">
<line cb-classname="GraphicLineEntity" class="algorithmline" id="1x8G" x1="4610" x2="4530" y1="1890" y2="1890"/>
<line cb-classname="GraphicLineEntity" class="algorithmline" id="1x8t" x1="4530" x2="4530" y1="1890" y2="1970"/>
<line cb-classname="GraphicLineEntity" class="algorithmline" id="1x8e" x1="4530" x2="4610" y1="1970" y2="1970"/>
</g>
<g cb-classname="PointStatusIndicator" cb-indicator-type="alarm" cb-source="57-4SI-cA" id="1xQz" visibility="visible">
<text cb-classname="GraphicTextEntity" class="algorithm" fill="#000000" font-family="Arial" font-size="20" id="1xQ4" x="4617" y="1919">
A
</text>
</g>
<g cb-classname="PointStatusIndicator" cb-indicator-type="ingraphic" cb-source="gi-0ZX-Br" id="1xQQ" visibility="visible">
<text cb-classname="GraphicTextEntity" class="algorithm" fill="#000000" font-family="Arial" font-size="20" id="1xQY" x="4615" y="1960">
G
</text>
</g>
<g cb-classname="DynamicText" cb-labeled="false" cb-pin-name="4M" cb-source="9q-i2G-kQ" class="algorithm" id="1xQr" text-anchor="end">
<text baseline-shift="0%" cb-classname="GraphicTextEntity" class="algorithm" fill="black" font-family="Arial" font-size="20" font-style="normal" font-weight="normal" id="1xQf" text-anchor="end" text-decoration="normal" x="4507" y="1909"/>
</g>
<g baseline-shift="-100%" cb-anchor-x="4508" cb-anchor-y="1946" cb-classname="PointReferences" cb-max-width="130" cb-originator="false" cb-source="Br-B5B-fr" class="signal" id="1xQ8" text-anchor="end">
<text baseline-shift="-100%" cb-classname="GraphicTextEntity" class="algorithm" id="1xQG" text-anchor="end" x="4508" y="1946">
REF: Point not
</text>
<text baseline-shift="-100%" cb-classname="GraphicTextEntity" class="algorithm" id="29jQ" text-anchor="end" x="4508" y="1971">
found in
</text>
<text baseline-shift="-100%" cb-classname="GraphicTextEntity" class="algorithm" id="29jY" text-anchor="end" x="4508" y="1996">
database
</text>
<text baseline-shift="-100%" cb-classname="GraphicTextEntity" class="algorithm" id="29jr" text-anchor="end" x="4508" y="2021">
(01T13G01-P11)
</text>
</g>
<g baseline-shift="-50%" cb-anchor-x="4661" cb-anchor-y="1928" cb-classname="PointDescription" cb-content="extended" cb-labeled="false" cb-max-width="240" cb-source="rG-icO-5F" class="algorithm" id="1xl4" text-anchor="start">
<text baseline-shift="-50%" cb-classname="GraphicTextEntity" class="algorithm" id="1xlQ" text-anchor="start" x="4661" y="1916">
DESC: Point not found in
</text>
<text baseline-shift="-50%" cb-classname="GraphicTextEntity" class="algorithm" id="1xlY" text-anchor="start" x="4661" y="1941">
database (01T13G01-P11)
</text>
</g>
<g cb-classname="ControlPin" cb-pin-name="gi-0ZX-Br" id="1xlf">
<line cb-classname="GraphicLineEntity" class="signalline" id="1xl8" x1="4510" x2="4530" y1="1930" y2="1930"/>
<polygon cb-classname="GraphicPolygonEntity" class="signal" id="1xlG" points="4530,1930 4519,1924 4519,1935"/>
</g>
</g>
<g cb-alg-x6="$414$cb-alg-out$" cb-algorithm-id="011" cb-classname="ExternalPointInterface" cb-function-name="OUTPUT" id="54M">
<ellipse cb-classname="GraphicEllipseEntity" class="algorithm" cx="4580" cy="2140" id="54X" rx="50" ry="50"/>
<rect cb-classname="GraphicRectangleEntity" class="algorithm" height="100" id="54a" width="40" x="4630" y="2090"/>
<line cb-classname="GraphicLineEntity" class="algorithm" id="540" x1="4630" x2="4670" y1="2140" y2="2140"/>
<g cb-classname="ControlPin" cb-pin-name="AE-J1R-Ba" id="5Ej">
<line cb-classname="GraphicLineEntity" class="signalline" id="5E6" x1="4500" x2="4530" y1="2140" y2="2140"/>
<polygon cb-classname="GraphicPolygonEntity" class="signal" id="5E8" points="4530,2140 4519,2134 4519,2145"/>
<g cb-classname="DynamicText" cb-source="Br-kzM-6iL8" class="signal" id="5EQ" text-anchor="end">
<text cb-classname="GraphicTextEntity" class="signal" fill="black" font-style="normal" font-weight="normal" id="5El" text-anchor="end" text-decoration="normal" x="4515" y="2137"/>
</g>
</g>
<g cb-classname="PointStatusIndicator" cb-indicator-type="highway" cb-source="0D-tOu-be" id="5EZ" visibility="hidden">
<line cb-classname="GraphicLineEntity" class="algorithmline" id="5EM" x1="4530" x2="4580" y1="2140" y2="2090"/>
<line cb-classname="GraphicLineEntity" class="algorithmline" id="5EX" x1="4580" x2="4630" y1="2090" y2="2140"/>
<line cb-classname="GraphicLineEntity" class="algorithmline" id="5Ea" x1="4630" x2="4580" y1="2140" y2="2190"/>
<line cb-classname="GraphicLineEntity" class="algorithmline" id="5E0" x1="4580" x2="4530" y1="2190" y2="2140"/>
</g>
<g cb-classname="PointStatusIndicator" cb-indicator-type="hardware" cb-source="57-4SI-cA" id="5Yj" visibility="hidden">
<line cb-classname="GraphicLineEntity" class="algorithmline" id="5Y6" x1="4630" x2="4530" y1="2090" y2="2090"/>
<line cb-classname="GraphicLineEntity" class="algorithmline" id="5Y8" x1="4530" x2="4530" y1="2090" y2="2190"/>
<line cb-classname="GraphicLineEntity" class="algorithmline" id="5YQ" x1="4530" x2="4630" y1="2190" y2="2190"/>
</g>
<g cb-classname="PointStatusIndicator" cb-indicator-type="alarm" cb-source="9q-i2G-kQ" id="5Yl" visibility="hidden">
<text cb-classname="GraphicTextEntity" class="algorithm" fill="#000000" font-family="Arial" font-size="20" id="5YZ" x="4640" y="2175">
A
</text>
</g>
<g cb-classname="PointStatusIndicator" cb-indicator-type="ingraphic" cb-source="Br-B5B-fr" id="5YM" visibility="visible">
<text cb-classname="GraphicTextEntity" class="algorithm" fill="#000000" font-family="Arial" font-size="20" id="5YX" x="4640" y="2125">
G
</text>
</g>
<g cb-classname="DynamicText" cb-labeled="false" cb-pin-name="VM" cb-source="0D-tOu-be" class="algorithm" id="5Ya" text-anchor="end">
<text baseline-shift="0%" cb-classname="GraphicTextEntity" class="algorithm" fill="black" font-family="arial" font-size="20" font-style="normal" font-weight="normal" id="5Y0" text-anchor="end" text-decoration="normal" x="4505" y="2115"/>
</g>
<g baseline-shift="-100%" cb-anchor-x="4505" cb-anchor-y="2150" cb-classname="PointReferences" cb-max-width="130" cb-originator="false" cb-source="32-yR7-Og" class="signal" id="5Pj" text-anchor="end">
<text baseline-shift="-100%" cb-classname="GraphicTextEntity" class="algorithm" id="5P6" text-anchor="end" x="4505" y="2150">
REF: Point not
</text>
<text baseline-shift="-100%" cb-classname="GraphicTextEntity" class="algorithm" id="29j8" text-anchor="end" x="4505" y="2175">
found in
</text>
<text baseline-shift="-100%" cb-classname="GraphicTextEntity" class="algorithm" id="29jG" text-anchor="end" x="4505" y="2200">
database
</text>
<text baseline-shift="-100%" cb-classname="GraphicTextEntity" class="algorithm" id="29jt" text-anchor="end" x="4505" y="2225">
(01T13G01-P03)
</text>
</g>
<g baseline-shift="-50%" cb-anchor-x="4685" cb-anchor-y="2155" cb-classname="PointDescription" cb-content="extended" cb-labeled="false" cb-max-width="240" cb-source="sd-OIv-Ik" class="algorithm" id="5P8" text-anchor="start">
<text baseline-shift="-50%" cb-classname="GraphicTextEntity" class="algorithm" id="5PQ" text-anchor="start" x="4685" y="2143">
DESC: Point not found in
</text>
<text baseline-shift="-50%" cb-classname="GraphicTextEntity" class="algorithm" id="29je" text-anchor="start" x="4685" y="2168">
database (01T13G01-P03)
</text>
</g>
</g>
</g>
<g cb-classname="IncludeDocument" cb-modify-time="09/25/2018 01:40:30" cb-objectname="Frame" id="5">
<text cb-classname="GraphicTextEntity" class="frame" font-size="50" id="29XQ" x="3660" y="3146">
Project Title &lt;Edit in FRAME.SVG&gt;
</text>
<g baseline-shift="-50%" cb-classname="DynamicText" cb-source="nb-bpfp-bv" class="frame" id="29XY">
<text cb-classname="GraphicTextEntity" class="frame" fill="black" font-family="arial" font-size="25" font-style="normal" font-weight="normal" id="29Xr" text-decoration="normal" x="4715" y="3325">
14
</text>
</g>
<g baseline-shift="-50%" cb-classname="DynamicText" cb-source="RL-oZb0-OR" class="frame" id="29Xf" text-anchor="middle">
<text cb-classname="GraphicTextEntity" class="frame" fill="black" font-family="arial" font-size="48" font-style="normal" font-weight="normal" id="29X8" text-anchor="middle" text-decoration="normal" x="4900" y="3320">
14
</text>
</g>
<g baseline-shift="-50%" cb-classname="DynamicText" cb-source="rG-dOl5-IQ" class="frame" id="29XG" text-anchor="middle">
<text cb-classname="GraphicTextEntity" class="frame" fill="black" font-family="arial" font-size="48" font-style="normal" font-weight="normal" id="29Xt" text-anchor="middle" text-decoration="normal" x="5067" y="3324">
2
</text>
</g>
<g cb-classname="DynamicText" cb-source="57-lAeOZ-2BVvY" class="frame" id="29Xe">
<text cb-classname="GraphicTextEntity" class="frame" fill="black" font-family="arial" font-size="48" font-style="normal" font-weight="normal" id="29az" text-decoration="normal" x="3660" y="3224">
T13G01-FG COOLING WATER pt.2
</text>
</g>
<g baseline-shift="-50%" cb-classname="DynamicText" cb-source="gi-U0382-aznmhQ" class="frame" id="29a4" text-anchor="middle">
<text cb-classname="GraphicTextEntity" class="frame" fill="black" font-family="arial" font-size="48" font-style="normal" font-weight="normal" id="29aQ" text-anchor="middle" text-decoration="normal" x="5270" y="3324">
261
</text>
</g>
<g baseline-shift="0%" cb-classname="DynamicText" cb-source="9q-q8SBKIES" class="frame" id="29aY" text-anchor="middle">
<text cb-classname="GraphicTextEntity" class="frame" fill="black" font-family="arial" font-size="36" font-style="normal" font-weight="normal" id="29ar" text-anchor="middle" text-decoration="normal" x="5270" y="3150">
A
</text>
</g>
<g baseline-shift="0%" cb-classname="DynamicText" cb-source="Br-GvqxUUze-YI48" class="frame" id="29af" text-anchor="middle">
<text cb-classname="GraphicTextEntity" class="frame" fill="black" font-family="arial" font-size="20" font-style="normal" font-weight="normal" id="29a8" text-anchor="middle" text-decoration="normal" x="5270" y="3230">
12/28/2010
</text>
</g>
<g baseline-shift="-50%" cb-classname="DynamicText" cb-source="0D-KWuUl8Wm" class="frame" id="29aG" text-anchor="end">
<text cb-classname="GraphicTextEntity" class="frame" fill="black" font-family="arial" font-size="26" font-style="normal" font-weight="normal" id="29at" text-anchor="end" text-decoration="normal" x="4500" y="3420">
Heczko
</text>
</g>
<g baseline-shift="-50%" cb-classname="DynamicText" cb-source="32-ZpozWjOq" class="frame" id="29ae" text-anchor="end">
<text cb-classname="GraphicTextEntity" class="frame" fill="black" font-family="arial" font-size="26" font-style="normal" font-weight="normal" id="290z" text-anchor="end" text-decoration="normal" x="5353" y="3420">
Nemec
</text>
</g>
<g cb-classname="GraphicShape" cb-tag="BORDER" id="2904">
<line cb-classname="GraphicLineEntity" class="frameline" id="290Q" x1="40" x2="40" y1="40" y2="3460"/>
<line cb-classname="GraphicLineEntity" class="frameline" id="290Y" x1="40" x2="5380" y1="3460" y2="3460"/>
<line cb-classname="GraphicLineEntity" class="frameline" id="290r" x1="5380" x2="5380" y1="3460" y2="40"/>
<line cb-classname="GraphicLineEntity" class="frameline" id="290f" x1="5380" x2="40" y1="40" y2="40"/>
<line cb-classname="GraphicLineEntity" class="frame" id="2908" x1="5430" x2="5440" y1="3510" y2="3510"/>
</g>
<g cb-classname="GraphicShape" cb-tag="TITLE BOX" id="290G">
<line cb-classname="GraphicLineEntity" class="frameline" id="290t" x1="2340" x2="2340" y1="3080" y2="3460"/>
<line cb-classname="GraphicLineEntity" class="frameline" id="290e" x1="2340" x2="5380" y1="3080" y2="3080"/>
<line cb-classname="GraphicLineEntity" class="frameline" id="2xjz" x1="3650" x2="3650" y1="3460" y2="3080"/>
<line cb-classname="GraphicLineEntity" class="frameline" id="2xj4" x1="3650" x2="5380" y1="3240" y2="3240"/>
<line cb-classname="GraphicLineEntity" class="frameline" id="2xjQ" x1="3650" x2="5380" y1="3390" y2="3390"/>
<line cb-classname="GraphicLineEntity" class="frameline" id="2xjY" x1="3650" x2="5380" y1="3160" y2="3160"/>
<line cb-classname="GraphicLineEntity" class="frameline" id="2xjr" x1="3650" x2="4520" y1="3320" y2="3320"/>
<line cb-classname="GraphicLineEntity" class="frameline" id="2xjf" x1="4520" x2="5380" y1="3290" y2="3290"/>
<line cb-classname="GraphicLineEntity" class="frameline" id="2xj8" x1="4520" x2="5380" y1="3240" y2="3240"/>
<line cb-classname="GraphicLineEntity" class="frameline" id="2xjG" x1="4520" x2="4520" y1="3240" y2="3460"/>
<line cb-classname="GraphicLineEntity" class="frameline" id="2xjt" x1="4810" x2="4810" y1="3240" y2="3390"/>
<line cb-classname="GraphicLineEntity" class="frameline" id="2xje" x1="4990" x2="4990" y1="3240" y2="3390"/>
<line cb-classname="GraphicLineEntity" class="frameline" id="2x6z" x1="5150" x2="5150" y1="3080" y2="3390"/>
</g>
<g cb-classname="GraphicShape" cb-tag="TEXT LABELS" id="2x64">
<text baseline-shift="-50%" cb-classname="GraphicTextEntity" class="frame" font-size="25" id="2x6Q" text-anchor="middle" x="4890" y="3252">
Drop
</text>
<text baseline-shift="-50%" cb-classname="GraphicTextEntity" class="frame" font-size="25" id="2x6Y" text-anchor="middle" x="5075" y="3252">
Task
</text>
<text baseline-shift="-50%" cb-classname="GraphicTextEntity" class="frame" font-size="25" id="2x6r" text-anchor="middle" x="5265" y="3252">
Sheet
</text>
<text cb-classname="GraphicTextEntity" class="frame" font-size="25" id="2x6f" x="5152" y="3107">
Rev.
</text>
<text cb-classname="GraphicTextEntity" class="frame" font-size="25" id="2x68" x="3653" y="3418">
Engineer
</text>
<text cb-classname="GraphicTextEntity" class="frame" font-size="25" id="2x6G" x="4528" y="3419">
Approved
</text>
<text cb-classname="GraphicTextEntity" class="frame" font-size="25" id="2x6t" x="5152" y="3187">
Date
</text>
<text baseline-shift="-50%" cb-classname="GraphicTextEntity" class="frame" font-size="25" id="2x6e" text-anchor="middle" x="4660" y="3252">
Drawing Number
</text>
<text baseline-shift="-50%" cb-classname="GraphicTextEntity" class="frame" font-size="25" id="2x8z" text-anchor="middle" x="4680" y="3325">
CTL
</text>
</g>
<text baseline-shift="-50%" cb-classname="GraphicTextEntity" class="frame" font-size="48" id="2x84" text-anchor="middle" x="3000" y="3100">
EMERSON PROCESS MANAGEMENT
</text>
<g baseline-shift="-100%" cb-anchor-x="2360" cb-anchor-y="3140" cb-classname="GroupText" cb-max-width="1260" fill="black" id="2x8Q">
<text baseline-shift="-100%" cb-classname="GraphicTextEntity" class="frame" fill="black" font-family="arial" font-size="22" font-weight="normal" id="2x8Y" text-anchor="start" text-decoration="normal" x="2360" y="3140">
THIS DOCUMENT CONTAINS INFORMATION PROPRIETARY TO EMERSON PROCESS
</text>
<text baseline-shift="-100%" cb-classname="GraphicTextEntity" class="frame" fill="black" font-family="arial" font-size="22" font-weight="normal" id="2x8r" text-anchor="start" text-decoration="normal" x="2360" y="3176">
MANAGEMENT POWER &amp; WATER SOLUTIONS, INC. IT IS SUBMITTED IN CONFIDENCE AND
</text>
<text baseline-shift="-100%" cb-classname="GraphicTextEntity" class="frame" fill="black" font-family="arial" font-size="22" font-weight="normal" id="2x8f" text-anchor="start" text-decoration="normal" x="2360" y="3212">
TRUST, IS TO BE USED BY YOU SOLELY FOR THE PURPOSES FOR WHICH IT IS
</text>
<text baseline-shift="-100%" cb-classname="GraphicTextEntity" class="frame" fill="black" font-family="arial" font-size="22" font-weight="normal" id="2x88" text-anchor="start" text-decoration="normal" x="2360" y="3248">
FURNISHED AND IS TO BE RETURNED UPON REQUEST. THIS DOCUMENT AND ANY
</text>
<text baseline-shift="-100%" cb-classname="GraphicTextEntity" class="frame" fill="black" font-family="arial" font-size="22" font-weight="normal" id="2x8G" text-anchor="start" text-decoration="normal" x="2360" y="3284">
OTHER INFORMATION PROVIDED TO YOU IS NOT TO BE REPRODUCED, TRANSMITTED,
</text>
<text baseline-shift="-100%" cb-classname="GraphicTextEntity" class="frame" fill="black" font-family="arial" font-size="22" font-weight="normal" id="2x8t" text-anchor="start" text-decoration="normal" x="2360" y="3320">
DISCLOSED, OR USED OTHERWISE IN WHOLE OR IN PART WITHOUT THE PRIOR
</text>
<text baseline-shift="-100%" cb-classname="GraphicTextEntity" class="frame" fill="black" font-family="arial" font-size="22" font-weight="normal" id="2x8e" text-anchor="start" text-decoration="normal" x="2360" y="3356">
WRITTEN AUTHORIZATION OF EMERSON PROCESS MANAGEMENT POWER &amp; WATER
</text>
<text baseline-shift="-100%" cb-classname="GraphicTextEntity" class="frame" fill="black" font-family="arial" font-size="22" font-weight="normal" id="2xQz" text-anchor="start" text-decoration="normal" x="2360" y="3392">
SOLUTIONS,INC.
</text>
</g>
</g>
</svg>