<?xml version="1.0" ?><svg cb-auto-time="02/09/2011 15:07:29" cb-classname="ControlFunction" cb-drop-id="14" cb-filename="Z:\OVATION\NET0\UNIT0\CONTROLFUNCTIONS\0234.svg" cb-function-id="0234" cb-key="111111111111" cb-modified-timestamp="1489319242" cb-modify-id="00000001" cb-ortho-mode="enabled" cb-path="Z:/OVATION/NET0/UNIT0/CONTROLFUNCTIONS" cb-revision="A" cb-sheet-number="901" cb-sheet-title="CABINETS ALARMS" cb-snap-grid="10" cb-task-id="2" height="3606" id="1" width="5450" xmlns="http://www.w3.org/2000/svg">
<style cb-classname="EntityStyle" id="2" type="text/css">
	.algorithm { fill: white; stroke: black; stroke-width: 3 }
	.algorithm-function { fill: black; stroke: none }
	.algorithm-functionline { fill: none; stroke: black; stroke-linecap: round; stroke-width: 3 }
	.algorithm-name { fill: black; stroke: none }
	.algorithm-nameline { fill: none; stroke: black; stroke-linecap: round; stroke-width: 3 }
	.algorithm-sequence { fill: black; stroke: none; visibility: hidden }
	.algorithm-sequenceline { fill: none; stroke: black; stroke-linecap: round; stroke-width: 3; visibility: hidden }
	.algorithmline { fill: none; stroke: black; stroke-linecap: round; stroke-width: 3 }
	.annotation { fill: black; stroke: none }
	.annotationline { fill: none; stroke: black; stroke-linecap: round; stroke-width: 3 }
	.frame { fill: black; stroke: none }
	.frameline { fill: none; stroke: black; stroke-linecap: round; stroke-width: 3 }
	.signal { fill: black; stroke: none }
	.signalline { fill: none; stroke: black; stroke-linecap: round; stroke-width: 3 }
	text.algorithm { fill: black; font-family: &quot;Arial&quot;; font-size: 22; stroke: none }
	text.algorithm-function { fill: black; font-family: &quot;Arial&quot;; font-size: 22; stroke: none }
	text.algorithm-name { fill: black; font-family: &quot;Arial&quot;; font-size: 22; stroke: none }
	text.algorithm-sequence { fill: black; font-family: Arial; font-size: 22; stroke: none; visibility: hidden }
	text.annotation { fill: black; font-family: Arial; font-size: 22; stroke: none }
	text.frame { fill: black; font-family: Arial; font-size: 18; stroke: none }
	text.signal { fill: black; font-family: Arial; font-size: 12; stroke: none }
</style>
<g cb-classname="NamedObject" cb-objectname="Comments" id="3"/>
<g cb-classname="AlgorithmContainer" cb-objectname="Algorithms" id="4">
<g cb-alg-oiMU="NO" cb-alg-oue="01DROP14-TC-COMP1" cb-algorithm-id="001" cb-classname="ExternalPointInterface" cb-function-name="INPUT" id="6Z">
<ellipse cb-classname="GraphicEllipseEntity" class="algorithm" cx="900" cy="270" id="6R" rx="40" ry="40"/>
<rect cb-classname="GraphicRectangleEntity" class="algorithm" height="80" id="6J" width="30" x="830" y="230"/>
<line cb-classname="GraphicLineEntity" class="algorithm" id="6B" x1="830" x2="860" y1="270" y2="270"/>
<g cb-classname="PointStatusIndicator" cb-indicator-type="Highway" cb-source="3k-6xs-Vuz" id="63" visibility="hidden">
<line cb-classname="GraphicLineEntity" class="algorithmline" id="7I" x1="860" x2="900" y1="270" y2="230"/>
<line cb-classname="GraphicLineEntity" class="algorithmline" id="7M" x1="900" x2="940" y1="230" y2="270"/>
<line cb-classname="GraphicLineEntity" class="algorithmline" id="7Q" x1="940" x2="900" y1="270" y2="310"/>
<line cb-classname="GraphicLineEntity" class="algorithmline" id="7U" x1="900" x2="860" y1="310" y2="270"/>
</g>
<g cb-classname="PointStatusIndicator" cb-indicator-type="hardware" cb-source="M8-cDX-oue" id="7Y" visibility="visible">
<line cb-classname="GraphicLineEntity" class="algorithmline" id="7Z" x1="860" x2="940" y1="230" y2="230"/>
<line cb-classname="GraphicLineEntity" class="algorithmline" id="7R" x1="940" x2="940" y1="230" y2="310"/>
<line cb-classname="GraphicLineEntity" class="algorithmline" id="7J" x1="940" x2="860" y1="310" y2="310"/>
</g>
<g cb-classname="PointStatusIndicator" cb-indicator-type="alarm" cb-source="cT-J7i-VuZ" id="7B" visibility="hidden">
<text cb-classname="GraphicTextEntity" class="algorithm" fill="#000000" font-family="arial" font-size="20" id="73" x="837" y="259">
A
</text>
</g>
<g cb-classname="PointStatusIndicator" cb-indicator-type="ingraphic" cb-source="gz-jOM-duT" id="8I" visibility="visible">
<text cb-classname="GraphicTextEntity" class="algorithm" fill="#000000" font-family="Arial" font-size="20" id="8M" x="835" y="299">
G
</text>
</g>
<g baseline-shift="-50%" cb-anchor-x="812" cb-anchor-y="264" cb-classname="PointDescription" cb-content="extended" cb-labeled="false" cb-max-width="240" cb-source="3k-6xs-Vuz" class="algorithm" id="8Q" text-anchor="end">
<text baseline-shift="-50%" cb-classname="GraphicTextEntity" class="algorithm" id="8U" text-anchor="end" x="812" y="229">
DESC: Point not
</text>
<text baseline-shift="-50%" cb-classname="GraphicTextEntity" class="algorithm" id="8Y" text-anchor="end" x="812" y="265">
found in database
</text>
<text baseline-shift="-50%" cb-classname="GraphicTextEntity" class="algorithm" id="3MO" text-anchor="end" x="812" y="301">
(01DROP14-TC-COMP1)
</text>
</g>
<g cb-classname="DynamicText" cb-labeled="false" cb-pin-name="cpB" cb-source="1H-Dfa-Vuq" class="algorithm" id="8R" text-anchor="start">
<text baseline-shift="0%" cb-classname="GraphicTextEntity" class="algorithm" fill="black" font-family="Arial" font-size="20" font-style="normal" font-weight="normal" id="8J" text-anchor="start" text-decoration="normal" x="960" y="250"/>
</g>
<g baseline-shift="-100%" cb-anchor-x="960" cb-anchor-y="280" cb-classname="PointReferences" cb-max-width="230" cb-originator="true" cb-source="FB-Pc7-duH" class="signal" id="8B" text-anchor="start">
<text baseline-shift="-100%" cb-classname="GraphicTextEntity" class="algorithm" id="83" text-anchor="start" x="960" y="280">
REF: Point not
</text>
<text baseline-shift="-100%" cb-classname="GraphicTextEntity" class="algorithm" id="3MU" text-anchor="start" x="960" y="316">
found in database
</text>
<text baseline-shift="-100%" cb-classname="GraphicTextEntity" class="algorithm" id="3QG" text-anchor="start" x="960" y="352">
(01DROP14-TC-COMP1)
</text>
</g>
<g cb-classname="ControlPin" cb-pin-name="cT-J7i-VuZ" id="9M">
<line cb-classname="GraphicLineEntity" class="signalline" id="9Q" x1="940" x2="960" y1="270" y2="270"/>
<g cb-classname="SignalSegment" id="1IO">
<line cb-classname="GraphicLineEntity" class="signalline" id="1Mw" x1="960" x2="1970" y1="270" y2="270"/>
<g cb-classname="SignalConnection" cb-graphic-line="$112$" cb-input-pin="$lk$" id="1Mr"/>
</g>
</g>
</g>
<g cb-alg-Lu8="01DROP14-TC-COMP1-H1" cb-alg-MZm="$65$cb-alg-out$" cb-alg-VFOi="63" cb-alg-ZFaO="45" cb-alg-ZFdk="1" cb-algorithm-id="002" cb-classname="ControlAlgorithm" cb-function-name="HIGHMON" cb-modify-id="00000001" id="9U">
<rect cb-classname="GraphicRectangleEntity" class="algorithm" height="40" id="9Y" width="80" x="1990" y="250"/>
<line cb-classname="GraphicLineEntity" class="algorithmline" id="9Z" x1="2038" x2="2018" y1="250" y2="290"/>
<line cb-classname="GraphicLineEntity" class="algorithmline" id="9R" x1="2042" x2="2022" y1="250" y2="290"/>
<text baseline-shift="-50%" cb-classname="GraphicTextEntity" class="algorithm" id="9J" text-anchor="middle" x="2006" y="269">
H
</text>
<g cb-classname="ControlPin" cb-pin-name="ie-fCp-xBC" id="9B">
<line cb-classname="GraphicLineEntity" class="signalline" id="93" x1="1970" x2="1990" y1="270" y2="270"/>
<polygon cb-classname="GraphicPolygonEntity" class="signal" id="1IG" points="1990,270 1979,266 1979,274"/>
<g cb-classname="DynamicText" cb-source="FB-cxB-hr3n" class="signal" id="1IF" text-anchor="end">
<text baseline-shift="5%" cb-classname="GraphicTextEntity" class="signal" fill="black" font-style="normal" font-weight="normal" id="1Iw" text-anchor="end" text-decoration="normal" x="1990" y="262"/>
</g>
</g>
<g cb-classname="ControlPin" cb-pin-name="mh-9gO-VuB" id="1Ir">
<line cb-classname="GraphicLineEntity" class="signalline" id="1I4" x1="2070" x2="2090" y1="270" y2="270"/>
<g cb-classname="DynamicText" cb-source="PN-JmN-EC6z" class="signal" id="1Ib">
<text baseline-shift="5%" cb-classname="GraphicTextEntity" class="signal" fill="black" font-style="normal" font-weight="normal" id="1IC" text-decoration="normal" x="2085" y="262"/>
</g>
<g cb-classname="SignalSegment" id="1ZG">
<g cb-classname="SignalConnection" cb-graphic-line="$153$" cb-input-pin="$jY3$" id="1Z4"/>
<line cb-classname="GraphicLineEntity" class="signalline" id="1Zr" stroke="#1e12bf" stroke-dasharray="5,4" x1="2090" x2="3160" y1="270" y2="270"/>
</g>
</g>
<g cb-classname="GraphicShape" id="1M4">
<g cb-classname="DynamicText" cb-labeled="true" cb-source="sn-gPJ-ZD31" id="1Mb">
<text cb-classname="GraphicTextEntity" class="algorithm" id="1MC" text-anchor="start" x="1980" y="330"/>
</g>
<g cb-classname="DynamicText" cb-labeled="true" cb-source="cT-J7i-EaL8" id="1MO">
<text cb-classname="GraphicTextEntity" class="algorithm" id="1Mn" text-anchor="start" x="1980" y="360"/>
</g>
</g>
</g>
<g cb-alg-MZ="$93$cb-alg-out$" cb-algorithm-id="003" cb-classname="ExternalPointInterface" cb-function-name="OUTPUT" id="1MU">
<ellipse cb-classname="GraphicEllipseEntity" class="algorithm" cx="3220" cy="270" id="1QG" rx="40" ry="40"/>
<rect cb-classname="GraphicRectangleEntity" class="algorithm" height="80" id="1QF" width="30" x="3260" y="230"/>
<line cb-classname="GraphicLineEntity" class="algorithm" id="1Qw" x1="3260" x2="3290" y1="270" y2="270"/>
<g cb-classname="PointStatusIndicator" cb-indicator-type="highway" cb-source="rq-CRl-j8" id="1Qr" visibility="hidden">
<line cb-classname="GraphicLineEntity" class="algorithmline" id="1Q4" x1="3180" x2="3220" y1="270" y2="230"/>
<line cb-classname="GraphicLineEntity" class="algorithmline" id="1Qb" x1="3220" x2="3260" y1="230" y2="270"/>
<line cb-classname="GraphicLineEntity" class="algorithmline" id="1QC" x1="3260" x2="3220" y1="270" y2="310"/>
<line cb-classname="GraphicLineEntity" class="algorithmline" id="1QO" x1="3220" x2="3180" y1="310" y2="270"/>
</g>
<g cb-classname="PointStatusIndicator" cb-indicator-type="hardware" cb-source="sn-gPJ-fZ" id="1Qn" visibility="hidden">
<line cb-classname="GraphicLineEntity" class="algorithmline" id="1QU" x1="3260" x2="3180" y1="230" y2="230"/>
<line cb-classname="GraphicLineEntity" class="algorithmline" id="1UG" x1="3180" x2="3180" y1="230" y2="310"/>
<line cb-classname="GraphicLineEntity" class="algorithmline" id="1UF" x1="3180" x2="3260" y1="310" y2="310"/>
</g>
<g cb-classname="PointStatusIndicator" cb-indicator-type="alarm" cb-source="gz-jOM-Xt" id="1Uw" visibility="visible">
<text cb-classname="GraphicTextEntity" class="algorithm" fill="#000000" font-family="Arial" font-size="20" id="1Ur" x="3267" y="259">
A
</text>
</g>
<g cb-classname="PointStatusIndicator" cb-indicator-type="ingraphic" cb-source="3k-6xs-Je" id="1U4" visibility="visible">
<text cb-classname="GraphicTextEntity" class="algorithm" fill="#000000" font-family="Arial" font-size="20" id="1Ub" x="3265" y="300">
G
</text>
</g>
<g cb-classname="DynamicText" cb-labeled="false" cb-pin-name="IH" cb-source="rq-CRl-j8" class="algorithm" id="1UC" text-anchor="end">
<text baseline-shift="0%" cb-classname="GraphicTextEntity" class="algorithm" fill="black" font-family="Arial" font-size="20" font-style="normal" font-weight="normal" id="1UO" text-anchor="end" text-decoration="normal" x="3157" y="249"/>
</g>
<g baseline-shift="-100%" cb-anchor-x="3158" cb-anchor-y="286" cb-classname="PointReferences" cb-max-width="130" cb-originator="false" cb-source="1H-Dfa-6n" class="signal" id="1Un" text-anchor="end">
<text baseline-shift="-100%" cb-classname="GraphicTextEntity" class="algorithm" id="1UU" text-anchor="end" x="3158" y="286">
REF:
</text>
<text baseline-shift="-100%" cb-classname="GraphicTextEntity" class="algorithm" id="3Qw" text-anchor="end" x="3158" y="322">
Point not
</text>
<text baseline-shift="-100%" cb-classname="GraphicTextEntity" class="algorithm" id="3Qr" text-anchor="end" x="3158" y="358">
found in
</text>
<text baseline-shift="-100%" cb-classname="GraphicTextEntity" class="algorithm" id="3Q4" text-anchor="end" x="3158" y="394">
database
</text>
<text baseline-shift="-100%" cb-classname="GraphicTextEntity" class="algorithm" id="3Qb" text-anchor="end" x="3158" y="430">
(01DROP14-TC-COMP1-H1)
</text>
</g>
<g baseline-shift="-50%" cb-anchor-x="3311" cb-anchor-y="268" cb-classname="PointDescription" cb-content="extended" cb-labeled="false" cb-max-width="240" cb-source="cT-J7i-pE" class="algorithm" id="1Yr" text-anchor="start">
<text baseline-shift="-50%" cb-classname="GraphicTextEntity" class="algorithm" id="1Y4" text-anchor="start" x="3311" y="233">
DESC: Point not
</text>
<text baseline-shift="-50%" cb-classname="GraphicTextEntity" class="algorithm" id="1Yb" text-anchor="start" x="3311" y="269">
found in database
</text>
<text baseline-shift="-50%" cb-classname="GraphicTextEntity" class="algorithm" id="2ZC" text-anchor="start" x="3311" y="305">
(01DROP14-TC-COMP1-H1)
</text>
</g>
<g cb-classname="ControlPin" cb-pin-name="3k-6xs-Je" id="1YO">
<line cb-classname="GraphicLineEntity" class="signalline" id="1Yn" x1="3160" x2="3180" y1="270" y2="270"/>
<polygon cb-classname="GraphicPolygonEntity" class="signal" id="1YU" points="3180,270 3169,264 3169,275"/>
</g>
</g>
</g>
<g cb-classname="IncludeDocument" cb-modify-time="09/25/2018 01:40:30" cb-objectname="Frame" id="5">
<text cb-classname="GraphicTextEntity" class="frame" font-size="50" id="3Bn" x="3660" y="3146">
Project Title &lt;Edit in FRAME.SVG&gt;
</text>
<g baseline-shift="-50%" cb-classname="DynamicText" cb-source="mh-o6dU-cL" class="frame" id="3BU">
<text cb-classname="GraphicTextEntity" class="frame" fill="black" font-family="arial" font-size="25" font-style="normal" font-weight="normal" id="33G" text-decoration="normal" x="4715" y="3325">
14
</text>
</g>
<g baseline-shift="-50%" cb-classname="DynamicText" cb-source="PN-dsLx-XV" class="frame" id="33F" text-anchor="middle">
<text cb-classname="GraphicTextEntity" class="frame" fill="black" font-family="arial" font-size="48" font-style="normal" font-weight="normal" id="33w" text-anchor="middle" text-decoration="normal" x="4900" y="3320">
14
</text>
</g>
<g baseline-shift="-50%" cb-classname="DynamicText" cb-source="9E-n6O5-Jd" class="frame" id="33r" text-anchor="middle">
<text cb-classname="GraphicTextEntity" class="frame" fill="black" font-family="arial" font-size="48" font-style="normal" font-weight="normal" id="334" text-anchor="middle" text-decoration="normal" x="5067" y="3324">
2
</text>
</g>
<g cb-classname="DynamicText" cb-source="Ut-OtNzN-E6t98" class="frame" id="33b">
<text cb-classname="GraphicTextEntity" class="frame" fill="black" font-family="arial" font-size="48" font-style="normal" font-weight="normal" id="33C" text-decoration="normal" x="3660" y="3224">
CABINETS ALARMS
</text>
</g>
<g baseline-shift="-50%" cb-classname="DynamicText" cb-source="ie-xeEkE-nu9znc" class="frame" id="33O" text-anchor="middle">
<text cb-classname="GraphicTextEntity" class="frame" fill="black" font-family="arial" font-size="48" font-style="normal" font-weight="normal" id="33n" text-anchor="middle" text-decoration="normal" x="5270" y="3324">
901
</text>
</g>
<g baseline-shift="0%" cb-classname="DynamicText" cb-source="M8-JkA6cCLZ" class="frame" id="33U" text-anchor="middle">
<text cb-classname="GraphicTextEntity" class="frame" fill="black" font-family="arial" font-size="36" font-style="normal" font-weight="normal" id="4IG" text-anchor="middle" text-decoration="normal" x="5270" y="3150">
A
</text>
</g>
<g baseline-shift="0%" cb-classname="DynamicText" cb-source="sn-jqyCgDoT-h3FN" class="frame" id="4IF" text-anchor="middle">
<text cb-classname="GraphicTextEntity" class="frame" fill="black" font-family="arial" font-size="20" font-style="normal" font-weight="normal" id="4Iw" text-anchor="middle" text-decoration="normal" x="5270" y="3230">

</text>
</g>
<g baseline-shift="-50%" cb-classname="DynamicText" cb-source="cT-BbilzbTX" class="frame" id="4Ir" text-anchor="end">
<text cb-classname="GraphicTextEntity" class="frame" fill="black" font-family="arial" font-size="26" font-style="normal" font-weight="normal" id="4I4" text-anchor="end" text-decoration="normal" x="4500" y="3420">

</text>
</g>
<g baseline-shift="-50%" cb-classname="DynamicText" cb-source="gz-s5yaT2zJ" class="frame" id="4Ib" text-anchor="end">
<text cb-classname="GraphicTextEntity" class="frame" fill="black" font-family="arial" font-size="26" font-style="normal" font-weight="normal" id="4IC" text-anchor="end" text-decoration="normal" x="5353" y="3420">

</text>
</g>
<g cb-classname="GraphicShape" cb-tag="BORDER" id="4IO">
<line cb-classname="GraphicLineEntity" class="frameline" id="4In" x1="40" x2="40" y1="40" y2="3460"/>
<line cb-classname="GraphicLineEntity" class="frameline" id="4IU" x1="40" x2="5380" y1="3460" y2="3460"/>
<line cb-classname="GraphicLineEntity" class="frameline" id="4MG" x1="5380" x2="5380" y1="3460" y2="40"/>
<line cb-classname="GraphicLineEntity" class="frameline" id="4MF" x1="5380" x2="40" y1="40" y2="40"/>
<line cb-classname="GraphicLineEntity" class="frame" id="4Mw" x1="5430" x2="5440" y1="3510" y2="3510"/>
</g>
<g cb-classname="GraphicShape" cb-tag="TITLE BOX" id="4Mr">
<line cb-classname="GraphicLineEntity" class="frameline" id="4M4" x1="2340" x2="2340" y1="3080" y2="3460"/>
<line cb-classname="GraphicLineEntity" class="frameline" id="4Mb" x1="2340" x2="5380" y1="3080" y2="3080"/>
<line cb-classname="GraphicLineEntity" class="frameline" id="4MC" x1="3650" x2="3650" y1="3460" y2="3080"/>
<line cb-classname="GraphicLineEntity" class="frameline" id="4MO" x1="3650" x2="5380" y1="3240" y2="3240"/>
<line cb-classname="GraphicLineEntity" class="frameline" id="4Mn" x1="3650" x2="5380" y1="3390" y2="3390"/>
<line cb-classname="GraphicLineEntity" class="frameline" id="4MU" x1="3650" x2="5380" y1="3160" y2="3160"/>
<line cb-classname="GraphicLineEntity" class="frameline" id="4QG" x1="3650" x2="4520" y1="3320" y2="3320"/>
<line cb-classname="GraphicLineEntity" class="frameline" id="4QF" x1="4520" x2="5380" y1="3290" y2="3290"/>
<line cb-classname="GraphicLineEntity" class="frameline" id="4Qw" x1="4520" x2="5380" y1="3240" y2="3240"/>
<line cb-classname="GraphicLineEntity" class="frameline" id="4Qr" x1="4520" x2="4520" y1="3240" y2="3460"/>
<line cb-classname="GraphicLineEntity" class="frameline" id="4Q4" x1="4810" x2="4810" y1="3240" y2="3390"/>
<line cb-classname="GraphicLineEntity" class="frameline" id="4Qb" x1="4990" x2="4990" y1="3240" y2="3390"/>
<line cb-classname="GraphicLineEntity" class="frameline" id="4QC" x1="5150" x2="5150" y1="3080" y2="3390"/>
</g>
<g cb-classname="GraphicShape" cb-tag="TEXT LABELS" id="4QO">
<text baseline-shift="-50%" cb-classname="GraphicTextEntity" class="frame" font-size="25" id="4Qn" text-anchor="middle" x="4890" y="3252">
Drop
</text>
<text baseline-shift="-50%" cb-classname="GraphicTextEntity" class="frame" font-size="25" id="4QU" text-anchor="middle" x="5075" y="3252">
Task
</text>
<text baseline-shift="-50%" cb-classname="GraphicTextEntity" class="frame" font-size="25" id="4UG" text-anchor="middle" x="5265" y="3252">
Sheet
</text>
<text cb-classname="GraphicTextEntity" class="frame" font-size="25" id="4UF" x="5152" y="3107">
Rev.
</text>
<text cb-classname="GraphicTextEntity" class="frame" font-size="25" id="4Uw" x="3653" y="3418">
Engineer
</text>
<text cb-classname="GraphicTextEntity" class="frame" font-size="25" id="4Ur" x="4528" y="3419">
Approved
</text>
<text cb-classname="GraphicTextEntity" class="frame" font-size="25" id="4U4" x="5152" y="3187">
Date
</text>
<text baseline-shift="-50%" cb-classname="GraphicTextEntity" class="frame" font-size="25" id="4Ub" text-anchor="middle" x="4660" y="3252">
Drawing Number
</text>
<text baseline-shift="-50%" cb-classname="GraphicTextEntity" class="frame" font-size="25" id="4UC" text-anchor="middle" x="4680" y="3325">
CTL
</text>
</g>
<text baseline-shift="-50%" cb-classname="GraphicTextEntity" class="frame" font-size="48" id="4UO" text-anchor="middle" x="3000" y="3100">
EMERSON PROCESS MANAGEMENT
</text>
<g baseline-shift="-100%" cb-anchor-x="2360" cb-anchor-y="3140" cb-classname="GroupText" cb-max-width="1260" fill="black" id="4Un">
<text baseline-shift="-100%" cb-classname="GraphicTextEntity" class="frame" fill="black" font-family="arial" font-size="22" font-weight="normal" id="4UU" text-anchor="start" text-decoration="normal" x="2360" y="3140">
THIS DOCUMENT CONTAINS INFORMATION PROPRIETARY TO EMERSON PROCESS
</text>
<text baseline-shift="-100%" cb-classname="GraphicTextEntity" class="frame" fill="black" font-family="arial" font-size="22" font-weight="normal" id="4YG" text-anchor="start" text-decoration="normal" x="2360" y="3176">
MANAGEMENT POWER &amp; WATER SOLUTIONS, INC. IT IS SUBMITTED IN CONFIDENCE AND
</text>
<text baseline-shift="-100%" cb-classname="GraphicTextEntity" class="frame" fill="black" font-family="arial" font-size="22" font-weight="normal" id="4YF" text-anchor="start" text-decoration="normal" x="2360" y="3212">
TRUST, IS TO BE USED BY YOU SOLELY FOR THE PURPOSES FOR WHICH IT IS
</text>
<text baseline-shift="-100%" cb-classname="GraphicTextEntity" class="frame" fill="black" font-family="arial" font-size="22" font-weight="normal" id="4Yw" text-anchor="start" text-decoration="normal" x="2360" y="3248">
FURNISHED AND IS TO BE RETURNED UPON REQUEST. THIS DOCUMENT AND ANY
</text>
<text baseline-shift="-100%" cb-classname="GraphicTextEntity" class="frame" fill="black" font-family="arial" font-size="22" font-weight="normal" id="4Yr" text-anchor="start" text-decoration="normal" x="2360" y="3284">
OTHER INFORMATION PROVIDED TO YOU IS NOT TO BE REPRODUCED, TRANSMITTED,
</text>
<text baseline-shift="-100%" cb-classname="GraphicTextEntity" class="frame" fill="black" font-family="arial" font-size="22" font-weight="normal" id="4Y4" text-anchor="start" text-decoration="normal" x="2360" y="3320">
DISCLOSED, OR USED OTHERWISE IN WHOLE OR IN PART WITHOUT THE PRIOR
</text>
<text baseline-shift="-100%" cb-classname="GraphicTextEntity" class="frame" fill="black" font-family="arial" font-size="22" font-weight="normal" id="4Yb" text-anchor="start" text-decoration="normal" x="2360" y="3356">
WRITTEN AUTHORIZATION OF EMERSON PROCESS MANAGEMENT POWER &amp; WATER
</text>
<text baseline-shift="-100%" cb-classname="GraphicTextEntity" class="frame" fill="black" font-family="arial" font-size="22" font-weight="normal" id="4YC" text-anchor="start" text-decoration="normal" x="2360" y="3392">
SOLUTIONS,INC.
</text>
</g>
</g>
</svg>