<?xml version="1.0" ?><svg cb-auto-time="04/17/2008 07:59:56" cb-classname="ControlFunction" cb-create-time="03/12/2008" cb-drop-id="14" cb-engineer="Dufek" cb-filename="Z:\OVATION\NET0\UNIT0\CONTROLFUNCTIONS\0241.svg" cb-function-id="0241" cb-key="342443321525" cb-modified-timestamp="1489319265" cb-modify-id="00000005" cb-ortho-mode="enabled" cb-path="Z:/OVATION/NET0/UNIT0/CONTROLFUNCTIONS" cb-reviewer="Nemec" cb-revision="A" cb-revision-time="12/28/2010" cb-sheet-number="109" cb-sheet-title="RH Spray Control  (Emergency)" cb-snap-grid="10" cb-task-id="3" height="3606" id="1" width="5450" xmlns="http://www.w3.org/2000/svg">
<style cb-classname="EntityStyle" id="2" type="text/css">
	.algorithm { fill: white; stroke: black; stroke-linecap: round; stroke-width: 2 }
	.algorithm-function { fill: none; stroke: black; stroke-linecap: round; stroke-width: 2 }
	.algorithm-functionline { fill: none; stroke: black; stroke-linecap: round; stroke-width: 2 }
	.algorithm-name { fill: none; stroke: black; stroke-linecap: round; stroke-width: 2 }
	.algorithm-nameline { fill: none; stroke: black; stroke-linecap: round; stroke-width: 2 }
	.algorithm-sequence { fill: none; stroke: black; stroke-linecap: round; stroke-width: 2 }
	.algorithm-sequenceline { fill: none; stroke: black; stroke-linecap: round; stroke-width: 2 }
	.algorithmline { fill: none; stroke: black; stroke-linecap: round; stroke-width: 2 }
	.annotation { fill: none; stroke: black; stroke-linecap: round; stroke-width: 2 }
	.annotationline { fill: none; stroke: black; stroke-linecap: round; stroke-width: 2 }
	.frame { fill: none; stroke: black; stroke-linecap: round; stroke-width: 2 }
	.frameline { fill: none; stroke: black; stroke-linecap: round; stroke-width: 2 }
	.signal { fill: black; stroke: black; stroke-linecap: round; stroke-width: 2 }
	.signalline { fill: none; stroke: black; stroke-linecap: round; stroke-width: 2 }
	text.algorithm { fill: black; font-family: MS Shell Dlg 2; font-size: 14; stroke: none }
	text.algorithm-function { fill: black; font-family: MS Shell Dlg 2; font-size: 16; stroke: none }
	text.algorithm-name { fill: black; font-family: MS Shell Dlg 2; font-size: 16; stroke: none }
	text.algorithm-sequence { fill: black; font-family: MS Shell Dlg 2; font-size: 16; stroke: none }
	text.annotation { fill: black; font-family: MS Shell Dlg 2; font-size: 16; stroke: none }
	text.frame { fill: black; font-family: MS Shell Dlg 2; font-size: 16; stroke: none }
	text.signal { fill: black; font-family: MS Shell Dlg 2; font-size: 12; stroke: none }
</style>
<g cb-classname="NamedObject" cb-objectname="Comments" id="3"/>
<g cb-classname="AlgorithmContainer" cb-objectname="Algorithms" id="4">
<g cb-alg-JLl0="YES" cb-alg-Ji7="01TE110-SEL" cb-alg-hKa3="RH OUTLET TEMPERATURE" cb-algorithm-id="007" cb-classname="ExternalPointInterface" cb-function-name="INPUT" id="1Yl">
<ellipse cb-classname="GraphicEllipseEntity" class="algorithm" cx="2180" cy="280" id="1YZ" rx="50" ry="50"/>
<rect cb-classname="GraphicRectangleEntity" class="algorithm" height="40" id="1YM" width="100" x="2130" y="190"/>
<line cb-classname="GraphicLineEntity" class="algorithm" id="1YX" x1="2180" x2="2180" y1="230" y2="190"/>
<g cb-classname="ControlPin" cb-pin-name="rG-icO-2RZ" id="1Ya">
<line cb-classname="GraphicLineEntity" class="signalline" id="1Y0" x1="2180" x2="2180" y1="330" y2="360"/>
<g cb-classname="DynamicText" cb-source="57-HOg-kyN3" class="signal" id="1Pj" text-anchor="end">
<text cb-classname="GraphicTextEntity" class="signal" fill="black" font-style="normal" font-weight="normal" id="1P6" text-anchor="end" text-decoration="normal" transform="translate(2172,347)rotate(-90)"/>
</g>
<g cb-classname="SignalSegment" id="7T8">
<line cb-classname="GraphicLineEntity" class="signalline" id="7TQ" x1="2180" x2="2180" y1="360" y2="1110"/>
<g cb-classname="SignalConnection" cb-graphic-line="$703$" cb-input-pin="$8eK$" id="7Tl"/>
</g>
</g>
<g cb-classname="PointStatusIndicator" cb-indicator-type="Highway" cb-source="AE-J1R-w6e" id="2TM" visibility="visible">
<line cb-classname="GraphicLineEntity" class="algorithmline" id="2TX" x1="2180" x2="2130" y1="230" y2="280"/>
<line cb-classname="GraphicLineEntity" class="algorithmline" id="2Ta" x1="2130" x2="2180" y1="280" y2="330"/>
<line cb-classname="GraphicLineEntity" class="algorithmline" id="2T0" x1="2180" x2="2230" y1="330" y2="280"/>
<line cb-classname="GraphicLineEntity" class="algorithmline" id="29j" x1="2230" x2="2180" y1="280" y2="230"/>
</g>
<g cb-classname="PointStatusIndicator" cb-indicator-type="hardware" cb-source="0D-tOu-zCe" id="296" visibility="hidden">
<line cb-classname="GraphicLineEntity" class="algorithmline" id="298" x1="2130" x2="2130" y1="230" y2="330"/>
<line cb-classname="GraphicLineEntity" class="algorithmline" id="29Q" x1="2130" x2="2230" y1="330" y2="330"/>
<line cb-classname="GraphicLineEntity" class="algorithmline" id="29l" x1="2230" x2="2230" y1="330" y2="230"/>
</g>
<g cb-classname="PointStatusIndicator" cb-indicator-type="alarm" cb-source="sd-OIv-LOJ" id="29Z" visibility="hidden">
<text baseline-shift="-50%" cb-classname="GraphicTextEntity" class="algorithm" fill="#000000" font-family="MS Shell Dlg" font-size="20" id="29M" text-anchor="middle" x="2155" y="200">
A
</text>
</g>
<g cb-classname="PointStatusIndicator" cb-indicator-type="ingraphic" cb-source="43-oww-Y0K" id="29X" visibility="visible">
<text baseline-shift="-50%" cb-classname="GraphicTextEntity" class="algorithm" fill="#000000" font-family="MS Shell Dlg" font-size="20" id="29a" text-anchor="middle" x="2205" y="200">
G
</text>
</g>
<g cb-classname="DynamicText" cb-labeled="false" cb-pin-name="hV4" cb-source="AE-J1R-w6e" class="algorithm" id="290" text-anchor="middle">
<text cb-classname="GraphicTextEntity" class="algorithm" fill="black" font-family="arial" font-size="20" font-style="normal" font-weight="normal" id="2xj" text-anchor="middle" text-decoration="normal" x="2180" y="170"/>
</g>
<g baseline-shift="-100%" cb-anchor-x="2200" cb-anchor-y="350" cb-classname="PointReferences" cb-max-width="160" cb-originator="true" cb-source="cL-PZ0-fCd" class="signal" id="2x6" text-anchor="start">
<text baseline-shift="-100%" cb-classname="GraphicTextEntity" class="algorithm" id="2x8" text-anchor="start" x="2200" y="350">
REF: Point not
</text>
<text baseline-shift="-100%" cb-classname="GraphicTextEntity" class="algorithm" id="2x6Q" text-anchor="start" x="2200" y="375">
found in database
</text>
<text baseline-shift="-100%" cb-classname="GraphicTextEntity" class="algorithm" id="2x6Y" text-anchor="start" x="2200" y="400">
(01TE110-SEL)
</text>
</g>
<g baseline-shift="0%" cb-anchor-x="2180" cb-anchor-y="130" cb-classname="PointDescription" cb-content="extended" cb-labeled="false" cb-max-width="240" cb-source="nb-JUC-bpW" class="algorithm" id="2xQ" text-anchor="middle">
<text baseline-shift="0%" cb-classname="GraphicTextEntity" class="algorithm" id="2xl" text-anchor="middle" x="2180" y="105">
DESC: Point not found in
</text>
<text baseline-shift="0%" cb-classname="GraphicTextEntity" class="algorithm" id="19Qt" text-anchor="middle" x="2180" y="130">
database (01TE110-SEL)
</text>
</g>
</g>
<g cb-alg-COIb="551" cb-alg-ab4v="65" cb-alg-bpW="01TE110-SP" cb-alg-icO="01TE110-AV" cb-algorithm-id="01a" cb-classname="ControlAlgorithm" cb-function-name="AVALGEN" cb-modify-id="00000002" id="5Pl">
<polygon cb-classname="GraphicPolygonEntity" class="algorithm" id="5PZ" points="1760,950 1700,1010 1760,1070 1820,1010"/>
<line cb-classname="GraphicLineEntity" class="algorithm" id="5PM" x1="1760" x2="1750" y1="990" y2="1020"/>
<line cb-classname="GraphicLineEntity" class="algorithm" id="5PX" x1="1760" x2="1770" y1="990" y2="1020"/>
<line cb-classname="GraphicLineEntity" class="algorithm" id="5Pa" x1="1754" x2="1766" y1="1010" y2="1010"/>
<g cb-classname="ControlPin" cb-pin-name="rG-icO-2RZ" id="19Zz">
<line cb-classname="GraphicLineEntity" class="signalline" id="19Z4" x1="1820" x2="1840" y1="1010" y2="1010"/>
<g cb-classname="DynamicText" cb-source="57-HOg-kyN3" class="signal" id="19ZQ" text-anchor="start">
<text cb-classname="GraphicTextEntity" class="signal" fill="black" font-style="normal" font-weight="normal" id="19ZY" text-anchor="start" text-decoration="normal" x="1834" y="1007"/>
</g>
<g cb-classname="SignalSegment" id="19Zr">
<line cb-classname="GraphicLineEntity" class="signalline" id="19Zf" x1="1840" x2="2120" y1="1010" y2="1010"/>
<g cb-classname="SignalSegment" id="19Z8">
<line cb-classname="GraphicLineEntity" class="signalline" id="19ZG" x1="2120" x2="2120" y1="1010" y2="1110"/>
<g cb-classname="SignalConnection" cb-graphic-line="$1157$" cb-input-pin="$M4r$" id="19Zt"/>
</g>
</g>
</g>
<g cb-classname="DynamicText" cb-labeled="true" cb-source="RL-0gy-TowR" class="algorithm" id="19M4" text-anchor="start">
<text cb-classname="GraphicTextEntity" class="algorithm" fill="black" font-style="normal" font-weight="normal" id="19MQ" text-anchor="start" text-decoration="normal" x="1720" y="1100"/>
</g>
<g cb-classname="DynamicText" cb-labeled="false" cb-source="gi-0ZX-LVz" class="algorithm" id="19MG" text-anchor="start">
<text cb-classname="GraphicTextEntity" class="algorithm" fill="black" font-style="normal" font-weight="normal" id="19Mt" text-anchor="start" text-decoration="normal" x="1710" y="1120"/>
</g>
<g cb-classname="DynamicText" cb-labeled="false" cb-source="9q-i2G-Izf" class="algorithm" id="19Me" text-anchor="start">
<text cb-classname="GraphicTextEntity" class="algorithm" fill="black" font-style="normal" font-weight="normal" id="19Xz" text-anchor="start" text-decoration="normal" x="1900" y="990"/>
</g>
</g>
<g cb-alg-15Fc="100.000000" cb-alg-1707="NORMAL" cb-alg-1A5ACK="PURE GAIN" cb-alg-1APlF="0.000000" cb-alg-1EP7="0.15" cb-alg-1Ju7="SINGLE" cb-alg-1Ju7x="SINGLE" cb-alg-1fP1="38" cb-alg-1rxf="0.000000" cb-alg-B7qR="NORMAL" cb-alg-LqqR="0.000000" cb-alg-N707="NORMAL" cb-alg-NAPlF="0.5" cb-alg-NK="$184$cb-alg-out$" cb-alg-NK5BR="0.000000" cb-alg-NK5a="100.000000" cb-alg-NKN="0.16666" cb-alg-NKb="0.000000" cb-alg-NKba="0.000000" cb-alg-R1qR="NONE" cb-alg-R1qRC="INT" cb-alg-Rn5h="DIRECT" cb-alg-Zhbhb="0.000000" cb-alg-k707="NORMAL" cb-alg-kS51="30" cb-alg-kS7D="ENABLE" cb-alg-lNN="1.000000" cb-alg-lNb="0.000000" cb-alg-pEFh="$658$cb-alg-tout$" cb-alg-pEP7="2.500000" cb-alg-pgqR="100.000000" cb-alg-psu4="NORMAL" cb-alg-tELf="0.000000" cb-alg-tS6ZzP="DISABLE" cb-alg-tgJu5w="DISABLED" cb-alg-vg51="0.16666" cb-alg-vg5D="0.000000" cb-alg-vg5a="100.000000" cb-alg-vgba="0.000000" cb-alg-vqu7="$594$cb-alg-out$" cb-algorithm-id="016" cb-classname="ControlAlgorithm" cb-function-name="PID" cb-modify-id="00000002" id="698">
<rect cb-classname="GraphicRectangleEntity" class="algorithm" height="150" id="69Q" width="140" x="2080" y="1130"/>
<path cb-classname="GraphicCurveEntity" class="algorithm" d="M 2162 1216 C 2136 1222, 2167 1259, 2138 1267" id="69l"/>
<polygon cb-classname="GraphicPolygonEntity" class="algorithm" id="69Z" points="2150,1140 2120,1190 2180,1190"/>
<g cb-classname="ControlPin" cb-pin-name="32-yR7-TYvZ" id="69M">
<line cb-classname="GraphicLineEntity" class="signalline" id="69X" x1="2120" x2="2120" y1="1110" y2="1130"/>
<polygon cb-classname="GraphicPolygonEntity" class="signal" id="69a" points="2120,1130 2125,1119 2114,1119"/>
<g cb-classname="DynamicText" cb-source="57-HOg-kyN3" class="signal" id="690" text-anchor="start">
<text cb-classname="GraphicTextEntity" class="signal" fill="black" font-style="normal" font-weight="normal" id="6xj" text-anchor="start" text-decoration="normal" transform="translate(2117,1115)rotate(-90)"/>
</g>
</g>
<g cb-classname="ControlPin" cb-pin-name="gi-0ZX-zN" id="6x6">
<line cb-classname="GraphicLineEntity" class="signalline" id="6x8" x1="2180" x2="2180" y1="1110" y2="1130"/>
<polygon cb-classname="GraphicPolygonEntity" class="signal" id="6xQ" points="2180,1130 2185,1119 2174,1119"/>
<g cb-classname="DynamicText" cb-source="cL-ulF-WyoC" class="signal" id="6xl" text-anchor="start">
<text cb-classname="GraphicTextEntity" class="signal" fill="black" font-style="normal" font-weight="normal" id="6xZ" text-anchor="start" text-decoration="normal" transform="translate(2177,1115)rotate(-90)"/>
</g>
</g>
<g cb-classname="ControlPin" cb-pin-name="nb-JUC-bpW" id="6xM">
<line cb-classname="GraphicLineEntity" class="signalline" id="6xX" x1="2150" x2="2150" y1="1280" y2="1300"/>
<g cb-classname="DynamicText" cb-source="RL-vfr-eo3O" class="signal" id="6xa" text-anchor="end">
<text cb-classname="GraphicTextEntity" class="signal" fill="black" font-style="normal" font-weight="normal" id="6x0" text-anchor="end" text-decoration="normal" transform="translate(2147,1294)rotate(-90)"/>
</g>
<g cb-classname="SignalSegment" id="6hj">
<line cb-classname="GraphicLineEntity" class="signalline" id="6h6" stroke="green" stroke-dasharray="5,4" x1="2150" x2="2150" y1="1300" y2="1800"/>
<g cb-classname="SignalConnection" cb-graphic-line="$631$" cb-input-pin="$Pka$" id="6h8"/>
</g>
</g>
<g cb-classname="ControlPin" cb-pin-name="43-oww-IUNG" id="6hQ">
<line cb-classname="GraphicLineEntity" class="signalline" id="6hl" x1="2220" x2="2240" y1="1200" y2="1200"/>
<g cb-classname="DynamicText" cb-source="AE-vcA-rGCY" class="signal" id="6hZ" text-anchor="start">
<text cb-classname="GraphicTextEntity" class="signal" fill="black" font-style="normal" font-weight="normal" id="6hM" text-anchor="start" text-decoration="normal" x="2234" y="1197"/>
</g>
</g>
<text baseline-shift="-50%" cb-classname="GraphicTextEntity" class="algorithm" fill="#000000" font-family="MS Shell Dlg" font-size="18" id="6hX" text-anchor="middle" x="2198" y="1219">
d
</text>
<text baseline-shift="-50%" cb-classname="GraphicTextEntity" class="algorithm" fill="#000000" font-family="MS Shell Dlg" font-size="18" id="6ha" text-anchor="middle" x="2198" y="1246">
dt
</text>
<line cb-classname="GraphicLineEntity" class="algorithm" id="6h0" x1="2188" x2="2210" y1="1238" y2="1238"/>
<line cb-classname="GraphicLineEntity" class="algorithm" id="6ej" x1="2080" x2="2220" y1="1200" y2="1200"/>
<line cb-classname="GraphicLineEntity" class="algorithm" id="6e6" stroke-dasharray="solid line" x1="2125" x2="2125" y1="1200" y2="1280"/>
<line cb-classname="GraphicLineEntity" class="algorithm" id="6e8" x1="2175" x2="2175" y1="1200" y2="1279"/>
<line cb-classname="GraphicLineEntity" class="algorithm" id="6eQ" x1="2092" x2="2112" y1="1244" y2="1224"/>
<line cb-classname="GraphicLineEntity" class="algorithm" id="6el" x1="2099" x2="2112" y1="1238" y2="1254"/>
<line cb-classname="GraphicLineEntity" class="algorithm" id="6eZ" x1="2092" x2="2092" y1="1223" y2="1254"/>
<g cb-classname="DynamicText" cb-labeled="true" cb-source="Br-B5B-y4Ye" class="algorithm" id="19X4" text-anchor="start">
<text cb-classname="GraphicTextEntity" class="algorithm" fill="black" font-style="normal" font-weight="normal" id="19XQ" text-anchor="start" text-decoration="normal" x="2310" y="1130"/>
</g>
<g cb-classname="DynamicText" cb-labeled="true" cb-source="0D-tOu-0Oo5F" class="algorithm" id="19XY" text-anchor="start">
<text cb-classname="GraphicTextEntity" class="algorithm" fill="black" font-style="normal" font-weight="normal" id="19Xr" text-anchor="start" text-decoration="normal" x="2310" y="1150"/>
</g>
<g cb-classname="DynamicText" cb-labeled="true" cb-source="32-yR7-OgNX" class="algorithm" id="19Xf" text-anchor="start">
<text cb-classname="GraphicTextEntity" class="algorithm" fill="black" font-style="normal" font-weight="normal" id="19X8" text-anchor="start" text-decoration="normal" x="2310" y="1170"/>
</g>
</g>
<g cb-alg-Amfy="NO" cb-alg-Art="01STC-T6ARE" cb-algorithm-id="002" cb-classname="ExternalPointInterface" cb-function-name="INPUT" id="84l">
<ellipse cb-classname="GraphicEllipseEntity" class="algorithm" cx="620" cy="1800" id="84Z" rx="50" ry="50"/>
<rect cb-classname="GraphicRectangleEntity" class="algorithm" height="100" id="84M" width="40" x="530" y="1750"/>
<line cb-classname="GraphicLineEntity" class="algorithm" id="84X" x1="530" x2="570" y1="1800" y2="1800"/>
<g cb-classname="ControlPin" cb-pin-name="gi-0ZX-1qV" id="84a">
<line cb-classname="GraphicLineEntity" class="signalline" id="840" x1="670" x2="700" y1="1800" y2="1800"/>
<g cb-classname="DynamicText" cb-source="9q-bSc-ajnz" class="signal" id="8Ej" text-anchor="start">
<text cb-classname="GraphicTextEntity" class="signal" fill="black" font-style="normal" font-weight="normal" id="8E6" text-anchor="start" text-decoration="normal" x="684" y="1797"/>
</g>
<g cb-classname="SignalSegment" id="1eQY">
<g cb-classname="SignalConnection" cb-graphic-line="$1436$" cb-input-pin="$quva$" id="1eQG"/>
<line cb-classname="GraphicLineEntity" class="signalline" id="1eQ8" stroke="#1e12bf" stroke-dasharray="5,4" x1="700" x2="1070" y1="1800" y2="1800"/>
</g>
</g>
<g cb-classname="PointStatusIndicator" cb-indicator-type="Highway" cb-source="Br-B5B-kfY" id="8E8" visibility="hidden">
<line cb-classname="GraphicLineEntity" class="algorithmline" id="8EQ" x1="570" x2="620" y1="1800" y2="1750"/>
<line cb-classname="GraphicLineEntity" class="algorithmline" id="8El" x1="620" x2="670" y1="1750" y2="1800"/>
<line cb-classname="GraphicLineEntity" class="algorithmline" id="8EZ" x1="670" x2="620" y1="1800" y2="1850"/>
<line cb-classname="GraphicLineEntity" class="algorithmline" id="8EM" x1="620" x2="570" y1="1850" y2="1800"/>
</g>
<g cb-classname="PointStatusIndicator" cb-indicator-type="hardware" cb-source="rG-icO-2RZ" id="8EX" visibility="hidden">
<line cb-classname="GraphicLineEntity" class="algorithmline" id="8Ea" x1="570" x2="670" y1="1750" y2="1750"/>
<line cb-classname="GraphicLineEntity" class="algorithmline" id="8E0" x1="670" x2="670" y1="1750" y2="1850"/>
<line cb-classname="GraphicLineEntity" class="algorithmline" id="8Yj" x1="670" x2="570" y1="1850" y2="1850"/>
</g>
<g cb-classname="PointStatusIndicator" cb-indicator-type="alarm" cb-source="gi-0ZX-1qV" id="8Y6" visibility="hidden">
<text cb-classname="GraphicTextEntity" class="algorithm" fill="#000000" font-family="arial" font-size="20" id="8Y8" x="540" y="1785">
A
</text>
</g>
<g cb-classname="PointStatusIndicator" cb-indicator-type="ingraphic" cb-source="9q-i2G-Izf" id="8YQ" visibility="hidden">
<text cb-classname="GraphicTextEntity" class="algorithm" fill="#000000" font-family="Arial" font-size="20" id="8Yl" x="540" y="1835">
G
</text>
</g>
<g baseline-shift="-50%" cb-anchor-x="520" cb-anchor-y="1814" cb-classname="PointDescription" cb-content="extended" cb-labeled="false" cb-max-width="220" cb-source="Br-B5B-kfY" class="algorithm" id="8YZ" text-anchor="end">
<text baseline-shift="-50%" cb-classname="GraphicTextEntity" class="algorithm" id="8YM" text-anchor="end" x="520" y="1802">
DESC: Point not found in
</text>
<text baseline-shift="-50%" cb-classname="GraphicTextEntity" class="algorithm" id="1xMe" text-anchor="end" x="520" y="1827">
database (01STC-T6ARE)
</text>
</g>
<g cb-classname="DynamicText" cb-labeled="false" cb-pin-name="XOt" cb-source="0D-tOu-zCe" class="algorithm" id="8YX" text-anchor="start">
<text baseline-shift="0%" cb-classname="GraphicTextEntity" class="algorithm" fill="black" font-family="arial" font-size="20" font-style="normal" font-weight="normal" id="8Ya" text-anchor="start" text-decoration="normal" x="690" y="1770"/>
</g>
<g baseline-shift="-100%" cb-anchor-x="690" cb-anchor-y="1810" cb-classname="PointReferences" cb-max-width="230" cb-originator="true" cb-source="32-yR7-n9N" class="signal" id="8Y0" text-anchor="start">
<text baseline-shift="-100%" cb-classname="GraphicTextEntity" class="algorithm" id="8Pj" text-anchor="start" x="690" y="1810">
REF: Point not found in
</text>
<text baseline-shift="-100%" cb-classname="GraphicTextEntity" class="algorithm" id="2x68" text-anchor="start" x="690" y="1835">
database (01STC-T6ARE)
</text>
</g>
</g>
<g cb-alg-bR9K="1.000000" cb-alg-dk7N="98" cb-alg-e1i5="POSITIVE" cb-alg-iQ6="$864$cb-alg-out$" cb-alg-lN9="0" cb-alg-rpJu7="RETRIGGABLE" cb-alg-tREN="2" cb-algorithm-id="003" cb-classname="ControlAlgorithm" cb-function-name="ONESHOT" cb-modify-id="00000005" id="1e6G">
<g cb-classname="ControlPin" cb-pin-name="Br-B5B-frv" id="1e6t">
<line cb-classname="GraphicLineEntity" class="signalline" id="1e6e" x1="1070" x2="1090" y1="1800" y2="1800"/>
<polygon cb-classname="GraphicPolygonEntity" class="signal" id="1e8z" points="1090,1800 1079,1796 1079,1804"/>
<g cb-classname="DynamicText" cb-source="RL-vfr-eo3O" class="signal" id="1e84" text-anchor="end">
<text baseline-shift="5%" cb-classname="GraphicTextEntity" class="signal" fill="black" font-style="normal" font-weight="normal" id="1e8Q" text-anchor="end" text-decoration="normal" x="1091" y="1787"/>
</g>
</g>
<g cb-classname="ControlPin" cb-pin-name="rG-icO-2RZ" id="1e8Y">
<line cb-classname="GraphicLineEntity" class="signalline" id="1e8r" x1="1130" x2="1150" y1="1800" y2="1800"/>
<g cb-classname="DynamicText" cb-source="57-HOg-kyN3" class="signal" id="1e8f">
<text baseline-shift="5%" cb-classname="GraphicTextEntity" class="signal" fill="black" font-style="normal" font-weight="normal" id="1e88" text-decoration="normal" x="1142" y="1789"/>
</g>
<g cb-classname="SignalSegment" id="1eQt">
<line cb-classname="GraphicLineEntity" class="signalline" id="1eQe" stroke="#1e12bf" stroke-dasharray="5,4" x1="1150" x2="1250" y1="1800" y2="1800"/>
<g cb-classname="SignalSegment" id="1elz">
<line cb-classname="GraphicLineEntity" class="signalline" id="1el4" stroke="#1e12bf" stroke-dasharray="5,4" x1="1250" x2="1250" y1="1800" y2="1650"/>
<g cb-classname="SignalSegment" id="1elQ">
<line cb-classname="GraphicLineEntity" class="signalline" id="1elY" stroke="#1e12bf" stroke-dasharray="5,4" x1="1250" x2="1530" y1="1650" y2="1650"/>
<g cb-classname="SignalConnection" cb-graphic-line="$1443$" cb-input-pin="$aQg$" id="1elr"/>
</g>
</g>
</g>
</g>
<rect cb-classname="GraphicRectangleEntity" class="algorithm" height="40" id="1e8G" width="40" x="1090" y="1780"/>
<line cb-classname="GraphicLineEntity" class="algorithmline" id="1e8t" x1="1093" x2="1103" y1="1810" y2="1810"/>
<line cb-classname="GraphicLineEntity" class="algorithmline" id="1e8e" x1="1103" x2="1103" y1="1810" y2="1790"/>
<line cb-classname="GraphicLineEntity" class="algorithmline" id="1eQz" x1="1103" x2="1117" y1="1790" y2="1790"/>
<line cb-classname="GraphicLineEntity" class="algorithmline" id="1eQ4" x1="1117" x2="1117" y1="1790" y2="1810"/>
<line cb-classname="GraphicLineEntity" class="algorithmline" id="1eQQ" x1="1117" x2="1127" y1="1810" y2="1810"/>
<g cb-classname="DynamicText" cb-labeled="true" cb-source="nb-JUC-dOxv" class="algorithm" id="1elf" text-anchor="start">
<text cb-classname="GraphicTextEntity" class="algorithm" fill="black" font-style="normal" font-weight="normal" id="1el8" text-anchor="start" text-decoration="normal" x="1060" y="1760"/>
</g>
</g>
<g cb-alg-n9N="01STC-T6PLW" cb-alg-nmIX="NO" cb-algorithm-id="004" cb-classname="ExternalPointInterface" cb-function-name="INPUT" id="9T0">
<ellipse cb-classname="GraphicEllipseEntity" class="algorithm" cx="620" cy="1970" id="99j" rx="50" ry="50"/>
<rect cb-classname="GraphicRectangleEntity" class="algorithm" height="100" id="996" width="40" x="530" y="1920"/>
<line cb-classname="GraphicLineEntity" class="algorithm" id="998" x1="530" x2="570" y1="1970" y2="1970"/>
<g cb-classname="ControlPin" cb-pin-name="0D-tOu-zCe" id="99Q">
<line cb-classname="GraphicLineEntity" class="signalline" id="99l" x1="670" x2="700" y1="1970" y2="1970"/>
<g cb-classname="DynamicText" cb-source="32-pUl-d0c3" class="signal" id="99Z" text-anchor="start">
<text cb-classname="GraphicTextEntity" class="signal" fill="black" font-style="normal" font-weight="normal" id="99M" text-anchor="start" text-decoration="normal" x="684" y="1967"/>
</g>
<g cb-classname="SignalSegment" id="1eMf">
<line cb-classname="GraphicLineEntity" class="signalline" id="1eXz" stroke="#1e12bf" stroke-dasharray="5,4" x1="700" x2="990" y1="1970" y2="1970"/>
<g cb-classname="SignalSegment" id="1eX4">
<line cb-classname="GraphicLineEntity" class="signalline" id="1eXQ" stroke="#1e12bf" stroke-dasharray="5,4" x1="990" x2="990" y1="1970" y2="1990"/>
<g cb-classname="SignalSegment" id="1eXY">
<line cb-classname="GraphicLineEntity" class="signalline" id="1eXr" stroke="#1e12bf" stroke-dasharray="5,4" x1="990" x2="1070" y1="1990" y2="1990"/>
<g cb-classname="SignalConnection" cb-graphic-line="$1474$" cb-input-pin="$Z0Nj$" id="1eXf"/>
</g>
<line cb-classname="GraphicLineEntity" class="signalline" id="1eMt" stroke="#1e12bf" stroke-dasharray="5,4" x1="990" x2="1070" y1="1970" y2="1970"/>
<g cb-classname="SignalConnection" cb-graphic-line="$1468$" cb-input-pin="$9lr9$" id="1eMe"/>
<ellipse cb-classname="GraphicEllipseEntity" class="signal" cx="990" cy="1970" fill="#1e12bf" id="1eX8" rx="5" ry="5" stroke="#1e12bf" stroke-dasharray="5,4"/>
</g>
</g>
</g>
<g cb-classname="PointStatusIndicator" cb-indicator-type="Highway" cb-source="sd-OIv-LOJ" id="99X" visibility="hidden">
<line cb-classname="GraphicLineEntity" class="algorithmline" id="99a" x1="570" x2="620" y1="1970" y2="1920"/>
<line cb-classname="GraphicLineEntity" class="algorithmline" id="990" x1="620" x2="670" y1="1920" y2="1970"/>
<line cb-classname="GraphicLineEntity" class="algorithmline" id="9xj" x1="670" x2="620" y1="1970" y2="2020"/>
<line cb-classname="GraphicLineEntity" class="algorithmline" id="9x6" x1="620" x2="570" y1="2020" y2="1970"/>
</g>
<g cb-classname="PointStatusIndicator" cb-indicator-type="hardware" cb-source="9q-i2G-Izf" id="9x8" visibility="hidden">
<line cb-classname="GraphicLineEntity" class="algorithmline" id="9xQ" x1="570" x2="670" y1="1920" y2="1920"/>
<line cb-classname="GraphicLineEntity" class="algorithmline" id="9xl" x1="670" x2="670" y1="1920" y2="2020"/>
<line cb-classname="GraphicLineEntity" class="algorithmline" id="9xZ" x1="670" x2="570" y1="2020" y2="2020"/>
</g>
<g cb-classname="PointStatusIndicator" cb-indicator-type="alarm" cb-source="0D-tOu-zCe" id="9xM" visibility="hidden">
<text cb-classname="GraphicTextEntity" class="algorithm" fill="#000000" font-family="arial" font-size="20" id="9xX" x="540" y="1955">
A
</text>
</g>
<g cb-classname="PointStatusIndicator" cb-indicator-type="ingraphic" cb-source="32-yR7-n9N" id="9xa" visibility="hidden">
<text cb-classname="GraphicTextEntity" class="algorithm" fill="#000000" font-family="Arial" font-size="20" id="9x0" x="540" y="2005">
G
</text>
</g>
<g baseline-shift="-50%" cb-anchor-x="520" cb-anchor-y="1984" cb-classname="PointDescription" cb-content="extended" cb-labeled="false" cb-max-width="220" cb-source="sd-OIv-LOJ" class="algorithm" id="9hj" text-anchor="end">
<text baseline-shift="-50%" cb-classname="GraphicTextEntity" class="algorithm" id="9h6" text-anchor="end" x="520" y="1972">
DESC: Point not found in
</text>
<text baseline-shift="-50%" cb-classname="GraphicTextEntity" class="algorithm" id="1xX4" text-anchor="end" x="520" y="1997">
database (01STC-T6PLW)
</text>
</g>
<g cb-classname="DynamicText" cb-labeled="false" cb-pin-name="weo" cb-source="43-oww-Y0K" class="algorithm" id="9h8" text-anchor="start">
<text baseline-shift="0%" cb-classname="GraphicTextEntity" class="algorithm" fill="black" font-family="arial" font-size="20" font-style="normal" font-weight="normal" id="9hQ" text-anchor="start" text-decoration="normal" x="690" y="1940"/>
</g>
<g baseline-shift="-100%" cb-anchor-x="690" cb-anchor-y="1980" cb-classname="PointReferences" cb-max-width="230" cb-originator="true" cb-source="AE-J1R-w6e" class="signal" id="9hl" text-anchor="start">
<text baseline-shift="-100%" cb-classname="GraphicTextEntity" class="algorithm" id="9hZ" text-anchor="start" x="690" y="1980">
REF: Point not found in
</text>
<text baseline-shift="-100%" cb-classname="GraphicTextEntity" class="algorithm" id="2x6e" text-anchor="start" x="690" y="2005">
database (01STC-T6PLW)
</text>
</g>
</g>
<g cb-alg-4F2O="$909$cb-alg-out$" cb-alg-7JpC="5" cb-alg-DJl8="1.000000" cb-alg-fztC="96" cb-alg-lFh="$909$cb-alg-out$" cb-algorithm-id="005" cb-classname="ControlAlgorithm" cb-function-name="ONDELAY" cb-modify-id="00000005" id="1elG">
<g cb-classname="ControlPin" cb-pin-name="32-yR7-OgQ" id="1elt">
<line cb-classname="GraphicLineEntity" class="signalline" id="1ele" x1="1070" x2="1090" y1="1970" y2="1970"/>
<polygon cb-classname="GraphicPolygonEntity" class="signal" id="1eZz" points="1090,1970 1079,1966 1079,1974"/>
<g cb-classname="DynamicText" cb-source="57-HOg-kyN3" class="signal" id="1eZ4" text-anchor="end">
<text baseline-shift="5%" cb-classname="GraphicTextEntity" class="signal" fill="black" font-style="normal" font-weight="normal" id="1eZQ" text-anchor="end" text-decoration="normal" x="1054" y="1966"/>
</g>
</g>
<g cb-classname="ControlPin" cb-pin-name="gi-0ZX-UrMv" id="1eZY">
<line cb-classname="GraphicLineEntity" class="signalline" id="1eZr" x1="1070" x2="1090" y1="1990" y2="1990"/>
<polygon cb-classname="GraphicPolygonEntity" class="signal" id="1eZf" points="1090,1990 1079,1986 1079,1994"/>
<g cb-classname="DynamicText" cb-source="cL-ulF-WyoC" class="signal" id="1eZ8" text-anchor="end">
<text baseline-shift="5%" cb-classname="GraphicTextEntity" class="signal" fill="black" font-style="normal" font-weight="normal" id="1eZG" text-anchor="end" text-decoration="normal" x="1054" y="1986"/>
</g>
</g>
<g cb-classname="ControlPin" cb-pin-name="nb-JUC-bpW" id="1eZt">
<line cb-classname="GraphicLineEntity" class="signalline" id="1eZe" x1="1150" x2="1170" y1="1970" y2="1970"/>
<g cb-classname="DynamicText" cb-source="RL-vfr-eo3O" class="signal" id="1eMz">
<text baseline-shift="5%" cb-classname="GraphicTextEntity" class="signal" fill="black" font-style="normal" font-weight="normal" id="1eM4" text-decoration="normal" x="1186" y="1966"/>
</g>
<g cb-classname="SignalSegment" id="1eXG">
<line cb-classname="GraphicLineEntity" class="signalline" id="1eXt" stroke="#1e12bf" stroke-dasharray="5,4" x1="1170" x2="1340" y1="1970" y2="1970"/>
<g cb-classname="SignalSegment" id="1eXe">
<line cb-classname="GraphicLineEntity" class="signalline" id="1eaz" stroke="#1e12bf" stroke-dasharray="5,4" x1="1340" x2="1340" y1="1970" y2="1680"/>
<g cb-classname="SignalSegment" id="1ea4">
<line cb-classname="GraphicLineEntity" class="signalline" id="1eaQ" stroke="#1e12bf" stroke-dasharray="5,4" x1="1340" x2="1530" y1="1680" y2="1680"/>
<g cb-classname="SignalConnection" cb-graphic-line="$1482$" cb-input-pin="$6Q6p$" id="1eaY"/>
</g>
</g>
</g>
</g>
<rect cb-classname="GraphicRectangleEntity" class="algorithm" height="60" id="1eMQ" width="60" x="1090" y="1950"/>
<text baseline-shift="-50%" cb-classname="GraphicTextEntity" class="algorithm" font-size="18" id="1eMY" text-anchor="middle" x="1119" y="1962">
TD
</text>
<text cb-classname="GraphicTextEntity" class="algorithm" font-size="18" id="1eMr" text-anchor="middle" x="1119" y="1997">
ON
</text>
<g cb-classname="DynamicText" cb-labeled="true" cb-source="nb-JUC-dOxv" class="algorithm" id="1ear" text-anchor="start">
<text cb-classname="GraphicTextEntity" class="algorithm" fill="black" font-style="normal" font-weight="normal" id="1eaf" text-anchor="start" text-decoration="normal" x="1080" y="1940"/>
</g>
</g>
<g cb-alg-Z15="01STC-T6MRE" cb-alg-ZEF1="NO" cb-algorithm-id="006" cb-classname="ExternalPointInterface" cb-function-name="INPUT" id="94Q">
<ellipse cb-classname="GraphicEllipseEntity" class="algorithm" cx="620" cy="1630" id="94l" rx="50" ry="50"/>
<rect cb-classname="GraphicRectangleEntity" class="algorithm" height="100" id="94Z" width="40" x="530" y="1580"/>
<line cb-classname="GraphicLineEntity" class="algorithm" id="94M" x1="530" x2="570" y1="1630" y2="1630"/>
<g cb-classname="ControlPin" cb-pin-name="32-yR7-n9N" id="94X">
<line cb-classname="GraphicLineEntity" class="signalline" id="94a" x1="670" x2="700" y1="1630" y2="1630"/>
<g cb-classname="DynamicText" cb-source="sd-0zd-Fi9U" class="signal" id="940" text-anchor="start">
<text cb-classname="GraphicTextEntity" class="signal" fill="black" font-style="normal" font-weight="normal" id="9Ej" text-anchor="start" text-decoration="normal" x="684" y="1627"/>
</g>
<g cb-classname="SignalSegment" id="1xZz">
<g cb-classname="SignalConnection" cb-graphic-line="$1253$" cb-input-pin="$ceu$" id="1xZr"/>
<line cb-classname="GraphicLineEntity" class="signalline" id="1xZY" stroke="#1e12bf" stroke-dasharray="5,4" x1="700" x2="1530" y1="1630" y2="1630"/>
</g>
</g>
<g cb-classname="PointStatusIndicator" cb-indicator-type="Highway" cb-source="43-oww-Y0K" id="9E6" visibility="hidden">
<line cb-classname="GraphicLineEntity" class="algorithmline" id="9E8" x1="570" x2="620" y1="1630" y2="1580"/>
<line cb-classname="GraphicLineEntity" class="algorithmline" id="9EQ" x1="620" x2="670" y1="1580" y2="1630"/>
<line cb-classname="GraphicLineEntity" class="algorithmline" id="9El" x1="670" x2="620" y1="1630" y2="1680"/>
<line cb-classname="GraphicLineEntity" class="algorithmline" id="9EZ" x1="620" x2="570" y1="1680" y2="1630"/>
</g>
<g cb-classname="PointStatusIndicator" cb-indicator-type="hardware" cb-source="Br-B5B-kfY" id="9EM" visibility="hidden">
<line cb-classname="GraphicLineEntity" class="algorithmline" id="9EX" x1="570" x2="670" y1="1580" y2="1580"/>
<line cb-classname="GraphicLineEntity" class="algorithmline" id="9Ea" x1="670" x2="670" y1="1580" y2="1680"/>
<line cb-classname="GraphicLineEntity" class="algorithmline" id="9E0" x1="670" x2="570" y1="1680" y2="1680"/>
</g>
<g cb-classname="PointStatusIndicator" cb-indicator-type="alarm" cb-source="32-yR7-n9N" id="9Yj" visibility="hidden">
<text cb-classname="GraphicTextEntity" class="algorithm" fill="#000000" font-family="arial" font-size="20" id="9Y6" x="540" y="1615">
A
</text>
</g>
<g cb-classname="PointStatusIndicator" cb-indicator-type="ingraphic" cb-source="sd-OIv-LOJ" id="9Y8" visibility="hidden">
<text cb-classname="GraphicTextEntity" class="algorithm" fill="#000000" font-family="Arial" font-size="20" id="9YQ" x="540" y="1665">
G
</text>
</g>
<g baseline-shift="-50%" cb-anchor-x="520" cb-anchor-y="1644" cb-classname="PointDescription" cb-content="extended" cb-labeled="false" cb-max-width="220" cb-source="43-oww-Y0K" class="algorithm" id="9Yl" text-anchor="end">
<text baseline-shift="-50%" cb-classname="GraphicTextEntity" class="algorithm" id="9YZ" text-anchor="end" x="520" y="1632">
DESC: Point not found in
</text>
<text baseline-shift="-50%" cb-classname="GraphicTextEntity" class="algorithm" id="1xXY" text-anchor="end" x="520" y="1657">
database (01STC-T6MRE)
</text>
</g>
<g cb-classname="DynamicText" cb-labeled="false" cb-pin-name="hV4" cb-source="AE-J1R-w6e" class="algorithm" id="9YM" text-anchor="start">
<text baseline-shift="0%" cb-classname="GraphicTextEntity" class="algorithm" fill="black" font-family="arial" font-size="20" font-style="normal" font-weight="normal" id="9YX" text-anchor="start" text-decoration="normal" x="690" y="1600"/>
</g>
<g baseline-shift="-100%" cb-anchor-x="690" cb-anchor-y="1640" cb-classname="PointReferences" cb-max-width="230" cb-originator="true" cb-source="cL-PZ0-fCd" class="signal" id="9Ya" text-anchor="start">
<text baseline-shift="-100%" cb-classname="GraphicTextEntity" class="algorithm" id="9Y0" text-anchor="start" x="690" y="1640">
REF: Point not found in
</text>
<text baseline-shift="-100%" cb-classname="GraphicTextEntity" class="algorithm" id="2x8Q" text-anchor="start" x="690" y="1665">
database (01STC-T6MRE)
</text>
</g>
</g>
<g cb-alg-BRwf="01CV106-AUTO" cb-alg-BgK="$1417$cb-alg-out$" cb-alg-cgK="$963$cb-alg-out$" cb-alg-cmT8="01CV106-MODE" cb-alg-k5S="$1447$cb-alg-out$" cb-algorithm-id="001" cb-classname="ControlAlgorithm" cb-function-name="MAMODE" cb-modify-id="00000001" id="8xQ">
<g cb-classname="ControlPin" cb-pin-name="32-yR7-1mO" id="8xl">
<line cb-classname="GraphicLineEntity" class="signalline" id="8xZ" x1="1530" x2="1550" y1="1630" y2="1630"/>
<polygon cb-classname="GraphicPolygonEntity" class="signal" id="8xM" points="1550,1630 1539,1626 1539,1634"/>
<g cb-classname="DynamicText" cb-source="57-HOg-kyN3" class="signal" id="8xX" text-anchor="end">
<text baseline-shift="5%" cb-classname="GraphicTextEntity" class="signal" fill="black" font-style="normal" font-weight="normal" id="8xa" text-anchor="end" text-decoration="normal" x="1531" y="1626"/>
</g>
</g>
<g cb-classname="ControlPin" cb-pin-name="gi-0ZX-LYh" id="8x0">
<line cb-classname="GraphicLineEntity" class="signalline" id="8hj" x1="1530" x2="1550" y1="1650" y2="1650"/>
<polygon cb-classname="GraphicPolygonEntity" class="signal" id="8h6" points="1550,1650 1539,1646 1539,1654"/>
<g cb-classname="DynamicText" cb-source="cL-ulF-WyoC" class="signal" id="8h8" text-anchor="end">
<text baseline-shift="5%" cb-classname="GraphicTextEntity" class="signal" fill="black" font-style="normal" font-weight="normal" id="8hQ" text-anchor="end" text-decoration="normal" x="1531" y="1646"/>
</g>
</g>
<g cb-classname="ControlPin" cb-pin-name="0D-tOu-OCe2" id="8ea">
<line cb-classname="GraphicLineEntity" class="signalline" id="8e0" x1="1650" x2="1670" y1="1650" y2="1650"/>
<g cb-classname="DynamicText" cb-source="32-pUl-d0c3" class="signal" id="8mj">
<text baseline-shift="5%" cb-classname="GraphicTextEntity" class="signal" fill="black" font-style="normal" font-weight="normal" id="8m6" text-decoration="normal" x="1677" y="1646"/>
</g>
<g cb-classname="SignalSegment" id="1xQt">
<g cb-classname="SignalConnection" cb-graphic-line="$1241$" cb-input-pin="$qSU2$" id="1xlQ"/>
<line cb-classname="GraphicLineEntity" class="signalline" id="1xl4" stroke="#1e12bf" stroke-dasharray="5,4" x1="1670" x2="2930" y1="1650" y2="1650"/>
</g>
</g>
<g cb-classname="ControlPin" cb-pin-name="sd-OIv-cfIU" id="8m8">
<line cb-classname="GraphicLineEntity" class="signalline" id="8mQ" x1="1650" x2="1670" y1="1690" y2="1690"/>
<g cb-classname="DynamicText" cb-source="43-Y5F-ALih" class="signal" id="8ml">
<text baseline-shift="5%" cb-classname="GraphicTextEntity" class="signal" fill="black" font-style="normal" font-weight="normal" id="8mZ" text-decoration="normal" x="1677" y="1686"/>
</g>
<g cb-classname="SignalSegment" id="8m0">
<line cb-classname="GraphicLineEntity" class="signalline" id="84j" x1="1670" x2="1830" y1="1690" y2="1690"/>
<g cb-classname="SignalSegment" id="846">
<line cb-classname="GraphicLineEntity" class="signalline" id="848" x1="1830" x2="1970" y1="1690" y2="1830"/>
<g cb-classname="SignalConnection" cb-graphic-line="$862$" cb-input-pin="$jcw$" id="84Q"/>
</g>
</g>
</g>
<rect cb-classname="GraphicRectangleEntity" class="algorithm" height="100" id="8mM" width="100" x="1550" y="1610"/>
<text baseline-shift="-50%" cb-classname="GraphicTextEntity" class="algorithm" font-size="18" id="8mX" text-anchor="middle" x="1600" y="1649">
M/A
</text>
<text baseline-shift="-50%" cb-classname="GraphicTextEntity" class="algorithm" font-size="18" id="8ma" text-anchor="middle" x="1600" y="1673">
MODE
</text>
<g cb-classname="DynamicText" cb-labeled="false" cb-source="Br-B5B-XbW8" class="algorithm" id="1xQ8" text-anchor="start">
<text cb-classname="GraphicTextEntity" class="algorithm" fill="black" font-style="normal" font-weight="normal" id="1xQG" text-anchor="start" text-decoration="normal" x="1670" y="1720"/>
</g>
<g cb-classname="ControlPin" cb-pin-name="gi-0ZX-zVP" id="1xlf">
<line cb-classname="GraphicLineEntity" class="signalline" id="1xl8" x1="1530" x2="1550" y1="1680" y2="1680"/>
<polygon cb-classname="GraphicPolygonEntity" class="signal" id="1xlG" points="1550,1680 1539,1674 1539,1685"/>
<g cb-classname="DynamicText" cb-source="cL-ulF-WyoC" class="signal" id="1xlt" text-anchor="end">
<text cb-classname="GraphicTextEntity" class="signal" fill="black" font-style="normal" font-weight="normal" id="1xle" text-anchor="end" text-decoration="normal" transform="translate(1535,1677)rotate(360)"/>
</g>
</g>
<g cb-classname="ControlPin" cb-pin-name="RL-0gy-IK5" id="1xXt">
<line cb-classname="GraphicLineEntity" class="signalline" id="1xXe" x1="1560" x2="1560" y1="1730" y2="1710"/>
<polygon cb-classname="GraphicPolygonEntity" class="signal" id="1xaz" points="1560,1710 1554,1720 1565,1720"/>
<g cb-classname="DynamicText" cb-source="sd-0zd-Fi9U" class="signal" id="1xa4" text-anchor="end">
<text cb-classname="GraphicTextEntity" class="signal" fill="black" font-style="normal" font-weight="normal" id="1xaQ" text-anchor="end" text-decoration="normal" transform="translate(1557,1724)rotate(270)"/>
</g>
</g>
<g cb-classname="ControlPin" cb-pin-name="gi-0ZX-vek" id="1xar">
<line cb-classname="GraphicLineEntity" class="signalline" id="1xaf" x1="1580" x2="1580" y1="1730" y2="1710"/>
<polygon cb-classname="GraphicPolygonEntity" class="signal" id="1xa8" points="1580,1710 1574,1720 1585,1720"/>
<g cb-classname="DynamicText" cb-source="cL-ulF-WyoC" class="signal" id="1xaG" text-anchor="end">
<text cb-classname="GraphicTextEntity" class="signal" fill="black" font-style="normal" font-weight="normal" id="1xat" text-anchor="end" text-decoration="normal" transform="translate(1577,1724)rotate(270)"/>
</g>
</g>
</g>
<g cb-alg-5i8v="1" cb-alg-5rRO="NORMAL" cb-alg-8eO2="0" cb-alg-8eOv="0" cb-alg-MUOO="10" cb-alg-Mqo8="NO" cb-alg-Om="MANUAL" cb-alg-XbW8="$823$cb-alg-mode$" cb-alg-XqCW="5" cb-alg-ZalW="NO" cb-alg-ZpfK="BAD" cb-alg-dd3l="0.000000" cb-alg-ddmA="0.000000" cb-alg-frv="$612$cb-alg-out$" cb-alg-frvO="1.000000" cb-alg-frvi="0.000000" cb-alg-kfY="01CV106-CMD" cb-alg-p4lW="4" cb-alg-pR6W="0.000000" cb-alg-pR6x="2.500000" cb-alg-pqOW="100.000000" cb-alg-pqOx="2.500000" cb-alg-pqcz="YES" cb-alg-tT08="SOFT" cb-alg-tUL8="25" cb-alg-tm3l="0.000000" cb-alg-tmmA="100.000000" cb-alg-tqOW="2.500000" cb-alg-yR7="01CV106A-MA" cb-algorithm-id="01e" cb-classname="ControlAlgorithm" cb-function-name="MASTATION" cb-modify-id="00000002" id="6ma">
<polygon cb-classname="GraphicPolygonEntity" class="algorithm" id="6m0" points="2030,1830 1970,1890 2030,1950 2090,1890"/>
<line cb-classname="GraphicLineEntity" class="algorithm" id="64j" x1="2030" x2="2020" y1="1870" y2="1900"/>
<line cb-classname="GraphicLineEntity" class="algorithm" id="646" x1="2030" x2="2040" y1="1870" y2="1900"/>
<line cb-classname="GraphicLineEntity" class="algorithm" id="648" x1="2024" x2="2036" y1="1890" y2="1890"/>
<polygon cb-classname="GraphicPolygonEntity" class="algorithm" id="64Q" points="2150,1830 2090,1890 2150,1950 2210,1890"/>
<line cb-classname="GraphicLineEntity" class="algorithm" id="64l" x1="2135" x2="2165" y1="1876" y2="1876"/>
<line cb-classname="GraphicLineEntity" class="algorithm" id="64Z" x1="2150" x2="2150" y1="1876" y2="1906"/>
<ellipse cb-classname="GraphicEllipseEntity" class="algorithm" cx="1910" cy="1890" id="64M" rx="60" ry="60"/>
<line cb-classname="GraphicLineEntity" class="algorithm" id="64X" x1="1910" x2="1910" y1="1870" y2="1900"/>
<g cb-classname="ControlPin" cb-pin-name="32-yR7-OgQ" id="64a">
<line cb-classname="GraphicLineEntity" class="signalline" id="640" x1="2150" x2="2150" y1="1800" y2="1830"/>
<polygon cb-classname="GraphicPolygonEntity" class="signal" id="6Ej" points="2150,1830 2155,1819 2144,1819"/>
<g cb-classname="DynamicText" cb-source="57-HOg-kyN3" class="signal" id="6E6" text-anchor="start">
<text cb-classname="GraphicTextEntity" class="signal" fill="black" font-style="normal" font-weight="normal" id="6E8" text-anchor="start" text-decoration="normal" transform="translate(2147,1815)rotate(-90)"/>
</g>
</g>
<line cb-classname="GraphicLineEntity" class="signalline" id="6EQ" x1="1910" x2="1910" y1="1980" y2="1950"/>
<polygon cb-classname="GraphicPolygonEntity" class="signal" id="6El" points="1910,1950 1904,1960 1915,1960"/>
<line cb-classname="GraphicLineEntity" class="algorithm" id="6EZ" x1="2150" x2="2150" y1="1950" y2="1980"/>
<line cb-classname="GraphicLineEntity" class="algorithm" id="6EM" x1="2150" x2="1910" y1="1980" y2="1980"/>
<g cb-classname="ControlPin" cb-pin-name="Br-B5B-kfY" id="6EX">
<line cb-classname="GraphicLineEntity" class="signalline" id="6Ea" x1="2150" x2="2150" y1="1980" y2="2000"/>
<g cb-classname="DynamicText" cb-source="0D-ux6-l41e" class="signal" id="6E0" text-anchor="end">
<text cb-classname="GraphicTextEntity" class="signal" fill="black" font-style="normal" font-weight="normal" id="6Yj" text-anchor="end" text-decoration="normal" transform="translate(2147,1994)rotate(-90)"/>
</g>
<g cb-classname="SignalSegment" id="6Y6">
<line cb-classname="GraphicLineEntity" class="signalline" id="1904" x1="2150" x2="2150" y1="2000" y2="2300"/>
<g cb-classname="SignalSegment" id="190Q">
<line cb-classname="GraphicLineEntity" class="signalline" id="6Y8" x1="2150" x2="2150" y1="2300" y2="2640"/>
<g cb-classname="SignalConnection" cb-graphic-line="$682$" cb-input-pin="$BvE$" id="6YQ"/>
<ellipse cb-classname="GraphicEllipseEntity" class="signal" cx="2150" cy="2300" id="190G" rx="5" ry="5"/>
<g cb-classname="SignalConnection" cb-graphic-line="$1195$" cb-input-pin="$96G9$" id="1908"/>
<line cb-classname="GraphicLineEntity" class="signalline" id="190f" x1="2150" x2="2400" y1="2300" y2="2300"/>
</g>
</g>
</g>
<ellipse cb-classname="GraphicEllipseEntity" class="algorithm" cx="2150" cy="1980" fill="black" id="6Yl" rx="2" ry="2"/>
<g cb-classname="ControlPin" cb-pin-name="43-oww-91ph" id="6YZ">
<line cb-classname="GraphicLineEntity" class="signalline" id="6YM" x1="1970" x2="2000" y1="1830" y2="1860"/>
<polygon cb-classname="GraphicPolygonEntity" class="signal" id="6YX" points="2000,1860 1995,1848 1988,1855"/>
<g cb-classname="DynamicText" cb-source="9q-bSc-ajnz" class="signal" id="6Ya" text-anchor="end">
<text cb-classname="GraphicTextEntity" class="signal" fill="black" font-style="normal" font-weight="normal" id="6Y0" text-anchor="end" text-decoration="normal" transform="translate(1991,1847)rotate(45)"/>
</g>
</g>
<g cb-classname="DynamicText" cb-labeled="false" cb-source="9q-i2G-Gvj" class="algorithm" id="1xQr" text-anchor="start">
<text cb-classname="GraphicTextEntity" class="algorithm" fill="black" font-style="normal" font-weight="normal" id="1xQf" text-anchor="start" text-decoration="normal" x="1910" y="2010"/>
</g>
</g>
<g cb-alg-1fP1="0" cb-alg-byu7="01CV106" cb-alg-kS4="$658$cb-alg-out$" cb-algorithm-id="01c" cb-classname="ControlAlgorithm" cb-function-name="FIELD" cb-modify-id="00000002" id="6Pj">
<polygon cb-classname="GraphicPolygonEntity" class="algorithm" id="6P6" points="2070,2700 2110,2660 2190,2660 2230,2700"/>
<g cb-classname="ControlPin" cb-pin-name="0D-tOu-beR" id="6P8">
<line cb-classname="GraphicLineEntity" class="signalline" id="6PQ" x1="2150" x2="2150" y1="2640" y2="2660"/>
<polygon cb-classname="GraphicPolygonEntity" class="signal" id="6Pl" points="2150,2660 2155,2649 2144,2649"/>
<g cb-classname="DynamicText" cb-source="rG-mbe-gJ48" class="signal" id="6PZ" text-anchor="start">
<text cb-classname="GraphicTextEntity" class="signal" fill="black" font-style="normal" font-weight="normal" id="6PM" text-anchor="start" text-decoration="normal" transform="translate(2147,2645)rotate(-90)"/>
</g>
</g>
<g baseline-shift="0%" cb-anchor-x="2040" cb-anchor-y="2810" cb-classname="PointDescription" cb-content="extended" cb-labeled="false" cb-max-width="200" cb-source="cL-PZ0-t9mY" class="algorithm" id="19lr" text-anchor="start">
<text baseline-shift="0%" cb-classname="GraphicTextEntity" class="algorithm" id="19lf" text-anchor="start" x="2040" y="2785">
DESC: Point not found
</text>
<text baseline-shift="0%" cb-classname="GraphicTextEntity" class="algorithm" id="19l8" text-anchor="start" x="2040" y="2810">
in database (01CV106)
</text>
</g>
<g cb-classname="DynamicText" cb-labeled="false" cb-source="0D-tOu-yQYY" class="algorithm" id="19lG" text-anchor="start">
<text cb-classname="GraphicTextEntity" class="algorithm" fill="black" font-style="normal" font-weight="normal" id="19lt" text-anchor="start" text-decoration="normal" x="2110" y="2730"/>
</g>
</g>
<g cb-alg-Ok60="1" cb-alg-Oka3="0.1" cb-alg-fCd="01FGC-CV106-L01" cb-alg-ofi7="60" cb-alg-x6W="$658$cb-alg-out$" cb-algorithm-id="00a" cb-classname="ControlAlgorithm" cb-function-name="LOWMON" cb-modify-id="00000002" id="19XG">
<g cb-classname="ControlPin" cb-pin-name="57-4SI-cA3" id="19Xt">
<line cb-classname="GraphicLineEntity" class="signalline" id="19Xe" x1="2400" x2="2420" y1="2300" y2="2300"/>
<polygon cb-classname="GraphicPolygonEntity" class="signal" id="19az" points="2420,2300 2409,2296 2409,2304"/>
<g cb-classname="DynamicText" cb-source="AE-vcA-rGCY" class="signal" id="19a4" text-anchor="end">
<text baseline-shift="5%" cb-classname="GraphicTextEntity" class="signal" fill="black" font-style="normal" font-weight="normal" id="19aQ" text-anchor="end" text-decoration="normal" x="2417" y="2292"/>
</g>
</g>
<g cb-classname="ControlPin" cb-pin-name="cL-PZ0-fCd" id="19aY">
<line cb-classname="GraphicLineEntity" class="signalline" id="19ar" x1="2500" x2="2520" y1="2300" y2="2300"/>
<g cb-classname="DynamicText" cb-source="nb-CzW-rOrW" class="signal" id="19af">
<text baseline-shift="5%" cb-classname="GraphicTextEntity" class="signal" fill="black" font-style="normal" font-weight="normal" id="19a8" text-decoration="normal" x="2515" y="2292"/>
</g>
<g cb-classname="SignalSegment" id="1x8t">
<g cb-classname="SignalConnection" cb-graphic-line="$1231$" cb-input-pin="$MDpS$" id="1xQQ"/>
<line cb-classname="GraphicLineEntity" class="signalline" id="1xQ4" stroke="#1e12bf" stroke-dasharray="5,4" x1="2520" x2="2940" y1="2300" y2="2300"/>
</g>
</g>
<rect cb-classname="GraphicRectangleEntity" class="algorithm" height="40" id="19aG" width="80" x="2420" y="2280"/>
<line cb-classname="GraphicLineEntity" class="algorithmline" id="19at" x1="2468" x2="2448" y1="2280" y2="2320"/>
<line cb-classname="GraphicLineEntity" class="algorithmline" id="19ae" x1="2472" x2="2452" y1="2280" y2="2320"/>
<text baseline-shift="-50%" cb-classname="GraphicTextEntity" class="algorithm" id="190z" text-anchor="middle" x="2485" y="2299">
L
</text>
<g cb-classname="DynamicText" cb-labeled="true" cb-source="nb-JUC-RzlY" class="algorithm" id="190t" text-anchor="start">
<text cb-classname="GraphicTextEntity" class="algorithm" fill="black" font-style="normal" font-weight="normal" id="190e" text-anchor="start" text-decoration="normal" x="2400" y="2260"/>
</g>
</g>
<g cb-alg-lF="$1177$cb-alg-out$" cb-algorithm-id="00b" cb-classname="ExternalPointInterface" cb-function-name="OUTPUT" id="1xjz">
<ellipse cb-classname="GraphicEllipseEntity" class="algorithm" cx="3020" cy="2300" id="1xj4" rx="50" ry="50"/>
<rect cb-classname="GraphicRectangleEntity" class="algorithm" height="100" id="1xjQ" width="40" x="3070" y="2250"/>
<line cb-classname="GraphicLineEntity" class="algorithm" id="1xjY" x1="3070" x2="3110" y1="2300" y2="2300"/>
<g cb-classname="ControlPin" cb-pin-name="57-4SI-cA" id="1xjr">
<line cb-classname="GraphicLineEntity" class="signalline" id="1xjf" x1="2940" x2="2970" y1="2300" y2="2300"/>
<polygon cb-classname="GraphicPolygonEntity" class="signal" id="1xj8" points="2970,2300 2959,2294 2959,2305"/>
<g cb-classname="DynamicText" cb-source="AE-vcA-rGCY" class="signal" id="1xjG" text-anchor="end">
<text cb-classname="GraphicTextEntity" class="signal" fill="black" font-style="normal" font-weight="normal" id="1xjt" text-anchor="end" text-decoration="normal" x="2955" y="2297"/>
</g>
</g>
<g cb-classname="PointStatusIndicator" cb-indicator-type="highway" cb-source="cL-PZ0-x6" id="1xje" visibility="hidden">
<line cb-classname="GraphicLineEntity" class="algorithmline" id="1x6z" x1="2970" x2="3020" y1="2300" y2="2250"/>
<line cb-classname="GraphicLineEntity" class="algorithmline" id="1x64" x1="3020" x2="3070" y1="2250" y2="2300"/>
<line cb-classname="GraphicLineEntity" class="algorithmline" id="1x6Q" x1="3070" x2="3020" y1="2300" y2="2350"/>
<line cb-classname="GraphicLineEntity" class="algorithmline" id="1x6Y" x1="3020" x2="2970" y1="2350" y2="2300"/>
</g>
<g cb-classname="PointStatusIndicator" cb-indicator-type="hardware" cb-source="32-yR7-Og" id="1x6r" visibility="hidden">
<line cb-classname="GraphicLineEntity" class="algorithmline" id="1x6f" x1="3070" x2="2970" y1="2250" y2="2250"/>
<line cb-classname="GraphicLineEntity" class="algorithmline" id="1x68" x1="2970" x2="2970" y1="2250" y2="2350"/>
<line cb-classname="GraphicLineEntity" class="algorithmline" id="1x6G" x1="2970" x2="3070" y1="2350" y2="2350"/>
</g>
<g cb-classname="PointStatusIndicator" cb-indicator-type="alarm" cb-source="43-oww-Sc" id="1x6t" visibility="hidden">
<text cb-classname="GraphicTextEntity" class="algorithm" fill="#000000" font-family="Arial" font-size="20" id="1x6e" x="3080" y="2335">
A
</text>
</g>
<g cb-classname="PointStatusIndicator" cb-indicator-type="ingraphic" cb-source="AE-J1R-Ba" id="1x8z" visibility="hidden">
<text cb-classname="GraphicTextEntity" class="algorithm" fill="#000000" font-family="Arial" font-size="20" id="1x84" x="3080" y="2285">
G
</text>
</g>
<g cb-classname="DynamicText" cb-labeled="false" cb-pin-name="IG" cb-source="cL-PZ0-x6" class="algorithm" id="1x8Q" text-anchor="end">
<text baseline-shift="0%" cb-classname="GraphicTextEntity" class="algorithm" fill="black" font-family="arial" font-size="20" font-style="normal" font-weight="normal" id="1x8Y" text-anchor="end" text-decoration="normal" x="2945" y="2275"/>
</g>
<g baseline-shift="-100%" cb-anchor-x="2945" cb-anchor-y="2310" cb-classname="PointReferences" cb-max-width="130" cb-originator="false" cb-source="nb-JUC-Ul" class="signal" id="1x8r" text-anchor="end">
<text baseline-shift="-100%" cb-classname="GraphicTextEntity" class="algorithm" id="1x8f" text-anchor="end" x="2945" y="2310">
REF: Point not
</text>
<text baseline-shift="-100%" cb-classname="GraphicTextEntity" class="algorithm" id="2x8f" text-anchor="end" x="2945" y="2335">
found in
</text>
<text baseline-shift="-100%" cb-classname="GraphicTextEntity" class="algorithm" id="2x88" text-anchor="end" x="2945" y="2360">
database
</text>
<text baseline-shift="-100%" cb-classname="GraphicTextEntity" class="algorithm" id="2x8G" text-anchor="end" x="2945" y="2385">
(01FGC-CV106-L01)
</text>
</g>
<g baseline-shift="-50%" cb-anchor-x="3125" cb-anchor-y="2315" cb-classname="PointDescription" cb-content="extended" cb-labeled="false" cb-max-width="240" cb-source="RL-0gy-zd" class="algorithm" id="1x88" text-anchor="start">
<text baseline-shift="-50%" cb-classname="GraphicTextEntity" class="algorithm" id="1x8G" text-anchor="start" x="3125" y="2303">
DESC: Point not found in
</text>
<text baseline-shift="-50%" cb-classname="GraphicTextEntity" class="algorithm" id="2x8t" text-anchor="start" x="3125" y="2328">
database (01FGC-CV106-L01)
</text>
</g>
</g>
<g cb-alg-zd="$823$cb-alg-auto$" cb-algorithm-id="009" cb-classname="ExternalPointInterface" cb-function-name="OUTPUT" id="1TQt">
<ellipse cb-classname="GraphicEllipseEntity" class="algorithm" cx="3010" cy="1650" id="1TQe" rx="50" ry="50"/>
<rect cb-classname="GraphicRectangleEntity" class="algorithm" height="100" id="1Tlz" width="40" x="3060" y="1600"/>
<line cb-classname="GraphicLineEntity" class="algorithm" id="1Tl4" x1="3060" x2="3100" y1="1650" y2="1650"/>
<g cb-classname="ControlPin" cb-pin-name="nb-JUC-Ul" id="1TlQ">
<line cb-classname="GraphicLineEntity" class="signalline" id="1TlY" x1="2930" x2="2960" y1="1650" y2="1650"/>
<polygon cb-classname="GraphicPolygonEntity" class="signal" id="1Tlr" points="2960,1650 2949,1644 2949,1655"/>
<g cb-classname="DynamicText" cb-source="32-pUl-d0c3" class="signal" id="1Tlf" text-anchor="end">
<text cb-classname="GraphicTextEntity" class="signal" fill="black" font-style="normal" font-weight="normal" id="1Tl8" text-anchor="end" text-decoration="normal" x="2945" y="1647"/>
</g>
</g>
<g cb-classname="PointStatusIndicator" cb-indicator-type="highway" cb-source="sd-OIv-Ik" id="1TlG" visibility="hidden">
<line cb-classname="GraphicLineEntity" class="algorithmline" id="1Tlt" x1="2960" x2="3010" y1="1650" y2="1600"/>
<line cb-classname="GraphicLineEntity" class="algorithmline" id="1Tle" x1="3010" x2="3060" y1="1600" y2="1650"/>
<line cb-classname="GraphicLineEntity" class="algorithmline" id="1TZz" x1="3060" x2="3010" y1="1650" y2="1700"/>
<line cb-classname="GraphicLineEntity" class="algorithmline" id="1TZ4" x1="3010" x2="2960" y1="1700" y2="1650"/>
</g>
<g cb-classname="PointStatusIndicator" cb-indicator-type="hardware" cb-source="9q-i2G-kQ" id="1TZQ" visibility="hidden">
<line cb-classname="GraphicLineEntity" class="algorithmline" id="1TZY" x1="3060" x2="2960" y1="1600" y2="1600"/>
<line cb-classname="GraphicLineEntity" class="algorithmline" id="1TZr" x1="2960" x2="2960" y1="1600" y2="1700"/>
<line cb-classname="GraphicLineEntity" class="algorithmline" id="1TZf" x1="2960" x2="3060" y1="1700" y2="1700"/>
</g>
<g cb-classname="PointStatusIndicator" cb-indicator-type="alarm" cb-source="0D-tOu-be" id="1TZ8" visibility="visible">
<text cb-classname="GraphicTextEntity" class="algorithm" fill="#000000" font-family="Arial" font-size="20" id="1TZG" x="3070" y="1685">
A
</text>
</g>
<g cb-classname="PointStatusIndicator" cb-indicator-type="ingraphic" cb-source="32-yR7-Og" id="1TZt" visibility="hidden">
<text cb-classname="GraphicTextEntity" class="algorithm" fill="#000000" font-family="Arial" font-size="20" id="1TZe" x="3070" y="1635">
G
</text>
</g>
<g cb-classname="DynamicText" cb-labeled="false" cb-pin-name="SS" cb-source="sd-OIv-Ik" class="algorithm" id="1TMz" text-anchor="end">
<text baseline-shift="0%" cb-classname="GraphicTextEntity" class="algorithm" fill="black" font-family="arial" font-size="20" font-style="normal" font-weight="normal" id="1TM4" text-anchor="end" text-decoration="normal" x="2935" y="1625"/>
</g>
<g baseline-shift="-100%" cb-anchor-x="2935" cb-anchor-y="1660" cb-classname="PointReferences" cb-max-width="130" cb-originator="false" cb-source="43-oww-Sc" class="signal" id="1TMQ" text-anchor="end">
<text baseline-shift="-100%" cb-classname="GraphicTextEntity" class="algorithm" id="1TMY" text-anchor="end" x="2935" y="1660">
REF: Point not
</text>
<text baseline-shift="-100%" cb-classname="GraphicTextEntity" class="algorithm" id="2xQz" text-anchor="end" x="2935" y="1685">
found in
</text>
<text baseline-shift="-100%" cb-classname="GraphicTextEntity" class="algorithm" id="2xQ4" text-anchor="end" x="2935" y="1710">
database
</text>
<text baseline-shift="-100%" cb-classname="GraphicTextEntity" class="algorithm" id="2xQQ" text-anchor="end" x="2935" y="1735">
(01CV106-AUTO)
</text>
</g>
<g baseline-shift="-50%" cb-anchor-x="3115" cb-anchor-y="1665" cb-classname="PointDescription" cb-content="extended" cb-labeled="false" cb-max-width="240" cb-source="AE-J1R-Ba" class="algorithm" id="1TMr" text-anchor="start">
<text baseline-shift="-50%" cb-classname="GraphicTextEntity" class="algorithm" id="1TMf" text-anchor="start" x="3115" y="1653">
DESC: Point not found in
</text>
<text baseline-shift="-50%" cb-classname="GraphicTextEntity" class="algorithm" id="1ea8" text-anchor="start" x="3115" y="1678">
database (01CV106-AUTO)
</text>
</g>
</g>
</g>
<g cb-classname="IncludeDocument" cb-modify-time="09/25/2018 01:40:30" cb-objectname="Frame" id="5">
<text cb-classname="GraphicTextEntity" class="frame" font-size="50" id="2x0f" x="3660" y="3146">
Project Title &lt;Edit in FRAME.SVG&gt;
</text>
<g baseline-shift="-50%" cb-classname="DynamicText" cb-source="57-v62v-SE" class="frame" id="2x08">
<text cb-classname="GraphicTextEntity" class="frame" fill="black" font-family="arial" font-size="25" font-style="normal" font-weight="normal" id="2x0G" text-decoration="normal" x="4715" y="3325">
14
</text>
</g>
<g baseline-shift="-50%" cb-classname="DynamicText" cb-source="gi-Ruf5-Bn" class="frame" id="2x0t" text-anchor="middle">
<text cb-classname="GraphicTextEntity" class="frame" fill="black" font-family="arial" font-size="48" font-style="normal" font-weight="normal" id="2x0e" text-anchor="middle" text-decoration="normal" x="4900" y="3320">
14
</text>
</g>
<g baseline-shift="-50%" cb-classname="DynamicText" cb-source="9q-Zyfk-Io" class="frame" id="2hjz" text-anchor="middle">
<text cb-classname="GraphicTextEntity" class="frame" fill="black" font-family="arial" font-size="48" font-style="normal" font-weight="normal" id="2hj4" text-anchor="middle" text-decoration="normal" x="5067" y="3324">
3
</text>
</g>
<g cb-classname="DynamicText" cb-source="Br-aBK8t-YzewO" class="frame" id="2hjQ">
<text cb-classname="GraphicTextEntity" class="frame" fill="black" font-family="arial" font-size="48" font-style="normal" font-weight="normal" id="2hjY" text-decoration="normal" x="3660" y="3224">
RH Spray Control  (Emergency)
</text>
</g>
<g baseline-shift="-50%" cb-classname="DynamicText" cb-source="0D-ltApY-d9cE8v" class="frame" id="2hjr" text-anchor="middle">
<text cb-classname="GraphicTextEntity" class="frame" fill="black" font-family="arial" font-size="48" font-style="normal" font-weight="normal" id="2hjf" text-anchor="middle" text-decoration="normal" x="5270" y="3324">
109
</text>
</g>
<g baseline-shift="0%" cb-classname="DynamicText" cb-source="32-ZpozT5Lk" class="frame" id="2hj8" text-anchor="middle">
<text cb-classname="GraphicTextEntity" class="frame" fill="black" font-family="arial" font-size="36" font-style="normal" font-weight="normal" id="2hjG" text-anchor="middle" text-decoration="normal" x="5270" y="3150">
A
</text>
</g>
<g baseline-shift="0%" cb-classname="DynamicText" cb-source="sd-88U5tcYc-VInz" class="frame" id="2hjt" text-anchor="middle">
<text cb-classname="GraphicTextEntity" class="frame" fill="black" font-family="arial" font-size="20" font-style="normal" font-weight="normal" id="2hje" text-anchor="middle" text-decoration="normal" x="5270" y="3230">
12/28/2010
</text>
</g>
<g baseline-shift="-50%" cb-classname="DynamicText" cb-source="43-WgwcAU31" class="frame" id="2h6z" text-anchor="end">
<text cb-classname="GraphicTextEntity" class="frame" fill="black" font-family="arial" font-size="26" font-style="normal" font-weight="normal" id="2h64" text-anchor="end" text-decoration="normal" x="4500" y="3420">
Dufek
</text>
</g>
<g baseline-shift="-50%" cb-classname="DynamicText" cb-source="AE-u3fB3PwN" class="frame" id="2h6Q" text-anchor="end">
<text cb-classname="GraphicTextEntity" class="frame" fill="black" font-family="arial" font-size="26" font-style="normal" font-weight="normal" id="2h6Y" text-anchor="end" text-decoration="normal" x="5353" y="3420">
Nemec
</text>
</g>
<g cb-classname="GraphicShape" cb-tag="BORDER" id="2h6r">
<line cb-classname="GraphicLineEntity" class="frameline" id="2h6f" x1="40" x2="40" y1="40" y2="3460"/>
<line cb-classname="GraphicLineEntity" class="frameline" id="2h68" x1="40" x2="5380" y1="3460" y2="3460"/>
<line cb-classname="GraphicLineEntity" class="frameline" id="2h6G" x1="5380" x2="5380" y1="3460" y2="40"/>
<line cb-classname="GraphicLineEntity" class="frameline" id="2h6t" x1="5380" x2="40" y1="40" y2="40"/>
<line cb-classname="GraphicLineEntity" class="frame" id="2h6e" x1="5430" x2="5440" y1="3510" y2="3510"/>
</g>
<g cb-classname="GraphicShape" cb-tag="TITLE BOX" id="2h8z">
<line cb-classname="GraphicLineEntity" class="frameline" id="2h84" x1="2340" x2="2340" y1="3080" y2="3460"/>
<line cb-classname="GraphicLineEntity" class="frameline" id="2h8Q" x1="2340" x2="5380" y1="3080" y2="3080"/>
<line cb-classname="GraphicLineEntity" class="frameline" id="2h8Y" x1="3650" x2="3650" y1="3460" y2="3080"/>
<line cb-classname="GraphicLineEntity" class="frameline" id="2h8r" x1="3650" x2="5380" y1="3240" y2="3240"/>
<line cb-classname="GraphicLineEntity" class="frameline" id="2h8f" x1="3650" x2="5380" y1="3390" y2="3390"/>
<line cb-classname="GraphicLineEntity" class="frameline" id="2h88" x1="3650" x2="5380" y1="3160" y2="3160"/>
<line cb-classname="GraphicLineEntity" class="frameline" id="2h8G" x1="3650" x2="4520" y1="3320" y2="3320"/>
<line cb-classname="GraphicLineEntity" class="frameline" id="2h8t" x1="4520" x2="5380" y1="3290" y2="3290"/>
<line cb-classname="GraphicLineEntity" class="frameline" id="2h8e" x1="4520" x2="5380" y1="3240" y2="3240"/>
<line cb-classname="GraphicLineEntity" class="frameline" id="2hQz" x1="4520" x2="4520" y1="3240" y2="3460"/>
<line cb-classname="GraphicLineEntity" class="frameline" id="2hQ4" x1="4810" x2="4810" y1="3240" y2="3390"/>
<line cb-classname="GraphicLineEntity" class="frameline" id="2hQQ" x1="4990" x2="4990" y1="3240" y2="3390"/>
<line cb-classname="GraphicLineEntity" class="frameline" id="2hQY" x1="5150" x2="5150" y1="3080" y2="3390"/>
</g>
<g cb-classname="GraphicShape" cb-tag="TEXT LABELS" id="2hQr">
<text baseline-shift="-50%" cb-classname="GraphicTextEntity" class="frame" font-size="25" id="2hQf" text-anchor="middle" x="4890" y="3252">
Drop
</text>
<text baseline-shift="-50%" cb-classname="GraphicTextEntity" class="frame" font-size="25" id="2hQ8" text-anchor="middle" x="5075" y="3252">
Task
</text>
<text baseline-shift="-50%" cb-classname="GraphicTextEntity" class="frame" font-size="25" id="2hQG" text-anchor="middle" x="5265" y="3252">
Sheet
</text>
<text cb-classname="GraphicTextEntity" class="frame" font-size="25" id="2hQt" x="5152" y="3107">
Rev.
</text>
<text cb-classname="GraphicTextEntity" class="frame" font-size="25" id="2hQe" x="3653" y="3418">
Engineer
</text>
<text cb-classname="GraphicTextEntity" class="frame" font-size="25" id="2hlz" x="4528" y="3419">
Approved
</text>
<text cb-classname="GraphicTextEntity" class="frame" font-size="25" id="2hl4" x="5152" y="3187">
Date
</text>
<text baseline-shift="-50%" cb-classname="GraphicTextEntity" class="frame" font-size="25" id="2hlQ" text-anchor="middle" x="4660" y="3252">
Drawing Number
</text>
<text baseline-shift="-50%" cb-classname="GraphicTextEntity" class="frame" font-size="25" id="2hlY" text-anchor="middle" x="4680" y="3325">
CTL
</text>
</g>
<text baseline-shift="-50%" cb-classname="GraphicTextEntity" class="frame" font-size="48" id="2hlr" text-anchor="middle" x="3000" y="3100">
EMERSON PROCESS MANAGEMENT
</text>
<g baseline-shift="-100%" cb-anchor-x="2360" cb-anchor-y="3140" cb-classname="GroupText" cb-max-width="1260" fill="black" id="2hlf">
<text baseline-shift="-100%" cb-classname="GraphicTextEntity" class="frame" fill="black" font-family="arial" font-size="22" font-weight="normal" id="2hl8" text-anchor="start" text-decoration="normal" x="2360" y="3140">
THIS DOCUMENT CONTAINS INFORMATION PROPRIETARY TO EMERSON PROCESS
</text>
<text baseline-shift="-100%" cb-classname="GraphicTextEntity" class="frame" fill="black" font-family="arial" font-size="22" font-weight="normal" id="2hlG" text-anchor="start" text-decoration="normal" x="2360" y="3176">
MANAGEMENT POWER &amp; WATER SOLUTIONS, INC. IT IS SUBMITTED IN CONFIDENCE AND
</text>
<text baseline-shift="-100%" cb-classname="GraphicTextEntity" class="frame" fill="black" font-family="arial" font-size="22" font-weight="normal" id="2hlt" text-anchor="start" text-decoration="normal" x="2360" y="3212">
TRUST, IS TO BE USED BY YOU SOLELY FOR THE PURPOSES FOR WHICH IT IS
</text>
<text baseline-shift="-100%" cb-classname="GraphicTextEntity" class="frame" fill="black" font-family="arial" font-size="22" font-weight="normal" id="2hle" text-anchor="start" text-decoration="normal" x="2360" y="3248">
FURNISHED AND IS TO BE RETURNED UPON REQUEST. THIS DOCUMENT AND ANY
</text>
<text baseline-shift="-100%" cb-classname="GraphicTextEntity" class="frame" fill="black" font-family="arial" font-size="22" font-weight="normal" id="2hZz" text-anchor="start" text-decoration="normal" x="2360" y="3284">
OTHER INFORMATION PROVIDED TO YOU IS NOT TO BE REPRODUCED, TRANSMITTED,
</text>
<text baseline-shift="-100%" cb-classname="GraphicTextEntity" class="frame" fill="black" font-family="arial" font-size="22" font-weight="normal" id="2hZ4" text-anchor="start" text-decoration="normal" x="2360" y="3320">
DISCLOSED, OR USED OTHERWISE IN WHOLE OR IN PART WITHOUT THE PRIOR
</text>
<text baseline-shift="-100%" cb-classname="GraphicTextEntity" class="frame" fill="black" font-family="arial" font-size="22" font-weight="normal" id="2hZQ" text-anchor="start" text-decoration="normal" x="2360" y="3356">
WRITTEN AUTHORIZATION OF EMERSON PROCESS MANAGEMENT POWER &amp; WATER
</text>
<text baseline-shift="-100%" cb-classname="GraphicTextEntity" class="frame" fill="black" font-family="arial" font-size="22" font-weight="normal" id="2hZY" text-anchor="start" text-decoration="normal" x="2360" y="3392">
SOLUTIONS,INC.
</text>
</g>
</g>
</svg>