<?xml version="1.0" ?><svg cb-auto-time="06/20/2008 10:59:27" cb-classname="ControlFunction" cb-create-time="03/12/2008" cb-drop-id="14" cb-filename="Z:\OVATION\NET0\UNIT0\CONTROLFUNCTIONS\029F.svg" cb-function-id="029F" cb-key="111111111111" cb-modified-timestamp="1489320405" cb-modify-id="00000003" cb-ortho-mode="enabled" cb-path="Z:/OVATION/NET0/UNIT0/CONTROLFUNCTIONS" cb-reviewer="Zdenek Nemec" cb-revision="A" cb-revision-time="12/28/2010" cb-sheet-number="247" cb-sheet-title="A VACUUM PMP SEAL WTR SV - T1200D10A" cb-snap-grid="10" cb-task-id="4" height="3707" id="1" width="5450" xmlns="http://www.w3.org/2000/svg">
<style cb-classname="EntityStyle" id="2" type="text/css">
	.algorithm { fill: white; stroke: black; stroke-linecap: round; stroke-width: 2 }
	.algorithm-function { fill: none; stroke: black; stroke-linecap: round; stroke-width: 2 }
	.algorithm-functionline { fill: none; stroke: black; stroke-linecap: round; stroke-width: 2 }
	.algorithm-name { fill: none; stroke: black; stroke-linecap: round; stroke-width: 2 }
	.algorithm-nameline { fill: none; stroke: black; stroke-linecap: round; stroke-width: 2 }
	.algorithm-sequence { fill: none; stroke: black; stroke-linecap: round; stroke-width: 2 }
	.algorithm-sequenceline { fill: none; stroke: black; stroke-linecap: round; stroke-width: 2 }
	.algorithmline { fill: none; stroke: black; stroke-linecap: round; stroke-width: 2 }
	.annotation { fill: none; stroke: black; stroke-linecap: round; stroke-width: 2 }
	.annotationline { fill: none; stroke: black; stroke-linecap: round; stroke-width: 2 }
	.frame { fill: none; stroke: black; stroke-linecap: round; stroke-width: 2 }
	.frameline { fill: none; stroke: black; stroke-linecap: round; stroke-width: 2 }
	.signal { fill: black; stroke: black; stroke-linecap: round; stroke-width: 2 }
	.signalline { fill: none; stroke: black; stroke-linecap: round; stroke-width: 2 }
	text.algorithm { fill: black; font-family: MS Shell Dlg 2; font-size: 14; stroke: none }
	text.algorithm-function { fill: black; font-family: MS Shell Dlg 2; font-size: 16; stroke: none }
	text.algorithm-name { fill: black; font-family: MS Shell Dlg 2; font-size: 16; stroke: none }
	text.algorithm-sequence { fill: black; font-family: MS Shell Dlg 2; font-size: 16; stroke: none }
	text.annotation { fill: black; font-family: MS Shell Dlg 2; font-size: 16; stroke: none }
	text.frame { fill: black; font-family: MS Shell Dlg 2; font-size: 16; stroke: none }
	text.signal { fill: black; font-family: MS Shell Dlg 2; font-size: 12; stroke: none }
</style>
<g cb-classname="NamedObject" cb-objectname="Comments" id="3">
<text cb-classname="GraphicTextEntity" class="annotation" fill="#000000" font-family="MS Shell Dlg 2" font-size="72" id="6Z" x="3230" y="1430">
PCMS1-2
</text>
</g>
<g cb-classname="AlgorithmContainer" cb-objectname="Algorithms" id="4">
<g cb-alg-LMJr="128" cb-alg-XaU="01T1200D10A-KB" cb-alg-p8Zr="5" cb-algorithm-id="002" cb-classname="ControlAlgorithm" cb-function-name="KEYBOARD" cb-modify-id="00000001" id="6R">
<rect cb-classname="GraphicRectangleEntity" class="annotation" height="200" id="6J" stroke-width="1" width="140" x="1940" y="390"/>
<g cb-classname="ControlPin" cb-pin-name="9E-xjF-LfEH" id="6B">
<line cb-classname="GraphicLineEntity" class="signalline" id="63" x1="2080" x2="2090" y1="400" y2="400"/>
<g cb-classname="DynamicText" cb-source="Ut-6Xt-ePDq" class="signal" id="7I" text-anchor="start">
<text cb-classname="GraphicTextEntity" class="signal" fill="black" font-style="normal" font-weight="normal" id="7M" text-anchor="start" text-decoration="normal" x="2094" y="397"/>
</g>
<g cb-classname="SignalSegment" id="7Q">
<line cb-classname="GraphicLineEntity" class="signalline" id="7U" stroke="#1e12bf" stroke-dasharray="5,4" x1="2090" x2="2810" y1="400" y2="400"/>
<g cb-classname="SignalSegment" id="7Y">
<line cb-classname="GraphicLineEntity" class="signalline" id="7Z" stroke="#1e12bf" stroke-dasharray="5,4" x1="2810" x2="2810" y1="400" y2="620"/>
<g cb-classname="SignalSegment" id="7R">
<line cb-classname="GraphicLineEntity" class="signalline" id="7J" stroke="#1e12bf" stroke-dasharray="5,4" x1="2810" x2="2970" y1="620" y2="620"/>
<g cb-classname="SignalConnection" cb-graphic-line="$77$" cb-input-pin="$UOj$" id="7B"/>
</g>
</g>
</g>
</g>
<g cb-classname="ControlPin" cb-pin-name="PN-OJ1-16L6" id="73">
<line cb-classname="GraphicLineEntity" class="signalline" id="8I" x1="2080" x2="2090" y1="420" y2="420"/>
<g cb-classname="DynamicText" cb-source="9E-jpE-tDCk" class="signal" id="8M" text-anchor="start">
<text cb-classname="GraphicTextEntity" class="signal" fill="black" font-style="normal" font-weight="normal" id="8Q" text-anchor="start" text-decoration="normal" x="2094" y="417"/>
</g>
<g cb-classname="SignalSegment" id="8U">
<line cb-classname="GraphicLineEntity" class="signalline" id="8Y" stroke="#1e12bf" stroke-dasharray="5,4" x1="2090" x2="2780" y1="420" y2="420"/>
<g cb-classname="SignalSegment" id="8Z">
<line cb-classname="GraphicLineEntity" class="signalline" id="8R" stroke="#1e12bf" stroke-dasharray="5,4" x1="2780" x2="2780" y1="420" y2="660"/>
<g cb-classname="SignalSegment" id="8J">
<line cb-classname="GraphicLineEntity" class="signalline" id="8B" stroke="#1e12bf" stroke-dasharray="5,4" x1="2780" x2="2970" y1="660" y2="660"/>
<g cb-classname="SignalConnection" cb-graphic-line="$88$" cb-input-pin="$Xqw$" id="83"/>
</g>
</g>
</g>
</g>
<g cb-classname="ControlPin" cb-pin-name="mh-9gO-iuBL" id="9I">
<line cb-classname="GraphicLineEntity" class="signalline" id="9M" x1="2080" x2="2090" y1="440" y2="440"/>
<g cb-classname="DynamicText" cb-source="PN-JmN-EC6z" class="signal" id="9Q" text-anchor="start">
<text cb-classname="GraphicTextEntity" class="signal" fill="black" font-style="normal" font-weight="normal" id="9U" text-anchor="start" text-decoration="normal" x="2094" y="437"/>
</g>
</g>
<g cb-classname="ControlPin" cb-pin-name="FB-Pc7-grZ" id="1IF">
<line cb-classname="GraphicLineEntity" class="signalline" id="1Iw" x1="2080" x2="2090" y1="460" y2="460"/>
<g cb-classname="DynamicText" cb-source="mh-gRh-Z1r5" class="signal" id="1Ir" text-anchor="start">
<text cb-classname="GraphicTextEntity" class="signal" fill="black" font-style="normal" font-weight="normal" id="1I4" text-anchor="start" text-decoration="normal" x="2094" y="457"/>
</g>
</g>
<g cb-classname="ControlPin" cb-pin-name="1H-Dfa-gkf" id="1Mw">
<line cb-classname="GraphicLineEntity" class="signalline" id="1Mr" x1="2080" x2="2090" y1="490" y2="490"/>
<g cb-classname="DynamicText" cb-source="FB-cxB-hr3n" class="signal" id="1M4" text-anchor="start">
<text cb-classname="GraphicTextEntity" class="signal" fill="black" font-style="normal" font-weight="normal" id="1Mb" text-anchor="start" text-decoration="normal" x="2094" y="487"/>
</g>
<g cb-classname="SignalSegment" id="1MC">
<line cb-classname="GraphicLineEntity" class="signalline" id="1MO" stroke="#1e12bf" stroke-dasharray="5,4" x1="2090" x2="2690" y1="490" y2="490"/>
<g cb-classname="SignalSegment" id="1Mn">
<line cb-classname="GraphicLineEntity" class="signalline" id="1MU" stroke="#1e12bf" stroke-dasharray="5,4" x1="2690" x2="2690" y1="490" y2="780"/>
<g cb-classname="SignalSegment" id="1QG">
<line cb-classname="GraphicLineEntity" class="signalline" id="1QF" stroke="#1e12bf" stroke-dasharray="5,4" x1="2690" x2="2970" y1="780" y2="780"/>
<g cb-classname="SignalConnection" cb-graphic-line="$121$" cb-input-pin="$FFf$" id="1Qw"/>
</g>
</g>
</g>
</g>
<g cb-classname="ControlPin" cb-pin-name="rq-CRl-cz2" id="1Qr">
<line cb-classname="GraphicLineEntity" class="signalline" id="1Q4" x1="2080" x2="2090" y1="510" y2="510"/>
<g cb-classname="DynamicText" cb-source="1H-fOH-B3g8" class="signal" id="1Qb" text-anchor="start">
<text cb-classname="GraphicTextEntity" class="signal" fill="black" font-style="normal" font-weight="normal" id="1QC" text-anchor="start" text-decoration="normal" x="2094" y="507"/>
</g>
<g cb-classname="SignalSegment" id="1QO">
<line cb-classname="GraphicLineEntity" class="signalline" id="1Qn" stroke="#1e12bf" stroke-dasharray="5,4" x1="2090" x2="2660" y1="510" y2="510"/>
<g cb-classname="SignalSegment" id="1QU">
<line cb-classname="GraphicLineEntity" class="signalline" id="1UG" stroke="#1e12bf" stroke-dasharray="5,4" x1="2660" x2="2660" y1="510" y2="820"/>
<g cb-classname="SignalSegment" id="1UF">
<line cb-classname="GraphicLineEntity" class="signalline" id="1Uw" stroke="#1e12bf" stroke-dasharray="5,4" x1="2660" x2="2970" y1="820" y2="820"/>
<g cb-classname="SignalConnection" cb-graphic-line="$132$" cb-input-pin="$4G2$" id="1Ur"/>
</g>
</g>
</g>
</g>
<g cb-classname="ControlPin" cb-pin-name="3k-6xs-fT7" id="1U4">
<line cb-classname="GraphicLineEntity" class="signalline" id="1Ub" x1="2080" x2="2090" y1="530" y2="530"/>
<g cb-classname="DynamicText" cb-source="rq-R7q-Hgce" class="signal" id="1UC" text-anchor="start">
<text cb-classname="GraphicTextEntity" class="signal" fill="black" font-style="normal" font-weight="normal" id="1UO" text-anchor="start" text-decoration="normal" x="2094" y="527"/>
</g>
</g>
<g cb-classname="ControlPin" cb-pin-name="1H-Dfa-gkY" id="1Un">
<line cb-classname="GraphicLineEntity" class="signalline" id="1UU" x1="2080" x2="2090" y1="550" y2="550"/>
<g cb-classname="DynamicText" cb-source="FB-cxB-hr3n" class="signal" id="1YG" text-anchor="start">
<text cb-classname="GraphicTextEntity" class="signal" fill="black" font-style="normal" font-weight="normal" id="1YF" text-anchor="start" text-decoration="normal" x="2094" y="547"/>
</g>
</g>
<text cb-classname="GraphicTextEntity" class="annotation" fill="#000000" font-family="MS Shell Dlg 2" font-size="8" id="1Yw" x="1980" y="480">
KEYBOARD
</text>
<g cb-classname="DynamicText" cb-labeled="false" cb-source="1H-Dfa-9gO" class="algorithm" id="1MCT" text-anchor="start">
<text cb-classname="GraphicTextEntity" class="algorithm" fill="black" font-style="normal" font-weight="normal" id="1MCf" text-anchor="start" text-decoration="normal" x="1940" y="370"/>
</g>
<g cb-classname="ControlPin" cb-pin-name="Ut-R6m-DNn" id="1R4i">
<line cb-classname="GraphicLineEntity" class="signalline" id="1R4Y" x1="2080" x2="2090" y1="570" y2="570"/>
<g cb-classname="DynamicText" cb-source="ie-CJe-89PH" class="signal" id="1R4T" text-anchor="start">
<text cb-classname="GraphicTextEntity" class="signal" fill="black" font-style="normal" font-weight="normal" id="1R4f" text-anchor="start" text-decoration="normal" x="2094" y="567"/>
</g>
<g cb-classname="SignalSegment" id="1Rbi">
<line cb-classname="GraphicLineEntity" class="signalline" id="1RbY" stroke="#1e12bf" stroke-dasharray="5,4" x1="2090" x2="2620" y1="570" y2="570"/>
<g cb-classname="SignalSegment" id="1RbT">
<line cb-classname="GraphicLineEntity" class="signalline" id="1Rbf" stroke="#1e12bf" stroke-dasharray="5,4" x1="2620" x2="2620" y1="570" y2="860"/>
<g cb-classname="SignalSegment" id="1Rbj">
<line cb-classname="GraphicLineEntity" class="signalline" id="1Rbh" stroke="#1e12bf" stroke-dasharray="5,4" x1="2620" x2="2960" y1="860" y2="860"/>
<g cb-classname="SignalConnection" cb-graphic-line="$1658$" cb-input-pin="$7UYt$" id="1Rbr"/>
</g>
</g>
</g>
</g>
</g>
<g cb-alg-oiMU="NO" cb-alg-oue="01T12G01-COA" cb-algorithm-id="003" cb-classname="ExternalPointInterface" cb-function-name="INPUT" id="1Yr">
<ellipse cb-classname="GraphicEllipseEntity" class="algorithm" cx="580" cy="1080" id="1Y4" rx="50" ry="50"/>
<rect cb-classname="GraphicRectangleEntity" class="algorithm" height="100" id="1Yb" width="40" x="490" y="1030"/>
<line cb-classname="GraphicLineEntity" class="algorithm" id="1YC" x1="490" x2="530" y1="1080" y2="1080"/>
<g cb-classname="ControlPin" cb-pin-name="3k-6xs-Vuz" id="1YO">
<line cb-classname="GraphicLineEntity" class="signalline" id="1Yn" x1="630" x2="660" y1="1080" y2="1080"/>
<g cb-classname="DynamicText" cb-source="rq-R7q-Hgce" class="signal" id="1YU" text-anchor="start">
<text cb-classname="GraphicTextEntity" class="signal" fill="black" font-style="normal" font-weight="normal" id="1ZG" text-anchor="start" text-decoration="normal" x="644" y="1077"/>
</g>
<g cb-classname="SignalSegment" id="1IFY">
<line cb-classname="GraphicLineEntity" class="signalline" id="1IFT" stroke="#1e12bf" stroke-dasharray="5,4" x1="660" x2="2820" y1="1080" y2="1080"/>
<g cb-classname="SignalSegment" id="1IFf">
<line cb-classname="GraphicLineEntity" class="signalline" id="1IFj" stroke="#1e12bf" stroke-dasharray="5,4" x1="2820" x2="2820" y1="1080" y2="1140"/>
<g cb-classname="SignalSegment" id="1IFh">
<line cb-classname="GraphicLineEntity" class="signalline" id="1IFr" stroke="#1e12bf" stroke-dasharray="5,4" x1="2820" x2="2970" y1="1140" y2="1140"/>
<g cb-classname="SignalConnection" cb-graphic-line="$1019$" cb-input-pin="$YGD$" id="1Iw0"/>
</g>
</g>
</g>
</g>
<g cb-classname="PointStatusIndicator" cb-indicator-type="Highway" cb-source="sn-gPJ-Lu8" id="1Z4" visibility="hidden">
<line cb-classname="GraphicLineEntity" class="algorithmline" id="1Zb" x1="530" x2="580" y1="1080" y2="1030"/>
<line cb-classname="GraphicLineEntity" class="algorithmline" id="1ZC" x1="580" x2="630" y1="1030" y2="1080"/>
<line cb-classname="GraphicLineEntity" class="algorithmline" id="1ZO" x1="630" x2="580" y1="1080" y2="1130"/>
<line cb-classname="GraphicLineEntity" class="algorithmline" id="1Zn" x1="580" x2="530" y1="1130" y2="1080"/>
</g>
<g cb-classname="PointStatusIndicator" cb-indicator-type="hardware" cb-source="9E-xjF-LuN" id="1ZU" visibility="hidden">
<line cb-classname="GraphicLineEntity" class="algorithmline" id="1RG" x1="530" x2="630" y1="1030" y2="1030"/>
<line cb-classname="GraphicLineEntity" class="algorithmline" id="1RF" x1="630" x2="630" y1="1030" y2="1130"/>
<line cb-classname="GraphicLineEntity" class="algorithmline" id="1Rw" x1="630" x2="530" y1="1130" y2="1130"/>
</g>
<g cb-classname="PointStatusIndicator" cb-indicator-type="alarm" cb-source="ie-fCp-Lut" id="1Rr" visibility="hidden">
<text cb-classname="GraphicTextEntity" class="algorithm" fill="#000000" font-family="arial" font-size="20" id="1R4" x="500" y="1065">
A
</text>
</g>
<g cb-classname="PointStatusIndicator" cb-indicator-type="ingraphic" cb-source="M8-cDX-oue" id="1Rb" visibility="hidden">
<text cb-classname="GraphicTextEntity" class="algorithm" fill="#000000" font-family="Arial" font-size="20" id="1RC" x="500" y="1115">
G
</text>
</g>
<g baseline-shift="-50%" cb-anchor-x="480" cb-anchor-y="1094" cb-classname="PointDescription" cb-content="extended" cb-labeled="false" cb-max-width="220" cb-source="sn-gPJ-Lu8" class="algorithm" id="1RO" text-anchor="end">
<text baseline-shift="-50%" cb-classname="GraphicTextEntity" class="algorithm" id="1Rn" text-anchor="end" x="480" y="1082">
DESC: Point not found in
</text>
<text baseline-shift="-50%" cb-classname="GraphicTextEntity" class="algorithm" id="23Ch" text-anchor="end" x="480" y="1107">
database (01T12G01-COA)
</text>
</g>
<g cb-classname="DynamicText" cb-labeled="false" cb-pin-name="Orz" cb-source="cT-J7i-VuZ" class="algorithm" id="1RU" text-anchor="start">
<text baseline-shift="0%" cb-classname="GraphicTextEntity" class="algorithm" fill="black" font-family="arial" font-size="20" font-style="normal" font-weight="normal" id="1JG" text-anchor="start" text-decoration="normal" x="650" y="1050"/>
</g>
<g baseline-shift="-100%" cb-anchor-x="650" cb-anchor-y="1090" cb-classname="PointReferences" cb-max-width="230" cb-originator="true" cb-source="gz-jOM-duT" class="signal" id="1JF" text-anchor="start">
<text baseline-shift="-100%" cb-classname="GraphicTextEntity" class="algorithm" id="1Jw" text-anchor="start" x="650" y="1090">
REF: Point not found in
</text>
<text baseline-shift="-100%" cb-classname="GraphicTextEntity" class="algorithm" id="23O0" text-anchor="start" x="650" y="1115">
database (01T12G01-COA)
</text>
</g>
</g>
<g cb-alg-oslM="NO" cb-alg-oun="01T12G01-CZA" cb-algorithm-id="004" cb-classname="ExternalPointInterface" cb-function-name="INPUT" id="1Jr">
<ellipse cb-classname="GraphicEllipseEntity" class="algorithm" cx="580" cy="1230" id="1J4" rx="50" ry="50"/>
<rect cb-classname="GraphicRectangleEntity" class="algorithm" height="100" id="1Jb" width="40" x="490" y="1180"/>
<line cb-classname="GraphicLineEntity" class="algorithm" id="1JC" x1="490" x2="530" y1="1230" y2="1230"/>
<g cb-classname="ControlPin" cb-pin-name="1H-Dfa-Vuq" id="1JO">
<line cb-classname="GraphicLineEntity" class="signalline" id="1Jn" x1="630" x2="660" y1="1230" y2="1230"/>
<g cb-classname="DynamicText" cb-source="FB-cxB-hr3n" class="signal" id="1JU" text-anchor="start">
<text cb-classname="GraphicTextEntity" class="signal" fill="black" font-style="normal" font-weight="normal" id="1BG" text-anchor="start" text-decoration="normal" x="644" y="1227"/>
</g>
<g cb-classname="SignalSegment" id="1BF">
<g cb-classname="SignalConnection" cb-graphic-line="$186$" cb-input-pin="$4af$" id="1BO"/>
<line cb-classname="GraphicLineEntity" class="signalline" id="1BC" stroke="#1e12bf" stroke-dasharray="5,4" x1="660" x2="2970" y1="1230" y2="1230"/>
</g>
</g>
<g cb-classname="PointStatusIndicator" cb-indicator-type="Highway" cb-source="rq-CRl-duk" id="1Bn" visibility="hidden">
<line cb-classname="GraphicLineEntity" class="algorithmline" id="1BU" x1="530" x2="580" y1="1230" y2="1180"/>
<line cb-classname="GraphicLineEntity" class="algorithmline" id="13G" x1="580" x2="630" y1="1180" y2="1230"/>
<line cb-classname="GraphicLineEntity" class="algorithmline" id="13F" x1="630" x2="580" y1="1230" y2="1280"/>
<line cb-classname="GraphicLineEntity" class="algorithmline" id="13w" x1="580" x2="530" y1="1280" y2="1230"/>
</g>
<g cb-classname="PointStatusIndicator" cb-indicator-type="hardware" cb-source="sn-gPJ-Lu8" id="13r" visibility="hidden">
<line cb-classname="GraphicLineEntity" class="algorithmline" id="134" x1="530" x2="630" y1="1180" y2="1180"/>
<line cb-classname="GraphicLineEntity" class="algorithmline" id="13b" x1="630" x2="630" y1="1180" y2="1280"/>
<line cb-classname="GraphicLineEntity" class="algorithmline" id="13C" x1="630" x2="530" y1="1280" y2="1280"/>
</g>
<g cb-classname="PointStatusIndicator" cb-indicator-type="alarm" cb-source="gz-jOM-duT" id="13O" visibility="hidden">
<text cb-classname="GraphicTextEntity" class="algorithm" fill="#000000" font-family="arial" font-size="20" id="13n" x="500" y="1215">
A
</text>
</g>
<g cb-classname="PointStatusIndicator" cb-indicator-type="ingraphic" cb-source="3k-6xs-Vuz" id="13U" visibility="hidden">
<text cb-classname="GraphicTextEntity" class="algorithm" fill="#000000" font-family="Arial" font-size="20" id="2IG" x="500" y="1265">
G
</text>
</g>
<g baseline-shift="-50%" cb-anchor-x="480" cb-anchor-y="1244" cb-classname="PointDescription" cb-content="extended" cb-labeled="false" cb-max-width="220" cb-source="rq-CRl-duk" class="algorithm" id="2IF" text-anchor="end">
<text baseline-shift="-50%" cb-classname="GraphicTextEntity" class="algorithm" id="2Iw" text-anchor="end" x="480" y="1232">
DESC: Point not found in
</text>
<text baseline-shift="-50%" cb-classname="GraphicTextEntity" class="algorithm" id="13Ff" text-anchor="end" x="480" y="1257">
database (01T12G01-CZA)
</text>
</g>
<g cb-classname="DynamicText" cb-labeled="false" cb-pin-name="cpB" cb-source="1H-Dfa-Vuq" class="algorithm" id="2Ir" text-anchor="start">
<text baseline-shift="0%" cb-classname="GraphicTextEntity" class="algorithm" fill="black" font-family="arial" font-size="20" font-style="normal" font-weight="normal" id="2I4" text-anchor="start" text-decoration="normal" x="650" y="1200"/>
</g>
<g baseline-shift="-100%" cb-anchor-x="650" cb-anchor-y="1240" cb-classname="PointReferences" cb-max-width="230" cb-originator="true" cb-source="FB-Pc7-duH" class="signal" id="2Ib" text-anchor="start">
<text baseline-shift="-100%" cb-classname="GraphicTextEntity" class="algorithm" id="2IC" text-anchor="start" x="650" y="1240">
REF: Point not found in
</text>
<text baseline-shift="-100%" cb-classname="GraphicTextEntity" class="algorithm" id="23Oi" text-anchor="start" x="650" y="1265">
database (01T12G01-CZA)
</text>
</g>
</g>
<g cb-alg-oOx7="NO" cb-alg-ouE="01T1200D09A-EPZ" cb-algorithm-id="005" cb-classname="ExternalPointInterface" cb-function-name="INPUT" id="2IO">
<ellipse cb-classname="GraphicEllipseEntity" class="algorithm" cx="580" cy="1690" id="2In" rx="50" ry="50"/>
<rect cb-classname="GraphicRectangleEntity" class="algorithm" height="100" id="2IU" width="40" x="490" y="1640"/>
<line cb-classname="GraphicLineEntity" class="algorithm" id="2MG" x1="490" x2="530" y1="1690" y2="1690"/>
<g cb-classname="ControlPin" cb-pin-name="9E-xjF-LuN" id="2MF">
<line cb-classname="GraphicLineEntity" class="signalline" id="2Mw" x1="630" x2="660" y1="1690" y2="1690"/>
<g cb-classname="DynamicText" cb-source="Ut-6Xt-ePDq" class="signal" id="2Mr" text-anchor="start">
<text cb-classname="GraphicTextEntity" class="signal" fill="black" font-style="normal" font-weight="normal" id="2M4" text-anchor="start" text-decoration="normal" x="644" y="1687"/>
</g>
<g cb-classname="SignalSegment" id="13rY">
<g cb-classname="SignalConnection" cb-graphic-line="$1937$" cb-input-pin="$4ix$" id="13rh"/>
<line cb-classname="GraphicLineEntity" class="signalline" id="13rj" stroke="#1e12bf" stroke-dasharray="5,4" x1="660" x2="2970" y1="1690" y2="1690"/>
</g>
</g>
<g cb-classname="PointStatusIndicator" cb-indicator-type="Highway" cb-source="FB-Pc7-duH" id="2Mn" visibility="hidden">
<line cb-classname="GraphicLineEntity" class="algorithmline" id="2MU" x1="530" x2="580" y1="1690" y2="1640"/>
<line cb-classname="GraphicLineEntity" class="algorithmline" id="2QG" x1="580" x2="630" y1="1640" y2="1690"/>
<line cb-classname="GraphicLineEntity" class="algorithmline" id="2QF" x1="630" x2="580" y1="1690" y2="1740"/>
<line cb-classname="GraphicLineEntity" class="algorithmline" id="2Qw" x1="580" x2="530" y1="1740" y2="1690"/>
</g>
<g cb-classname="PointStatusIndicator" cb-indicator-type="hardware" cb-source="gz-jOM-duT" id="2Qr" visibility="visible">
<line cb-classname="GraphicLineEntity" class="algorithmline" id="2Q4" x1="530" x2="630" y1="1640" y2="1640"/>
<line cb-classname="GraphicLineEntity" class="algorithmline" id="2Qb" x1="630" x2="630" y1="1640" y2="1740"/>
<line cb-classname="GraphicLineEntity" class="algorithmline" id="2QC" x1="630" x2="530" y1="1740" y2="1740"/>
</g>
<g cb-classname="PointStatusIndicator" cb-indicator-type="alarm" cb-source="rq-CRl-duk" id="2QO" visibility="hidden">
<text cb-classname="GraphicTextEntity" class="algorithm" fill="#000000" font-family="arial" font-size="20" id="2Qn" x="500" y="1675">
A
</text>
</g>
<g cb-classname="PointStatusIndicator" cb-indicator-type="ingraphic" cb-source="1H-Dfa-Vuq" id="2QU" visibility="visible">
<text cb-classname="GraphicTextEntity" class="algorithm" fill="#000000" font-family="Arial" font-size="20" id="2UG" x="500" y="1725">
G
</text>
</g>
<g baseline-shift="-50%" cb-anchor-x="480" cb-anchor-y="1704" cb-classname="PointDescription" cb-content="extended" cb-labeled="false" cb-max-width="220" cb-source="FB-Pc7-duH" class="algorithm" id="2UF" text-anchor="end">
<text baseline-shift="-50%" cb-classname="GraphicTextEntity" class="algorithm" id="2Uw" text-anchor="end" x="480" y="1679">
DESC: Point not found in
</text>
<text baseline-shift="-50%" cb-classname="GraphicTextEntity" class="algorithm" id="13Fh" text-anchor="end" x="480" y="1704">
database
</text>
<text baseline-shift="-50%" cb-classname="GraphicTextEntity" class="algorithm" id="2Ynf" text-anchor="end" x="480" y="1729">
(01T1200D09A-EPZ)
</text>
</g>
<g cb-classname="DynamicText" cb-labeled="false" cb-pin-name="3JZ" cb-source="mh-9gO-VuB" class="algorithm" id="2Ur" text-anchor="start">
<text baseline-shift="0%" cb-classname="GraphicTextEntity" class="algorithm" fill="black" font-family="arial" font-size="20" font-style="normal" font-weight="normal" id="2U4" text-anchor="start" text-decoration="normal" x="650" y="1660"/>
</g>
<g baseline-shift="-100%" cb-anchor-x="650" cb-anchor-y="1700" cb-classname="PointReferences" cb-max-width="230" cb-originator="true" cb-source="PN-OJ1-oub" class="signal" id="2Ub" text-anchor="start">
<text baseline-shift="-100%" cb-classname="GraphicTextEntity" class="algorithm" id="2UC" text-anchor="start" x="650" y="1700">
REF: Point not found in
</text>
<text baseline-shift="-100%" cb-classname="GraphicTextEntity" class="algorithm" id="23OT" text-anchor="start" x="650" y="1725">
database
</text>
<text baseline-shift="-100%" cb-classname="GraphicTextEntity" class="algorithm" id="23Of" text-anchor="start" x="650" y="1750">
(01T1200D09A-EPZ)
</text>
</g>
</g>
<g cb-alg-VpXm="NO" cb-alg-VuZ="01T1200D10A-EPO" cb-algorithm-id="007" cb-classname="ExternalPointInterface" cb-function-name="INPUT" id="2RO">
<ellipse cb-classname="GraphicEllipseEntity" class="algorithm" cx="580" cy="2110" id="2Rn" rx="50" ry="50"/>
<rect cb-classname="GraphicRectangleEntity" class="algorithm" height="100" id="2RU" width="40" x="490" y="2060"/>
<line cb-classname="GraphicLineEntity" class="algorithm" id="2JG" x1="490" x2="530" y1="2110" y2="2110"/>
<g cb-classname="ControlPin" cb-pin-name="sn-gPJ-Lu8" id="2JF">
<line cb-classname="GraphicLineEntity" class="signalline" id="2Jw" x1="630" x2="660" y1="2110" y2="2110"/>
<g cb-classname="DynamicText" cb-source="cT-7sT-zRxN" class="signal" id="2Jr" text-anchor="start">
<text cb-classname="GraphicTextEntity" class="signal" fill="black" font-style="normal" font-weight="normal" id="2J4" text-anchor="start" text-decoration="normal" x="644" y="2107"/>
</g>
<g cb-classname="SignalSegment" id="2Jb">
<line cb-classname="GraphicLineEntity" class="signalline" id="2JC" stroke="#1e12bf" stroke-dasharray="5,4" x1="660" x2="2540" y1="2110" y2="2110"/>
<g cb-classname="SignalSegment" id="2JO">
<line cb-classname="GraphicLineEntity" class="signalline" id="2Jn" stroke="#1e12bf" stroke-dasharray="5,4" x1="2540" x2="2540" y1="2110" y2="1990"/>
<g cb-classname="SignalSegment" id="2JU">
<line cb-classname="GraphicLineEntity" class="signalline" id="2BG" stroke="#1e12bf" stroke-dasharray="5,4" x1="2540" x2="2980" y1="1990" y2="1990"/>
<g cb-classname="SignalConnection" cb-graphic-line="$280$" cb-input-pin="$Y4P$" id="2BF"/>
</g>
</g>
</g>
</g>
<g cb-classname="PointStatusIndicator" cb-indicator-type="Highway" cb-source="M8-cDX-oue" id="2Bw" visibility="hidden">
<line cb-classname="GraphicLineEntity" class="algorithmline" id="2Br" x1="530" x2="580" y1="2110" y2="2060"/>
<line cb-classname="GraphicLineEntity" class="algorithmline" id="2B4" x1="580" x2="630" y1="2060" y2="2110"/>
<line cb-classname="GraphicLineEntity" class="algorithmline" id="2Bb" x1="630" x2="580" y1="2110" y2="2160"/>
<line cb-classname="GraphicLineEntity" class="algorithmline" id="2BC" x1="580" x2="530" y1="2160" y2="2110"/>
</g>
<g cb-classname="PointStatusIndicator" cb-indicator-type="hardware" cb-source="PN-OJ1-oub" id="2BO" visibility="visible">
<line cb-classname="GraphicLineEntity" class="algorithmline" id="2Bn" x1="530" x2="630" y1="2060" y2="2060"/>
<line cb-classname="GraphicLineEntity" class="algorithmline" id="2BU" x1="630" x2="630" y1="2060" y2="2160"/>
<line cb-classname="GraphicLineEntity" class="algorithmline" id="23G" x1="630" x2="530" y1="2160" y2="2160"/>
</g>
<g cb-classname="PointStatusIndicator" cb-indicator-type="alarm" cb-source="Ut-R6m-ouE" id="23F" visibility="hidden">
<text cb-classname="GraphicTextEntity" class="algorithm" fill="#000000" font-family="arial" font-size="20" id="23w" x="500" y="2095">
A
</text>
</g>
<g cb-classname="PointStatusIndicator" cb-indicator-type="ingraphic" cb-source="ie-fCp-Lut" id="23r" visibility="visible">
<text cb-classname="GraphicTextEntity" class="algorithm" fill="#000000" font-family="Arial" font-size="20" id="234" x="500" y="2145">
G
</text>
</g>
<g baseline-shift="-50%" cb-anchor-x="480" cb-anchor-y="2124" cb-classname="PointDescription" cb-content="extended" cb-labeled="false" cb-max-width="220" cb-source="M8-cDX-oue" class="algorithm" id="23b" text-anchor="end">
<text baseline-shift="-50%" cb-classname="GraphicTextEntity" class="algorithm" id="23C" text-anchor="end" x="480" y="2099">
DESC: Point not found in
</text>
<text baseline-shift="-50%" cb-classname="GraphicTextEntity" class="algorithm" id="13Fr" text-anchor="end" x="480" y="2124">
database
</text>
<text baseline-shift="-50%" cb-classname="GraphicTextEntity" class="algorithm" id="23Oj" text-anchor="end" x="480" y="2149">
(01T1200D10A-EPO)
</text>
</g>
<g cb-classname="DynamicText" cb-labeled="false" cb-pin-name="975" cb-source="sn-gPJ-Lu8" class="algorithm" id="23O" text-anchor="start">
<text baseline-shift="0%" cb-classname="GraphicTextEntity" class="algorithm" fill="black" font-family="arial" font-size="20" font-style="normal" font-weight="normal" id="23n" text-anchor="start" text-decoration="normal" x="650" y="2080"/>
</g>
<g baseline-shift="-100%" cb-anchor-x="650" cb-anchor-y="2120" cb-classname="PointReferences" cb-max-width="230" cb-originator="true" cb-source="cT-J7i-VuZ" class="signal" id="23U" text-anchor="start">
<text baseline-shift="-100%" cb-classname="GraphicTextEntity" class="algorithm" id="3IG" text-anchor="start" x="650" y="2120">
REF: Point not found in
</text>
<text baseline-shift="-100%" cb-classname="GraphicTextEntity" class="algorithm" id="23Oh" text-anchor="start" x="650" y="2145">
database
</text>
<text baseline-shift="-100%" cb-classname="GraphicTextEntity" class="algorithm" id="23Or" text-anchor="start" x="650" y="2170">
(01T1200D10A-EPO)
</text>
</g>
</g>
<g cb-alg-LMsi="NO" cb-alg-Lu8="01T1200D10A-EPZ" cb-algorithm-id="008" cb-classname="ExternalPointInterface" cb-function-name="INPUT" id="3IF">
<ellipse cb-classname="GraphicEllipseEntity" class="algorithm" cx="580" cy="2260" id="3Iw" rx="50" ry="50"/>
<rect cb-classname="GraphicRectangleEntity" class="algorithm" height="100" id="3Ir" width="40" x="490" y="2210"/>
<line cb-classname="GraphicLineEntity" class="algorithm" id="3I4" x1="490" x2="530" y1="2260" y2="2260"/>
<g cb-classname="ControlPin" cb-pin-name="rq-CRl-duk" id="3Ib">
<line cb-classname="GraphicLineEntity" class="signalline" id="3IC" x1="630" x2="660" y1="2260" y2="2260"/>
<g cb-classname="DynamicText" cb-source="1H-fOH-B3g8" class="signal" id="3IO" text-anchor="start">
<text cb-classname="GraphicTextEntity" class="signal" fill="black" font-style="normal" font-weight="normal" id="3In" text-anchor="start" text-decoration="normal" x="644" y="2257"/>
</g>
<g cb-classname="SignalSegment" id="3IU">
<line cb-classname="GraphicLineEntity" class="signalline" id="3MG" stroke="#1e12bf" stroke-dasharray="5,4" x1="660" x2="2600" y1="2260" y2="2260"/>
<g cb-classname="SignalSegment" id="3MF">
<line cb-classname="GraphicLineEntity" class="signalline" id="3Mw" stroke="#1e12bf" stroke-dasharray="5,4" x1="2600" x2="2600" y1="2260" y2="2030"/>
<g cb-classname="SignalSegment" id="3Mr">
<line cb-classname="GraphicLineEntity" class="signalline" id="3M4" stroke="#1e12bf" stroke-dasharray="5,4" x1="2600" x2="2960" y1="2030" y2="2030"/>
<g cb-classname="SignalConnection" cb-graphic-line="$314$" cb-input-pin="$4z2$" id="3Mb"/>
</g>
</g>
</g>
</g>
<g cb-classname="PointStatusIndicator" cb-indicator-type="Highway" cb-source="3k-6xs-Vuz" id="3MC" visibility="hidden">
<line cb-classname="GraphicLineEntity" class="algorithmline" id="3MO" x1="530" x2="580" y1="2260" y2="2210"/>
<line cb-classname="GraphicLineEntity" class="algorithmline" id="3Mn" x1="580" x2="630" y1="2210" y2="2260"/>
<line cb-classname="GraphicLineEntity" class="algorithmline" id="3MU" x1="630" x2="580" y1="2260" y2="2310"/>
<line cb-classname="GraphicLineEntity" class="algorithmline" id="3QG" x1="580" x2="530" y1="2310" y2="2260"/>
</g>
<g cb-classname="PointStatusIndicator" cb-indicator-type="hardware" cb-source="M8-cDX-oue" id="3QF" visibility="visible">
<line cb-classname="GraphicLineEntity" class="algorithmline" id="3Qw" x1="530" x2="630" y1="2210" y2="2210"/>
<line cb-classname="GraphicLineEntity" class="algorithmline" id="3Qr" x1="630" x2="630" y1="2210" y2="2310"/>
<line cb-classname="GraphicLineEntity" class="algorithmline" id="3Q4" x1="630" x2="530" y1="2310" y2="2310"/>
</g>
<g cb-classname="PointStatusIndicator" cb-indicator-type="alarm" cb-source="cT-J7i-VuZ" id="3Qb" visibility="hidden">
<text cb-classname="GraphicTextEntity" class="algorithm" fill="#000000" font-family="arial" font-size="20" id="3QC" x="500" y="2245">
A
</text>
</g>
<g cb-classname="PointStatusIndicator" cb-indicator-type="ingraphic" cb-source="gz-jOM-duT" id="3QO" visibility="visible">
<text cb-classname="GraphicTextEntity" class="algorithm" fill="#000000" font-family="Arial" font-size="20" id="3Qn" x="500" y="2295">
G
</text>
</g>
<g baseline-shift="-50%" cb-anchor-x="480" cb-anchor-y="2274" cb-classname="PointDescription" cb-content="extended" cb-labeled="false" cb-max-width="220" cb-source="3k-6xs-Vuz" class="algorithm" id="3QU" text-anchor="end">
<text baseline-shift="-50%" cb-classname="GraphicTextEntity" class="algorithm" id="3UG" text-anchor="end" x="480" y="2249">
DESC: Point not found in
</text>
<text baseline-shift="-50%" cb-classname="GraphicTextEntity" class="algorithm" id="13w0" text-anchor="end" x="480" y="2274">
database
</text>
<text baseline-shift="-50%" cb-classname="GraphicTextEntity" class="algorithm" id="13ws" text-anchor="end" x="480" y="2299">
(01T1200D10A-EPZ)
</text>
</g>
<g cb-classname="DynamicText" cb-labeled="false" cb-pin-name="fmH" cb-source="rq-CRl-duk" class="algorithm" id="3UF" text-anchor="start">
<text baseline-shift="0%" cb-classname="GraphicTextEntity" class="algorithm" fill="black" font-family="arial" font-size="20" font-style="normal" font-weight="normal" id="3Uw" text-anchor="start" text-decoration="normal" x="650" y="2230"/>
</g>
<g baseline-shift="-100%" cb-anchor-x="650" cb-anchor-y="2270" cb-classname="PointReferences" cb-max-width="230" cb-originator="true" cb-source="1H-Dfa-Vuq" class="signal" id="3Ur" text-anchor="start">
<text baseline-shift="-100%" cb-classname="GraphicTextEntity" class="algorithm" id="3U4" text-anchor="start" x="650" y="2270">
REF: Point not found in
</text>
<text baseline-shift="-100%" cb-classname="GraphicTextEntity" class="algorithm" id="23n0" text-anchor="start" x="650" y="2295">
database
</text>
<text baseline-shift="-100%" cb-classname="GraphicTextEntity" class="algorithm" id="23ns" text-anchor="start" x="650" y="2320">
(01T1200D10A-EPZ)
</text>
</g>
</g>
<g cb-alg-VJca="69" cb-alg-yDfu="0" cb-algorithm-id="009" cb-classname="ControlAlgorithm" cb-function-name="DVALGEN" cb-modify-id="00000001" id="3Ub">
<rect cb-classname="GraphicRectangleEntity" class="algorithm" height="100" id="3UC" width="140" x="2370" y="1350"/>
<text baseline-shift="-50%" cb-classname="GraphicTextEntity" class="algorithm" fill="#000000" font-family="MS Shell Dlg" font-size="18" id="3UO" text-anchor="middle" x="2440" y="1400">
DVALGEN
</text>
<g cb-classname="ControlPin" cb-pin-name="cT-J7i-VuZ" id="3Un">
<line cb-classname="GraphicLineEntity" class="signalline" id="3UU" x1="2510" x2="2530" y1="1400" y2="1400"/>
<g cb-classname="DynamicText" cb-source="gz-Olz-kfRE" class="signal" id="3YG" text-anchor="start">
<text cb-classname="GraphicTextEntity" class="signal" fill="black" font-style="normal" font-weight="normal" id="3YF" text-anchor="start" text-decoration="normal" x="2524" y="1397"/>
</g>
<g cb-classname="SignalSegment" id="3Yw">
<line cb-classname="GraphicLineEntity" class="signalline" id="3Yr" stroke="#1e12bf" stroke-dasharray="5,4" x1="2530" x2="2820" y1="1400" y2="1400"/>
<g cb-classname="SignalSegment" id="3Y4">
<line cb-classname="GraphicLineEntity" class="signalline" id="3YU" stroke="#1e12bf" stroke-dasharray="5,4" x1="2820" x2="2820" y1="1400" y2="1180"/>
<g cb-classname="SignalSegment" id="3ZG">
<line cb-classname="GraphicLineEntity" class="signalline" id="3ZF" stroke="#1e12bf" stroke-dasharray="5,4" x1="2820" x2="2970" y1="1180" y2="1180"/>
<g cb-classname="SignalConnection" cb-graphic-line="$351$" cb-input-pin="$4sQ$" id="3Zw"/>
</g>
<ellipse cb-classname="GraphicEllipseEntity" class="signal" cx="2820" cy="1400" fill="#1e12bf" id="3Zr" rx="5" ry="5" stroke="#1e12bf" stroke-dasharray="5,4"/>
<line cb-classname="GraphicLineEntity" class="signalline" id="13wj" stroke="#1e12bf" stroke-dasharray="5,4" x1="2820" x2="2820" y1="1400" y2="1450"/>
<g cb-classname="SignalSegment" id="13wh">
<line cb-classname="GraphicLineEntity" class="signalline" id="1MC0" stroke="#1e12bf" stroke-dasharray="5,4" x1="2820" x2="2820" y1="1450" y2="1950"/>
<g cb-classname="SignalSegment" id="1MCs">
<line cb-classname="GraphicLineEntity" class="signalline" id="1MC2" stroke="#1e12bf" stroke-dasharray="5,4" x1="2820" x2="2970" y1="1950" y2="1950"/>
<g cb-classname="SignalConnection" cb-graphic-line="$1162$" cb-input-pin="$Y42$" id="1MCi"/>
</g>
<g cb-classname="SignalConnection" cb-graphic-line="$1931$" cb-input-pin="$YQP$" id="13r2"/>
<line cb-classname="GraphicLineEntity" class="signalline" id="13rs" stroke="#1e12bf" stroke-dasharray="5,4" x1="2820" x2="2970" y1="1450" y2="1450"/>
<ellipse cb-classname="GraphicEllipseEntity" class="signal" cx="2820" cy="1450" fill="#1e12bf" id="13ri" rx="5" ry="5" stroke="#1e12bf" stroke-dasharray="5,4"/>
</g>
<line cb-classname="GraphicLineEntity" class="signalline" id="3YO" stroke="#1e12bf" stroke-dasharray="5,4" x1="2820" x2="2970" y1="1400" y2="1400"/>
<g cb-classname="SignalConnection" cb-graphic-line="$347$" cb-input-pin="$Y2Q$" id="3Yn"/>
</g>
</g>
</g>
<g cb-classname="DynamicText" cb-labeled="true" cb-source="sn-gPJ-viru" class="algorithm" id="1IF2" text-anchor="start">
<text cb-classname="GraphicTextEntity" class="algorithm" fill="black" font-style="normal" font-weight="normal" id="1IFi" text-anchor="start" text-decoration="normal" x="2400" y="1340"/>
</g>
</g>
<g cb-alg-Axju="1" cb-alg-Ll6F="69" cb-algorithm-id="00a" cb-classname="ControlAlgorithm" cb-function-name="DVALGEN" cb-modify-id="00000001" id="3ZC">
<rect cb-classname="GraphicRectangleEntity" class="algorithm" height="100" id="3ZO" width="140" x="2370" y="1560"/>
<text baseline-shift="-50%" cb-classname="GraphicTextEntity" class="algorithm" fill="#000000" font-family="MS Shell Dlg" font-size="18" id="3Zn" text-anchor="middle" x="2440" y="1610">
DVALGEN
</text>
<g cb-classname="ControlPin" cb-pin-name="1H-Dfa-Vuq" id="3ZU">
<line cb-classname="GraphicLineEntity" class="signalline" id="3RG" x1="2510" x2="2530" y1="1610" y2="1610"/>
<g cb-classname="DynamicText" cb-source="FB-cxB-hr3n" class="signal" id="3RF" text-anchor="start">
<text cb-classname="GraphicTextEntity" class="signal" fill="black" font-style="normal" font-weight="normal" id="3Rw" text-anchor="start" text-decoration="normal" x="2524" y="1607"/>
</g>
<g cb-classname="SignalSegment" id="3Rr">
<g cb-classname="SignalConnection" cb-graphic-line="$370$" cb-input-pin="$4lQ$" id="3JF"/>
<line cb-classname="GraphicLineEntity" class="signalline" id="3JG" stroke="#1e12bf" stroke-dasharray="5,4" x1="2530" x2="2970" y1="1610" y2="1610"/>
</g>
</g>
<g cb-classname="DynamicText" cb-labeled="true" cb-source="M8-cDX-yU3u" class="algorithm" id="1IF0" text-anchor="start">
<text cb-classname="GraphicTextEntity" class="algorithm" fill="black" font-style="normal" font-weight="normal" id="1IFs" text-anchor="start" text-decoration="normal" x="2400" y="1550"/>
</g>
</g>
<g cb-alg-d17U="65" cb-alg-vXau="60" cb-algorithm-id="006" cb-classname="ControlAlgorithm" cb-function-name="AVALGEN" cb-modify-id="00000002" id="1UOh">
<g cb-classname="ControlPin" cb-pin-name="PN-OJ1-oub" id="1UOr">
<line cb-classname="GraphicLineEntity" class="signalline" id="1Un0" x1="2460" x2="2480" y1="2400" y2="2400"/>
<g cb-classname="DynamicText" cb-source="9E-jpE-tDCk" class="signal" id="1Uns">
<text baseline-shift="5%" cb-classname="GraphicTextEntity" class="signal" fill="black" font-style="normal" font-weight="normal" id="1Un2" text-decoration="normal" x="2471" y="2390"/>
</g>
<g cb-classname="SignalSegment" id="1YF0">
<line cb-classname="GraphicLineEntity" class="signalline" id="1YFs" x1="2480" x2="2660" y1="2400" y2="2400"/>
<g cb-classname="SignalSegment" id="1YF2">
<line cb-classname="GraphicLineEntity" class="signalline" id="1YFi" x1="2660" x2="2660" y1="2400" y2="2320"/>
<g cb-classname="SignalSegment" id="1YFY">
<line cb-classname="GraphicLineEntity" class="signalline" id="1YFT" x1="2660" x2="2980" y1="2320" y2="2320"/>
<g cb-classname="SignalConnection" cb-graphic-line="$1415$" cb-input-pin="$xJJO$" id="1YFf"/>
</g>
</g>
</g>
</g>
<polygon cb-classname="GraphicPolygonEntity" class="algorithm" id="1Uni" points="2420,2440 2460,2400 2420,2360 2380,2400"/>
<text baseline-shift="-50%" cb-classname="GraphicTextEntity" class="algorithm" font-size="44" id="1UnY" text-anchor="middle" x="2420" y="2383">
A
</text>
<g cb-classname="PointStatusIndicator" cb-indicator-type="Highway" cb-source="ie-fCp-Lut" id="1UnT" visibility="hidden"/>
<g cb-classname="AlgValueIndicator" cb-source="1H-Dfa-Vuq" cb-value="true" id="1Unf" visibility="hidden"/>
<g cb-classname="DynamicText" cb-labeled="true" cb-source="M8-cDX-yU3u" class="algorithm" id="1Unj" text-anchor="start">
<text cb-classname="GraphicTextEntity" class="algorithm" fill="black" font-style="normal" font-weight="normal" id="1Unh" text-anchor="start" text-decoration="normal" x="2370" y="2350"/>
</g>
</g>
<g cb-alg-AcDu="60" cb-alg-oOPX="65" cb-algorithm-id="010" cb-classname="ControlAlgorithm" cb-function-name="AVALGEN" cb-modify-id="00000002" id="1Unr">
<g cb-classname="ControlPin" cb-pin-name="mh-9gO-VuB" id="1UU0">
<line cb-classname="GraphicLineEntity" class="signalline" id="1UUs" x1="2460" x2="2480" y1="2550" y2="2550"/>
<g cb-classname="DynamicText" cb-source="PN-JmN-EC6z" class="signal" id="1UU2">
<text baseline-shift="5%" cb-classname="GraphicTextEntity" class="signal" fill="black" font-style="normal" font-weight="normal" id="1UUi" text-decoration="normal" x="2471" y="2540"/>
</g>
<g cb-classname="SignalSegment" id="1YFj">
<line cb-classname="GraphicLineEntity" class="signalline" id="1YFh" x1="2480" x2="2720" y1="2550" y2="2550"/>
<g cb-classname="SignalSegment" id="1YFr">
<line cb-classname="GraphicLineEntity" class="signalline" id="1Yw0" x1="2720" x2="2720" y1="2550" y2="2370"/>
<g cb-classname="SignalSegment" id="1Yws">
<line cb-classname="GraphicLineEntity" class="signalline" id="1Yw2" x1="2720" x2="2980" y1="2370" y2="2370"/>
<g cb-classname="SignalConnection" cb-graphic-line="$1422$" cb-input-pin="$a40e$" id="1Ywi"/>
</g>
</g>
</g>
</g>
<polygon cb-classname="GraphicPolygonEntity" class="algorithm" id="1UUY" points="2420,2590 2460,2550 2420,2510 2380,2550"/>
<text baseline-shift="-50%" cb-classname="GraphicTextEntity" class="algorithm" font-size="44" id="1UUT" text-anchor="middle" x="2420" y="2533">
A
</text>
<g cb-classname="DynamicText" cb-labeled="true" cb-source="Ut-R6m-vPcu" class="algorithm" id="1UUf" text-anchor="start">
<text cb-classname="GraphicTextEntity" class="algorithm" fill="black" font-style="normal" font-weight="normal" id="1UUj" text-anchor="start" text-decoration="normal" x="2370" y="2500"/>
</g>
</g>
<g cb-alg-dXJp="NO" cb-alg-duT="01T12G01-LLK" cb-algorithm-id="00f" cb-classname="ExternalPointInterface" cb-function-name="INPUT" id="1JU0">
<ellipse cb-classname="GraphicEllipseEntity" class="algorithm" cx="580" cy="920" id="1JUs" rx="50" ry="50"/>
<rect cb-classname="GraphicRectangleEntity" class="algorithm" height="100" id="1JU2" width="40" x="490" y="870"/>
<line cb-classname="GraphicLineEntity" class="algorithm" id="1JUi" x1="490" x2="530" y1="920" y2="920"/>
<g cb-classname="ControlPin" cb-pin-name="cT-J7i-VuZ" id="1JUY">
<line cb-classname="GraphicLineEntity" class="signalline" id="1JUT" x1="630" x2="660" y1="920" y2="920"/>
<g cb-classname="DynamicText" cb-source="gz-Olz-kfRE" class="signal" id="1JUf" text-anchor="start">
<text cb-classname="GraphicTextEntity" class="signal" fill="black" font-style="normal" font-weight="normal" id="1JUj" text-anchor="start" text-decoration="normal" x="644" y="917"/>
</g>
<g cb-classname="SignalSegment" id="1Brs">
<line cb-classname="GraphicLineEntity" class="signalline" id="1B4s" stroke="#1e12bf" stroke-dasharray="5,4" x1="660" x2="2220" y1="920" y2="920"/>
<g cb-classname="SignalSegment" id="1B42">
<line cb-classname="GraphicLineEntity" class="signalline" id="1B4i" stroke="#1e12bf" stroke-dasharray="5,4" x1="2220" x2="2220" y1="920" y2="960"/>
<g cb-classname="SignalSegment" id="1B4Y">
<line cb-classname="GraphicLineEntity" class="signalline" id="1B4T" stroke="#1e12bf" stroke-dasharray="5,4" x1="2220" x2="2970" y1="960" y2="960"/>
<g cb-classname="SignalConnection" cb-graphic-line="$1845$" cb-input-pin="$UU2$" id="1B4f"/>
</g>
<line cb-classname="GraphicLineEntity" class="signalline" id="1BrY" stroke="#1e12bf" stroke-dasharray="5,4" x1="2220" x2="2400" y1="920" y2="920"/>
<g cb-classname="SignalConnection" cb-graphic-line="$1834$" cb-input-pin="$s5lM$" id="1BrT"/>
<ellipse cb-classname="GraphicEllipseEntity" class="signal" cx="2220" cy="920" fill="#1e12bf" id="1B4j" rx="5" ry="5" stroke="#1e12bf" stroke-dasharray="5,4"/>
</g>
</g>
</g>
<g cb-classname="PointStatusIndicator" cb-indicator-type="Highway" cb-source="3k-6xs-Vuz" id="1JUh" visibility="hidden">
<line cb-classname="GraphicLineEntity" class="algorithmline" id="1JUr" x1="530" x2="580" y1="920" y2="870"/>
<line cb-classname="GraphicLineEntity" class="algorithmline" id="1BG0" x1="580" x2="630" y1="870" y2="920"/>
<line cb-classname="GraphicLineEntity" class="algorithmline" id="1BGs" x1="630" x2="580" y1="920" y2="970"/>
<line cb-classname="GraphicLineEntity" class="algorithmline" id="1BG2" x1="580" x2="530" y1="970" y2="920"/>
</g>
<g cb-classname="PointStatusIndicator" cb-indicator-type="hardware" cb-source="M8-cDX-oue" id="1BGi" visibility="hidden">
<line cb-classname="GraphicLineEntity" class="algorithmline" id="1BGY" x1="530" x2="630" y1="870" y2="870"/>
<line cb-classname="GraphicLineEntity" class="algorithmline" id="1BGT" x1="630" x2="630" y1="870" y2="970"/>
<line cb-classname="GraphicLineEntity" class="algorithmline" id="1BGf" x1="630" x2="530" y1="970" y2="970"/>
</g>
<g cb-classname="PointStatusIndicator" cb-indicator-type="alarm" cb-source="cT-J7i-VuZ" id="1BGj" visibility="hidden">
<text cb-classname="GraphicTextEntity" class="algorithm" fill="#000000" font-family="arial" font-size="20" id="1BGh" x="500" y="905">
A
</text>
</g>
<g cb-classname="PointStatusIndicator" cb-indicator-type="ingraphic" cb-source="gz-jOM-duT" id="1BGr" visibility="visible">
<text cb-classname="GraphicTextEntity" class="algorithm" fill="#000000" font-family="Arial" font-size="20" id="1BF0" x="500" y="955">
G
</text>
</g>
<g baseline-shift="-50%" cb-anchor-x="480" cb-anchor-y="934" cb-classname="PointDescription" cb-content="extended" cb-labeled="false" cb-max-width="220" cb-source="3k-6xs-Vuz" class="algorithm" id="1BFs" text-anchor="end">
<text baseline-shift="-50%" cb-classname="GraphicTextEntity" class="algorithm" id="1BF2" text-anchor="end" x="480" y="922">
DESC: Point not found in
</text>
<text baseline-shift="-50%" cb-classname="GraphicTextEntity" class="algorithm" id="13w2" text-anchor="end" x="480" y="947">
database (01T12G01-LLK)
</text>
</g>
<g cb-classname="DynamicText" cb-labeled="false" cb-pin-name="fmH" cb-source="rq-CRl-duk" class="algorithm" id="1BFi" text-anchor="start">
<text baseline-shift="0%" cb-classname="GraphicTextEntity" class="algorithm" fill="black" font-family="arial" font-size="20" font-style="normal" font-weight="normal" id="1BFY" text-anchor="start" text-decoration="normal" x="650" y="890"/>
</g>
<g baseline-shift="-100%" cb-anchor-x="650" cb-anchor-y="930" cb-classname="PointReferences" cb-max-width="230" cb-originator="true" cb-source="1H-Dfa-Vuq" class="signal" id="1BFT" text-anchor="start">
<text baseline-shift="-100%" cb-classname="GraphicTextEntity" class="algorithm" id="1BFf" text-anchor="start" x="650" y="930">
REF: Point not found in
</text>
<text baseline-shift="-100%" cb-classname="GraphicTextEntity" class="algorithm" id="23ni" text-anchor="start" x="650" y="955">
database (01T12G01-LLK)
</text>
</g>
</g>
<g cb-alg-7qj="$1790$cb-alg-out$" cb-algorithm-id="011" cb-classname="FastBooleanAlgorithm" cb-function-name="NOT" cb-modify-id="00000003" id="1BFj">
<rect cb-classname="GraphicRectangleEntity" class="algorithm" height="40" id="1BFh" width="40" x="2420" y="900"/>
<g cb-classname="ControlPin" cb-pin-name="mh-9gO-Dbg" id="1BFr">
<line cb-classname="GraphicLineEntity" class="signalline" id="1Bw0" x1="2400" x2="2420" y1="920" y2="920"/>
<polygon cb-classname="GraphicPolygonEntity" class="signal" id="1Bws" points="2420,920 2409,914 2409,925"/>
<g cb-classname="DynamicText" cb-source="gz-Olz-kfRE" class="signal" id="1Bw2" text-anchor="end">
<text cb-classname="GraphicTextEntity" class="signal" fill="black" font-style="normal" font-weight="normal" id="1Bwi" text-anchor="end" text-decoration="normal" x="2405" y="917"/>
</g>
</g>
<g cb-classname="ControlPin" cb-pin-name="3k-6xs-Vuz" id="1BwY">
<line cb-classname="GraphicLineEntity" class="signalline" id="1BwT" x1="2460" x2="2480" y1="920" y2="920"/>
<g cb-classname="DynamicText" cb-source="rq-R7q-Hgce" class="signal" id="1Bwf" text-anchor="start">
<text cb-classname="GraphicTextEntity" class="signal" fill="black" font-style="normal" font-weight="normal" id="1Bwj" text-anchor="start" text-decoration="normal" x="2474" y="917"/>
</g>
<g cb-classname="SignalSegment" id="1Brf">
<g cb-classname="SignalConnection" cb-graphic-line="$1839$" cb-input-pin="$mzc$" id="1B40"/>
<line cb-classname="GraphicLineEntity" class="signalline" id="1Brr" stroke="#1e12bf" stroke-dasharray="5,4" x1="2480" x2="2970" y1="920" y2="920"/>
</g>
</g>
<line cb-classname="GraphicLineEntity" class="algorithm" id="1Bwh" x1="2430" x2="2430" y1="910" y2="930"/>
<line cb-classname="GraphicLineEntity" class="algorithm" id="1Bwr" x1="2430" x2="2450" y1="910" y2="930"/>
<line cb-classname="GraphicLineEntity" class="algorithm" id="1Br0" x1="2450" x2="2450" y1="930" y2="910"/>
</g>
<g cb-alg-6NC="01T1200D10A-STS" cb-alg-7mb="$335$cb-alg-out$" cb-alg-7md="$335$cb-alg-out$" cb-alg-Cn="01T1200D10A-LB" cb-alg-DZ="$173$cb-alg-out$" cb-alg-DfN="$335$cb-alg-out$" cb-alg-Dff="01T1200D10A-ALM" cb-alg-Do="$143$cb-alg-out$" cb-alg-TJ="01T1200D10A-TR" cb-alg-VDzDx="$1378$cb-alg-out$" cb-alg-eZ="$66$cb-alg-clos$" cb-alg-ec="$1817$cb-alg-out$" cb-alg-ecN="$66$cb-alg-pk5$" cb-alg-eeP="$1790$cb-alg-out$" cb-alg-efN="$66$cb-alg-pk1$" cb-alg-efO="$66$cb-alg-pk2$" cb-alg-eo="$66$cb-alg-open$" cb-alg-fmb="$207$cb-alg-out$" cb-alg-fmd="$356$cb-alg-out$" cb-alg-sfzDx="$1389$cb-alg-out$" cb-alg-zDb="$301$cb-alg-out$" cb-alg-zDd="$267$cb-alg-out$" cb-alg-zph="$335$cb-alg-out$" cb-algorithm-id="001" cb-classname="ControlMacroReference" cb-function-name="PCMS1" cb-macro-crc="30660" cb-modify-id="00000001" id="3Jb">
<rect cb-classname="GraphicRectangleEntity" class="annotation" height="1850" id="3JC" width="750" x="3000" y="570"/>
<g cb-classname="ControlPin" cb-pin-name="cT-J7i-Eo" id="3JO">
<line cb-classname="GraphicLineEntity" class="signalline" id="3Jn" x1="2970" x2="3000" y1="620" y2="620"/>
<polygon cb-classname="GraphicPolygonEntity" class="signal" id="3JU" points="3000,620 2989,614 2989,625"/>
<g cb-classname="DynamicText" cb-source="9E-jpE-tDCk" class="signal" id="3BG" text-anchor="end">
<text cb-classname="GraphicTextEntity" class="signal" fill="black" font-style="normal" font-weight="normal" id="3BF" text-anchor="end" text-decoration="normal" x="2985" y="617"/>
</g>
</g>
<g cb-classname="ControlPin" cb-pin-name="Ut-R6m-Hb" id="3Bw">
<line cb-classname="GraphicLineEntity" class="signalline" id="3Br" x1="2970" x2="3000" y1="660" y2="660"/>
<polygon cb-classname="GraphicPolygonEntity" class="signal" id="3B4" points="3000,660 2989,654 2989,665"/>
<g cb-classname="DynamicText" cb-source="1H-fOH-B3g8" class="signal" id="3Bb" text-anchor="end">
<text cb-classname="GraphicTextEntity" class="signal" fill="black" font-style="normal" font-weight="normal" id="3BC" text-anchor="end" text-decoration="normal" x="2985" y="657"/>
</g>
</g>
<g cb-classname="ControlPin" cb-pin-name="FB-Pc7-5r" id="3BO">
<line cb-classname="GraphicLineEntity" class="signalline" id="3Bn" x1="2970" x2="3000" y1="920" y2="920"/>
<polygon cb-classname="GraphicPolygonEntity" class="signal" id="3BU" points="3000,920 2989,914 2989,925"/>
<g cb-classname="DynamicText" cb-source="cT-7sT-zRxN" class="signal" id="33G" text-anchor="end">
<text cb-classname="GraphicTextEntity" class="signal" fill="black" font-style="normal" font-weight="normal" id="33F" text-anchor="end" text-decoration="normal" x="2985" y="917"/>
</g>
</g>
<g cb-classname="ControlPin" cb-pin-name="gz-jOM-ttD" id="33w">
<line cb-classname="GraphicLineEntity" class="signalline" id="33r" x1="2970" x2="3000" y1="960" y2="960"/>
<polygon cb-classname="GraphicPolygonEntity" class="signal" id="334" points="3000,960 2989,954 2989,965"/>
<g cb-classname="DynamicText" cb-source="Ut-6Xt-ePDq" class="signal" id="33b" text-anchor="end">
<text cb-classname="GraphicTextEntity" class="signal" fill="black" font-style="normal" font-weight="normal" id="33C" text-anchor="end" text-decoration="normal" x="2985" y="957"/>
</g>
</g>
<g cb-classname="ControlPin" cb-pin-name="ie-fCp-BPk" id="33O">
<line cb-classname="GraphicLineEntity" class="signalline" id="33n" x1="2970" x2="3000" y1="780" y2="780"/>
<polygon cb-classname="GraphicPolygonEntity" class="signal" id="33U" points="3000,780 2989,774 2989,785"/>
<g cb-classname="DynamicText" cb-source="FB-cxB-hr3n" class="signal" id="4IG" text-anchor="end">
<text cb-classname="GraphicTextEntity" class="signal" fill="black" font-style="normal" font-weight="normal" id="4IF" text-anchor="end" text-decoration="normal" x="2985" y="777"/>
</g>
</g>
<g cb-classname="ControlPin" cb-pin-name="mh-9gO-brc" id="4Iw">
<line cb-classname="GraphicLineEntity" class="signalline" id="4Ir" x1="2970" x2="3000" y1="820" y2="820"/>
<polygon cb-classname="GraphicPolygonEntity" class="signal" id="4I4" points="3000,820 2989,814 2989,825"/>
<g cb-classname="DynamicText" cb-source="gz-Olz-kfRE" class="signal" id="4Ib" text-anchor="end">
<text cb-classname="GraphicTextEntity" class="signal" fill="black" font-style="normal" font-weight="normal" id="4IC" text-anchor="end" text-decoration="normal" x="2985" y="817"/>
</g>
</g>
<g cb-classname="ControlPin" cb-pin-name="3k-6xs-Do" id="4IO">
<line cb-classname="GraphicLineEntity" class="signalline" id="4In" x1="2970" x2="3000" y1="1140" y2="1140"/>
<polygon cb-classname="GraphicPolygonEntity" class="signal" id="4IU" points="3000,1140 2989,1134 2989,1145"/>
<g cb-classname="DynamicText" cb-source="ie-CJe-89PH" class="signal" id="4MG" text-anchor="end">
<text cb-classname="GraphicTextEntity" class="signal" fill="black" font-style="normal" font-weight="normal" id="4MF" text-anchor="end" text-decoration="normal" x="2985" y="1137"/>
</g>
</g>
<g cb-classname="ControlPin" cb-pin-name="M8-cDX-39q" id="4Mw">
<line cb-classname="GraphicLineEntity" class="signalline" id="4Mr" x1="2970" x2="3000" y1="1180" y2="1180"/>
<polygon cb-classname="GraphicPolygonEntity" class="signal" id="4M4" points="3000,1180 2989,1174 2989,1185"/>
<g cb-classname="DynamicText" cb-source="mh-gRh-Z1r5" class="signal" id="4Mb" text-anchor="end">
<text cb-classname="GraphicTextEntity" class="signal" fill="black" font-style="normal" font-weight="normal" id="4MC" text-anchor="end" text-decoration="normal" x="2985" y="1177"/>
</g>
</g>
<g cb-classname="ControlPin" cb-pin-name="PN-OJ1-Rn" id="4MO">
<line cb-classname="GraphicLineEntity" class="signalline" id="4Mn" x1="2970" x2="3000" y1="1230" y2="1230"/>
<polygon cb-classname="GraphicPolygonEntity" class="signal" id="4MU" points="3000,1230 2989,1224 2989,1235"/>
<g cb-classname="DynamicText" cb-source="3k-xak-qcft" class="signal" id="4QG" text-anchor="end">
<text cb-classname="GraphicTextEntity" class="signal" fill="black" font-style="normal" font-weight="normal" id="4QF" text-anchor="end" text-decoration="normal" x="2985" y="1227"/>
</g>
</g>
<g cb-classname="ControlPin" cb-pin-name="rq-CRl-OpV" id="4Qw">
<line cb-classname="GraphicLineEntity" class="signalline" id="4Qr" x1="2970" x2="3000" y1="1400" y2="1400"/>
<polygon cb-classname="GraphicPolygonEntity" class="signal" id="4Q4" points="3000,1400 2989,1394 2989,1405"/>
<g cb-classname="DynamicText" cb-source="M8-Dj8-nU9B" class="signal" id="4Qb" text-anchor="end">
<text cb-classname="GraphicTextEntity" class="signal" fill="black" font-style="normal" font-weight="normal" id="4QC" text-anchor="end" text-decoration="normal" x="2985" y="1397"/>
</g>
</g>
<g cb-classname="ControlPin" cb-pin-name="sn-gPJ-COq" id="4QO">
<line cb-classname="GraphicLineEntity" class="signalline" id="4Qn" x1="2970" x2="3000" y1="1450" y2="1450"/>
<polygon cb-classname="GraphicPolygonEntity" class="signal" id="4QU" points="3000,1450 2989,1444 2989,1455"/>
<g cb-classname="DynamicText" cb-source="PN-JmN-EC6z" class="signal" id="4UG" text-anchor="end">
<text cb-classname="GraphicTextEntity" class="signal" fill="black" font-style="normal" font-weight="normal" id="4UF" text-anchor="end" text-decoration="normal" x="2985" y="1447"/>
</g>
</g>
<g cb-classname="ControlPin" cb-pin-name="9E-xjF-Cso" id="4Uw">
<line cb-classname="GraphicLineEntity" class="signalline" id="4Ur" x1="2970" x2="3000" y1="1610" y2="1610"/>
<polygon cb-classname="GraphicPolygonEntity" class="signal" id="4U4" points="3000,1610 2989,1604 2989,1615"/>
<g cb-classname="DynamicText" cb-source="rq-R7q-Hgce" class="signal" id="4Ub" text-anchor="end">
<text cb-classname="GraphicTextEntity" class="signal" fill="black" font-style="normal" font-weight="normal" id="4UC" text-anchor="end" text-decoration="normal" x="2985" y="1607"/>
</g>
</g>
<g cb-classname="ControlPin" cb-pin-name="1H-Dfa-gXE" id="4UO">
<line cb-classname="GraphicLineEntity" class="signalline" id="4Un" x1="2970" x2="3000" y1="1690" y2="1690"/>
<polygon cb-classname="GraphicPolygonEntity" class="signal" id="4UU" points="3000,1690 2989,1684 2989,1695"/>
<g cb-classname="DynamicText" cb-source="sn-P6n-5iUh" class="signal" id="4YG" text-anchor="end">
<text cb-classname="GraphicTextEntity" class="signal" fill="black" font-style="normal" font-weight="normal" id="4YF" text-anchor="end" text-decoration="normal" x="2985" y="1687"/>
</g>
</g>
<g cb-classname="ControlPin" cb-pin-name="cT-J7i-ZFH" id="4Yw">
<line cb-classname="GraphicLineEntity" class="signalline" id="4Yr" x1="2970" x2="3000" y1="1950" y2="1950"/>
<polygon cb-classname="GraphicPolygonEntity" class="signal" id="4Y4" points="3000,1950 2989,1944 2989,1955"/>
<g cb-classname="DynamicText" cb-source="9E-jpE-tDCk" class="signal" id="4Yb" text-anchor="end">
<text cb-classname="GraphicTextEntity" class="signal" fill="black" font-style="normal" font-weight="normal" id="4YC" text-anchor="end" text-decoration="normal" x="2985" y="1947"/>
</g>
</g>
<g cb-classname="ControlPin" cb-pin-name="Ut-R6m-EcL" id="4YO">
<line cb-classname="GraphicLineEntity" class="signalline" id="4Yn" x1="2980" x2="3000" y1="1990" y2="1990"/>
<polygon cb-classname="GraphicPolygonEntity" class="signal" id="4YU" points="3000,1990 2989,1984 2989,1995"/>
<g cb-classname="DynamicText" cb-source="1H-fOH-B3g8" class="signal" id="4ZG" text-anchor="end">
<text cb-classname="GraphicTextEntity" class="signal" fill="black" font-style="normal" font-weight="normal" id="4ZF" text-anchor="end" text-decoration="normal" x="2985" y="1987"/>
</g>
</g>
<g cb-classname="ControlPin" cb-pin-name="FB-Pc7-HUt" id="4Zw">
<line cb-classname="GraphicLineEntity" class="signalline" id="4Zr" x1="2960" x2="3000" y1="2030" y2="2030"/>
<polygon cb-classname="GraphicPolygonEntity" class="signal" id="4Z4" points="3000,2030 2989,2024 2989,2035"/>
<g cb-classname="DynamicText" cb-source="cT-7sT-zRxN" class="signal" id="4Zb" text-anchor="end">
<text cb-classname="GraphicTextEntity" class="signal" fill="black" font-style="normal" font-weight="normal" id="4ZC" text-anchor="end" text-decoration="normal" x="2985" y="2027"/>
</g>
</g>
<g cb-classname="ControlPin" cb-pin-name="gz-jOM-jb6" id="4ZO">
<line cb-classname="GraphicLineEntity" class="signalline" id="4Zn" x1="3750" x2="3790" y1="1290" y2="1290"/>
<g cb-classname="DynamicText" cb-source="3k-xak-qcft" class="signal" id="4ZU" text-anchor="start">
<text cb-classname="GraphicTextEntity" class="signal" fill="black" font-style="normal" font-weight="normal" id="4RG" text-anchor="start" text-decoration="normal" x="3764" y="1287"/>
</g>
<g cb-classname="SignalSegment" id="4RF">
<line cb-classname="GraphicLineEntity" class="signalline" id="4Rw" x1="3790" x2="4790" y1="1290" y2="1290"/>
<g cb-classname="SignalConnection" cb-graphic-line="$462$" cb-input-pin="$Yla$" id="4Rr"/>
</g>
</g>
<g cb-classname="ControlPin" cb-pin-name="M8-cDX-399" id="4R4">
<line cb-classname="GraphicLineEntity" class="signalline" id="4Rb" x1="3750" x2="3780" y1="1560" y2="1560"/>
<g cb-classname="DynamicText" cb-source="sn-P6n-5iUh" class="signal" id="4RC" text-anchor="start">
<text cb-classname="GraphicTextEntity" class="signal" fill="black" font-style="normal" font-weight="normal" id="4RO" text-anchor="start" text-decoration="normal" x="3764" y="1557"/>
</g>
<g cb-classname="SignalSegment" id="4Rn">
<line cb-classname="GraphicLineEntity" class="signalline" id="4RU" x1="3780" x2="4790" y1="1560" y2="1560"/>
<g cb-classname="SignalConnection" cb-graphic-line="$469$" cb-input-pin="$TQw$" id="4JG"/>
</g>
</g>
<g cb-classname="ControlPin" cb-pin-name="9E-xjF-RB" id="4JF">
<line cb-classname="GraphicLineEntity" class="signalline" id="4Jw" x1="3750" x2="3770" y1="1880" y2="1880"/>
<g cb-classname="DynamicText" cb-source="Ut-6Xt-ePDq" class="signal" id="4Jr" text-anchor="start">
<text cb-classname="GraphicTextEntity" class="signal" fill="black" font-style="normal" font-weight="normal" id="4J4" text-anchor="start" text-decoration="normal" x="3764" y="1877"/>
</g>
<g cb-classname="SignalSegment" id="4Jb">
<line cb-classname="GraphicLineEntity" class="signalline" id="4JC" stroke="#1e12bf" stroke-dasharray="5,4" x1="3770" x2="4790" y1="1880" y2="1880"/>
<g cb-classname="SignalConnection" cb-graphic-line="$476$" cb-input-pin="$eHj$" id="4JO"/>
</g>
</g>
<g cb-classname="ControlPin" cb-pin-name="FB-Pc7-qC" id="4Jn">
<line cb-classname="GraphicLineEntity" class="signalline" id="4JU" x1="3750" x2="3770" y1="1940" y2="1940"/>
<g cb-classname="DynamicText" cb-source="mh-gRh-Z1r5" class="signal" id="4BG" text-anchor="start">
<text cb-classname="GraphicTextEntity" class="signal" fill="black" font-style="normal" font-weight="normal" id="4BF" text-anchor="start" text-decoration="normal" x="3764" y="1937"/>
</g>
<g cb-classname="SignalSegment" id="4Bw">
<line cb-classname="GraphicLineEntity" class="signalline" id="4Br" stroke="#1e12bf" stroke-dasharray="5,4" x1="3770" x2="4440" y1="1940" y2="1940"/>
<g cb-classname="SignalSegment" id="4B4">
<line cb-classname="GraphicLineEntity" class="signalline" id="4Bb" stroke="#1e12bf" stroke-dasharray="5,4" x1="4440" x2="4440" y1="1940" y2="2070"/>
<g cb-classname="SignalSegment" id="4BC">
<line cb-classname="GraphicLineEntity" class="signalline" id="4BO" stroke="#1e12bf" stroke-dasharray="5,4" x1="4440" x2="4790" y1="2070" y2="2070"/>
<g cb-classname="SignalConnection" cb-graphic-line="$487$" cb-input-pin="$tzI$" id="4Bn"/>
</g>
</g>
</g>
</g>
<g cb-classname="ControlPin" cb-pin-name="1H-Dfa-V9q9f" id="1UUr">
<line cb-classname="GraphicLineEntity" class="signalline" id="1YG0" x1="2980" x2="3000" y1="2320" y2="2320"/>
<polygon cb-classname="GraphicPolygonEntity" class="signal" id="1YGs" points="3000,2320 2989,2314 2989,2325"/>
<g cb-classname="DynamicText" cb-source="sn-P6n-5iUh" class="signal" id="1YG2" text-anchor="end">
<text cb-classname="GraphicTextEntity" class="signal" fill="black" font-style="normal" font-weight="normal" id="1YGi" text-anchor="end" text-decoration="normal" transform="translate(2985,2317)rotate(360)"/>
</g>
</g>
<g cb-classname="ControlPin" cb-pin-name="PN-OJ1-16bRJ" id="1YGT">
<line cb-classname="GraphicLineEntity" class="signalline" id="1YGf" x1="2980" x2="3000" y1="2370" y2="2370"/>
<polygon cb-classname="GraphicPolygonEntity" class="signal" id="1YGj" points="3000,2370 2989,2364 2989,2375"/>
<g cb-classname="DynamicText" cb-source="3k-xak-qcft" class="signal" id="1YGh" text-anchor="end">
<text cb-classname="GraphicTextEntity" class="signal" fill="black" font-style="normal" font-weight="normal" id="1YGr" text-anchor="end" text-decoration="normal" transform="translate(2985,2367)rotate(360)"/>
</g>
</g>
<g cb-classname="ControlPin" cb-pin-name="FB-Pc7-5re" id="1R4h">
<line cb-classname="GraphicLineEntity" class="signalline" id="1R4r" x1="2960" x2="3000" y1="860" y2="860"/>
<polygon cb-classname="GraphicPolygonEntity" class="signal" id="1Rb0" points="3000,860 2989,854 2989,865"/>
<g cb-classname="DynamicText" cb-source="cT-7sT-zRxN" class="signal" id="1Rbs" text-anchor="end">
<text cb-classname="GraphicTextEntity" class="signal" fill="black" font-style="normal" font-weight="normal" id="1Rb2" text-anchor="end" text-decoration="normal" x="2985" y="857"/>
</g>
</g>
</g>
<g cb-alg-ak="$375$cb-alg-sts$" cb-algorithm-id="00b" cb-classname="ExternalPointInterface" cb-function-name="OUTPUT" id="4BU">
<ellipse cb-classname="GraphicEllipseEntity" class="algorithm" cx="4870" cy="1290" id="43G" rx="50" ry="50"/>
<rect cb-classname="GraphicRectangleEntity" class="algorithm" height="100" id="43F" width="40" x="4920" y="1240"/>
<line cb-classname="GraphicLineEntity" class="algorithm" id="43w" x1="4920" x2="4960" y1="1290" y2="1290"/>
<g cb-classname="ControlPin" cb-pin-name="mh-9gO-Db" id="43r">
<line cb-classname="GraphicLineEntity" class="signalline" id="434" x1="4790" x2="4820" y1="1290" y2="1290"/>
<polygon cb-classname="GraphicPolygonEntity" class="signal" id="43b" points="4820,1290 4809,1284 4809,1295"/>
<g cb-classname="DynamicText" cb-source="gz-Olz-kfRE" class="signal" id="43C" text-anchor="end">
<text cb-classname="GraphicTextEntity" class="signal" fill="black" font-style="normal" font-weight="normal" id="43O" text-anchor="end" text-decoration="normal" x="4805" y="1287"/>
</g>
</g>
<g cb-classname="PointStatusIndicator" cb-indicator-type="highway" cb-source="3k-6xs-Je" id="43n" visibility="hidden">
<line cb-classname="GraphicLineEntity" class="algorithmline" id="43U" x1="4820" x2="4870" y1="1290" y2="1240"/>
<line cb-classname="GraphicLineEntity" class="algorithmline" id="5IG" x1="4870" x2="4920" y1="1240" y2="1290"/>
<line cb-classname="GraphicLineEntity" class="algorithmline" id="5IF" x1="4920" x2="4870" y1="1290" y2="1340"/>
<line cb-classname="GraphicLineEntity" class="algorithmline" id="5Iw" x1="4870" x2="4820" y1="1340" y2="1290"/>
</g>
<g cb-classname="PointStatusIndicator" cb-indicator-type="hardware" cb-source="M8-cDX-Rh" id="5Ir" visibility="hidden">
<line cb-classname="GraphicLineEntity" class="algorithmline" id="5I4" x1="4920" x2="4820" y1="1240" y2="1240"/>
<line cb-classname="GraphicLineEntity" class="algorithmline" id="5Ib" x1="4820" x2="4820" y1="1240" y2="1340"/>
<line cb-classname="GraphicLineEntity" class="algorithmline" id="5IC" x1="4820" x2="4920" y1="1340" y2="1340"/>
</g>
<g cb-classname="PointStatusIndicator" cb-indicator-type="alarm" cb-source="cT-J7i-pE" id="5IO" visibility="hidden">
<text cb-classname="GraphicTextEntity" class="algorithm" fill="#000000" font-family="Arial" font-size="20" id="5In" x="4930" y="1325">
A
</text>
</g>
<g cb-classname="PointStatusIndicator" cb-indicator-type="ingraphic" cb-source="gz-jOM-Xt" id="5IU" visibility="visible">
<text cb-classname="GraphicTextEntity" class="algorithm" fill="#000000" font-family="Arial" font-size="20" id="5MG" x="4930" y="1275">
G
</text>
</g>
<g cb-classname="DynamicText" cb-labeled="false" cb-pin-name="Gq" cb-source="3k-6xs-Je" class="algorithm" id="5MF" text-anchor="end">
<text baseline-shift="0%" cb-classname="GraphicTextEntity" class="algorithm" fill="black" font-family="arial" font-size="20" font-style="normal" font-weight="normal" id="5Mw" text-anchor="end" text-decoration="normal" x="4795" y="1265"/>
</g>
<g baseline-shift="-100%" cb-anchor-x="4795" cb-anchor-y="1300" cb-classname="PointReferences" cb-max-width="130" cb-originator="false" cb-source="rq-CRl-j8" class="signal" id="5Mr" text-anchor="end">
<text baseline-shift="-100%" cb-classname="GraphicTextEntity" class="algorithm" id="5M4" text-anchor="end" x="4795" y="1300">
REF: Point not
</text>
<text baseline-shift="-100%" cb-classname="GraphicTextEntity" class="algorithm" id="23nT" text-anchor="end" x="4795" y="1325">
found in
</text>
<text baseline-shift="-100%" cb-classname="GraphicTextEntity" class="algorithm" id="23nf" text-anchor="end" x="4795" y="1350">
database
</text>
<text baseline-shift="-100%" cb-classname="GraphicTextEntity" class="algorithm" id="23nj" text-anchor="end" x="4795" y="1375">
(01T1200D10A-STS)
</text>
</g>
<g baseline-shift="-50%" cb-anchor-x="4975" cb-anchor-y="1305" cb-classname="PointDescription" cb-content="extended" cb-labeled="false" cb-max-width="240" cb-source="M8-cDX-Rh" class="algorithm" id="5MC" text-anchor="start">
<text baseline-shift="-50%" cb-classname="GraphicTextEntity" class="algorithm" id="5MO" text-anchor="start" x="4975" y="1280">
DESC: Point not found in
</text>
<text baseline-shift="-50%" cb-classname="GraphicTextEntity" class="algorithm" id="134Y" text-anchor="start" x="4975" y="1305">
database
</text>
<text baseline-shift="-50%" cb-classname="GraphicTextEntity" class="algorithm" id="23nh" text-anchor="start" x="4975" y="1330">
(01T1200D10A-STS)
</text>
</g>
</g>
<g cb-alg-Je="$375$cb-alg-alm$" cb-algorithm-id="00c" cb-classname="ExternalPointInterface" cb-function-name="OUTPUT" id="5Mn">
<ellipse cb-classname="GraphicEllipseEntity" class="algorithm" cx="4870" cy="1560" id="5MU" rx="50" ry="50"/>
<rect cb-classname="GraphicRectangleEntity" class="algorithm" height="100" id="5QG" width="40" x="4920" y="1510"/>
<line cb-classname="GraphicLineEntity" class="algorithm" id="5QF" x1="4920" x2="4960" y1="1560" y2="1560"/>
<g cb-classname="ControlPin" cb-pin-name="gz-jOM-Xt" id="5Qw">
<line cb-classname="GraphicLineEntity" class="signalline" id="5Qr" x1="4790" x2="4820" y1="1560" y2="1560"/>
<polygon cb-classname="GraphicPolygonEntity" class="signal" id="5Q4" points="4820,1560 4809,1554 4809,1565"/>
<g cb-classname="DynamicText" cb-source="Ut-6Xt-ePDq" class="signal" id="5Qb" text-anchor="end">
<text cb-classname="GraphicTextEntity" class="signal" fill="black" font-style="normal" font-weight="normal" id="5QC" text-anchor="end" text-decoration="normal" x="4805" y="1557"/>
</g>
</g>
<g cb-classname="PointStatusIndicator" cb-indicator-type="highway" cb-source="ie-fCp-xB" id="5QO" visibility="hidden">
<line cb-classname="GraphicLineEntity" class="algorithmline" id="5Qn" x1="4820" x2="4870" y1="1560" y2="1510"/>
<line cb-classname="GraphicLineEntity" class="algorithmline" id="5QU" x1="4870" x2="4920" y1="1510" y2="1560"/>
<line cb-classname="GraphicLineEntity" class="algorithmline" id="5UG" x1="4920" x2="4870" y1="1560" y2="1610"/>
<line cb-classname="GraphicLineEntity" class="algorithmline" id="5UF" x1="4870" x2="4820" y1="1610" y2="1560"/>
</g>
<g cb-classname="PointStatusIndicator" cb-indicator-type="hardware" cb-source="mh-9gO-Db" id="5Uw" visibility="hidden">
<line cb-classname="GraphicLineEntity" class="algorithmline" id="5Ur" x1="4920" x2="4820" y1="1510" y2="1510"/>
<line cb-classname="GraphicLineEntity" class="algorithmline" id="5U4" x1="4820" x2="4820" y1="1510" y2="1610"/>
<line cb-classname="GraphicLineEntity" class="algorithmline" id="5Ub" x1="4820" x2="4920" y1="1610" y2="1610"/>
</g>
<g cb-classname="PointStatusIndicator" cb-indicator-type="alarm" cb-source="9E-xjF-7q" id="5UC" visibility="hidden">
<text cb-classname="GraphicTextEntity" class="algorithm" fill="#000000" font-family="Arial" font-size="20" id="5UO" x="4930" y="1595">
A
</text>
</g>
<g cb-classname="PointStatusIndicator" cb-indicator-type="ingraphic" cb-source="Ut-R6m-OH" id="5Un" visibility="visible">
<text cb-classname="GraphicTextEntity" class="algorithm" fill="#000000" font-family="Arial" font-size="20" id="5UU" x="4930" y="1545">
G
</text>
</g>
<g cb-classname="DynamicText" cb-labeled="false" cb-pin-name="G8" cb-source="ie-fCp-xB" class="algorithm" id="5YG" text-anchor="end">
<text baseline-shift="0%" cb-classname="GraphicTextEntity" class="algorithm" fill="black" font-family="arial" font-size="20" font-style="normal" font-weight="normal" id="5YF" text-anchor="end" text-decoration="normal" x="4795" y="1535"/>
</g>
<g baseline-shift="-100%" cb-anchor-x="4795" cb-anchor-y="1570" cb-classname="PointReferences" cb-max-width="130" cb-originator="false" cb-source="M8-cDX-Rh" class="signal" id="5Yw" text-anchor="end">
<text baseline-shift="-100%" cb-classname="GraphicTextEntity" class="algorithm" id="5Yr" text-anchor="end" x="4795" y="1570">
REF: Point not
</text>
<text baseline-shift="-100%" cb-classname="GraphicTextEntity" class="algorithm" id="23nr" text-anchor="end" x="4795" y="1595">
found in
</text>
<text baseline-shift="-100%" cb-classname="GraphicTextEntity" class="algorithm" id="23U0" text-anchor="end" x="4795" y="1620">
database
</text>
<text baseline-shift="-100%" cb-classname="GraphicTextEntity" class="algorithm" id="23Us" text-anchor="end" x="4795" y="1645">
(01T1200D10A-ALM)
</text>
</g>
<g baseline-shift="-50%" cb-anchor-x="4975" cb-anchor-y="1575" cb-classname="PointDescription" cb-content="extended" cb-labeled="false" cb-max-width="240" cb-source="mh-9gO-Db" class="algorithm" id="5Yb" text-anchor="start">
<text baseline-shift="-50%" cb-classname="GraphicTextEntity" class="algorithm" id="5YC" text-anchor="start" x="4975" y="1550">
DESC: Point not found in
</text>
<text baseline-shift="-50%" cb-classname="GraphicTextEntity" class="algorithm" id="134T" text-anchor="start" x="4975" y="1575">
database
</text>
<text baseline-shift="-50%" cb-classname="GraphicTextEntity" class="algorithm" id="23U2" text-anchor="start" x="4975" y="1600">
(01T1200D10A-ALM)
</text>
</g>
</g>
<g cb-alg-15="$375$cb-alg-lb$" cb-algorithm-id="00d" cb-classname="ExternalPointInterface" cb-function-name="OUTPUT" id="5YO">
<ellipse cb-classname="GraphicEllipseEntity" class="algorithm" cx="4870" cy="1880" id="5Yn" rx="50" ry="50"/>
<rect cb-classname="GraphicRectangleEntity" class="algorithm" height="100" id="5YU" width="40" x="4920" y="1830"/>
<line cb-classname="GraphicLineEntity" class="algorithm" id="5ZG" x1="4920" x2="4960" y1="1880" y2="1880"/>
<g cb-classname="ControlPin" cb-pin-name="Ut-R6m-OH" id="5ZF">
<line cb-classname="GraphicLineEntity" class="signalline" id="5Zw" x1="4790" x2="4820" y1="1880" y2="1880"/>
<polygon cb-classname="GraphicPolygonEntity" class="signal" id="5Zr" points="4820,1880 4809,1874 4809,1885"/>
<g cb-classname="DynamicText" cb-source="1H-fOH-B3g8" class="signal" id="5Z4" text-anchor="end">
<text cb-classname="GraphicTextEntity" class="signal" fill="black" font-style="normal" font-weight="normal" id="5Zb" text-anchor="end" text-decoration="normal" x="4805" y="1877"/>
</g>
</g>
<g cb-classname="PointStatusIndicator" cb-indicator-type="highway" cb-source="FB-Pc7-C5" id="5ZC" visibility="hidden">
<line cb-classname="GraphicLineEntity" class="algorithmline" id="5ZO" x1="4820" x2="4870" y1="1880" y2="1830"/>
<line cb-classname="GraphicLineEntity" class="algorithmline" id="5Zn" x1="4870" x2="4920" y1="1830" y2="1880"/>
<line cb-classname="GraphicLineEntity" class="algorithmline" id="5ZU" x1="4920" x2="4870" y1="1880" y2="1930"/>
<line cb-classname="GraphicLineEntity" class="algorithmline" id="5RG" x1="4870" x2="4820" y1="1930" y2="1880"/>
</g>
<g cb-classname="PointStatusIndicator" cb-indicator-type="hardware" cb-source="gz-jOM-Xt" id="5RF" visibility="hidden">
<line cb-classname="GraphicLineEntity" class="algorithmline" id="5Rw" x1="4920" x2="4820" y1="1830" y2="1830"/>
<line cb-classname="GraphicLineEntity" class="algorithmline" id="5Rr" x1="4820" x2="4820" y1="1830" y2="1930"/>
<line cb-classname="GraphicLineEntity" class="algorithmline" id="5R4" x1="4820" x2="4920" y1="1930" y2="1930"/>
</g>
<g cb-classname="PointStatusIndicator" cb-indicator-type="alarm" cb-source="rq-CRl-j8" id="5Rb" visibility="hidden">
<text cb-classname="GraphicTextEntity" class="algorithm" fill="#000000" font-family="Arial" font-size="20" id="5RC" x="4930" y="1915">
A
</text>
</g>
<g cb-classname="PointStatusIndicator" cb-indicator-type="ingraphic" cb-source="1H-Dfa-6n" id="5RO" visibility="hidden">
<text cb-classname="GraphicTextEntity" class="algorithm" fill="#000000" font-family="Arial" font-size="20" id="5Rn" x="4930" y="1865">
G
</text>
</g>
<g cb-classname="DynamicText" cb-labeled="false" cb-pin-name="Gh" cb-source="FB-Pc7-C5" class="algorithm" id="5RU" text-anchor="end">
<text baseline-shift="0%" cb-classname="GraphicTextEntity" class="algorithm" fill="black" font-family="arial" font-size="20" font-style="normal" font-weight="normal" id="5JG" text-anchor="end" text-decoration="normal" x="4795" y="1855"/>
</g>
<g baseline-shift="-100%" cb-anchor-x="4795" cb-anchor-y="1890" cb-classname="PointReferences" cb-max-width="130" cb-originator="false" cb-source="mh-9gO-Db" class="signal" id="5JF" text-anchor="end">
<text baseline-shift="-100%" cb-classname="GraphicTextEntity" class="algorithm" id="5Jw" text-anchor="end" x="4795" y="1890">
REF: Point not
</text>
<text baseline-shift="-100%" cb-classname="GraphicTextEntity" class="algorithm" id="23Ui" text-anchor="end" x="4795" y="1915">
found in
</text>
<text baseline-shift="-100%" cb-classname="GraphicTextEntity" class="algorithm" id="23UY" text-anchor="end" x="4795" y="1940">
database
</text>
<text baseline-shift="-100%" cb-classname="GraphicTextEntity" class="algorithm" id="23UT" text-anchor="end" x="4795" y="1965">
(01T1200D10A-LB)
</text>
</g>
<g baseline-shift="-50%" cb-anchor-x="4975" cb-anchor-y="1895" cb-classname="PointDescription" cb-content="extended" cb-labeled="false" cb-max-width="240" cb-source="gz-jOM-Xt" class="algorithm" id="5J4" text-anchor="start">
<text baseline-shift="-50%" cb-classname="GraphicTextEntity" class="algorithm" id="5Jb" text-anchor="start" x="4975" y="1883">
DESC: Point not found in
</text>
<text baseline-shift="-50%" cb-classname="GraphicTextEntity" class="algorithm" id="13wY" text-anchor="start" x="4975" y="1908">
database (01T1200D10A-LB)
</text>
</g>
</g>
<g cb-alg-sT="$375$cb-alg-tr$" cb-algorithm-id="00e" cb-classname="ExternalPointInterface" cb-function-name="OUTPUT" id="5JC">
<ellipse cb-classname="GraphicEllipseEntity" class="algorithm" cx="4870" cy="2070" id="5JO" rx="50" ry="50"/>
<rect cb-classname="GraphicRectangleEntity" class="algorithm" height="100" id="5Jn" width="40" x="4920" y="2020"/>
<line cb-classname="GraphicLineEntity" class="algorithm" id="5JU" x1="4920" x2="4960" y1="2070" y2="2070"/>
<g cb-classname="ControlPin" cb-pin-name="1H-Dfa-6n" id="5BG">
<line cb-classname="GraphicLineEntity" class="signalline" id="5BF" x1="4790" x2="4820" y1="2070" y2="2070"/>
<polygon cb-classname="GraphicPolygonEntity" class="signal" id="5Bw" points="4820,2070 4809,2064 4809,2075"/>
<g cb-classname="DynamicText" cb-source="sn-P6n-5iUh" class="signal" id="5Br" text-anchor="end">
<text cb-classname="GraphicTextEntity" class="signal" fill="black" font-style="normal" font-weight="normal" id="5B4" text-anchor="end" text-decoration="normal" x="4805" y="2067"/>
</g>
</g>
<g cb-classname="PointStatusIndicator" cb-indicator-type="highway" cb-source="cT-J7i-pE" id="5Bb" visibility="hidden">
<line cb-classname="GraphicLineEntity" class="algorithmline" id="5BC" x1="4820" x2="4870" y1="2070" y2="2020"/>
<line cb-classname="GraphicLineEntity" class="algorithmline" id="5BO" x1="4870" x2="4920" y1="2020" y2="2070"/>
<line cb-classname="GraphicLineEntity" class="algorithmline" id="5Bn" x1="4920" x2="4870" y1="2070" y2="2120"/>
<line cb-classname="GraphicLineEntity" class="algorithmline" id="5BU" x1="4870" x2="4820" y1="2120" y2="2070"/>
</g>
<g cb-classname="PointStatusIndicator" cb-indicator-type="hardware" cb-source="Ut-R6m-OH" id="53G" visibility="hidden">
<line cb-classname="GraphicLineEntity" class="algorithmline" id="53F" x1="4920" x2="4820" y1="2020" y2="2020"/>
<line cb-classname="GraphicLineEntity" class="algorithmline" id="53w" x1="4820" x2="4820" y1="2020" y2="2120"/>
<line cb-classname="GraphicLineEntity" class="algorithmline" id="53r" x1="4820" x2="4920" y1="2120" y2="2120"/>
</g>
<g cb-classname="PointStatusIndicator" cb-indicator-type="alarm" cb-source="M8-cDX-Rh" id="534" visibility="visible">
<text cb-classname="GraphicTextEntity" class="algorithm" fill="#000000" font-family="Arial" font-size="20" id="53b" x="4930" y="2105">
A
</text>
</g>
<g cb-classname="PointStatusIndicator" cb-indicator-type="ingraphic" cb-source="sn-gPJ-fZ" id="53C" visibility="hidden">
<text cb-classname="GraphicTextEntity" class="algorithm" fill="#000000" font-family="Arial" font-size="20" id="53O" x="4930" y="2055">
G
</text>
</g>
<g cb-classname="DynamicText" cb-labeled="false" cb-pin-name="Iz" cb-source="cT-J7i-pE" class="algorithm" id="53n" text-anchor="end">
<text baseline-shift="0%" cb-classname="GraphicTextEntity" class="algorithm" fill="black" font-family="arial" font-size="20" font-style="normal" font-weight="normal" id="53U" text-anchor="end" text-decoration="normal" x="4795" y="2045"/>
</g>
<g baseline-shift="-100%" cb-anchor-x="4795" cb-anchor-y="2080" cb-classname="PointReferences" cb-max-width="130" cb-originator="false" cb-source="gz-jOM-Xt" class="signal" id="6IG" text-anchor="end">
<text baseline-shift="-100%" cb-classname="GraphicTextEntity" class="algorithm" id="6IF" text-anchor="end" x="4795" y="2080">
REF: Point not
</text>
<text baseline-shift="-100%" cb-classname="GraphicTextEntity" class="algorithm" id="23Uj" text-anchor="end" x="4795" y="2105">
found in
</text>
<text baseline-shift="-100%" cb-classname="GraphicTextEntity" class="algorithm" id="23Uh" text-anchor="end" x="4795" y="2130">
database
</text>
<text baseline-shift="-100%" cb-classname="GraphicTextEntity" class="algorithm" id="23Ur" text-anchor="end" x="4795" y="2155">
(01T1200D10A-TR)
</text>
</g>
<g baseline-shift="-50%" cb-anchor-x="4975" cb-anchor-y="2085" cb-classname="PointDescription" cb-content="extended" cb-labeled="false" cb-max-width="240" cb-source="Ut-R6m-OH" class="algorithm" id="6Ir" text-anchor="start">
<text baseline-shift="-50%" cb-classname="GraphicTextEntity" class="algorithm" id="6I4" text-anchor="start" x="4975" y="2073">
DESC: Point not found in
</text>
<text baseline-shift="-50%" cb-classname="GraphicTextEntity" class="algorithm" id="13wf" text-anchor="start" x="4975" y="2098">
database (01T1200D10A-TR)
</text>
</g>
</g>
</g>
<g cb-classname="IncludeDocument" cb-modify-time="09/25/2018 01:40:30" cb-objectname="Frame" id="5">
<text cb-classname="GraphicTextEntity" class="frame" font-size="50" id="3ICs" x="3660" y="3146">
Project Title &lt;Edit in FRAME.SVG&gt;
</text>
<g baseline-shift="-50%" cb-classname="DynamicText" cb-source="ie-V7oc-6d" class="frame" id="3IC2">
<text cb-classname="GraphicTextEntity" class="frame" fill="black" font-family="arial" font-size="25" font-style="normal" font-weight="normal" id="3ICi" text-decoration="normal" x="4715" y="3325">
14
</text>
</g>
<g baseline-shift="-50%" cb-classname="DynamicText" cb-source="M8-dOLg-CV" class="frame" id="3ICY" text-anchor="middle">
<text cb-classname="GraphicTextEntity" class="frame" fill="black" font-family="arial" font-size="48" font-style="normal" font-weight="normal" id="3ICT" text-anchor="middle" text-decoration="normal" x="4900" y="3320">
14
</text>
</g>
<g baseline-shift="-50%" cb-classname="DynamicText" cb-source="sn-E9ct-Dd" class="frame" id="3ICf" text-anchor="middle">
<text cb-classname="GraphicTextEntity" class="frame" fill="black" font-family="arial" font-size="48" font-style="normal" font-weight="normal" id="3ICj" text-anchor="middle" text-decoration="normal" x="5067" y="3324">
4
</text>
</g>
<g cb-classname="DynamicText" cb-source="cT-pTh5h-Z7Tfk" class="frame" id="3ICh">
<text cb-classname="GraphicTextEntity" class="frame" fill="black" font-family="arial" font-size="48" font-style="normal" font-weight="normal" id="3ICr" text-decoration="normal" x="3660" y="3224">
A VACUUM PMP SEAL WTR SV - T1200D10A
</text>
</g>
<g baseline-shift="-50%" cb-classname="DynamicText" cb-source="gz-XzZbZ-quf5q6" class="frame" id="3IO0" text-anchor="middle">
<text cb-classname="GraphicTextEntity" class="frame" fill="black" font-family="arial" font-size="48" font-style="normal" font-weight="normal" id="3IOs" text-anchor="middle" text-decoration="normal" x="5270" y="3324">
247
</text>
</g>
<g baseline-shift="0%" cb-classname="DynamicText" cb-source="3k-lbv76Od8" class="frame" id="3IO2" text-anchor="middle">
<text cb-classname="GraphicTextEntity" class="frame" fill="black" font-family="arial" font-size="36" font-style="normal" font-weight="normal" id="3IOi" text-anchor="middle" text-decoration="normal" x="5270" y="3150">
A
</text>
</g>
<g baseline-shift="0%" cb-classname="DynamicText" cb-source="rq-aNAOCxVn-eDUh" class="frame" id="3IOY" text-anchor="middle">
<text cb-classname="GraphicTextEntity" class="frame" fill="black" font-family="arial" font-size="20" font-style="normal" font-weight="normal" id="3IOT" text-anchor="middle" text-decoration="normal" x="5270" y="3230">
12/28/2010
</text>
</g>
<g baseline-shift="-50%" cb-classname="DynamicText" cb-source="1H-zeaxBeHC" class="frame" id="3IOf" text-anchor="end">
<text cb-classname="GraphicTextEntity" class="frame" fill="black" font-family="arial" font-size="26" font-style="normal" font-weight="normal" id="3IOj" text-anchor="end" text-decoration="normal" x="4500" y="3420">

</text>
</g>
<g baseline-shift="-50%" cb-classname="DynamicText" cb-source="FB-OtvRHwBD" class="frame" id="3IOh" text-anchor="end">
<text cb-classname="GraphicTextEntity" class="frame" fill="black" font-family="arial" font-size="26" font-style="normal" font-weight="normal" id="3IOr" text-anchor="end" text-decoration="normal" x="5353" y="3420">
Zdenek Nemec
</text>
</g>
<g cb-classname="GraphicShape" cb-tag="BORDER" id="3In0">
<line cb-classname="GraphicLineEntity" class="frameline" id="3Ins" x1="40" x2="40" y1="40" y2="3460"/>
<line cb-classname="GraphicLineEntity" class="frameline" id="3In2" x1="40" x2="5380" y1="3460" y2="3460"/>
<line cb-classname="GraphicLineEntity" class="frameline" id="3Ini" x1="5380" x2="5380" y1="3460" y2="40"/>
<line cb-classname="GraphicLineEntity" class="frameline" id="3InY" x1="5380" x2="40" y1="40" y2="40"/>
<line cb-classname="GraphicLineEntity" class="frame" id="3InT" x1="5430" x2="5440" y1="3510" y2="3510"/>
</g>
<g cb-classname="GraphicShape" cb-tag="TITLE BOX" id="3Inf">
<line cb-classname="GraphicLineEntity" class="frameline" id="3Inj" x1="2340" x2="2340" y1="3080" y2="3460"/>
<line cb-classname="GraphicLineEntity" class="frameline" id="3Inh" x1="2340" x2="5380" y1="3080" y2="3080"/>
<line cb-classname="GraphicLineEntity" class="frameline" id="3Inr" x1="3650" x2="3650" y1="3460" y2="3080"/>
<line cb-classname="GraphicLineEntity" class="frameline" id="3IU0" x1="3650" x2="5380" y1="3240" y2="3240"/>
<line cb-classname="GraphicLineEntity" class="frameline" id="3IUs" x1="3650" x2="5380" y1="3390" y2="3390"/>
<line cb-classname="GraphicLineEntity" class="frameline" id="3IU2" x1="3650" x2="5380" y1="3160" y2="3160"/>
<line cb-classname="GraphicLineEntity" class="frameline" id="3IUi" x1="3650" x2="4520" y1="3320" y2="3320"/>
<line cb-classname="GraphicLineEntity" class="frameline" id="3IUY" x1="4520" x2="5380" y1="3290" y2="3290"/>
<line cb-classname="GraphicLineEntity" class="frameline" id="3IUT" x1="4520" x2="5380" y1="3240" y2="3240"/>
<line cb-classname="GraphicLineEntity" class="frameline" id="3IUf" x1="4520" x2="4520" y1="3240" y2="3460"/>
<line cb-classname="GraphicLineEntity" class="frameline" id="3IUj" x1="4810" x2="4810" y1="3240" y2="3390"/>
<line cb-classname="GraphicLineEntity" class="frameline" id="3IUh" x1="4990" x2="4990" y1="3240" y2="3390"/>
<line cb-classname="GraphicLineEntity" class="frameline" id="3IUr" x1="5150" x2="5150" y1="3080" y2="3390"/>
</g>
<g cb-classname="GraphicShape" cb-tag="TEXT LABELS" id="3MG0">
<text baseline-shift="-50%" cb-classname="GraphicTextEntity" class="frame" font-size="25" id="3MGs" text-anchor="middle" x="4890" y="3252">
Drop
</text>
<text baseline-shift="-50%" cb-classname="GraphicTextEntity" class="frame" font-size="25" id="3MG2" text-anchor="middle" x="5075" y="3252">
Task
</text>
<text baseline-shift="-50%" cb-classname="GraphicTextEntity" class="frame" font-size="25" id="3MGi" text-anchor="middle" x="5265" y="3252">
Sheet
</text>
<text cb-classname="GraphicTextEntity" class="frame" font-size="25" id="3MGY" x="5152" y="3107">
Rev.
</text>
<text cb-classname="GraphicTextEntity" class="frame" font-size="25" id="3MGT" x="3653" y="3418">
Engineer
</text>
<text cb-classname="GraphicTextEntity" class="frame" font-size="25" id="3MGf" x="4528" y="3419">
Approved
</text>
<text cb-classname="GraphicTextEntity" class="frame" font-size="25" id="3MGj" x="5152" y="3187">
Date
</text>
<text baseline-shift="-50%" cb-classname="GraphicTextEntity" class="frame" font-size="25" id="3MGh" text-anchor="middle" x="4660" y="3252">
Drawing Number
</text>
<text baseline-shift="-50%" cb-classname="GraphicTextEntity" class="frame" font-size="25" id="3MGr" text-anchor="middle" x="4680" y="3325">
CTL
</text>
</g>
<text baseline-shift="-50%" cb-classname="GraphicTextEntity" class="frame" font-size="48" id="3MF0" text-anchor="middle" x="3000" y="3100">
EMERSON PROCESS MANAGEMENT
</text>
<g baseline-shift="-100%" cb-anchor-x="2360" cb-anchor-y="3140" cb-classname="GroupText" cb-max-width="1260" fill="black" id="3MFs">
<text baseline-shift="-100%" cb-classname="GraphicTextEntity" class="frame" fill="black" font-family="arial" font-size="22" font-weight="normal" id="3MF2" text-anchor="start" text-decoration="normal" x="2360" y="3140">
THIS DOCUMENT CONTAINS INFORMATION PROPRIETARY TO EMERSON PROCESS
</text>
<text baseline-shift="-100%" cb-classname="GraphicTextEntity" class="frame" fill="black" font-family="arial" font-size="22" font-weight="normal" id="3MFi" text-anchor="start" text-decoration="normal" x="2360" y="3176">
MANAGEMENT POWER &amp; WATER SOLUTIONS, INC. IT IS SUBMITTED IN CONFIDENCE AND
</text>
<text baseline-shift="-100%" cb-classname="GraphicTextEntity" class="frame" fill="black" font-family="arial" font-size="22" font-weight="normal" id="3MFY" text-anchor="start" text-decoration="normal" x="2360" y="3212">
TRUST, IS TO BE USED BY YOU SOLELY FOR THE PURPOSES FOR WHICH IT IS
</text>
<text baseline-shift="-100%" cb-classname="GraphicTextEntity" class="frame" fill="black" font-family="arial" font-size="22" font-weight="normal" id="3MFT" text-anchor="start" text-decoration="normal" x="2360" y="3248">
FURNISHED AND IS TO BE RETURNED UPON REQUEST. THIS DOCUMENT AND ANY
</text>
<text baseline-shift="-100%" cb-classname="GraphicTextEntity" class="frame" fill="black" font-family="arial" font-size="22" font-weight="normal" id="3MFf" text-anchor="start" text-decoration="normal" x="2360" y="3284">
OTHER INFORMATION PROVIDED TO YOU IS NOT TO BE REPRODUCED, TRANSMITTED,
</text>
<text baseline-shift="-100%" cb-classname="GraphicTextEntity" class="frame" fill="black" font-family="arial" font-size="22" font-weight="normal" id="3MFj" text-anchor="start" text-decoration="normal" x="2360" y="3320">
DISCLOSED, OR USED OTHERWISE IN WHOLE OR IN PART WITHOUT THE PRIOR
</text>
<text baseline-shift="-100%" cb-classname="GraphicTextEntity" class="frame" fill="black" font-family="arial" font-size="22" font-weight="normal" id="3MFh" text-anchor="start" text-decoration="normal" x="2360" y="3356">
WRITTEN AUTHORIZATION OF EMERSON PROCESS MANAGEMENT POWER &amp; WATER
</text>
<text baseline-shift="-100%" cb-classname="GraphicTextEntity" class="frame" fill="black" font-family="arial" font-size="22" font-weight="normal" id="3MFr" text-anchor="start" text-decoration="normal" x="2360" y="3392">
SOLUTIONS,INC.
</text>
</g>
</g>
</svg>