<?xml version="1.0" ?><svg cb-auto-time="03/13/2008 17:12:46" cb-classname="ControlFunction" cb-create-time="03/12/2008" cb-drop-id="15" cb-engineer="Heczko" cb-filename="Z:\OVATION\NET0\UNIT0\CONTROLFUNCTIONS\02C9.svg" cb-function-id="02C9" cb-key="511234244332" cb-modified-timestamp="1489319413" cb-modify-id="00000001" cb-ortho-mode="enabled" cb-path="Z:/OVATION/NET0/UNIT0/CONTROLFUNCTIONS" cb-reviewer="Nemec" cb-revision="A" cb-revision-time="12/28/2010" cb-sheet-number="302" cb-sheet-title="B100 - SOOT BLOWERS pt.3" cb-snap-grid="10" cb-task-id="4" height="3606" id="1" width="5450" xmlns="http://www.w3.org/2000/svg">
<style cb-classname="EntityStyle" id="2" type="text/css">
	.algorithm { fill: white; stroke: black; stroke-linecap: round; stroke-width: 2 }
	.algorithm-function { fill: none; stroke: black; stroke-linecap: round; stroke-width: 2 }
	.algorithm-functionline { fill: none; stroke: black; stroke-linecap: round; stroke-width: 2 }
	.algorithm-name { fill: none; stroke: black; stroke-linecap: round; stroke-width: 2 }
	.algorithm-nameline { fill: none; stroke: black; stroke-linecap: round; stroke-width: 2 }
	.algorithm-sequence { fill: none; stroke: black; stroke-linecap: round; stroke-width: 2 }
	.algorithm-sequenceline { fill: none; stroke: black; stroke-linecap: round; stroke-width: 2 }
	.algorithmline { fill: none; stroke: black; stroke-linecap: round; stroke-width: 2 }
	.annotation { fill: none; stroke: black; stroke-linecap: round; stroke-width: 2 }
	.annotationline { fill: none; stroke: black; stroke-linecap: round; stroke-width: 2 }
	.frame { fill: none; stroke: black; stroke-linecap: round; stroke-width: 2 }
	.frameline { fill: none; stroke: black; stroke-linecap: round; stroke-width: 2 }
	.signal { fill: black; stroke: black; stroke-linecap: round; stroke-width: 2 }
	.signalline { fill: none; stroke: black; stroke-linecap: round; stroke-width: 2 }
	text.algorithm { fill: black; font-family: MS Shell Dlg 2; font-size: 14; stroke: none }
	text.algorithm-function { fill: black; font-family: MS Shell Dlg 2; font-size: 16; stroke: none }
	text.algorithm-name { fill: black; font-family: MS Shell Dlg 2; font-size: 16; stroke: none }
	text.algorithm-sequence { fill: black; font-family: MS Shell Dlg 2; font-size: 16; stroke: none }
	text.annotation { fill: black; font-family: MS Shell Dlg 2; font-size: 16; stroke: none }
	text.frame { fill: black; font-family: MS Shell Dlg 2; font-size: 16; stroke: none }
	text.signal { fill: black; font-family: MS Shell Dlg 2; font-size: 12; stroke: none }
</style>
<g cb-classname="NamedObject" cb-objectname="Comments" id="3">
<text cb-classname="GraphicTextEntity" class="annotation" fill="#000000" font-family="MS Shell Dlg 2" font-size="8" id="7IM" x="640" y="470">
OPEN - STEAM VALVE OPEN CMD
</text>
<text cb-classname="GraphicTextEntity" class="annotation" fill="#000000" font-family="MS Shell Dlg 2" font-size="8" id="880" x="640" y="480">
CLOSE - STEAM VALVE CLOSE CMD
</text>
<text cb-classname="GraphicTextEntity" class="annotation" fill="#000000" font-family="MS Shell Dlg 2" font-size="8" id="88a" x="640" y="510">
PK1 - PWR SOURCE ON
</text>
<text cb-classname="GraphicTextEntity" class="annotation" fill="#000000" font-family="MS Shell Dlg 2" font-size="8" id="88y" x="640" y="520">
PK2 - PWR SOURCE OFF
</text>
<text cb-classname="GraphicTextEntity" class="annotation" fill="#000000" font-family="MS Shell Dlg 2" font-size="8" id="882" x="640" y="530">
PK3 - RETRACT CMD
</text>
<text cb-classname="GraphicTextEntity" class="annotation" fill="#000000" font-family="MS Shell Dlg 2" font-size="8" id="88N" x="640" y="540">
PK4 - AUTO START CMD
</text>
<text cb-classname="GraphicTextEntity" class="annotation" fill="#000000" font-family="MS Shell Dlg 2" font-size="8" id="88G" x="640" y="550">
PK5 - AUTO STOP CMD
</text>
<text cb-classname="GraphicTextEntity" class="annotation" fill="#000000" font-family="MS Shell Dlg 2" font-size="8" id="8K0" x="640" y="490">
AUTO - STEAM VALVE AUTO
</text>
<text cb-classname="GraphicTextEntity" class="annotation" fill="#000000" font-family="MS Shell Dlg 2" font-size="8" id="8Km" x="640" y="500">
MAN - STEAM VALVE MANUAL 
</text>
<text cb-classname="GraphicTextEntity" class="annotation" fill="#000000" font-family="MS Shell Dlg 2" font-size="8" id="8Kl" x="640" y="560">
PK6 - ALARM RESET
</text>
</g>
<g cb-classname="AlgorithmContainer" cb-objectname="Algorithms" id="4">
<g cb-alg-Sa9w="128" cb-alg-anp="01B100KB" cb-alg-xOww="1" cb-algorithm-id="001" cb-classname="ControlAlgorithm" cb-function-name="KEYBOARD" cb-modify-id="00000001" id="180">
<g cb-classname="ControlPin" cb-pin-name="Ud-QhF-DnSM" id="18m">
<line cb-classname="GraphicLineEntity" class="signalline" id="18l" x1="600" x2="620" y1="230" y2="230"/>
<g cb-classname="DynamicText" cb-source="EX-r38-ian9" class="signal" id="18a">
<text baseline-shift="5%" cb-classname="GraphicTextEntity" class="signal" fill="black" font-style="normal" font-weight="normal" id="18y" text-decoration="normal" x="636" y="226"/>
</g>
<g cb-classname="SignalSegment" id="28m">
<line cb-classname="GraphicLineEntity" class="signalline" id="28l" stroke="#1e12bf" stroke-dasharray="5,4" x1="620" x2="1300" y1="230" y2="230"/>
<g cb-classname="SignalSegment" id="28a">
<line cb-classname="GraphicLineEntity" class="signalline" id="28y" stroke="#1e12bf" stroke-dasharray="5,4" x1="1300" x2="1300" y1="230" y2="850"/>
<g cb-classname="SignalSegment" id="282">
<line cb-classname="GraphicLineEntity" class="signalline" id="28N" stroke="#1e12bf" stroke-dasharray="5,4" x1="1300" x2="1400" y1="850" y2="850"/>
<g cb-classname="SignalConnection" cb-graphic-line="$206$" cb-input-pin="$GTC$" id="28G"/>
</g>
</g>
</g>
</g>
<g cb-classname="ControlPin" cb-pin-name="ND-IgF-IxXM" id="182">
<line cb-classname="GraphicLineEntity" class="signalline" id="18N" x1="600" x2="620" y1="250" y2="250"/>
<g cb-classname="DynamicText" cb-source="VD-mM7-p9nK" class="signal" id="18G">
<text baseline-shift="5%" cb-classname="GraphicTextEntity" class="signal" fill="black" font-style="normal" font-weight="normal" id="18n" text-decoration="normal" x="636" y="246"/>
</g>
<g cb-classname="SignalSegment" id="28n">
<line cb-classname="GraphicLineEntity" class="signalline" id="28M" stroke="#1e12bf" stroke-dasharray="5,4" x1="620" x2="1270" y1="250" y2="250"/>
<g cb-classname="SignalSegment" id="2K0">
<line cb-classname="GraphicLineEntity" class="signalline" id="2Km" stroke="#1e12bf" stroke-dasharray="5,4" x1="1270" x2="1270" y1="250" y2="890"/>
<g cb-classname="SignalSegment" id="2Kl">
<line cb-classname="GraphicLineEntity" class="signalline" id="2Ka" stroke="#1e12bf" stroke-dasharray="5,4" x1="1270" x2="1400" y1="890" y2="890"/>
<g cb-classname="SignalConnection" cb-graphic-line="$213$" cb-input-pin="$TRN$" id="2Ky"/>
</g>
</g>
</g>
</g>
<g cb-classname="ControlPin" cb-pin-name="hz-CxF-Jvo3" id="18M">
<line cb-classname="GraphicLineEntity" class="signalline" id="1K0" x1="600" x2="620" y1="270" y2="270"/>
<g cb-classname="DynamicText" cb-source="3u-bUT-LifA" class="signal" id="1Km">
<text baseline-shift="5%" cb-classname="GraphicTextEntity" class="signal" fill="black" font-style="normal" font-weight="normal" id="1Kl" text-decoration="normal" x="636" y="266"/>
</g>
<g cb-classname="SignalSegment" id="5W0">
<line cb-classname="GraphicLineEntity" class="signalline" id="5Wm" stroke="#1e12bf" stroke-dasharray="5,4" x1="620" x2="1240" y1="270" y2="270"/>
<g cb-classname="SignalSegment" id="5Wl">
<line cb-classname="GraphicLineEntity" class="signalline" id="5Wa" stroke="#1e12bf" stroke-dasharray="5,4" x1="1240" x2="1240" y1="270" y2="1210"/>
<g cb-classname="SignalSegment" id="5Wy">
<line cb-classname="GraphicLineEntity" class="signalline" id="5W2" stroke="#1e12bf" stroke-dasharray="5,4" x1="1240" x2="1400" y1="1210" y2="1210"/>
<g cb-classname="SignalConnection" cb-graphic-line="$525$" cb-input-pin="$p2N$" id="5WN"/>
</g>
</g>
</g>
</g>
<g cb-classname="ControlPin" cb-pin-name="Bj-JsO-fyO" id="1Ka">
<line cb-classname="GraphicLineEntity" class="signalline" id="1Ky" x1="600" x2="620" y1="290" y2="290"/>
<g cb-classname="DynamicText" cb-source="I8-Nqp-OBco" class="signal" id="1K2">
<text baseline-shift="5%" cb-classname="GraphicTextEntity" class="signal" fill="black" font-style="normal" font-weight="normal" id="1KN" text-decoration="normal" x="636" y="286"/>
</g>
<g cb-classname="SignalSegment" id="5WG">
<line cb-classname="GraphicLineEntity" class="signalline" id="5Wn" stroke="#1e12bf" stroke-dasharray="5,4" x1="620" x2="1210" y1="290" y2="290"/>
<g cb-classname="SignalSegment" id="5WM">
<line cb-classname="GraphicLineEntity" class="signalline" id="5R0" stroke="#1e12bf" stroke-dasharray="5,4" x1="1210" x2="1210" y1="290" y2="1250"/>
<g cb-classname="SignalSegment" id="5Rm">
<line cb-classname="GraphicLineEntity" class="signalline" id="5Rl" stroke="#1e12bf" stroke-dasharray="5,4" x1="1210" x2="1400" y1="1250" y2="1250"/>
<g cb-classname="SignalConnection" cb-graphic-line="$532$" cb-input-pin="$RmM$" id="5Ra"/>
</g>
</g>
</g>
</g>
<g cb-classname="ControlPin" cb-pin-name="VD-rtt-bhe" id="1Ra">
<line cb-classname="GraphicLineEntity" class="signalline" id="1Ry" x1="600" x2="620" y1="310" y2="310"/>
<g cb-classname="DynamicText" cb-source="hz-LIp-TQ07" class="signal" id="1R2">
<text baseline-shift="5%" cb-classname="GraphicTextEntity" class="signal" fill="black" font-style="normal" font-weight="normal" id="1RN" text-decoration="normal" x="636" y="306"/>
</g>
<g cb-classname="SignalSegment" id="5Ry">
<line cb-classname="GraphicLineEntity" class="signalline" id="5R2" stroke="#1e12bf" stroke-dasharray="5,4" x1="620" x2="1180" y1="310" y2="310"/>
<g cb-classname="SignalSegment" id="5RN">
<line cb-classname="GraphicLineEntity" class="signalline" id="5RG" stroke="#1e12bf" stroke-dasharray="5,4" x1="1180" x2="1180" y1="310" y2="1390"/>
<g cb-classname="SignalSegment" id="5Rn">
<line cb-classname="GraphicLineEntity" class="signalline" id="5RM" stroke="#1e12bf" stroke-dasharray="5,4" x1="1180" x2="1400" y1="1390" y2="1390"/>
<g cb-classname="SignalConnection" cb-graphic-line="$539$" cb-input-pin="$p4Q$" id="5B0"/>
</g>
</g>
</g>
</g>
<g cb-classname="ControlPin" cb-pin-name="3u-fRw-Nvw" id="1RG">
<line cb-classname="GraphicLineEntity" class="signalline" id="1Rn" x1="600" x2="620" y1="330" y2="330"/>
<g cb-classname="DynamicText" cb-source="Bj-qEL-py9S" class="signal" id="1RM">
<text baseline-shift="5%" cb-classname="GraphicTextEntity" class="signal" fill="black" font-style="normal" font-weight="normal" id="1B0" text-decoration="normal" x="636" y="326"/>
</g>
<g cb-classname="SignalSegment" id="5Bm">
<line cb-classname="GraphicLineEntity" class="signalline" id="5Bl" stroke="#1e12bf" stroke-dasharray="5,4" x1="620" x2="1150" y1="330" y2="330"/>
<g cb-classname="SignalSegment" id="5Ba">
<line cb-classname="GraphicLineEntity" class="signalline" id="5By" stroke="#1e12bf" stroke-dasharray="5,4" x1="1150" x2="1150" y1="330" y2="1430"/>
<g cb-classname="SignalSegment" id="5B2">
<line cb-classname="GraphicLineEntity" class="signalline" id="5BN" stroke="#1e12bf" stroke-dasharray="5,4" x1="1150" x2="1400" y1="1430" y2="1430"/>
<g cb-classname="SignalConnection" cb-graphic-line="$546$" cb-input-pin="$y8O$" id="5BG"/>
</g>
</g>
</g>
</g>
<g cb-classname="ControlPin" cb-pin-name="I8-U5Z-n02" id="1Bm">
<line cb-classname="GraphicLineEntity" class="signalline" id="1Bl" x1="600" x2="620" y1="350" y2="350"/>
<g cb-classname="DynamicText" cb-source="cT-Leb-HCmO" class="signal" id="1Ba">
<text baseline-shift="5%" cb-classname="GraphicTextEntity" class="signal" fill="black" font-style="normal" font-weight="normal" id="1By" text-decoration="normal" x="636" y="346"/>
</g>
<g cb-classname="SignalSegment" id="7gn">
<line cb-classname="GraphicLineEntity" class="signalline" id="7gM" stroke="#1e12bf" stroke-dasharray="5,4" x1="620" x2="1120" y1="350" y2="350"/>
<g cb-classname="SignalSegment" id="7s0">
<line cb-classname="GraphicLineEntity" class="signalline" id="7sm" stroke="#1e12bf" stroke-dasharray="5,4" x1="1120" x2="1120" y1="350" y2="2110"/>
<g cb-classname="SignalSegment" id="7sl">
<line cb-classname="GraphicLineEntity" class="signalline" id="7sa" stroke="#1e12bf" stroke-dasharray="5,4" x1="1120" x2="2800" y1="2110" y2="2110"/>
<g cb-classname="SignalConnection" cb-graphic-line="$783$" cb-input-pin="$eif$" id="7sy"/>
</g>
</g>
</g>
</g>
<g cb-classname="ControlPin" cb-pin-name="xS-qx6-F1H" id="1B2">
<line cb-classname="GraphicLineEntity" class="signalline" id="1BN" x1="600" x2="620" y1="370" y2="370"/>
<g cb-classname="DynamicText" cb-source="Cw-b3Q-wJIA" class="signal" id="1BG">
<text baseline-shift="5%" cb-classname="GraphicTextEntity" class="signal" fill="black" font-style="normal" font-weight="normal" id="1Bn" text-decoration="normal" x="636" y="366"/>
</g>
<g cb-classname="SignalSegment" id="7s2">
<line cb-classname="GraphicLineEntity" class="signalline" id="7sN" stroke="#1e12bf" stroke-dasharray="5,4" x1="620" x2="1090" y1="370" y2="370"/>
<g cb-classname="SignalSegment" id="7sG">
<line cb-classname="GraphicLineEntity" class="signalline" id="7sn" stroke="#1e12bf" stroke-dasharray="5,4" x1="1090" x2="1090" y1="370" y2="2290"/>
<g cb-classname="SignalSegment" id="7sM">
<line cb-classname="GraphicLineEntity" class="signalline" id="7I0" stroke="#1e12bf" stroke-dasharray="5,4" x1="1090" x2="2800" y1="2290" y2="2290"/>
<g cb-classname="SignalConnection" cb-graphic-line="$790$" cb-input-pin="$ItC$" id="7Im"/>
</g>
</g>
</g>
</g>
<g cb-classname="ControlPin" cb-pin-name="SY-anp-9RX" id="1BM">
<line cb-classname="GraphicLineEntity" class="signalline" id="1v0" x1="600" x2="620" y1="390" y2="390"/>
<g cb-classname="DynamicText" cb-source="I8-Kpx-MlBC" class="signal" id="1vm">
<text baseline-shift="5%" cb-classname="GraphicTextEntity" class="signal" fill="black" font-style="normal" font-weight="normal" id="1vl" text-decoration="normal" x="636" y="386"/>
</g>
<g cb-classname="SignalSegment" id="7Il">
<line cb-classname="GraphicLineEntity" class="signalline" id="7Ia" stroke="#1e12bf" stroke-dasharray="5,4" x1="620" x2="1060" y1="390" y2="390"/>
<g cb-classname="SignalSegment" id="7Iy">
<line cb-classname="GraphicLineEntity" class="signalline" id="7I2" stroke="#1e12bf" stroke-dasharray="5,4" x1="1060" x2="1060" y1="390" y2="2470"/>
<g cb-classname="SignalSegment" id="7IN">
<line cb-classname="GraphicLineEntity" class="signalline" id="7IG" stroke="#1e12bf" stroke-dasharray="5,4" x1="1060" x2="2800" y1="2470" y2="2470"/>
<g cb-classname="SignalConnection" cb-graphic-line="$797$" cb-input-pin="$uXS$" id="7In"/>
</g>
</g>
</g>
</g>
<rect cb-classname="GraphicRectangleEntity" class="algorithm" height="380" id="1h2" width="100" x="500" y="210"/>
<text cb-classname="GraphicTextEntity" class="algorithm" font-size="18" id="1hN" text-anchor="middle" x="550" y="388">
KEY
</text>
<text cb-classname="GraphicTextEntity" class="algorithm" font-size="18" id="1hG" text-anchor="middle" x="550" y="414">
BOARD
</text>
<g cb-classname="DynamicText" cb-source="EX-iH5-Bkr" class="algorithm" id="1hn">
<text baseline-shift="5%" cb-classname="GraphicTextEntity" class="algorithm" fill="black" font-family="arial" font-size="12" font-style="normal" font-weight="normal" id="1hM" text-decoration="normal" x="500" y="617"/>
</g>
<g cb-classname="ControlPin" cb-pin-name="I8-95q-rR3" id="8Ky">
<line cb-classname="GraphicLineEntity" class="signalline" id="8K2" x1="600" x2="620" y1="410" y2="410"/>
<g cb-classname="DynamicText" cb-source="Ud-9qM-8jdG" class="signal" id="8KN" text-anchor="start">
<text cb-classname="GraphicTextEntity" class="signal" fill="black" font-style="normal" font-weight="normal" id="8KG" text-anchor="start" text-decoration="normal" transform="translate(614,407)rotate(360)"/>
</g>
<g cb-classname="SignalSegment" id="8sl">
<line cb-classname="GraphicLineEntity" class="signalline" id="8sa" stroke="#1e12bf" stroke-dasharray="5,4" x1="620" x2="1030" y1="410" y2="410"/>
<g cb-classname="SignalSegment" id="8sy">
<line cb-classname="GraphicLineEntity" class="signalline" id="8s2" stroke="#1e12bf" stroke-dasharray="5,4" x1="1030" x2="1030" y1="410" y2="2650"/>
<g cb-classname="SignalSegment" id="8sN">
<line cb-classname="GraphicLineEntity" class="signalline" id="8sG" stroke="#1e12bf" stroke-dasharray="5,4" x1="1030" x2="2800" y1="2650" y2="2650"/>
<g cb-classname="SignalConnection" cb-graphic-line="$887$" cb-input-pin="$OtE$" id="8sn"/>
</g>
</g>
</g>
</g>
</g>
<g cb-alg-PKo="$100$cb-alg-open$" cb-alg-jiAo="$100$cb-alg-clos$" cb-alg-ovo="01B100D31-WCOI" cb-alg-vRN7="RESET" cb-algorithm-id="002" cb-classname="FastBooleanAlgorithm" cb-function-name="FLIPFLOP" id="1sm">
<rect cb-classname="GraphicRectangleEntity" class="algorithm" height="100" id="1sl" width="140" x="1420" y="820"/>
<g cb-classname="ControlPin" cb-pin-name="ND-IgF-co4" id="1sa">
<line cb-classname="GraphicLineEntity" class="signalline" id="1sy" x1="1400" x2="1420" y1="850" y2="850"/>
<polygon cb-classname="GraphicPolygonEntity" class="signal" id="1s2" points="1420,850 1409,844 1409,855"/>
<g cb-classname="DynamicText" cb-source="Cw-b3Q-wJIA" class="signal" id="1sN" text-anchor="end">
<text cb-classname="GraphicTextEntity" class="signal" fill="black" font-style="normal" font-weight="normal" id="1sG" text-anchor="end" text-decoration="normal" x="1405" y="847"/>
</g>
</g>
<g cb-classname="ControlPin" cb-pin-name="SY-anp-1w7A" id="1sn">
<line cb-classname="GraphicLineEntity" class="signalline" id="1sM" x1="1400" x2="1420" y1="890" y2="890"/>
<polygon cb-classname="GraphicPolygonEntity" class="signal" id="1I0" points="1420,890 1409,884 1409,895"/>
<g cb-classname="DynamicText" cb-source="Bj-qEL-py9S" class="signal" id="1Im" text-anchor="end">
<text cb-classname="GraphicTextEntity" class="signal" fill="black" font-style="normal" font-weight="normal" id="1Il" text-anchor="end" text-decoration="normal" x="1405" y="887"/>
</g>
</g>
<g cb-classname="ControlPin" cb-pin-name="I8-U5Z-6Y6" id="1Ia">
<line cb-classname="GraphicLineEntity" class="signalline" id="1Iy" x1="1560" x2="1580" y1="850" y2="850"/>
<g cb-classname="DynamicText" cb-source="cT-Leb-HCmO" class="signal" id="1I2" text-anchor="start">
<text cb-classname="GraphicTextEntity" class="signal" fill="black" font-style="normal" font-weight="normal" id="1IN" text-anchor="start" text-decoration="normal" x="1574" y="847"/>
</g>
<g cb-classname="SignalSegment" id="2s2">
<line cb-classname="GraphicLineEntity" class="signalline" id="2I0" stroke="#1e12bf" stroke-dasharray="5,4" x1="1580" x2="2081" y1="850" y2="850"/>
<g cb-classname="SignalSegment" id="2Im">
<line cb-classname="GraphicLineEntity" class="signalline" id="2Il" stroke="#1e12bf" stroke-dasharray="5,4" x1="2081" x2="2081" y1="850" y2="1030"/>
<g cb-classname="SignalSegment" id="2Ia">
<line cb-classname="GraphicLineEntity" class="signalline" id="2Iy" stroke="#1e12bf" stroke-dasharray="5,4" x1="2081" x2="2810" y1="1030" y2="1030"/>
<g cb-classname="SignalConnection" cb-graphic-line="$294$" cb-input-pin="$RaF$" id="2I2"/>
</g>
<line cb-classname="GraphicLineEntity" class="signalline" id="2sn" stroke="#1e12bf" stroke-dasharray="5,4" x1="2081" x2="4330" y1="850" y2="850"/>
<g cb-classname="SignalConnection" cb-graphic-line="$288$" cb-input-pin="$g53$" id="2sM"/>
<ellipse cb-classname="GraphicEllipseEntity" class="signal" cx="2081" cy="850" fill="#1e12bf" id="2IN" rx="5" ry="5" stroke="#1e12bf" stroke-dasharray="5,4"/>
</g>
</g>
</g>
<text baseline-shift="-50%" cb-classname="GraphicTextEntity" class="algorithm" fill="#000000" font-family="MS Shell Dlg" font-size="18" id="1IG" text-anchor="middle" x="1440" y="840">
S
</text>
<text baseline-shift="-50%" cb-classname="GraphicTextEntity" class="algorithm" fill="#000000" font-family="MS Shell Dlg" font-size="18" id="1In" text-anchor="middle" x="1440" y="880">
R
</text>
<text baseline-shift="-50%" cb-classname="GraphicTextEntity" class="algorithm" fill="#000000" font-family="MS Shell Dlg" font-size="18" id="1IM" text-anchor="middle" x="1540" y="840">
1
</text>
<text baseline-shift="-50%" cb-classname="GraphicTextEntity" class="algorithm" fill="#000000" font-family="MS Shell Dlg" font-size="18" id="280" text-anchor="middle" x="1540" y="880">
0
</text>
</g>
<g cb-alg-M7="$181$cb-alg-out$" cb-algorithm-id="003" cb-classname="ExternalPointInterface" cb-function-name="OUTPUT" id="2K2">
<ellipse cb-classname="GraphicEllipseEntity" class="algorithm" cx="4410" cy="850" id="2KN" rx="50" ry="50"/>
<rect cb-classname="GraphicRectangleEntity" class="algorithm" height="100" id="2KG" width="40" x="4460" y="800"/>
<line cb-classname="GraphicLineEntity" class="algorithm" id="2Kn" x1="4460" x2="4500" y1="850" y2="850"/>
<g cb-classname="ControlPin" cb-pin-name="I8-U5Z-Ai" id="2KM">
<line cb-classname="GraphicLineEntity" class="signalline" id="2W0" x1="4330" x2="4360" y1="850" y2="850"/>
<polygon cb-classname="GraphicPolygonEntity" class="signal" id="2Wm" points="4360,850 4349,844 4349,855"/>
<g cb-classname="DynamicText" cb-source="ND-Buk-7aAQ" class="signal" id="2Wl" text-anchor="end">
<text cb-classname="GraphicTextEntity" class="signal" fill="black" font-style="normal" font-weight="normal" id="2Wa" text-anchor="end" text-decoration="normal" x="4345" y="847"/>
</g>
</g>
<g cb-classname="PointStatusIndicator" cb-indicator-type="highway" cb-source="VD-rtt-aw" id="2Wy" visibility="hidden">
<line cb-classname="GraphicLineEntity" class="algorithmline" id="2W2" x1="4360" x2="4410" y1="850" y2="800"/>
<line cb-classname="GraphicLineEntity" class="algorithmline" id="2WN" x1="4410" x2="4460" y1="800" y2="850"/>
<line cb-classname="GraphicLineEntity" class="algorithmline" id="2WG" x1="4460" x2="4410" y1="850" y2="900"/>
<line cb-classname="GraphicLineEntity" class="algorithmline" id="2Wn" x1="4410" x2="4360" y1="900" y2="850"/>
</g>
<g cb-classname="PointStatusIndicator" cb-indicator-type="hardware" cb-source="I8-95q-qp" id="2WM" visibility="hidden">
<line cb-classname="GraphicLineEntity" class="algorithmline" id="2R0" x1="4460" x2="4360" y1="800" y2="800"/>
<line cb-classname="GraphicLineEntity" class="algorithmline" id="2Rm" x1="4360" x2="4360" y1="800" y2="900"/>
<line cb-classname="GraphicLineEntity" class="algorithmline" id="2Rl" x1="4360" x2="4460" y1="900" y2="900"/>
</g>
<g cb-classname="PointStatusIndicator" cb-indicator-type="alarm" cb-source="EX-iH5-CM" id="2Ra" visibility="hidden">
<text cb-classname="GraphicTextEntity" class="algorithm" fill="#000000" font-family="Arial" font-size="20" id="2Ry" x="4470" y="885">
A
</text>
</g>
<g cb-classname="PointStatusIndicator" cb-indicator-type="ingraphic" cb-source="ND-IgF-3Q" id="2R2" visibility="hidden">
<text cb-classname="GraphicTextEntity" class="algorithm" fill="#000000" font-family="Arial" font-size="20" id="2RN" x="4470" y="835">
G
</text>
</g>
<g cb-classname="DynamicText" cb-labeled="false" cb-pin-name="ry" cb-source="VD-rtt-aw" class="algorithm" id="2RG" text-anchor="end">
<text baseline-shift="0%" cb-classname="GraphicTextEntity" class="algorithm" fill="black" font-family="arial" font-size="20" font-style="normal" font-weight="normal" id="2Rn" text-anchor="end" text-decoration="normal" x="4335" y="825"/>
</g>
<g baseline-shift="-100%" cb-anchor-x="4335" cb-anchor-y="860" cb-classname="PointReferences" cb-max-width="130" cb-originator="false" cb-source="hz-CxF-px" class="signal" id="2RM" text-anchor="end">
<text baseline-shift="-100%" cb-classname="GraphicTextEntity" class="algorithm" id="2B0" text-anchor="end" x="4335" y="860">
REF: Point not
</text>
<text baseline-shift="-100%" cb-classname="GraphicTextEntity" class="algorithm" id="1sNv" text-anchor="end" x="4335" y="885">
found in
</text>
<text baseline-shift="-100%" cb-classname="GraphicTextEntity" class="algorithm" id="1sN8" text-anchor="end" x="4335" y="910">
database
</text>
<text baseline-shift="-100%" cb-classname="GraphicTextEntity" class="algorithm" id="1sNM" text-anchor="end" x="4335" y="935">
(01B100D31-WCOI)
</text>
</g>
<g baseline-shift="-50%" cb-anchor-x="4515" cb-anchor-y="865" cb-classname="PointDescription" cb-content="extended" cb-labeled="false" cb-max-width="240" cb-source="3u-fRw-qM" class="algorithm" id="2Bm" text-anchor="start">
<text baseline-shift="-50%" cb-classname="GraphicTextEntity" class="algorithm" id="2Bl" text-anchor="start" x="4515" y="853">
DESC: Point not found in
</text>
<text baseline-shift="-50%" cb-classname="GraphicTextEntity" class="algorithm" id="1sNz" text-anchor="start" x="4515" y="878">
database (01B100D31-WCOI)
</text>
</g>
</g>
<g cb-alg-UTG="$181$cb-alg-out$" cb-alg-kRF="01B100D31-WCZI" cb-algorithm-id="005" cb-classname="FastBooleanAlgorithm" cb-function-name="NOT" id="2gm">
<rect cb-classname="GraphicRectangleEntity" class="algorithm" height="40" id="2gl" width="40" x="2830" y="1010"/>
<g cb-classname="ControlPin" cb-pin-name="cT-H8l-M74" id="2ga">
<line cb-classname="GraphicLineEntity" class="signalline" id="2gy" x1="2810" x2="2830" y1="1030" y2="1030"/>
<polygon cb-classname="GraphicPolygonEntity" class="signal" id="2g2" points="2830,1030 2819,1024 2819,1035"/>
<g cb-classname="DynamicText" cb-source="VD-mM7-p9nK" class="signal" id="2gN" text-anchor="end">
<text cb-classname="GraphicTextEntity" class="signal" fill="black" font-style="normal" font-weight="normal" id="2gG" text-anchor="end" text-decoration="normal" x="2815" y="1027"/>
</g>
</g>
<g cb-classname="ControlPin" cb-pin-name="hz-CxF-ovo" id="2gn">
<line cb-classname="GraphicLineEntity" class="signalline" id="2gM" x1="2870" x2="2890" y1="1030" y2="1030"/>
<g cb-classname="DynamicText" cb-source="3u-bUT-LifA" class="signal" id="2s0" text-anchor="start">
<text cb-classname="GraphicTextEntity" class="signal" fill="black" font-style="normal" font-weight="normal" id="2sm" text-anchor="start" text-decoration="normal" x="2884" y="1027"/>
</g>
<g cb-classname="SignalSegment" id="2IG">
<g cb-classname="SignalConnection" cb-graphic-line="$300$" cb-input-pin="$8dv$" id="38m"/>
<line cb-classname="GraphicLineEntity" class="signalline" id="380" stroke="#1e12bf" stroke-dasharray="5,4" x1="2890" x2="4330" y1="1030" y2="1030"/>
</g>
</g>
<line cb-classname="GraphicLineEntity" class="algorithm" id="2sl" x1="2840" x2="2840" y1="1020" y2="1040"/>
<line cb-classname="GraphicLineEntity" class="algorithm" id="2sa" x1="2840" x2="2860" y1="1020" y2="1040"/>
<line cb-classname="GraphicLineEntity" class="algorithm" id="2sy" x1="2860" x2="2860" y1="1040" y2="1020"/>
</g>
<g cb-alg-Ip="$271$cb-alg-out$" cb-algorithm-id="004" cb-classname="ExternalPointInterface" cb-function-name="OUTPUT" id="2Ba">
<ellipse cb-classname="GraphicEllipseEntity" class="algorithm" cx="4410" cy="1030" id="2By" rx="50" ry="50"/>
<rect cb-classname="GraphicRectangleEntity" class="algorithm" height="100" id="2B2" width="40" x="4460" y="980"/>
<line cb-classname="GraphicLineEntity" class="algorithm" id="2BN" x1="4460" x2="4500" y1="1030" y2="1030"/>
<g cb-classname="ControlPin" cb-pin-name="cT-H8l-M7" id="2BG">
<line cb-classname="GraphicLineEntity" class="signalline" id="2Bn" x1="4330" x2="4360" y1="1030" y2="1030"/>
<polygon cb-classname="GraphicPolygonEntity" class="signal" id="2BM" points="4360,1030 4349,1024 4349,1035"/>
<g cb-classname="DynamicText" cb-source="VD-mM7-p9nK" class="signal" id="2v0" text-anchor="end">
<text cb-classname="GraphicTextEntity" class="signal" fill="black" font-style="normal" font-weight="normal" id="2vm" text-anchor="end" text-decoration="normal" x="4345" y="1027"/>
</g>
</g>
<g cb-classname="PointStatusIndicator" cb-indicator-type="highway" cb-source="hz-CxF-px" id="2vl" visibility="hidden">
<line cb-classname="GraphicLineEntity" class="algorithmline" id="2va" x1="4360" x2="4410" y1="1030" y2="980"/>
<line cb-classname="GraphicLineEntity" class="algorithmline" id="2vy" x1="4410" x2="4460" y1="980" y2="1030"/>
<line cb-classname="GraphicLineEntity" class="algorithmline" id="2v2" x1="4460" x2="4410" y1="1030" y2="1080"/>
<line cb-classname="GraphicLineEntity" class="algorithmline" id="2vN" x1="4410" x2="4360" y1="1080" y2="1030"/>
</g>
<g cb-classname="PointStatusIndicator" cb-indicator-type="hardware" cb-source="Ud-QhF-RO" id="2vG" visibility="hidden">
<line cb-classname="GraphicLineEntity" class="algorithmline" id="2vn" x1="4460" x2="4360" y1="980" y2="980"/>
<line cb-classname="GraphicLineEntity" class="algorithmline" id="2vM" x1="4360" x2="4360" y1="980" y2="1080"/>
<line cb-classname="GraphicLineEntity" class="algorithmline" id="2h0" x1="4360" x2="4460" y1="1080" y2="1080"/>
</g>
<g cb-classname="PointStatusIndicator" cb-indicator-type="alarm" cb-source="ND-IgF-3Q" id="2hm" visibility="hidden">
<text cb-classname="GraphicTextEntity" class="algorithm" fill="#000000" font-family="Arial" font-size="20" id="2hl" x="4470" y="1065">
A
</text>
</g>
<g cb-classname="PointStatusIndicator" cb-indicator-type="ingraphic" cb-source="VD-rtt-aw" id="2ha" visibility="hidden">
<text cb-classname="GraphicTextEntity" class="algorithm" fill="#000000" font-family="Arial" font-size="20" id="2hy" x="4470" y="1015">
G
</text>
</g>
<g cb-classname="DynamicText" cb-labeled="false" cb-pin-name="kj" cb-source="hz-CxF-px" class="algorithm" id="2h2" text-anchor="end">
<text baseline-shift="0%" cb-classname="GraphicTextEntity" class="algorithm" fill="black" font-family="arial" font-size="20" font-style="normal" font-weight="normal" id="2hN" text-anchor="end" text-decoration="normal" x="4335" y="1005"/>
</g>
<g baseline-shift="-100%" cb-anchor-x="4335" cb-anchor-y="1040" cb-classname="PointReferences" cb-max-width="130" cb-originator="false" cb-source="3u-fRw-qM" class="signal" id="2hG" text-anchor="end">
<text baseline-shift="-100%" cb-classname="GraphicTextEntity" class="algorithm" id="2hn" text-anchor="end" x="4335" y="1040">
REF: Point not
</text>
<text baseline-shift="-100%" cb-classname="GraphicTextEntity" class="algorithm" id="1sNw" text-anchor="end" x="4335" y="1065">
found in
</text>
<text baseline-shift="-100%" cb-classname="GraphicTextEntity" class="algorithm" id="1sNy" text-anchor="end" x="4335" y="1090">
database
</text>
<text baseline-shift="-100%" cb-classname="GraphicTextEntity" class="algorithm" id="1sN9" text-anchor="end" x="4335" y="1115">
(01B100D31-WCZI)
</text>
</g>
<g baseline-shift="-50%" cb-anchor-x="4515" cb-anchor-y="1045" cb-classname="PointDescription" cb-content="extended" cb-labeled="false" cb-max-width="240" cb-source="Bj-JsO-38" class="algorithm" id="2hM" text-anchor="start">
<text baseline-shift="-50%" cb-classname="GraphicTextEntity" class="algorithm" id="2g0" text-anchor="start" x="4515" y="1033">
DESC: Point not found in
</text>
<text baseline-shift="-50%" cb-classname="GraphicTextEntity" class="algorithm" id="18l8" text-anchor="start" x="4515" y="1058">
database (01B100D31-WCZI)
</text>
</g>
</g>
<g cb-alg-KXFO="RESET" cb-alg-Uco4="$100$cb-alg-man$" cb-alg-eJh="01B100D31-AMI" cb-alg-gKh="$100$cb-alg-auto$" cb-algorithm-id="006" cb-classname="FastBooleanAlgorithm" cb-function-name="FLIPFLOP" id="38N">
<rect cb-classname="GraphicRectangleEntity" class="algorithm" height="100" id="38G" width="140" x="1420" y="1180"/>
<g cb-classname="ControlPin" cb-pin-name="Bj-JsO-dAm" id="38n">
<line cb-classname="GraphicLineEntity" class="signalline" id="38M" x1="1400" x2="1420" y1="1210" y2="1210"/>
<polygon cb-classname="GraphicPolygonEntity" class="signal" id="3K0" points="1420,1210 1409,1204 1409,1215"/>
<g cb-classname="DynamicText" cb-source="EX-r38-ian9" class="signal" id="3Km" text-anchor="end">
<text cb-classname="GraphicTextEntity" class="signal" fill="black" font-style="normal" font-weight="normal" id="3Kl" text-anchor="end" text-decoration="normal" x="1405" y="1207"/>
</g>
</g>
<g cb-classname="ControlPin" cb-pin-name="ND-IgF-1wOm" id="3Ka">
<line cb-classname="GraphicLineEntity" class="signalline" id="3Ky" x1="1400" x2="1420" y1="1250" y2="1250"/>
<polygon cb-classname="GraphicPolygonEntity" class="signal" id="3K2" points="1420,1250 1409,1244 1409,1255"/>
<g cb-classname="DynamicText" cb-source="Cw-b3Q-wJIA" class="signal" id="3KN" text-anchor="end">
<text cb-classname="GraphicTextEntity" class="signal" fill="black" font-style="normal" font-weight="normal" id="3KG" text-anchor="end" text-decoration="normal" x="1405" y="1247"/>
</g>
</g>
<g cb-classname="ControlPin" cb-pin-name="SY-anp-Zxo" id="3Kn">
<line cb-classname="GraphicLineEntity" class="signalline" id="3KM" x1="1560" x2="1580" y1="1210" y2="1210"/>
<g cb-classname="DynamicText" cb-source="I8-Kpx-MlBC" class="signal" id="3W0" text-anchor="start">
<text cb-classname="GraphicTextEntity" class="signal" fill="black" font-style="normal" font-weight="normal" id="3Wm" text-anchor="start" text-decoration="normal" x="1574" y="1207"/>
</g>
<g cb-classname="SignalSegment" id="3Wl">
<g cb-classname="SignalConnection" cb-graphic-line="$329$" cb-input-pin="$pf2$" id="3R0"/>
<line cb-classname="GraphicLineEntity" class="signalline" id="3WM" stroke="#1e12bf" stroke-dasharray="5,4" x1="1580" x2="4330" y1="1210" y2="1210"/>
</g>
</g>
<text baseline-shift="-50%" cb-classname="GraphicTextEntity" class="algorithm" fill="#000000" font-family="MS Shell Dlg" font-size="18" id="3Rl" text-anchor="middle" x="1440" y="1200">
S
</text>
<text baseline-shift="-50%" cb-classname="GraphicTextEntity" class="algorithm" fill="#000000" font-family="MS Shell Dlg" font-size="18" id="3Ra" text-anchor="middle" x="1440" y="1240">
R
</text>
<text baseline-shift="-50%" cb-classname="GraphicTextEntity" class="algorithm" fill="#000000" font-family="MS Shell Dlg" font-size="18" id="3Ry" text-anchor="middle" x="1540" y="1200">
1
</text>
<text baseline-shift="-50%" cb-classname="GraphicTextEntity" class="algorithm" fill="#000000" font-family="MS Shell Dlg" font-size="18" id="3R2" text-anchor="middle" x="1540" y="1240">
0
</text>
</g>
<g cb-alg-UT="$306$cb-alg-out$" cb-algorithm-id="007" cb-classname="ExternalPointInterface" cb-function-name="OUTPUT" id="3RN">
<ellipse cb-classname="GraphicEllipseEntity" class="algorithm" cx="4410" cy="1210" id="3RG" rx="50" ry="50"/>
<rect cb-classname="GraphicRectangleEntity" class="algorithm" height="100" id="3Rn" width="40" x="4460" y="1160"/>
<line cb-classname="GraphicLineEntity" class="algorithm" id="3RM" x1="4460" x2="4500" y1="1210" y2="1210"/>
<g cb-classname="ControlPin" cb-pin-name="xS-qx6-Ip" id="3B0">
<line cb-classname="GraphicLineEntity" class="signalline" id="3Bm" x1="4330" x2="4360" y1="1210" y2="1210"/>
<polygon cb-classname="GraphicPolygonEntity" class="signal" id="3Bl" points="4360,1210 4349,1204 4349,1215"/>
<g cb-classname="DynamicText" cb-source="hz-LIp-TQ07" class="signal" id="3Ba" text-anchor="end">
<text cb-classname="GraphicTextEntity" class="signal" fill="black" font-style="normal" font-weight="normal" id="3By" text-anchor="end" text-decoration="normal" x="4345" y="1207"/>
</g>
</g>
<g cb-classname="PointStatusIndicator" cb-indicator-type="highway" cb-source="3u-fRw-qM" id="3B2" visibility="hidden">
<line cb-classname="GraphicLineEntity" class="algorithmline" id="3BN" x1="4360" x2="4410" y1="1210" y2="1160"/>
<line cb-classname="GraphicLineEntity" class="algorithmline" id="3BG" x1="4410" x2="4460" y1="1160" y2="1210"/>
<line cb-classname="GraphicLineEntity" class="algorithmline" id="3Bn" x1="4460" x2="4410" y1="1210" y2="1260"/>
<line cb-classname="GraphicLineEntity" class="algorithmline" id="3BM" x1="4410" x2="4360" y1="1260" y2="1210"/>
</g>
<g cb-classname="PointStatusIndicator" cb-indicator-type="hardware" cb-source="EX-iH5-CM" id="3v0" visibility="hidden">
<line cb-classname="GraphicLineEntity" class="algorithmline" id="3vm" x1="4460" x2="4360" y1="1160" y2="1160"/>
<line cb-classname="GraphicLineEntity" class="algorithmline" id="3vl" x1="4360" x2="4360" y1="1160" y2="1260"/>
<line cb-classname="GraphicLineEntity" class="algorithmline" id="3va" x1="4360" x2="4460" y1="1260" y2="1260"/>
</g>
<g cb-classname="PointStatusIndicator" cb-indicator-type="alarm" cb-source="VD-rtt-aw" id="3vy" visibility="hidden">
<text cb-classname="GraphicTextEntity" class="algorithm" fill="#000000" font-family="Arial" font-size="20" id="3v2" x="4470" y="1245">
A
</text>
</g>
<g cb-classname="PointStatusIndicator" cb-indicator-type="ingraphic" cb-source="hz-CxF-px" id="3vN" visibility="hidden">
<text cb-classname="GraphicTextEntity" class="algorithm" fill="#000000" font-family="Arial" font-size="20" id="3vG" x="4470" y="1195">
G
</text>
</g>
<g cb-classname="DynamicText" cb-labeled="false" cb-pin-name="wO" cb-source="3u-fRw-qM" class="algorithm" id="3vn" text-anchor="end">
<text baseline-shift="0%" cb-classname="GraphicTextEntity" class="algorithm" fill="black" font-family="arial" font-size="20" font-style="normal" font-weight="normal" id="3vM" text-anchor="end" text-decoration="normal" x="4335" y="1185"/>
</g>
<g baseline-shift="-100%" cb-anchor-x="4335" cb-anchor-y="1220" cb-classname="PointReferences" cb-max-width="130" cb-originator="false" cb-source="Bj-JsO-38" class="signal" id="3h0" text-anchor="end">
<text baseline-shift="-100%" cb-classname="GraphicTextEntity" class="algorithm" id="3hm" text-anchor="end" x="4335" y="1220">
REF: Point not
</text>
<text baseline-shift="-100%" cb-classname="GraphicTextEntity" class="algorithm" id="1sG1" text-anchor="end" x="4335" y="1245">
found in
</text>
<text baseline-shift="-100%" cb-classname="GraphicTextEntity" class="algorithm" id="1sGv" text-anchor="end" x="4335" y="1270">
database
</text>
<text baseline-shift="-100%" cb-classname="GraphicTextEntity" class="algorithm" id="1sG8" text-anchor="end" x="4335" y="1295">
(01B100D31-AMI)
</text>
</g>
<g baseline-shift="-50%" cb-anchor-x="4515" cb-anchor-y="1225" cb-classname="PointDescription" cb-content="extended" cb-labeled="false" cb-max-width="240" cb-source="cT-H8l-M7" class="algorithm" id="3hy" text-anchor="start">
<text baseline-shift="-50%" cb-classname="GraphicTextEntity" class="algorithm" id="3h2" text-anchor="start" x="4515" y="1213">
DESC: Point not found in
</text>
<text baseline-shift="-50%" cb-classname="GraphicTextEntity" class="algorithm" id="1sGM" text-anchor="start" x="4515" y="1238">
database (01B100D31-AMI)
</text>
</g>
</g>
<g cb-alg-4LqK="RESET" cb-alg-7M3F="$100$cb-alg-pk2$" cb-alg-X4v="01B100-PWRI" cb-alg-sQv="$100$cb-alg-pk1$" cb-algorithm-id="00a" cb-classname="FastBooleanAlgorithm" cb-function-name="FLIPFLOP" id="4Ka">
<rect cb-classname="GraphicRectangleEntity" class="algorithm" height="100" id="4Ky" width="140" x="1420" y="1360"/>
<g cb-classname="ControlPin" cb-pin-name="EX-iH5-wG0" id="4K2">
<line cb-classname="GraphicLineEntity" class="signalline" id="4KN" x1="1400" x2="1420" y1="1390" y2="1390"/>
<polygon cb-classname="GraphicPolygonEntity" class="signal" id="4KG" points="1420,1390 1409,1384 1409,1395"/>
<g cb-classname="DynamicText" cb-source="xS-6RH-QfG3" class="signal" id="4Kn" text-anchor="end">
<text cb-classname="GraphicTextEntity" class="signal" fill="black" font-style="normal" font-weight="normal" id="4KM" text-anchor="end" text-decoration="normal" x="1405" y="1387"/>
</g>
</g>
<g cb-classname="ControlPin" cb-pin-name="Cw-NjL-BPKo" id="4W0">
<line cb-classname="GraphicLineEntity" class="signalline" id="4Wm" x1="1400" x2="1420" y1="1430" y2="1430"/>
<polygon cb-classname="GraphicPolygonEntity" class="signal" id="4Wl" points="1420,1430 1409,1424 1409,1435"/>
<g cb-classname="DynamicText" cb-source="3u-bUT-LifA" class="signal" id="4Wa" text-anchor="end">
<text cb-classname="GraphicTextEntity" class="signal" fill="black" font-style="normal" font-weight="normal" id="4Wy" text-anchor="end" text-decoration="normal" x="1405" y="1427"/>
</g>
</g>
<g cb-classname="ControlPin" cb-pin-name="Bj-JsO-SJm" id="4W2">
<line cb-classname="GraphicLineEntity" class="signalline" id="4WN" x1="1560" x2="1580" y1="1390" y2="1390"/>
<g cb-classname="DynamicText" cb-source="I8-Nqp-OBco" class="signal" id="4WG" text-anchor="start">
<text cb-classname="GraphicTextEntity" class="signal" fill="black" font-style="normal" font-weight="normal" id="4Wn" text-anchor="start" text-decoration="normal" x="1574" y="1387"/>
</g>
<g cb-classname="SignalSegment" id="4WM">
<g cb-classname="SignalConnection" cb-graphic-line="$436$" cb-input-pin="$GDa$" id="4RG"/>
<line cb-classname="GraphicLineEntity" class="signalline" id="4RN" stroke="#1e12bf" stroke-dasharray="5,4" x1="1580" x2="4330" y1="1390" y2="1390"/>
</g>
</g>
<text baseline-shift="-50%" cb-classname="GraphicTextEntity" class="algorithm" fill="#000000" font-family="MS Shell Dlg" font-size="18" id="4RM" text-anchor="middle" x="1440" y="1380">
S
</text>
<text baseline-shift="-50%" cb-classname="GraphicTextEntity" class="algorithm" fill="#000000" font-family="MS Shell Dlg" font-size="18" id="4B0" text-anchor="middle" x="1440" y="1420">
R
</text>
<text baseline-shift="-50%" cb-classname="GraphicTextEntity" class="algorithm" fill="#000000" font-family="MS Shell Dlg" font-size="18" id="4Bm" text-anchor="middle" x="1540" y="1380">
1
</text>
<text baseline-shift="-50%" cb-classname="GraphicTextEntity" class="algorithm" fill="#000000" font-family="MS Shell Dlg" font-size="18" id="4Bl" text-anchor="middle" x="1540" y="1420">
0
</text>
</g>
<g cb-alg-cP="$413$cb-alg-out$" cb-algorithm-id="00b" cb-classname="ExternalPointInterface" cb-function-name="OUTPUT" id="4Ba">
<ellipse cb-classname="GraphicEllipseEntity" class="algorithm" cx="4410" cy="1390" id="4By" rx="50" ry="50"/>
<rect cb-classname="GraphicRectangleEntity" class="algorithm" height="100" id="4B2" width="40" x="4460" y="1340"/>
<line cb-classname="GraphicLineEntity" class="algorithm" id="4BN" x1="4460" x2="4500" y1="1390" y2="1390"/>
<g cb-classname="ControlPin" cb-pin-name="hz-CxF-px" id="4BG">
<line cb-classname="GraphicLineEntity" class="signalline" id="4Bn" x1="4330" x2="4360" y1="1390" y2="1390"/>
<polygon cb-classname="GraphicPolygonEntity" class="signal" id="4BM" points="4360,1390 4349,1384 4349,1395"/>
<g cb-classname="DynamicText" cb-source="I8-Kpx-MlBC" class="signal" id="4v0" text-anchor="end">
<text cb-classname="GraphicTextEntity" class="signal" fill="black" font-style="normal" font-weight="normal" id="4vm" text-anchor="end" text-decoration="normal" x="4345" y="1387"/>
</g>
</g>
<g cb-classname="PointStatusIndicator" cb-indicator-type="highway" cb-source="Ud-QhF-RO" id="4vl" visibility="hidden">
<line cb-classname="GraphicLineEntity" class="algorithmline" id="4va" x1="4360" x2="4410" y1="1390" y2="1340"/>
<line cb-classname="GraphicLineEntity" class="algorithmline" id="4vy" x1="4410" x2="4460" y1="1340" y2="1390"/>
<line cb-classname="GraphicLineEntity" class="algorithmline" id="4v2" x1="4460" x2="4410" y1="1390" y2="1440"/>
<line cb-classname="GraphicLineEntity" class="algorithmline" id="4vN" x1="4410" x2="4360" y1="1440" y2="1390"/>
</g>
<g cb-classname="PointStatusIndicator" cb-indicator-type="hardware" cb-source="xS-qx6-Ip" id="4vG" visibility="hidden">
<line cb-classname="GraphicLineEntity" class="algorithmline" id="4vn" x1="4460" x2="4360" y1="1340" y2="1340"/>
<line cb-classname="GraphicLineEntity" class="algorithmline" id="4vM" x1="4360" x2="4360" y1="1340" y2="1440"/>
<line cb-classname="GraphicLineEntity" class="algorithmline" id="4h0" x1="4360" x2="4460" y1="1440" y2="1440"/>
</g>
<g cb-classname="PointStatusIndicator" cb-indicator-type="alarm" cb-source="SY-anp-EL" id="4hm" visibility="hidden">
<text cb-classname="GraphicTextEntity" class="algorithm" fill="#000000" font-family="Arial" font-size="20" id="4hl" x="4470" y="1425">
A
</text>
</g>
<g cb-classname="PointStatusIndicator" cb-indicator-type="ingraphic" cb-source="I8-95q-qp" id="4ha" visibility="hidden">
<text cb-classname="GraphicTextEntity" class="algorithm" fill="#000000" font-family="Arial" font-size="20" id="4hy" x="4470" y="1375">
G
</text>
</g>
<g cb-classname="DynamicText" cb-labeled="false" cb-pin-name="Ej" cb-source="Ud-QhF-RO" class="algorithm" id="4h2" text-anchor="end">
<text baseline-shift="0%" cb-classname="GraphicTextEntity" class="algorithm" fill="black" font-family="arial" font-size="20" font-style="normal" font-weight="normal" id="4hN" text-anchor="end" text-decoration="normal" x="4335" y="1365"/>
</g>
<g baseline-shift="-100%" cb-anchor-x="4335" cb-anchor-y="1400" cb-classname="PointReferences" cb-max-width="130" cb-originator="false" cb-source="EX-iH5-CM" class="signal" id="4hG" text-anchor="end">
<text baseline-shift="-100%" cb-classname="GraphicTextEntity" class="algorithm" id="4hn" text-anchor="end" x="4335" y="1400">
REF: Point not
</text>
<text baseline-shift="-100%" cb-classname="GraphicTextEntity" class="algorithm" id="1sGT" text-anchor="end" x="4335" y="1425">
found in
</text>
<text baseline-shift="-100%" cb-classname="GraphicTextEntity" class="algorithm" id="1sGw" text-anchor="end" x="4335" y="1450">
database
</text>
<text baseline-shift="-100%" cb-classname="GraphicTextEntity" class="algorithm" id="1sGy" text-anchor="end" x="4335" y="1475">
(01B100-PWRI)
</text>
</g>
<g baseline-shift="-50%" cb-anchor-x="4515" cb-anchor-y="1405" cb-classname="PointDescription" cb-content="extended" cb-labeled="false" cb-max-width="240" cb-source="VD-rtt-aw" class="algorithm" id="4gm" text-anchor="start">
<text baseline-shift="-50%" cb-classname="GraphicTextEntity" class="algorithm" id="4gl" text-anchor="start" x="4515" y="1393">
DESC: Point not found in
</text>
<text baseline-shift="-50%" cb-classname="GraphicTextEntity" class="algorithm" id="1sG9" text-anchor="start" x="4515" y="1418">
database (01B100-PWRI)
</text>
</g>
</g>
<g cb-alg-i3aF="65" cb-alg-qCxh="3" cb-algorithm-id="014" cb-classname="ControlAlgorithm" cb-function-name="AVALGEN" cb-modify-id="00000001" id="7Bn">
<polygon cb-classname="GraphicPolygonEntity" class="algorithm" id="7BM" points="2630,1940 2670,1900 2630,1860 2590,1900"/>
<text baseline-shift="-50%" cb-classname="GraphicTextEntity" class="algorithm" font-size="44" id="7v0" text-anchor="middle" x="2630" y="1883">
A
</text>
<g cb-classname="ControlPin" cb-pin-name="Ud-QhF-DrG" id="7vm">
<line cb-classname="GraphicLineEntity" class="signalline" id="7vl" x1="2630" x2="2630" y1="1940" y2="1960"/>
<g cb-classname="DynamicText" cb-source="EX-r38-ian9" class="signal" id="7va" text-anchor="end">
<text cb-classname="GraphicTextEntity" class="signal" fill="black" font-style="normal" font-weight="normal" id="7vy" text-anchor="end" text-decoration="normal" transform="translate(2627,1954)rotate(-90)"/>
</g>
<g cb-classname="SignalSegment" id="7vG">
<line cb-classname="GraphicLineEntity" class="signalline" id="7vn" x1="2630" x2="2630" y1="1960" y2="2010"/>
<g cb-classname="SignalSegment" id="7vM">
<line cb-classname="GraphicLineEntity" class="signalline" id="7h0" x1="2630" x2="2860" y1="2010" y2="2010"/>
<g cb-classname="SignalSegment" id="7hm">
<line cb-classname="GraphicLineEntity" class="signalline" id="7hl" x1="2860" x2="2860" y1="2010" y2="2070"/>
<g cb-classname="SignalConnection" cb-graphic-line="$762$" cb-input-pin="$S5H$" id="7ha"/>
</g>
<line cb-classname="GraphicLineEntity" class="signalline" id="7hy" x1="2630" x2="2630" y1="2010" y2="2190"/>
<g cb-classname="SignalSegment" id="7h2">
<line cb-classname="GraphicLineEntity" class="signalline" id="7hN" x1="2630" x2="2860" y1="2190" y2="2190"/>
<g cb-classname="SignalSegment" id="7hG">
<line cb-classname="GraphicLineEntity" class="signalline" id="7hn" x1="2860" x2="2860" y1="2190" y2="2250"/>
<g cb-classname="SignalConnection" cb-graphic-line="$768$" cb-input-pin="$w7X$" id="7hM"/>
</g>
<line cb-classname="GraphicLineEntity" class="signalline" id="7gm" x1="2630" x2="2630" y1="2190" y2="2370"/>
<g cb-classname="SignalSegment" id="7gl">
<line cb-classname="GraphicLineEntity" class="signalline" id="7ga" x1="2630" x2="2860" y1="2370" y2="2370"/>
<g cb-classname="SignalSegment" id="7gy">
<line cb-classname="GraphicLineEntity" class="signalline" id="7g2" x1="2860" x2="2860" y1="2370" y2="2430"/>
<g cb-classname="SignalConnection" cb-graphic-line="$775$" cb-input-pin="$mlF$" id="7gN"/>
</g>
<line cb-classname="GraphicLineEntity" class="signalline" id="8g2" x1="2630" x2="2630" y1="2370" y2="2550"/>
<g cb-classname="SignalSegment" id="8gN">
<line cb-classname="GraphicLineEntity" class="signalline" id="8gG" x1="2630" x2="2860" y1="2550" y2="2550"/>
<g cb-classname="SignalSegment" id="8gn">
<line cb-classname="GraphicLineEntity" class="signalline" id="8gM" x1="2860" x2="2860" y1="2550" y2="2610"/>
<g cb-classname="SignalConnection" cb-graphic-line="$879$" cb-input-pin="$G3M$" id="8s0"/>
</g>
</g>
<ellipse cb-classname="GraphicEllipseEntity" class="signal" cx="2630" cy="2370" id="8sm" rx="5" ry="5"/>
</g>
<ellipse cb-classname="GraphicEllipseEntity" class="signal" cx="2630" cy="2190" id="7gG" rx="5" ry="5"/>
</g>
<ellipse cb-classname="GraphicEllipseEntity" class="signal" cx="2630" cy="2010" id="7g0" rx="5" ry="5"/>
</g>
</g>
</g>
<g cb-classname="DynamicText" cb-labeled="true" cb-source="ND-IgF-zan4" class="algorithm" id="7v2" text-anchor="start">
<text cb-classname="GraphicTextEntity" class="algorithm" fill="black" font-style="normal" font-weight="normal" id="7vN" text-anchor="start" text-decoration="normal" x="2600" y="1850"/>
</g>
</g>
<g cb-alg-49jq="$748$cb-alg-out$" cb-alg-7mo9o="RETRIGGABLE" cb-alg-O03F="POSITIVE" cb-alg-X4v="01B100-RTCI" cb-alg-awe="$100$cb-alg-pk3$" cb-alg-j9PK="1.000000" cb-alg-nKP="0" cb-alg-tUJq="98" cb-algorithm-id="00e" cb-classname="ControlAlgorithm" cb-function-name="ONESHOT" cb-modify-id="00000001" id="68n">
<rect cb-classname="GraphicRectangleEntity" class="algorithm" height="40" id="68M" width="80" x="2820" y="2090"/>
<g cb-classname="ControlPin" cb-pin-name="EX-iH5-3z0" id="6K0">
<line cb-classname="GraphicLineEntity" class="signalline" id="6Km" x1="2900" x2="2920" y1="2110" y2="2110"/>
<g cb-classname="DynamicText" cb-source="ND-Buk-7aAQ" class="signal" id="6Kl" text-anchor="start">
<text cb-classname="GraphicTextEntity" class="signal" fill="black" font-style="normal" font-weight="normal" id="6Ka" text-anchor="start" text-decoration="normal" x="2914" y="2107"/>
</g>
<g cb-classname="SignalSegment" id="6Ra">
<g cb-classname="SignalConnection" cb-graphic-line="$636$" cb-input-pin="$vn1$" id="6RG"/>
<line cb-classname="GraphicLineEntity" class="signalline" id="6RN" stroke="#1e12bf" stroke-dasharray="5,4" x1="2920" x2="4330" y1="2110" y2="2110"/>
</g>
</g>
<g cb-classname="ControlPin" cb-pin-name="VD-rtt-awe" id="6Ky">
<line cb-classname="GraphicLineEntity" class="signalline" id="6K2" x1="2800" x2="2820" y1="2110" y2="2110"/>
<polygon cb-classname="GraphicPolygonEntity" class="signal" id="6KN" points="2820,2110 2809,2104 2809,2115"/>
<g cb-classname="DynamicText" cb-source="SY-Faw-xUTo" class="signal" id="6KG" text-anchor="end">
<text cb-classname="GraphicTextEntity" class="signal" fill="black" font-style="normal" font-weight="normal" id="6Kn" text-anchor="end" text-decoration="normal" x="2805" y="2107"/>
</g>
</g>
<line cb-classname="GraphicLineEntity" class="algorithm" id="6KM" x1="2850" x2="2870" y1="2100" y2="2100"/>
<line cb-classname="GraphicLineEntity" class="algorithm" id="6W0" x1="2870" x2="2870" y1="2100" y2="2115"/>
<line cb-classname="GraphicLineEntity" class="algorithm" id="6Wm" x1="2870" x2="2886" y1="2115" y2="2115"/>
<line cb-classname="GraphicLineEntity" class="algorithm" id="6Wl" x1="2850" x2="2850" y1="2100" y2="2115"/>
<line cb-classname="GraphicLineEntity" class="algorithm" id="6Wa" x1="2850" x2="2835" y1="2115" y2="2115"/>
<g cb-classname="ControlPin" cb-pin-name="Cw-NjL-mJ1O" id="6Wn">
<line cb-classname="GraphicLineEntity" class="signalline" id="6WM" x1="2860" x2="2860" y1="2070" y2="2090"/>
<polygon cb-classname="GraphicPolygonEntity" class="signal" id="6R0" points="2860,2090 2865,2079 2854,2079"/>
<g cb-classname="DynamicText" cb-source="3u-bUT-LifA" class="signal" id="6Rm" text-anchor="start">
<text cb-classname="GraphicTextEntity" class="signal" fill="black" font-style="normal" font-weight="normal" id="6Rl" text-anchor="start" text-decoration="normal" transform="translate(2857,2075)rotate(-90)"/>
</g>
</g>
</g>
<g cb-alg-eb="$608$cb-alg-out$" cb-algorithm-id="00f" cb-classname="ExternalPointInterface" cb-function-name="OUTPUT" id="5gN">
<ellipse cb-classname="GraphicEllipseEntity" class="algorithm" cx="4410" cy="2110" id="5gG" rx="50" ry="50"/>
<rect cb-classname="GraphicRectangleEntity" class="algorithm" height="100" id="5gn" width="40" x="4460" y="2060"/>
<line cb-classname="GraphicLineEntity" class="algorithm" id="5gM" x1="4460" x2="4500" y1="2110" y2="2110"/>
<g cb-classname="ControlPin" cb-pin-name="I8-95q-qp" id="5s0">
<line cb-classname="GraphicLineEntity" class="signalline" id="5sm" x1="4330" x2="4360" y1="2110" y2="2110"/>
<polygon cb-classname="GraphicPolygonEntity" class="signal" id="5sl" points="4360,2110 4349,2104 4349,2115"/>
<g cb-classname="DynamicText" cb-source="I8-Nqp-OBco" class="signal" id="5sa" text-anchor="end">
<text cb-classname="GraphicTextEntity" class="signal" fill="black" font-style="normal" font-weight="normal" id="5sy" text-anchor="end" text-decoration="normal" x="4345" y="2107"/>
</g>
</g>
<g cb-classname="PointStatusIndicator" cb-indicator-type="highway" cb-source="cT-H8l-M7" id="5s2" visibility="hidden">
<line cb-classname="GraphicLineEntity" class="algorithmline" id="5sN" x1="4360" x2="4410" y1="2110" y2="2060"/>
<line cb-classname="GraphicLineEntity" class="algorithmline" id="5sG" x1="4410" x2="4460" y1="2060" y2="2110"/>
<line cb-classname="GraphicLineEntity" class="algorithmline" id="5sn" x1="4460" x2="4410" y1="2110" y2="2160"/>
<line cb-classname="GraphicLineEntity" class="algorithmline" id="5sM" x1="4410" x2="4360" y1="2160" y2="2110"/>
</g>
<g cb-classname="PointStatusIndicator" cb-indicator-type="hardware" cb-source="hz-CxF-px" id="5I0" visibility="hidden">
<line cb-classname="GraphicLineEntity" class="algorithmline" id="5Im" x1="4460" x2="4360" y1="2060" y2="2060"/>
<line cb-classname="GraphicLineEntity" class="algorithmline" id="5Il" x1="4360" x2="4360" y1="2060" y2="2160"/>
<line cb-classname="GraphicLineEntity" class="algorithmline" id="5Ia" x1="4360" x2="4460" y1="2160" y2="2160"/>
</g>
<g cb-classname="PointStatusIndicator" cb-indicator-type="alarm" cb-source="Bj-JsO-38" id="5Iy" visibility="hidden">
<text cb-classname="GraphicTextEntity" class="algorithm" fill="#000000" font-family="Arial" font-size="20" id="5I2" x="4470" y="2145">
A
</text>
</g>
<g cb-classname="PointStatusIndicator" cb-indicator-type="ingraphic" cb-source="I8-U5Z-Ai" id="5IN" visibility="hidden">
<text cb-classname="GraphicTextEntity" class="algorithm" fill="#000000" font-family="Arial" font-size="20" id="5IG" x="4470" y="2095">
G
</text>
</g>
<g cb-classname="DynamicText" cb-labeled="false" cb-pin-name="IZ" cb-source="cT-H8l-M7" class="algorithm" id="5In" text-anchor="end">
<text baseline-shift="0%" cb-classname="GraphicTextEntity" class="algorithm" fill="black" font-family="arial" font-size="20" font-style="normal" font-weight="normal" id="5IM" text-anchor="end" text-decoration="normal" x="4335" y="2085"/>
</g>
<g baseline-shift="-100%" cb-anchor-x="4335" cb-anchor-y="2120" cb-classname="PointReferences" cb-max-width="130" cb-originator="false" cb-source="xS-qx6-Ip" class="signal" id="680" text-anchor="end">
<text baseline-shift="-100%" cb-classname="GraphicTextEntity" class="algorithm" id="68m" text-anchor="end" x="4335" y="2120">
REF: Point not
</text>
<text baseline-shift="-100%" cb-classname="GraphicTextEntity" class="algorithm" id="1sn1" text-anchor="end" x="4335" y="2145">
found in
</text>
<text baseline-shift="-100%" cb-classname="GraphicTextEntity" class="algorithm" id="1snv" text-anchor="end" x="4335" y="2170">
database
</text>
<text baseline-shift="-100%" cb-classname="GraphicTextEntity" class="algorithm" id="1sn8" text-anchor="end" x="4335" y="2195">
(01B100-RTCI)
</text>
</g>
<g baseline-shift="-50%" cb-anchor-x="4515" cb-anchor-y="2125" cb-classname="PointDescription" cb-content="extended" cb-labeled="false" cb-max-width="240" cb-source="Cw-NjL-UT" class="algorithm" id="68l" text-anchor="start">
<text baseline-shift="-50%" cb-classname="GraphicTextEntity" class="algorithm" id="68a" text-anchor="start" x="4515" y="2113">
DESC: Point not found in
</text>
<text baseline-shift="-50%" cb-classname="GraphicTextEntity" class="algorithm" id="1snM" text-anchor="start" x="4515" y="2138">
database (01B100-RTCI)
</text>
</g>
</g>
<g cb-alg-GeqF="98" cb-alg-SI7M="1.000000" cb-alg-YMRf="POSITIVE" cb-alg-bR0mK="RETRIGGABLE" cb-alg-ePB="01B100SB-AONI" cb-alg-lB7="0" cb-alg-oILF="$748$cb-alg-out$" cb-alg-pi5="$100$cb-alg-pk4$" cb-algorithm-id="010" cb-classname="ControlAlgorithm" cb-function-name="ONESHOT" cb-modify-id="00000001" id="6B0">
<rect cb-classname="GraphicRectangleEntity" class="algorithm" height="40" id="6Bm" width="80" x="2820" y="2270"/>
<g cb-classname="ControlPin" cb-pin-name="hz-CxF-ovo" id="6Bl">
<line cb-classname="GraphicLineEntity" class="signalline" id="6Ba" x1="2900" x2="2920" y1="2290" y2="2290"/>
<g cb-classname="DynamicText" cb-source="3u-bUT-LifA" class="signal" id="6By" text-anchor="start">
<text cb-classname="GraphicTextEntity" class="signal" fill="black" font-style="normal" font-weight="normal" id="6B2" text-anchor="start" text-decoration="normal" x="2914" y="2287"/>
</g>
<g cb-classname="SignalSegment" id="6BN">
<g cb-classname="SignalConnection" cb-graphic-line="$648$" cb-input-pin="$cIP$" id="6BG"/>
<line cb-classname="GraphicLineEntity" class="signalline" id="6Bn" stroke="#1e12bf" stroke-dasharray="5,4" x1="2920" x2="4330" y1="2290" y2="2290"/>
</g>
</g>
<g cb-classname="ControlPin" cb-pin-name="EX-iH5-CMN" id="6BM">
<line cb-classname="GraphicLineEntity" class="signalline" id="6v0" x1="2800" x2="2820" y1="2290" y2="2290"/>
<polygon cb-classname="GraphicPolygonEntity" class="signal" id="6vm" points="2820,2290 2809,2284 2809,2295"/>
<g cb-classname="DynamicText" cb-source="xS-6RH-QfG3" class="signal" id="6vl" text-anchor="end">
<text cb-classname="GraphicTextEntity" class="signal" fill="black" font-style="normal" font-weight="normal" id="6va" text-anchor="end" text-decoration="normal" x="2805" y="2287"/>
</g>
</g>
<line cb-classname="GraphicLineEntity" class="algorithm" id="6vy" x1="2850" x2="2870" y1="2280" y2="2280"/>
<line cb-classname="GraphicLineEntity" class="algorithm" id="6v2" x1="2870" x2="2870" y1="2280" y2="2295"/>
<line cb-classname="GraphicLineEntity" class="algorithm" id="6vN" x1="2870" x2="2886" y1="2295" y2="2295"/>
<line cb-classname="GraphicLineEntity" class="algorithm" id="6vG" x1="2850" x2="2850" y1="2280" y2="2295"/>
<line cb-classname="GraphicLineEntity" class="algorithm" id="6vn" x1="2850" x2="2835" y1="2295" y2="2295"/>
<g cb-classname="ControlPin" cb-pin-name="Bj-JsO-AyYI" id="6vM">
<line cb-classname="GraphicLineEntity" class="signalline" id="6h0" x1="2860" x2="2860" y1="2250" y2="2270"/>
<polygon cb-classname="GraphicPolygonEntity" class="signal" id="6hm" points="2860,2270 2865,2259 2854,2259"/>
<g cb-classname="DynamicText" cb-source="EX-r38-ian9" class="signal" id="6hl" text-anchor="start">
<text cb-classname="GraphicTextEntity" class="signal" fill="black" font-style="normal" font-weight="normal" id="6ha" text-anchor="start" text-decoration="normal" transform="translate(2857,2255)rotate(-90)"/>
</g>
</g>
</g>
<g cb-alg-cP="$640$cb-alg-out$" cb-algorithm-id="011" cb-classname="ExternalPointInterface" cb-function-name="OUTPUT" id="6hy">
<ellipse cb-classname="GraphicEllipseEntity" class="algorithm" cx="4410" cy="2290" id="6h2" rx="50" ry="50"/>
<rect cb-classname="GraphicRectangleEntity" class="algorithm" height="100" id="6hN" width="40" x="4460" y="2240"/>
<line cb-classname="GraphicLineEntity" class="algorithm" id="6hG" x1="4460" x2="4500" y1="2290" y2="2290"/>
<g cb-classname="ControlPin" cb-pin-name="hz-CxF-px" id="6hn">
<line cb-classname="GraphicLineEntity" class="signalline" id="6hM" x1="4330" x2="4360" y1="2290" y2="2290"/>
<polygon cb-classname="GraphicPolygonEntity" class="signal" id="6g0" points="4360,2290 4349,2284 4349,2295"/>
<g cb-classname="DynamicText" cb-source="I8-Kpx-MlBC" class="signal" id="6gm" text-anchor="end">
<text cb-classname="GraphicTextEntity" class="signal" fill="black" font-style="normal" font-weight="normal" id="6gl" text-anchor="end" text-decoration="normal" x="4345" y="2287"/>
</g>
</g>
<g cb-classname="PointStatusIndicator" cb-indicator-type="highway" cb-source="Ud-QhF-RO" id="6ga" visibility="hidden">
<line cb-classname="GraphicLineEntity" class="algorithmline" id="6gy" x1="4360" x2="4410" y1="2290" y2="2240"/>
<line cb-classname="GraphicLineEntity" class="algorithmline" id="6g2" x1="4410" x2="4460" y1="2240" y2="2290"/>
<line cb-classname="GraphicLineEntity" class="algorithmline" id="6gN" x1="4460" x2="4410" y1="2290" y2="2340"/>
<line cb-classname="GraphicLineEntity" class="algorithmline" id="6gG" x1="4410" x2="4360" y1="2340" y2="2290"/>
</g>
<g cb-classname="PointStatusIndicator" cb-indicator-type="hardware" cb-source="xS-qx6-Ip" id="6gn" visibility="hidden">
<line cb-classname="GraphicLineEntity" class="algorithmline" id="6gM" x1="4460" x2="4360" y1="2240" y2="2240"/>
<line cb-classname="GraphicLineEntity" class="algorithmline" id="6s0" x1="4360" x2="4360" y1="2240" y2="2340"/>
<line cb-classname="GraphicLineEntity" class="algorithmline" id="6sm" x1="4360" x2="4460" y1="2340" y2="2340"/>
</g>
<g cb-classname="PointStatusIndicator" cb-indicator-type="alarm" cb-source="SY-anp-EL" id="6sl" visibility="hidden">
<text cb-classname="GraphicTextEntity" class="algorithm" fill="#000000" font-family="Arial" font-size="20" id="6sa" x="4470" y="2325">
A
</text>
</g>
<g cb-classname="PointStatusIndicator" cb-indicator-type="ingraphic" cb-source="I8-95q-qp" id="6sy" visibility="hidden">
<text cb-classname="GraphicTextEntity" class="algorithm" fill="#000000" font-family="Arial" font-size="20" id="6s2" x="4470" y="2275">
G
</text>
</g>
<g cb-classname="DynamicText" cb-labeled="false" cb-pin-name="Ej" cb-source="Ud-QhF-RO" class="algorithm" id="6sN" text-anchor="end">
<text baseline-shift="0%" cb-classname="GraphicTextEntity" class="algorithm" fill="black" font-family="arial" font-size="20" font-style="normal" font-weight="normal" id="6sG" text-anchor="end" text-decoration="normal" x="4335" y="2265"/>
</g>
<g baseline-shift="-100%" cb-anchor-x="4335" cb-anchor-y="2300" cb-classname="PointReferences" cb-max-width="130" cb-originator="false" cb-source="EX-iH5-CM" class="signal" id="6sn" text-anchor="end">
<text baseline-shift="-100%" cb-classname="GraphicTextEntity" class="algorithm" id="6sM" text-anchor="end" x="4335" y="2300">
REF: Point not
</text>
<text baseline-shift="-100%" cb-classname="GraphicTextEntity" class="algorithm" id="1snT" text-anchor="end" x="4335" y="2325">
found in
</text>
<text baseline-shift="-100%" cb-classname="GraphicTextEntity" class="algorithm" id="1snw" text-anchor="end" x="4335" y="2350">
database
</text>
<text baseline-shift="-100%" cb-classname="GraphicTextEntity" class="algorithm" id="1sny" text-anchor="end" x="4335" y="2375">
(01B100SB-AONI)
</text>
</g>
<g baseline-shift="-50%" cb-anchor-x="4515" cb-anchor-y="2305" cb-classname="PointDescription" cb-content="extended" cb-labeled="false" cb-max-width="240" cb-source="VD-rtt-aw" class="algorithm" id="6Il" text-anchor="start">
<text baseline-shift="-50%" cb-classname="GraphicTextEntity" class="algorithm" id="6Ia" text-anchor="start" x="4515" y="2293">
DESC: Point not found in
</text>
<text baseline-shift="-50%" cb-classname="GraphicTextEntity" class="algorithm" id="1sn9" text-anchor="start" x="4515" y="2318">
database (01B100SB-AONI)
</text>
</g>
</g>
<g cb-alg-0LK="01B100SB-AOFFI" cb-alg-BrUt="$748$cb-alg-out$" cb-alg-FRNt="98" cb-alg-LfeLh="RETRIGGABLE" cb-alg-RWZE="POSITIVE" cb-alg-gmg="0" cb-alg-ukT="$100$cb-alg-pk5$" cb-alg-wrgK="1.000000" cb-algorithm-id="012" cb-classname="ControlAlgorithm" cb-function-name="ONESHOT" cb-modify-id="00000001" id="6Iy">
<rect cb-classname="GraphicRectangleEntity" class="algorithm" height="40" id="6I2" width="80" x="2820" y="2450"/>
<g cb-classname="ControlPin" cb-pin-name="3u-fRw-ghA" id="6IN">
<line cb-classname="GraphicLineEntity" class="signalline" id="6IG" x1="2900" x2="2920" y1="2470" y2="2470"/>
<g cb-classname="DynamicText" cb-source="Bj-qEL-py9S" class="signal" id="6In" text-anchor="start">
<text cb-classname="GraphicTextEntity" class="signal" fill="black" font-style="normal" font-weight="normal" id="6IM" text-anchor="start" text-decoration="normal" x="2914" y="2467"/>
</g>
<g cb-classname="SignalSegment" id="780">
<g cb-classname="SignalConnection" cb-graphic-line="$702$" cb-input-pin="$w5H$" id="78m"/>
<line cb-classname="GraphicLineEntity" class="signalline" id="78l" stroke="#1e12bf" stroke-dasharray="5,4" x1="2920" x2="4330" y1="2470" y2="2470"/>
</g>
</g>
<g cb-classname="ControlPin" cb-pin-name="ND-IgF-3Qi" id="78a">
<line cb-classname="GraphicLineEntity" class="signalline" id="78y" x1="2800" x2="2820" y1="2470" y2="2470"/>
<polygon cb-classname="GraphicPolygonEntity" class="signal" id="782" points="2820,2470 2809,2464 2809,2475"/>
<g cb-classname="DynamicText" cb-source="Cw-b3Q-wJIA" class="signal" id="78N" text-anchor="end">
<text cb-classname="GraphicTextEntity" class="signal" fill="black" font-style="normal" font-weight="normal" id="78G" text-anchor="end" text-decoration="normal" x="2805" y="2467"/>
</g>
</g>
<line cb-classname="GraphicLineEntity" class="algorithm" id="78n" x1="2850" x2="2870" y1="2460" y2="2460"/>
<line cb-classname="GraphicLineEntity" class="algorithm" id="78M" x1="2870" x2="2870" y1="2460" y2="2475"/>
<line cb-classname="GraphicLineEntity" class="algorithm" id="7K0" x1="2870" x2="2886" y1="2475" y2="2475"/>
<line cb-classname="GraphicLineEntity" class="algorithm" id="7Km" x1="2850" x2="2850" y1="2460" y2="2475"/>
<line cb-classname="GraphicLineEntity" class="algorithm" id="7Kl" x1="2850" x2="2835" y1="2475" y2="2475"/>
<g cb-classname="ControlPin" cb-pin-name="I8-U5Z-mBer" id="7Ka">
<line cb-classname="GraphicLineEntity" class="signalline" id="7Ky" x1="2860" x2="2860" y1="2430" y2="2450"/>
<polygon cb-classname="GraphicPolygonEntity" class="signal" id="7K2" points="2860,2450 2865,2439 2854,2439"/>
<g cb-classname="DynamicText" cb-source="ND-Buk-7aAQ" class="signal" id="7KN" text-anchor="start">
<text cb-classname="GraphicTextEntity" class="signal" fill="black" font-style="normal" font-weight="normal" id="7KG" text-anchor="start" text-decoration="normal" transform="translate(2857,2435)rotate(-90)"/>
</g>
</g>
</g>
<g cb-alg-pi="$694$cb-alg-out$" cb-algorithm-id="013" cb-classname="ExternalPointInterface" cb-function-name="OUTPUT" id="7Kn">
<ellipse cb-classname="GraphicEllipseEntity" class="algorithm" cx="4410" cy="2470" id="7KM" rx="50" ry="50"/>
<rect cb-classname="GraphicRectangleEntity" class="algorithm" height="100" id="7W0" width="40" x="4460" y="2420"/>
<line cb-classname="GraphicLineEntity" class="algorithm" id="7Wm" x1="4460" x2="4500" y1="2470" y2="2470"/>
<g cb-classname="ControlPin" cb-pin-name="3u-fRw-qM" id="7Wl">
<line cb-classname="GraphicLineEntity" class="signalline" id="7Wa" x1="4330" x2="4360" y1="2470" y2="2470"/>
<polygon cb-classname="GraphicPolygonEntity" class="signal" id="7Wy" points="4360,2470 4349,2464 4349,2475"/>
<g cb-classname="DynamicText" cb-source="Ud-9qM-8jdG" class="signal" id="7W2" text-anchor="end">
<text cb-classname="GraphicTextEntity" class="signal" fill="black" font-style="normal" font-weight="normal" id="7WN" text-anchor="end" text-decoration="normal" x="4345" y="2467"/>
</g>
</g>
<g cb-classname="PointStatusIndicator" cb-indicator-type="highway" cb-source="EX-iH5-CM" id="7WG" visibility="hidden">
<line cb-classname="GraphicLineEntity" class="algorithmline" id="7Wn" x1="4360" x2="4410" y1="2470" y2="2420"/>
<line cb-classname="GraphicLineEntity" class="algorithmline" id="7WM" x1="4410" x2="4460" y1="2420" y2="2470"/>
<line cb-classname="GraphicLineEntity" class="algorithmline" id="7R0" x1="4460" x2="4410" y1="2470" y2="2520"/>
<line cb-classname="GraphicLineEntity" class="algorithmline" id="7Rm" x1="4410" x2="4360" y1="2520" y2="2470"/>
</g>
<g cb-classname="PointStatusIndicator" cb-indicator-type="hardware" cb-source="Cw-NjL-UT" id="7Rl" visibility="hidden">
<line cb-classname="GraphicLineEntity" class="algorithmline" id="7Ra" x1="4460" x2="4360" y1="2420" y2="2420"/>
<line cb-classname="GraphicLineEntity" class="algorithmline" id="7Ry" x1="4360" x2="4360" y1="2420" y2="2520"/>
<line cb-classname="GraphicLineEntity" class="algorithmline" id="7R2" x1="4360" x2="4460" y1="2520" y2="2520"/>
</g>
<g cb-classname="PointStatusIndicator" cb-indicator-type="alarm" cb-source="I8-95q-qp" id="7RN" visibility="hidden">
<text cb-classname="GraphicTextEntity" class="algorithm" fill="#000000" font-family="Arial" font-size="20" id="7RG" x="4470" y="2505">
A
</text>
</g>
<g cb-classname="PointStatusIndicator" cb-indicator-type="ingraphic" cb-source="Ud-QhF-RO" id="7Rn" visibility="hidden">
<text cb-classname="GraphicTextEntity" class="algorithm" fill="#000000" font-family="Arial" font-size="20" id="7RM" x="4470" y="2455">
G
</text>
</g>
<g cb-classname="DynamicText" cb-labeled="false" cb-pin-name="lS" cb-source="EX-iH5-CM" class="algorithm" id="7B0" text-anchor="end">
<text baseline-shift="0%" cb-classname="GraphicTextEntity" class="algorithm" fill="black" font-family="arial" font-size="20" font-style="normal" font-weight="normal" id="7Bm" text-anchor="end" text-decoration="normal" x="4335" y="2445"/>
</g>
<g baseline-shift="-100%" cb-anchor-x="4335" cb-anchor-y="2480" cb-classname="PointReferences" cb-max-width="130" cb-originator="false" cb-source="ND-IgF-3Q" class="signal" id="7Bl" text-anchor="end">
<text baseline-shift="-100%" cb-classname="GraphicTextEntity" class="algorithm" id="7Ba" text-anchor="end" x="4335" y="2480">
REF: Point not
</text>
<text baseline-shift="-100%" cb-classname="GraphicTextEntity" class="algorithm" id="1sM1" text-anchor="end" x="4335" y="2505">
found in
</text>
<text baseline-shift="-100%" cb-classname="GraphicTextEntity" class="algorithm" id="1sMv" text-anchor="end" x="4335" y="2530">
database
</text>
<text baseline-shift="-100%" cb-classname="GraphicTextEntity" class="algorithm" id="1sM8" text-anchor="end" x="4335" y="2555">
(01B100SB-AOFFI)
</text>
</g>
<g baseline-shift="-50%" cb-anchor-x="4515" cb-anchor-y="2485" cb-classname="PointDescription" cb-content="extended" cb-labeled="false" cb-max-width="240" cb-source="hz-CxF-px" class="algorithm" id="7BN" text-anchor="start">
<text baseline-shift="-50%" cb-classname="GraphicTextEntity" class="algorithm" id="7BG" text-anchor="start" x="4515" y="2473">
DESC: Point not found in
</text>
<text baseline-shift="-50%" cb-classname="GraphicTextEntity" class="algorithm" id="1sMM" text-anchor="start" x="4515" y="2498">
database (01B100SB-AOFFI)
</text>
</g>
</g>
<g cb-alg-34Ao="POSITIVE" cb-alg-59w="0" cb-alg-8Qw7="1.000000" cb-alg-gEUF="98" cb-alg-jFgrA="RETRIGGABLE" cb-alg-ovo="01B100-RSTI" cb-alg-pxn="$100$cb-alg-pk6$" cb-alg-vQaF="$748$cb-alg-out$" cb-algorithm-id="008" cb-classname="ControlAlgorithm" cb-function-name="ONESHOT" cb-modify-id="00000001" id="8Kn">
<rect cb-classname="GraphicRectangleEntity" class="algorithm" height="40" id="8KM" width="80" x="2820" y="2630"/>
<g cb-classname="ControlPin" cb-pin-name="ND-IgF-l14" id="8W0">
<line cb-classname="GraphicLineEntity" class="signalline" id="8Wm" x1="2900" x2="2920" y1="2650" y2="2650"/>
<g cb-classname="DynamicText" cb-source="VD-mM7-p9nK" class="signal" id="8Wl" text-anchor="start">
<text cb-classname="GraphicTextEntity" class="signal" fill="black" font-style="normal" font-weight="normal" id="8Wa" text-anchor="start" text-decoration="normal" x="2914" y="2647"/>
</g>
<g cb-classname="SignalSegment" id="8Wy">
<g cb-classname="SignalConnection" cb-graphic-line="$826$" cb-input-pin="$8pk$" id="8W2"/>
<line cb-classname="GraphicLineEntity" class="signalline" id="8WN" stroke="#1e12bf" stroke-dasharray="5,4" x1="2920" x2="4330" y1="2650" y2="2650"/>
</g>
</g>
<g cb-classname="ControlPin" cb-pin-name="I8-95q-qpK" id="8WG">
<line cb-classname="GraphicLineEntity" class="signalline" id="8Wn" x1="2800" x2="2820" y1="2650" y2="2650"/>
<polygon cb-classname="GraphicPolygonEntity" class="signal" id="8WM" points="2820,2650 2809,2644 2809,2655"/>
<g cb-classname="DynamicText" cb-source="I8-Nqp-OBco" class="signal" id="8R0" text-anchor="end">
<text cb-classname="GraphicTextEntity" class="signal" fill="black" font-style="normal" font-weight="normal" id="8Rm" text-anchor="end" text-decoration="normal" x="2805" y="2647"/>
</g>
</g>
<line cb-classname="GraphicLineEntity" class="algorithm" id="8Rl" x1="2850" x2="2870" y1="2640" y2="2640"/>
<line cb-classname="GraphicLineEntity" class="algorithm" id="8Ra" x1="2870" x2="2870" y1="2640" y2="2655"/>
<line cb-classname="GraphicLineEntity" class="algorithm" id="8Ry" x1="2870" x2="2886" y1="2655" y2="2655"/>
<line cb-classname="GraphicLineEntity" class="algorithm" id="8R2" x1="2850" x2="2850" y1="2640" y2="2655"/>
<line cb-classname="GraphicLineEntity" class="algorithm" id="8RN" x1="2850" x2="2835" y1="2655" y2="2655"/>
<g cb-classname="ControlPin" cb-pin-name="hz-CxF-vQaF" id="8RG">
<line cb-classname="GraphicLineEntity" class="signalline" id="8Rn" x1="2860" x2="2860" y1="2610" y2="2630"/>
<polygon cb-classname="GraphicPolygonEntity" class="signal" id="8RM" points="2860,2630 2865,2619 2854,2619"/>
<g cb-classname="DynamicText" cb-source="I8-Kpx-MlBC" class="signal" id="8B0" text-anchor="start">
<text cb-classname="GraphicTextEntity" class="signal" fill="black" font-style="normal" font-weight="normal" id="8Bm" text-anchor="start" text-decoration="normal" transform="translate(2857,2615)rotate(-90)"/>
</g>
</g>
</g>
<g cb-alg-aw="$818$cb-alg-out$" cb-algorithm-id="009" cb-classname="ExternalPointInterface" cb-function-name="OUTPUT" id="8Bl">
<ellipse cb-classname="GraphicEllipseEntity" class="algorithm" cx="4410" cy="2650" id="8Ba" rx="50" ry="50"/>
<rect cb-classname="GraphicRectangleEntity" class="algorithm" height="100" id="8By" width="40" x="4460" y="2600"/>
<line cb-classname="GraphicLineEntity" class="algorithm" id="8B2" x1="4460" x2="4500" y1="2650" y2="2650"/>
<g cb-classname="ControlPin" cb-pin-name="ND-IgF-3Q" id="8BN">
<line cb-classname="GraphicLineEntity" class="signalline" id="8BG" x1="4330" x2="4360" y1="2650" y2="2650"/>
<polygon cb-classname="GraphicPolygonEntity" class="signal" id="8Bn" points="4360,2650 4349,2644 4349,2655"/>
<g cb-classname="DynamicText" cb-source="Cw-b3Q-wJIA" class="signal" id="8BM" text-anchor="end">
<text cb-classname="GraphicTextEntity" class="signal" fill="black" font-style="normal" font-weight="normal" id="8v0" text-anchor="end" text-decoration="normal" x="4345" y="2647"/>
</g>
</g>
<g cb-classname="PointStatusIndicator" cb-indicator-type="highway" cb-source="SY-anp-EL" id="8vm" visibility="hidden">
<line cb-classname="GraphicLineEntity" class="algorithmline" id="8vl" x1="4360" x2="4410" y1="2650" y2="2600"/>
<line cb-classname="GraphicLineEntity" class="algorithmline" id="8va" x1="4410" x2="4460" y1="2600" y2="2650"/>
<line cb-classname="GraphicLineEntity" class="algorithmline" id="8vy" x1="4460" x2="4410" y1="2650" y2="2700"/>
<line cb-classname="GraphicLineEntity" class="algorithmline" id="8v2" x1="4410" x2="4360" y1="2700" y2="2650"/>
</g>
<g cb-classname="PointStatusIndicator" cb-indicator-type="hardware" cb-source="I8-U5Z-Ai" id="8vN" visibility="hidden">
<line cb-classname="GraphicLineEntity" class="algorithmline" id="8vG" x1="4460" x2="4360" y1="2600" y2="2600"/>
<line cb-classname="GraphicLineEntity" class="algorithmline" id="8vn" x1="4360" x2="4360" y1="2600" y2="2700"/>
<line cb-classname="GraphicLineEntity" class="algorithmline" id="8vM" x1="4360" x2="4460" y1="2700" y2="2700"/>
</g>
<g cb-classname="PointStatusIndicator" cb-indicator-type="alarm" cb-source="xS-qx6-Ip" id="8h0" visibility="hidden">
<text cb-classname="GraphicTextEntity" class="algorithm" fill="#000000" font-family="Arial" font-size="20" id="8hm" x="4470" y="2685">
A
</text>
</g>
<g cb-classname="PointStatusIndicator" cb-indicator-type="ingraphic" cb-source="Cw-NjL-UT" id="8hl" visibility="hidden">
<text cb-classname="GraphicTextEntity" class="algorithm" fill="#000000" font-family="Arial" font-size="20" id="8ha" x="4470" y="2635">
G
</text>
</g>
<g cb-classname="DynamicText" cb-labeled="false" cb-pin-name="cx" cb-source="SY-anp-EL" class="algorithm" id="8hy" text-anchor="end">
<text baseline-shift="0%" cb-classname="GraphicTextEntity" class="algorithm" fill="black" font-family="arial" font-size="20" font-style="normal" font-weight="normal" id="8h2" text-anchor="end" text-decoration="normal" x="4335" y="2625"/>
</g>
<g baseline-shift="-100%" cb-anchor-x="4335" cb-anchor-y="2660" cb-classname="PointReferences" cb-max-width="130" cb-originator="false" cb-source="I8-95q-qp" class="signal" id="8hN" text-anchor="end">
<text baseline-shift="-100%" cb-classname="GraphicTextEntity" class="algorithm" id="8hG" text-anchor="end" x="4335" y="2660">
REF: Point not
</text>
<text baseline-shift="-100%" cb-classname="GraphicTextEntity" class="algorithm" id="1sMT" text-anchor="end" x="4335" y="2685">
found in
</text>
<text baseline-shift="-100%" cb-classname="GraphicTextEntity" class="algorithm" id="1sMw" text-anchor="end" x="4335" y="2710">
database
</text>
<text baseline-shift="-100%" cb-classname="GraphicTextEntity" class="algorithm" id="1sMy" text-anchor="end" x="4335" y="2735">
(01B100-RSTI)
</text>
</g>
<g baseline-shift="-50%" cb-anchor-x="4515" cb-anchor-y="2665" cb-classname="PointDescription" cb-content="extended" cb-labeled="false" cb-max-width="240" cb-source="EX-iH5-CM" class="algorithm" id="8g0" text-anchor="start">
<text baseline-shift="-50%" cb-classname="GraphicTextEntity" class="algorithm" id="8gm" text-anchor="start" x="4515" y="2653">
DESC: Point not found in
</text>
<text baseline-shift="-50%" cb-classname="GraphicTextEntity" class="algorithm" id="1sM9" text-anchor="start" x="4515" y="2678">
database (01B100-RSTI)
</text>
</g>
</g>
<g cb-alg-X4v="01B100DRN-EPZ" cb-alg-XBpq="NO" cb-algorithm-id="015" cb-classname="ExternalPointInterface" cb-function-name="INPUT" id="18Gw">
<ellipse cb-classname="GraphicEllipseEntity" class="algorithm" cx="610" cy="2830" id="18Gy" rx="50" ry="50"/>
<rect cb-classname="GraphicRectangleEntity" class="algorithm" height="100" id="18G9" width="40" x="520" y="2780"/>
<line cb-classname="GraphicLineEntity" class="algorithm" id="18GK" x1="520" x2="560" y1="2830" y2="2830"/>
<g cb-classname="ControlPin" cb-pin-name="ND-IgF-l14" id="18n1">
<line cb-classname="GraphicLineEntity" class="signalline" id="18nv" x1="660" x2="690" y1="2830" y2="2830"/>
<g cb-classname="DynamicText" cb-source="VD-mM7-p9nK" class="signal" id="18n8" text-anchor="start">
<text cb-classname="GraphicTextEntity" class="signal" fill="black" font-style="normal" font-weight="normal" id="18nM" text-anchor="start" text-decoration="normal" x="674" y="2827"/>
</g>
<g cb-classname="SignalSegment" id="1K0M">
<g cb-classname="SignalConnection" cb-graphic-line="$1106$" cb-input-pin="$vOWi$" id="1K0y"/>
<line cb-classname="GraphicLineEntity" class="signalline" id="1K0w" stroke="#1e12bf" stroke-dasharray="5,4" x1="690" x2="2820" y1="2830" y2="2830"/>
</g>
</g>
<g cb-classname="PointStatusIndicator" cb-indicator-type="Highway" cb-source="hz-CxF-ovo" id="18nz" visibility="hidden">
<line cb-classname="GraphicLineEntity" class="algorithmline" id="18nT" x1="560" x2="610" y1="2830" y2="2780"/>
<line cb-classname="GraphicLineEntity" class="algorithmline" id="18nw" x1="610" x2="660" y1="2780" y2="2830"/>
<line cb-classname="GraphicLineEntity" class="algorithmline" id="18ny" x1="660" x2="610" y1="2830" y2="2880"/>
<line cb-classname="GraphicLineEntity" class="algorithmline" id="18n9" x1="610" x2="560" y1="2880" y2="2830"/>
</g>
<g cb-classname="PointStatusIndicator" cb-indicator-type="hardware" cb-source="Ud-QhF-DrG" id="18nK" visibility="visible">
<line cb-classname="GraphicLineEntity" class="algorithmline" id="18M1" x1="560" x2="660" y1="2780" y2="2780"/>
<line cb-classname="GraphicLineEntity" class="algorithmline" id="18Mv" x1="660" x2="660" y1="2780" y2="2880"/>
<line cb-classname="GraphicLineEntity" class="algorithmline" id="18M8" x1="660" x2="560" y1="2880" y2="2880"/>
</g>
<g cb-classname="PointStatusIndicator" cb-indicator-type="alarm" cb-source="ND-IgF-l14" id="18MM" visibility="hidden">
<text cb-classname="GraphicTextEntity" class="algorithm" fill="#000000" font-family="arial" font-size="20" id="18Mz" x="530" y="2815">
A
</text>
</g>
<g cb-classname="PointStatusIndicator" cb-indicator-type="ingraphic" cb-source="VD-rtt-X4v" id="18MT" visibility="visible">
<text cb-classname="GraphicTextEntity" class="algorithm" fill="#000000" font-family="Arial" font-size="20" id="18Mw" x="530" y="2865">
G
</text>
</g>
<g baseline-shift="-50%" cb-anchor-x="510" cb-anchor-y="2844" cb-classname="PointDescription" cb-content="extended" cb-labeled="false" cb-max-width="220" cb-source="hz-CxF-ovo" class="algorithm" id="18My" text-anchor="end">
<text baseline-shift="-50%" cb-classname="GraphicTextEntity" class="algorithm" id="18M9" text-anchor="end" x="510" y="2819">
DESC: Point not found in
</text>
<text baseline-shift="-50%" cb-classname="GraphicTextEntity" class="algorithm" id="1I01" text-anchor="end" x="510" y="2844">
database
</text>
<text baseline-shift="-50%" cb-classname="GraphicTextEntity" class="algorithm" id="1I0v" text-anchor="end" x="510" y="2869">
(01B100DRN-EPZ)
</text>
</g>
<g cb-classname="DynamicText" cb-labeled="false" cb-pin-name="dff" cb-source="3u-fRw-ghA" class="algorithm" id="18MK" text-anchor="start">
<text baseline-shift="0%" cb-classname="GraphicTextEntity" class="algorithm" fill="black" font-family="arial" font-size="20" font-style="normal" font-weight="normal" id="1K01" text-anchor="start" text-decoration="normal" x="680" y="2800"/>
</g>
<g baseline-shift="-100%" cb-anchor-x="680" cb-anchor-y="2840" cb-classname="PointReferences" cb-max-width="230" cb-originator="true" cb-source="Bj-JsO-SJm" class="signal" id="1K0v" text-anchor="start">
<text baseline-shift="-100%" cb-classname="GraphicTextEntity" class="algorithm" id="1K08" text-anchor="start" x="680" y="2840">
REF: Point not found in
</text>
<text baseline-shift="-100%" cb-classname="GraphicTextEntity" class="algorithm" id="1I08" text-anchor="start" x="680" y="2865">
database (01B100DRN-EPZ)
</text>
</g>
</g>
<g cb-alg-dWR="01B100DRN-EPO" cb-alg-p7F="$1076$cb-alg-out$" cb-algorithm-id="00c" cb-classname="FastBooleanAlgorithm" cb-function-name="NOT" id="18lK">
<rect cb-classname="GraphicRectangleEntity" class="algorithm" height="40" id="18a1" width="40" x="2840" y="2810"/>
<g cb-classname="ControlPin" cb-pin-name="Cw-NjL-UTG" id="18av">
<line cb-classname="GraphicLineEntity" class="signalline" id="18a8" x1="2820" x2="2840" y1="2830" y2="2830"/>
<polygon cb-classname="GraphicPolygonEntity" class="signal" id="18aM" points="2840,2830 2829,2824 2829,2835"/>
<g cb-classname="DynamicText" cb-source="3u-bUT-LifA" class="signal" id="18az" text-anchor="end">
<text cb-classname="GraphicTextEntity" class="signal" fill="black" font-style="normal" font-weight="normal" id="18aT" text-anchor="end" text-decoration="normal" x="2825" y="2827"/>
</g>
</g>
<g cb-classname="ControlPin" cb-pin-name="Bj-JsO-SJm" id="18aw">
<line cb-classname="GraphicLineEntity" class="signalline" id="18ay" x1="2880" x2="2900" y1="2830" y2="2830"/>
<g cb-classname="DynamicText" cb-source="I8-Nqp-OBco" class="signal" id="18a9" text-anchor="start">
<text cb-classname="GraphicTextEntity" class="signal" fill="black" font-style="normal" font-weight="normal" id="18aK" text-anchor="start" text-decoration="normal" x="2894" y="2827"/>
</g>
<g cb-classname="SignalSegment" id="18Gv">
<g cb-classname="SignalConnection" cb-graphic-line="$1074$" cb-input-pin="$i2Nw$" id="18GT"/>
<line cb-classname="GraphicLineEntity" class="signalline" id="18Gz" stroke="#1e12bf" stroke-dasharray="5,4" x1="2900" x2="4330" y1="2830" y2="2830"/>
</g>
</g>
<line cb-classname="GraphicLineEntity" class="algorithm" id="18y1" x1="2850" x2="2850" y1="2820" y2="2840"/>
<line cb-classname="GraphicLineEntity" class="algorithm" id="18yv" x1="2850" x2="2870" y1="2820" y2="2840"/>
<line cb-classname="GraphicLineEntity" class="algorithm" id="18y8" x1="2870" x2="2870" y1="2840" y2="2820"/>
</g>
<g cb-alg-pi="$1029$cb-alg-out$" cb-algorithm-id="00d" cb-classname="ExternalPointInterface" cb-function-name="OUTPUT" id="18yM">
<ellipse cb-classname="GraphicEllipseEntity" class="algorithm" cx="4410" cy="2830" id="18yz" rx="50" ry="50"/>
<rect cb-classname="GraphicRectangleEntity" class="algorithm" height="100" id="18yT" width="40" x="4460" y="2780"/>
<line cb-classname="GraphicLineEntity" class="algorithm" id="18yw" x1="4460" x2="4500" y1="2830" y2="2830"/>
<g cb-classname="ControlPin" cb-pin-name="3u-fRw-qM" id="18yy">
<line cb-classname="GraphicLineEntity" class="signalline" id="18y9" x1="4330" x2="4360" y1="2830" y2="2830"/>
<polygon cb-classname="GraphicPolygonEntity" class="signal" id="18yK" points="4360,2830 4349,2824 4349,2835"/>
<g cb-classname="DynamicText" cb-source="Ud-9qM-8jdG" class="signal" id="1821" text-anchor="end">
<text cb-classname="GraphicTextEntity" class="signal" fill="black" font-style="normal" font-weight="normal" id="182v" text-anchor="end" text-decoration="normal" x="4345" y="2827"/>
</g>
</g>
<g cb-classname="PointStatusIndicator" cb-indicator-type="highway" cb-source="EX-iH5-CM" id="1828" visibility="hidden">
<line cb-classname="GraphicLineEntity" class="algorithmline" id="182M" x1="4360" x2="4410" y1="2830" y2="2780"/>
<line cb-classname="GraphicLineEntity" class="algorithmline" id="182z" x1="4410" x2="4460" y1="2780" y2="2830"/>
<line cb-classname="GraphicLineEntity" class="algorithmline" id="182T" x1="4460" x2="4410" y1="2830" y2="2880"/>
<line cb-classname="GraphicLineEntity" class="algorithmline" id="182w" x1="4410" x2="4360" y1="2880" y2="2830"/>
</g>
<g cb-classname="PointStatusIndicator" cb-indicator-type="hardware" cb-source="Cw-NjL-UT" id="182y" visibility="hidden">
<line cb-classname="GraphicLineEntity" class="algorithmline" id="1829" x1="4460" x2="4360" y1="2780" y2="2780"/>
<line cb-classname="GraphicLineEntity" class="algorithmline" id="182K" x1="4360" x2="4360" y1="2780" y2="2880"/>
<line cb-classname="GraphicLineEntity" class="algorithmline" id="18N1" x1="4360" x2="4460" y1="2880" y2="2880"/>
</g>
<g cb-classname="PointStatusIndicator" cb-indicator-type="alarm" cb-source="I8-95q-qp" id="18Nv" visibility="hidden">
<text cb-classname="GraphicTextEntity" class="algorithm" fill="#000000" font-family="Arial" font-size="20" id="18N8" x="4470" y="2865">
A
</text>
</g>
<g cb-classname="PointStatusIndicator" cb-indicator-type="ingraphic" cb-source="Ud-QhF-RO" id="18NM" visibility="hidden">
<text cb-classname="GraphicTextEntity" class="algorithm" fill="#000000" font-family="Arial" font-size="20" id="18Nz" x="4470" y="2815">
G
</text>
</g>
<g cb-classname="DynamicText" cb-labeled="false" cb-pin-name="lS" cb-source="EX-iH5-CM" class="algorithm" id="18NT" text-anchor="end">
<text baseline-shift="0%" cb-classname="GraphicTextEntity" class="algorithm" fill="black" font-family="arial" font-size="20" font-style="normal" font-weight="normal" id="18Nw" text-anchor="end" text-decoration="normal" x="4335" y="2805"/>
</g>
<g baseline-shift="-100%" cb-anchor-x="4335" cb-anchor-y="2840" cb-classname="PointReferences" cb-max-width="130" cb-originator="false" cb-source="ND-IgF-3Q" class="signal" id="18Ny" text-anchor="end">
<text baseline-shift="-100%" cb-classname="GraphicTextEntity" class="algorithm" id="18N9" text-anchor="end" x="4335" y="2840">
REF: Point not
</text>
<text baseline-shift="-100%" cb-classname="GraphicTextEntity" class="algorithm" id="1I0z" text-anchor="end" x="4335" y="2865">
found in
</text>
<text baseline-shift="-100%" cb-classname="GraphicTextEntity" class="algorithm" id="1I0T" text-anchor="end" x="4335" y="2890">
database
</text>
<text baseline-shift="-100%" cb-classname="GraphicTextEntity" class="algorithm" id="1I0w" text-anchor="end" x="4335" y="2915">
(01B100DRN-EPO)
</text>
</g>
<g baseline-shift="-50%" cb-anchor-x="4515" cb-anchor-y="2845" cb-classname="PointDescription" cb-content="extended" cb-labeled="false" cb-max-width="240" cb-source="VD-rtt-aw" class="algorithm" id="18NK" text-anchor="start">
<text baseline-shift="-50%" cb-classname="GraphicTextEntity" class="algorithm" id="18G1" text-anchor="start" x="4515" y="2833">
DESC: Point not found in
</text>
<text baseline-shift="-50%" cb-classname="GraphicTextEntity" class="algorithm" id="1I0y" text-anchor="start" x="4515" y="2858">
database (01B100DRN-EPO)
</text>
</g>
</g>
</g>
<g cb-classname="IncludeDocument" cb-modify-time="09/25/2018 01:40:30" cb-objectname="Frame" id="5">
<text cb-classname="GraphicTextEntity" class="frame" font-size="50" id="1IG1" x="3660" y="3146">
Project Title &lt;Edit in FRAME.SVG&gt;
</text>
<g baseline-shift="-50%" cb-classname="DynamicText" cb-source="I8-0jZN-34" class="frame" id="1IGv">
<text cb-classname="GraphicTextEntity" class="frame" fill="black" font-family="arial" font-size="25" font-style="normal" font-weight="normal" id="1IG8" text-decoration="normal" x="4715" y="3325">
15
</text>
</g>
<g baseline-shift="-50%" cb-classname="DynamicText" cb-source="Ud-4a3t-Ap" class="frame" id="1IGM" text-anchor="middle">
<text cb-classname="GraphicTextEntity" class="frame" fill="black" font-family="arial" font-size="48" font-style="normal" font-weight="normal" id="1IGz" text-anchor="middle" text-decoration="normal" x="4900" y="3320">
15
</text>
</g>
<g baseline-shift="-50%" cb-classname="DynamicText" cb-source="EX-olMM-F2" class="frame" id="1IGT" text-anchor="middle">
<text cb-classname="GraphicTextEntity" class="frame" fill="black" font-family="arial" font-size="48" font-style="normal" font-weight="normal" id="1IGw" text-anchor="middle" text-decoration="normal" x="5067" y="3324">
4
</text>
</g>
<g cb-classname="DynamicText" cb-source="ND-vGMZE-4UvsA" class="frame" id="1IGy">
<text cb-classname="GraphicTextEntity" class="frame" fill="black" font-family="arial" font-size="48" font-style="normal" font-weight="normal" id="1IG9" text-decoration="normal" x="3660" y="3224">
B100 - SOOT BLOWERS pt.3
</text>
</g>
<g baseline-shift="-50%" cb-classname="DynamicText" cb-source="VD-5zKo4-Tv02or" class="frame" id="1IGK" text-anchor="middle">
<text cb-classname="GraphicTextEntity" class="frame" fill="black" font-family="arial" font-size="48" font-style="normal" font-weight="normal" id="1In1" text-anchor="middle" text-decoration="normal" x="5270" y="3324">
302
</text>
</g>
<g baseline-shift="0%" cb-classname="DynamicText" cb-source="hz-1oPUPEgM" class="frame" id="1Inv" text-anchor="middle">
<text cb-classname="GraphicTextEntity" class="frame" fill="black" font-family="arial" font-size="36" font-style="normal" font-weight="normal" id="1In8" text-anchor="middle" text-decoration="normal" x="5270" y="3150">
A
</text>
</g>
<g baseline-shift="0%" cb-classname="DynamicText" cb-source="3u-7QdEwqS8-GFn9" class="frame" id="1InM" text-anchor="middle">
<text cb-classname="GraphicTextEntity" class="frame" fill="black" font-family="arial" font-size="20" font-style="normal" font-weight="normal" id="1Inz" text-anchor="middle" text-decoration="normal" x="5270" y="3230">
12/28/2010
</text>
</g>
<g baseline-shift="-50%" cb-classname="DynamicText" cb-source="Bj-3xOqpACf" class="frame" id="1InT" text-anchor="end">
<text cb-classname="GraphicTextEntity" class="frame" fill="black" font-family="arial" font-size="26" font-style="normal" font-weight="normal" id="1Inw" text-anchor="end" text-decoration="normal" x="4500" y="3420">
Heczko
</text>
</g>
<g baseline-shift="-50%" cb-classname="DynamicText" cb-source="I8-a7iRCAGg" class="frame" id="1Iny" text-anchor="end">
<text cb-classname="GraphicTextEntity" class="frame" fill="black" font-family="arial" font-size="26" font-style="normal" font-weight="normal" id="1In9" text-anchor="end" text-decoration="normal" x="5353" y="3420">
Nemec
</text>
</g>
<g cb-classname="GraphicShape" cb-tag="BORDER" id="1InK">
<line cb-classname="GraphicLineEntity" class="frameline" id="1IM1" x1="40" x2="40" y1="40" y2="3460"/>
<line cb-classname="GraphicLineEntity" class="frameline" id="1IMv" x1="40" x2="5380" y1="3460" y2="3460"/>
<line cb-classname="GraphicLineEntity" class="frameline" id="1IM8" x1="5380" x2="5380" y1="3460" y2="40"/>
<line cb-classname="GraphicLineEntity" class="frameline" id="1IMM" x1="5380" x2="40" y1="40" y2="40"/>
<line cb-classname="GraphicLineEntity" class="frame" id="1IMz" x1="5430" x2="5440" y1="3510" y2="3510"/>
</g>
<g cb-classname="GraphicShape" cb-tag="TITLE BOX" id="1IMT">
<line cb-classname="GraphicLineEntity" class="frameline" id="1IMw" x1="2340" x2="2340" y1="3080" y2="3460"/>
<line cb-classname="GraphicLineEntity" class="frameline" id="1IMy" x1="2340" x2="5380" y1="3080" y2="3080"/>
<line cb-classname="GraphicLineEntity" class="frameline" id="1IM9" x1="3650" x2="3650" y1="3460" y2="3080"/>
<line cb-classname="GraphicLineEntity" class="frameline" id="1IMK" x1="3650" x2="5380" y1="3240" y2="3240"/>
<line cb-classname="GraphicLineEntity" class="frameline" id="2801" x1="3650" x2="5380" y1="3390" y2="3390"/>
<line cb-classname="GraphicLineEntity" class="frameline" id="280v" x1="3650" x2="5380" y1="3160" y2="3160"/>
<line cb-classname="GraphicLineEntity" class="frameline" id="2808" x1="3650" x2="4520" y1="3320" y2="3320"/>
<line cb-classname="GraphicLineEntity" class="frameline" id="280M" x1="4520" x2="5380" y1="3290" y2="3290"/>
<line cb-classname="GraphicLineEntity" class="frameline" id="280z" x1="4520" x2="5380" y1="3240" y2="3240"/>
<line cb-classname="GraphicLineEntity" class="frameline" id="280T" x1="4520" x2="4520" y1="3240" y2="3460"/>
<line cb-classname="GraphicLineEntity" class="frameline" id="280w" x1="4810" x2="4810" y1="3240" y2="3390"/>
<line cb-classname="GraphicLineEntity" class="frameline" id="280y" x1="4990" x2="4990" y1="3240" y2="3390"/>
<line cb-classname="GraphicLineEntity" class="frameline" id="2809" x1="5150" x2="5150" y1="3080" y2="3390"/>
</g>
<g cb-classname="GraphicShape" cb-tag="TEXT LABELS" id="280K">
<text baseline-shift="-50%" cb-classname="GraphicTextEntity" class="frame" font-size="25" id="28m1" text-anchor="middle" x="4890" y="3252">
Drop
</text>
<text baseline-shift="-50%" cb-classname="GraphicTextEntity" class="frame" font-size="25" id="28mv" text-anchor="middle" x="5075" y="3252">
Task
</text>
<text baseline-shift="-50%" cb-classname="GraphicTextEntity" class="frame" font-size="25" id="28m8" text-anchor="middle" x="5265" y="3252">
Sheet
</text>
<text cb-classname="GraphicTextEntity" class="frame" font-size="25" id="28mM" x="5152" y="3107">
Rev.
</text>
<text cb-classname="GraphicTextEntity" class="frame" font-size="25" id="28mz" x="3653" y="3418">
Engineer
</text>
<text cb-classname="GraphicTextEntity" class="frame" font-size="25" id="28mT" x="4528" y="3419">
Approved
</text>
<text cb-classname="GraphicTextEntity" class="frame" font-size="25" id="28mw" x="5152" y="3187">
Date
</text>
<text baseline-shift="-50%" cb-classname="GraphicTextEntity" class="frame" font-size="25" id="28my" text-anchor="middle" x="4660" y="3252">
Drawing Number
</text>
<text baseline-shift="-50%" cb-classname="GraphicTextEntity" class="frame" font-size="25" id="28m9" text-anchor="middle" x="4680" y="3325">
CTL
</text>
</g>
<text baseline-shift="-50%" cb-classname="GraphicTextEntity" class="frame" font-size="48" id="28mK" text-anchor="middle" x="3000" y="3100">
EMERSON PROCESS MANAGEMENT
</text>
<g baseline-shift="-100%" cb-anchor-x="2360" cb-anchor-y="3140" cb-classname="GroupText" cb-max-width="1260" fill="black" id="28l1">
<text baseline-shift="-100%" cb-classname="GraphicTextEntity" class="frame" fill="black" font-family="arial" font-size="22" font-weight="normal" id="28lv" text-anchor="start" text-decoration="normal" x="2360" y="3140">
THIS DOCUMENT CONTAINS INFORMATION PROPRIETARY TO EMERSON PROCESS
</text>
<text baseline-shift="-100%" cb-classname="GraphicTextEntity" class="frame" fill="black" font-family="arial" font-size="22" font-weight="normal" id="28l8" text-anchor="start" text-decoration="normal" x="2360" y="3176">
MANAGEMENT POWER &amp; WATER SOLUTIONS, INC. IT IS SUBMITTED IN CONFIDENCE AND
</text>
<text baseline-shift="-100%" cb-classname="GraphicTextEntity" class="frame" fill="black" font-family="arial" font-size="22" font-weight="normal" id="28lM" text-anchor="start" text-decoration="normal" x="2360" y="3212">
TRUST, IS TO BE USED BY YOU SOLELY FOR THE PURPOSES FOR WHICH IT IS
</text>
<text baseline-shift="-100%" cb-classname="GraphicTextEntity" class="frame" fill="black" font-family="arial" font-size="22" font-weight="normal" id="28lz" text-anchor="start" text-decoration="normal" x="2360" y="3248">
FURNISHED AND IS TO BE RETURNED UPON REQUEST. THIS DOCUMENT AND ANY
</text>
<text baseline-shift="-100%" cb-classname="GraphicTextEntity" class="frame" fill="black" font-family="arial" font-size="22" font-weight="normal" id="28lT" text-anchor="start" text-decoration="normal" x="2360" y="3284">
OTHER INFORMATION PROVIDED TO YOU IS NOT TO BE REPRODUCED, TRANSMITTED,
</text>
<text baseline-shift="-100%" cb-classname="GraphicTextEntity" class="frame" fill="black" font-family="arial" font-size="22" font-weight="normal" id="28lw" text-anchor="start" text-decoration="normal" x="2360" y="3320">
DISCLOSED, OR USED OTHERWISE IN WHOLE OR IN PART WITHOUT THE PRIOR
</text>
<text baseline-shift="-100%" cb-classname="GraphicTextEntity" class="frame" fill="black" font-family="arial" font-size="22" font-weight="normal" id="28ly" text-anchor="start" text-decoration="normal" x="2360" y="3356">
WRITTEN AUTHORIZATION OF EMERSON PROCESS MANAGEMENT POWER &amp; WATER
</text>
<text baseline-shift="-100%" cb-classname="GraphicTextEntity" class="frame" fill="black" font-family="arial" font-size="22" font-weight="normal" id="28l9" text-anchor="start" text-decoration="normal" x="2360" y="3392">
SOLUTIONS,INC.
</text>
</g>
</g>
</svg>