<?xml version="1.0" ?><svg cb-auto-time="12/26/2010 15:58:38" cb-classname="ControlFunction" cb-create-time="03/12/2008" cb-drop-id="16" cb-engineer="Ahdy" cb-filename="Z:\OVATION\NET0\UNIT0\CONTROLFUNCTIONS\031E.svg" cb-function-id="031E" cb-key="111111111111" cb-modified-timestamp="1489319554" cb-modify-id="00000003" cb-ortho-mode="enabled" cb-path="Z:/OVATION/NET0/UNIT0/CONTROLFUNCTIONS" cb-reviewer="Nemec" cb-revision="A" cb-revision-time="12/28/2010" cb-sheet-number="003" cb-sheet-title="B06G01 - FG FUEL OPERATION SHUT-DOWN" cb-snap-grid="10" cb-task-id="4" height="3707" id="1" width="5450" xmlns="http://www.w3.org/2000/svg">
<style cb-classname="EntityStyle" id="2" type="text/css">
	.algorithm { fill: white; stroke: black; stroke-linecap: round; stroke-width: 2 }
	.algorithm-function { fill: none; stroke: black; stroke-linecap: round; stroke-width: 2 }
	.algorithm-functionline { fill: none; stroke: black; stroke-linecap: round; stroke-width: 2 }
	.algorithm-name { fill: none; stroke: black; stroke-linecap: round; stroke-width: 2 }
	.algorithm-nameline { fill: none; stroke: black; stroke-linecap: round; stroke-width: 2 }
	.algorithm-sequence { fill: none; stroke: black; stroke-linecap: round; stroke-width: 2 }
	.algorithm-sequenceline { fill: none; stroke: black; stroke-linecap: round; stroke-width: 2 }
	.algorithmline { fill: none; stroke: black; stroke-linecap: round; stroke-width: 2 }
	.annotation { fill: none; stroke: black; stroke-linecap: round; stroke-width: 2 }
	.annotationline { fill: none; stroke: black; stroke-linecap: round; stroke-width: 2 }
	.frame { fill: none; stroke: black; stroke-linecap: round; stroke-width: 2 }
	.frameline { fill: none; stroke: black; stroke-linecap: round; stroke-width: 2 }
	.signal { fill: black; stroke: black; stroke-linecap: round; stroke-width: 2 }
	.signalline { fill: none; stroke: black; stroke-linecap: round; stroke-width: 2 }
	text.algorithm { fill: black; font-family: MS Shell Dlg 2; font-size: 14; stroke: none }
	text.algorithm-function { fill: black; font-family: MS Shell Dlg 2; font-size: 16; stroke: none }
	text.algorithm-name { fill: black; font-family: MS Shell Dlg 2; font-size: 16; stroke: none }
	text.algorithm-sequence { fill: black; font-family: MS Shell Dlg 2; font-size: 16; stroke: none }
	text.annotation { fill: black; font-family: MS Shell Dlg 2; font-size: 16; stroke: none }
	text.frame { fill: black; font-family: MS Shell Dlg 2; font-size: 16; stroke: none }
	text.signal { fill: black; font-family: MS Shell Dlg 2; font-size: 12; stroke: none }
</style>
<g cb-classname="NamedObject" cb-objectname="Comments" id="3"/>
<g cb-classname="AlgorithmContainer" cb-objectname="Algorithms" id="4">
<g cb-alg-osj1="69" cb-alg-vOJu="1.000000" cb-algorithm-id="00d" cb-classname="ControlAlgorithm" cb-function-name="DVALGEN" cb-modify-id="00000001" id="1Bb">
<rect cb-classname="GraphicRectangleEntity" class="algorithm" height="100" id="1BC" width="140" x="2600" y="350"/>
<text baseline-shift="-50%" cb-classname="GraphicTextEntity" class="algorithm" fill="#000000" font-family="MS Shell Dlg" font-size="18" id="1BO" text-anchor="middle" x="2670" y="400">
DVALGEN
</text>
<g cb-classname="ControlPin" cb-pin-name="rq-CRl-duk" id="1Bn">
<line cb-classname="GraphicLineEntity" class="signalline" id="1BU" x1="2740" x2="2760" y1="400" y2="400"/>
<g cb-classname="DynamicText" cb-source="1H-fOH-B3g8" class="signal" id="13G" text-anchor="start">
<text cb-classname="GraphicTextEntity" class="signal" fill="black" font-style="normal" font-weight="normal" id="13F" text-anchor="start" text-decoration="normal" x="2754" y="397"/>
</g>
<g cb-classname="SignalSegment" id="13w">
<line cb-classname="GraphicLineEntity" class="signalline" id="13r" stroke="#1e12bf" stroke-dasharray="5,4" x1="2760" x2="2910" y1="400" y2="400"/>
<g cb-classname="SignalSegment" id="134">
<line cb-classname="GraphicLineEntity" class="signalline" id="13b" stroke="#1e12bf" stroke-dasharray="5,4" x1="2910" x2="2910" y1="400" y2="810"/>
<g cb-classname="SignalSegment" id="13C">
<line cb-classname="GraphicLineEntity" class="signalline" id="13O" stroke="#1e12bf" stroke-dasharray="5,4" x1="2910" x2="3010" y1="810" y2="810"/>
<g cb-classname="SignalConnection" cb-graphic-line="$197$" cb-input-pin="$QcP$" id="13n"/>
</g>
</g>
</g>
</g>
<g cb-classname="DynamicText" cb-labeled="false" cb-source="rq-CRl-ygPu" class="algorithm" id="2M4" text-anchor="start">
<text cb-classname="GraphicTextEntity" class="algorithm" fill="black" font-family="arial" font-size="12" font-style="normal" font-weight="normal" id="2Mb" text-anchor="start" text-decoration="normal" x="2630" y="340"/>
</g>
</g>
<g cb-alg-ACRu="0.000000" cb-alg-dXfl="69" cb-algorithm-id="00e" cb-classname="ControlAlgorithm" cb-function-name="DVALGEN" cb-modify-id="00000001" id="2MC">
<rect cb-classname="GraphicRectangleEntity" class="algorithm" height="100" id="2MO" width="140" x="2600" y="490"/>
<text baseline-shift="-50%" cb-classname="GraphicTextEntity" class="algorithm" fill="#000000" font-family="MS Shell Dlg" font-size="18" id="2Mn" text-anchor="middle" x="2670" y="540">
DVALGEN
</text>
<g cb-classname="ControlPin" cb-pin-name="sn-gPJ-Lu8" id="2MU">
<line cb-classname="GraphicLineEntity" class="signalline" id="2QG" x1="2740" x2="2760" y1="540" y2="540"/>
<g cb-classname="DynamicText" cb-source="cT-7sT-zRxN" class="signal" id="2QF" text-anchor="start">
<text cb-classname="GraphicTextEntity" class="signal" fill="black" font-style="normal" font-weight="normal" id="2Qw" text-anchor="start" text-decoration="normal" x="2754" y="537"/>
</g>
<g cb-classname="SignalSegment" id="2Qr">
<line cb-classname="GraphicLineEntity" class="signalline" id="2Q4" stroke="#1e12bf" stroke-dasharray="5,4" x1="2760" x2="2880" y1="540" y2="540"/>
<g cb-classname="SignalSegment" id="2Qb">
<line cb-classname="GraphicLineEntity" class="signalline" id="2QC" stroke="#1e12bf" stroke-dasharray="5,4" x1="2880" x2="2880" y1="540" y2="770"/>
<g cb-classname="SignalSegment" id="2QO">
<line cb-classname="GraphicLineEntity" class="signalline" id="2Qn" stroke="#1e12bf" stroke-dasharray="5,4" x1="2880" x2="3010" y1="770" y2="770"/>
<g cb-classname="SignalConnection" cb-graphic-line="$228$" cb-input-pin="$2er$" id="2QU"/>
</g>
</g>
</g>
</g>
<g cb-classname="DynamicText" cb-labeled="false" cb-source="sn-gPJ-viru" class="algorithm" id="2Yb" text-anchor="start">
<text cb-classname="GraphicTextEntity" class="algorithm" fill="black" font-family="arial" font-size="12" font-style="normal" font-weight="normal" id="2YC" text-anchor="start" text-decoration="normal" x="2620" y="480"/>
</g>
</g>
<g cb-alg-L7Oa="NO" cb-alg-LuN="01B06G03-CEZ" cb-algorithm-id="003" cb-classname="ExternalPointInterface" cb-function-name="INPUT" id="5UG">
<ellipse cb-classname="GraphicEllipseEntity" class="algorithm" cx="870" cy="2210" id="5UF" rx="50" ry="50"/>
<rect cb-classname="GraphicRectangleEntity" class="algorithm" height="100" id="5Uw" width="40" x="780" y="2160"/>
<line cb-classname="GraphicLineEntity" class="algorithm" id="5Ur" x1="780" x2="820" y1="2210" y2="2210"/>
<g cb-classname="ControlPin" cb-pin-name="PN-OJ1-oub" id="5U4">
<line cb-classname="GraphicLineEntity" class="signalline" id="5Ub" x1="920" x2="950" y1="2210" y2="2210"/>
<g cb-classname="DynamicText" cb-source="9E-jpE-tDCk" class="signal" id="5UC" text-anchor="start">
<text cb-classname="GraphicTextEntity" class="signal" fill="black" font-style="normal" font-weight="normal" id="5UO" text-anchor="start" text-decoration="normal" x="934" y="2207"/>
</g>
<g cb-classname="SignalSegment" id="6BU">
<line cb-classname="GraphicLineEntity" class="signalline" id="63G" stroke="#1e12bf" stroke-dasharray="5,4" x1="950" x2="1990" y1="2210" y2="2210"/>
<g cb-classname="SignalConnection" cb-graphic-line="$690$" cb-input-pin="$fD6$" id="63F"/>
</g>
</g>
<g cb-classname="PointStatusIndicator" cb-indicator-type="Highway" cb-source="Ut-R6m-ouE" id="5Un" visibility="hidden">
<line cb-classname="GraphicLineEntity" class="algorithmline" id="5UU" x1="820" x2="870" y1="2210" y2="2160"/>
<line cb-classname="GraphicLineEntity" class="algorithmline" id="5YG" x1="870" x2="920" y1="2160" y2="2210"/>
<line cb-classname="GraphicLineEntity" class="algorithmline" id="5YF" x1="920" x2="870" y1="2210" y2="2260"/>
<line cb-classname="GraphicLineEntity" class="algorithmline" id="5Yw" x1="870" x2="820" y1="2260" y2="2210"/>
</g>
<g cb-classname="PointStatusIndicator" cb-indicator-type="hardware" cb-source="FB-Pc7-duH" id="5Yr" visibility="hidden">
<line cb-classname="GraphicLineEntity" class="algorithmline" id="5Y4" x1="820" x2="920" y1="2160" y2="2160"/>
<line cb-classname="GraphicLineEntity" class="algorithmline" id="5Yb" x1="920" x2="920" y1="2160" y2="2260"/>
<line cb-classname="GraphicLineEntity" class="algorithmline" id="5YC" x1="920" x2="820" y1="2260" y2="2260"/>
</g>
<g cb-classname="PointStatusIndicator" cb-indicator-type="alarm" cb-source="PN-OJ1-oub" id="5YO" visibility="hidden">
<text cb-classname="GraphicTextEntity" class="algorithm" fill="#000000" font-family="arial" font-size="20" id="5Yn" x="790" y="2195">
A
</text>
</g>
<g cb-classname="PointStatusIndicator" cb-indicator-type="ingraphic" cb-source="9E-xjF-LuN" id="5YU" visibility="hidden">
<text cb-classname="GraphicTextEntity" class="algorithm" fill="#000000" font-family="Arial" font-size="20" id="5ZG" x="790" y="2245">
G
</text>
</g>
<g baseline-shift="-50%" cb-anchor-x="770" cb-anchor-y="2224" cb-classname="PointDescription" cb-content="extended" cb-labeled="false" cb-max-width="220" cb-source="Ut-R6m-ouE" class="algorithm" id="5ZF" text-anchor="end">
<text baseline-shift="-50%" cb-classname="GraphicTextEntity" class="algorithm" id="5Zw" text-anchor="end" x="770" y="2212">
DESC: Point not found in
</text>
<text baseline-shift="-50%" cb-classname="GraphicTextEntity" class="algorithm" id="1Jb2" text-anchor="end" x="770" y="2237">
database (01B06G03-CEZ)
</text>
</g>
<g cb-classname="DynamicText" cb-labeled="false" cb-pin-name="Dl8" cb-source="ie-fCp-Lut" class="algorithm" id="5Zr" text-anchor="start">
<text baseline-shift="0%" cb-classname="GraphicTextEntity" class="algorithm" fill="black" font-family="arial" font-size="20" font-style="normal" font-weight="normal" id="5Z4" text-anchor="start" text-decoration="normal" x="940" y="2180"/>
</g>
<g baseline-shift="-100%" cb-anchor-x="940" cb-anchor-y="2220" cb-classname="PointReferences" cb-max-width="230" cb-originator="true" cb-source="M8-cDX-oue" class="signal" id="5Zb" text-anchor="start">
<text baseline-shift="-100%" cb-classname="GraphicTextEntity" class="algorithm" id="5ZC" text-anchor="start" x="940" y="2220">
REF: Point not found in
</text>
<text baseline-shift="-100%" cb-classname="GraphicTextEntity" class="algorithm" id="2ZUf" text-anchor="start" x="940" y="2245">
database (01B06G03-CEZ)
</text>
</g>
</g>
<g cb-alg-VJjX="NO" cb-alg-Vuz="01B06G04-CEZ" cb-algorithm-id="004" cb-classname="ExternalPointInterface" cb-function-name="INPUT" id="5ZO">
<ellipse cb-classname="GraphicEllipseEntity" class="algorithm" cx="870" cy="2330" id="5Zn" rx="50" ry="50"/>
<rect cb-classname="GraphicRectangleEntity" class="algorithm" height="100" id="5ZU" width="40" x="780" y="2280"/>
<line cb-classname="GraphicLineEntity" class="algorithm" id="5RG" x1="780" x2="820" y1="2330" y2="2330"/>
<g cb-classname="ControlPin" cb-pin-name="gz-jOM-duT" id="5RF">
<line cb-classname="GraphicLineEntity" class="signalline" id="5Rw" x1="920" x2="950" y1="2330" y2="2330"/>
<g cb-classname="DynamicText" cb-source="3k-xak-qcft" class="signal" id="5Rr" text-anchor="start">
<text cb-classname="GraphicTextEntity" class="signal" fill="black" font-style="normal" font-weight="normal" id="5R4" text-anchor="start" text-decoration="normal" x="934" y="2327"/>
</g>
<g cb-classname="SignalSegment" id="63w">
<line cb-classname="GraphicLineEntity" class="signalline" id="63r" stroke="#1e12bf" stroke-dasharray="5,4" x1="950" x2="1700" y1="2330" y2="2330"/>
<g cb-classname="SignalSegment" id="634">
<line cb-classname="GraphicLineEntity" class="signalline" id="63b" stroke="#1e12bf" stroke-dasharray="5,4" x1="1700" x2="1700" y1="2330" y2="2230"/>
<g cb-classname="SignalSegment" id="63C">
<line cb-classname="GraphicLineEntity" class="signalline" id="63O" stroke="#1e12bf" stroke-dasharray="5,4" x1="1700" x2="1990" y1="2230" y2="2230"/>
<g cb-classname="SignalConnection" cb-graphic-line="$697$" cb-input-pin="$Uk4$" id="63n"/>
</g>
</g>
</g>
</g>
<g cb-classname="PointStatusIndicator" cb-indicator-type="Highway" cb-source="rq-CRl-duk" id="5Rb" visibility="hidden">
<line cb-classname="GraphicLineEntity" class="algorithmline" id="5RC" x1="820" x2="870" y1="2330" y2="2280"/>
<line cb-classname="GraphicLineEntity" class="algorithmline" id="5RO" x1="870" x2="920" y1="2280" y2="2330"/>
<line cb-classname="GraphicLineEntity" class="algorithmline" id="5Rn" x1="920" x2="870" y1="2330" y2="2380"/>
<line cb-classname="GraphicLineEntity" class="algorithmline" id="5RU" x1="870" x2="820" y1="2380" y2="2330"/>
</g>
<g cb-classname="PointStatusIndicator" cb-indicator-type="hardware" cb-source="sn-gPJ-Lu8" id="5JG" visibility="hidden">
<line cb-classname="GraphicLineEntity" class="algorithmline" id="5JF" x1="820" x2="920" y1="2280" y2="2280"/>
<line cb-classname="GraphicLineEntity" class="algorithmline" id="5Jw" x1="920" x2="920" y1="2280" y2="2380"/>
<line cb-classname="GraphicLineEntity" class="algorithmline" id="5Jr" x1="920" x2="820" y1="2380" y2="2380"/>
</g>
<g cb-classname="PointStatusIndicator" cb-indicator-type="alarm" cb-source="gz-jOM-duT" id="5J4" visibility="hidden">
<text cb-classname="GraphicTextEntity" class="algorithm" fill="#000000" font-family="arial" font-size="20" id="5Jb" x="790" y="2315">
A
</text>
</g>
<g cb-classname="PointStatusIndicator" cb-indicator-type="ingraphic" cb-source="3k-6xs-Vuz" id="5JC" visibility="hidden">
<text cb-classname="GraphicTextEntity" class="algorithm" fill="#000000" font-family="Arial" font-size="20" id="5JO" x="790" y="2365">
G
</text>
</g>
<g baseline-shift="-50%" cb-anchor-x="770" cb-anchor-y="2344" cb-classname="PointDescription" cb-content="extended" cb-labeled="false" cb-max-width="220" cb-source="rq-CRl-duk" class="algorithm" id="5Jn" text-anchor="end">
<text baseline-shift="-50%" cb-classname="GraphicTextEntity" class="algorithm" id="5JU" text-anchor="end" x="770" y="2332">
DESC: Point not found in
</text>
<text baseline-shift="-50%" cb-classname="GraphicTextEntity" class="algorithm" id="1JbY" text-anchor="end" x="770" y="2357">
database (01B06G04-CEZ)
</text>
</g>
<g cb-classname="DynamicText" cb-labeled="false" cb-pin-name="cpB" cb-source="1H-Dfa-Vuq" class="algorithm" id="5BG" text-anchor="start">
<text baseline-shift="0%" cb-classname="GraphicTextEntity" class="algorithm" fill="black" font-family="arial" font-size="20" font-style="normal" font-weight="normal" id="5BF" text-anchor="start" text-decoration="normal" x="940" y="2300"/>
</g>
<g baseline-shift="-100%" cb-anchor-x="940" cb-anchor-y="2340" cb-classname="PointReferences" cb-max-width="230" cb-originator="true" cb-source="FB-Pc7-duH" class="signal" id="5Bw" text-anchor="start">
<text baseline-shift="-100%" cb-classname="GraphicTextEntity" class="algorithm" id="5Br" text-anchor="start" x="940" y="2340">
REF: Point not found in
</text>
<text baseline-shift="-100%" cb-classname="GraphicTextEntity" class="algorithm" id="2ZUr" text-anchor="start" x="940" y="2365">
database (01B06G04-CEZ)
</text>
</g>
</g>
<g cb-alg-oOx7="NO" cb-alg-ouE="01B06G05-CEZ" cb-algorithm-id="006" cb-classname="ExternalPointInterface" cb-function-name="INPUT" id="5B4">
<ellipse cb-classname="GraphicEllipseEntity" class="algorithm" cx="870" cy="2450" id="5Bb" rx="50" ry="50"/>
<rect cb-classname="GraphicRectangleEntity" class="algorithm" height="100" id="5BC" width="40" x="780" y="2400"/>
<line cb-classname="GraphicLineEntity" class="algorithm" id="5BO" x1="780" x2="820" y1="2450" y2="2450"/>
<g cb-classname="ControlPin" cb-pin-name="9E-xjF-LuN" id="5Bn">
<line cb-classname="GraphicLineEntity" class="signalline" id="5BU" x1="920" x2="950" y1="2450" y2="2450"/>
<g cb-classname="DynamicText" cb-source="Ut-6Xt-ePDq" class="signal" id="53G" text-anchor="start">
<text cb-classname="GraphicTextEntity" class="signal" fill="black" font-style="normal" font-weight="normal" id="53F" text-anchor="start" text-decoration="normal" x="934" y="2447"/>
</g>
<g cb-classname="SignalSegment" id="63U">
<line cb-classname="GraphicLineEntity" class="signalline" id="7IG" stroke="#1e12bf" stroke-dasharray="5,4" x1="950" x2="1730" y1="2450" y2="2450"/>
<g cb-classname="SignalSegment" id="7IF">
<line cb-classname="GraphicLineEntity" class="signalline" id="7Iw" stroke="#1e12bf" stroke-dasharray="5,4" x1="1730" x2="1730" y1="2450" y2="2250"/>
<g cb-classname="SignalSegment" id="7Ir">
<line cb-classname="GraphicLineEntity" class="signalline" id="7I4" stroke="#1e12bf" stroke-dasharray="5,4" x1="1730" x2="1990" y1="2250" y2="2250"/>
<g cb-classname="SignalConnection" cb-graphic-line="$704$" cb-input-pin="$D62$" id="7Ib"/>
</g>
</g>
</g>
</g>
<g cb-classname="PointStatusIndicator" cb-indicator-type="Highway" cb-source="ie-fCp-Lut" id="53w" visibility="hidden">
<line cb-classname="GraphicLineEntity" class="algorithmline" id="53r" x1="820" x2="870" y1="2450" y2="2400"/>
<line cb-classname="GraphicLineEntity" class="algorithmline" id="534" x1="870" x2="920" y1="2400" y2="2450"/>
<line cb-classname="GraphicLineEntity" class="algorithmline" id="53b" x1="920" x2="870" y1="2450" y2="2500"/>
<line cb-classname="GraphicLineEntity" class="algorithmline" id="53C" x1="870" x2="820" y1="2500" y2="2450"/>
</g>
<g cb-classname="PointStatusIndicator" cb-indicator-type="hardware" cb-source="mh-9gO-VuB" id="53O" visibility="hidden">
<line cb-classname="GraphicLineEntity" class="algorithmline" id="53n" x1="820" x2="920" y1="2400" y2="2400"/>
<line cb-classname="GraphicLineEntity" class="algorithmline" id="53U" x1="920" x2="920" y1="2400" y2="2500"/>
<line cb-classname="GraphicLineEntity" class="algorithmline" id="6IG" x1="920" x2="820" y1="2500" y2="2500"/>
</g>
<g cb-classname="PointStatusIndicator" cb-indicator-type="alarm" cb-source="9E-xjF-LuN" id="6IF" visibility="hidden">
<text cb-classname="GraphicTextEntity" class="algorithm" fill="#000000" font-family="arial" font-size="20" id="6Iw" x="790" y="2435">
A
</text>
</g>
<g cb-classname="PointStatusIndicator" cb-indicator-type="ingraphic" cb-source="Ut-R6m-ouE" id="6Ir" visibility="hidden">
<text cb-classname="GraphicTextEntity" class="algorithm" fill="#000000" font-family="Arial" font-size="20" id="6I4" x="790" y="2485">
G
</text>
</g>
<g baseline-shift="-50%" cb-anchor-x="770" cb-anchor-y="2464" cb-classname="PointDescription" cb-content="extended" cb-labeled="false" cb-max-width="220" cb-source="ie-fCp-Lut" class="algorithm" id="6Ib" text-anchor="end">
<text baseline-shift="-50%" cb-classname="GraphicTextEntity" class="algorithm" id="6IC" text-anchor="end" x="770" y="2452">
DESC: Point not found in
</text>
<text baseline-shift="-50%" cb-classname="GraphicTextEntity" class="algorithm" id="1Jbf" text-anchor="end" x="770" y="2477">
database (01B06G05-CEZ)
</text>
</g>
<g cb-classname="DynamicText" cb-labeled="false" cb-pin-name="Pan" cb-source="M8-cDX-oue" class="algorithm" id="6IO" text-anchor="start">
<text baseline-shift="0%" cb-classname="GraphicTextEntity" class="algorithm" fill="black" font-family="arial" font-size="20" font-style="normal" font-weight="normal" id="6In" text-anchor="start" text-decoration="normal" x="940" y="2420"/>
</g>
<g baseline-shift="-100%" cb-anchor-x="940" cb-anchor-y="2460" cb-classname="PointReferences" cb-max-width="230" cb-originator="true" cb-source="sn-gPJ-Lu8" class="signal" id="6IU" text-anchor="start">
<text baseline-shift="-100%" cb-classname="GraphicTextEntity" class="algorithm" id="6MG" text-anchor="start" x="940" y="2460">
REF: Point not found in
</text>
<text baseline-shift="-100%" cb-classname="GraphicTextEntity" class="algorithm" id="2RG2" text-anchor="start" x="940" y="2485">
database (01B06G05-CEZ)
</text>
</g>
</g>
<g cb-alg-MZ1="$557$cb-alg-out$" cb-alg-MZQ="$584$cb-alg-out$" cb-alg-MZm="$530$cb-alg-out$" cb-algorithm-id="00a" cb-classname="FastBooleanAlgorithm" cb-function-name="AND" cb-modify-id="00000001" id="6Rb">
<rect cb-classname="GraphicRectangleEntity" class="algorithm" height="60" id="6RC" width="60" x="2010" y="2200"/>
<g cb-classname="ControlPin" cb-pin-name="3k-6xs-Jex" id="6RO">
<line cb-classname="GraphicLineEntity" class="signalline" id="6Rn" x1="1990" x2="2010" y1="2210" y2="2210"/>
<polygon cb-classname="GraphicPolygonEntity" class="signal" id="6RU" points="2010,2210 1999,2204 1999,2215"/>
<g cb-classname="DynamicText" cb-source="ie-CJe-89PH" class="signal" id="6JG" text-anchor="end">
<text cb-classname="GraphicTextEntity" class="signal" fill="black" font-style="normal" font-weight="normal" id="6JF" text-anchor="end" text-decoration="normal" x="1995" y="2207"/>
</g>
</g>
<g cb-classname="ControlPin" cb-pin-name="M8-cDX-Rh2" id="6Jw">
<line cb-classname="GraphicLineEntity" class="signalline" id="6Jr" x1="1990" x2="2010" y1="2250" y2="2250"/>
<polygon cb-classname="GraphicPolygonEntity" class="signal" id="6J4" points="2010,2250 1999,2244 1999,2255"/>
<g cb-classname="DynamicText" cb-source="mh-gRh-Z1r5" class="signal" id="6Jb" text-anchor="end">
<text cb-classname="GraphicTextEntity" class="signal" fill="black" font-style="normal" font-weight="normal" id="6JC" text-anchor="end" text-decoration="normal" x="1995" y="2247"/>
</g>
</g>
<line cb-classname="GraphicLineEntity" class="algorithm" id="6JO" x1="2010" x2="2010" y1="2190" y2="2270"/>
<g cb-classname="ControlPin" cb-pin-name="gz-jOM-duT" id="6Jn">
<line cb-classname="GraphicLineEntity" class="signalline" id="6JU" x1="2070" x2="2090" y1="2230" y2="2230"/>
<g cb-classname="DynamicText" cb-source="3k-xak-qcft" class="signal" id="6BG" text-anchor="start">
<text cb-classname="GraphicTextEntity" class="signal" fill="black" font-style="normal" font-weight="normal" id="6BF" text-anchor="start" text-decoration="normal" x="2084" y="2227"/>
</g>
<g cb-classname="SignalSegment" id="1QUj">
<line cb-classname="GraphicLineEntity" class="signalline" id="1YOY" stroke="#1e12bf" stroke-dasharray="5,4" x1="2090" x2="2880" y1="2230" y2="2230"/>
<g cb-classname="SignalSegment" id="1YOT">
<line cb-classname="GraphicLineEntity" class="signalline" id="1YOf" stroke="#1e12bf" stroke-dasharray="5,4" x1="2880" x2="2880" y1="2230" y2="790"/>
<g cb-classname="SignalSegment" id="1YOj">
<line cb-classname="GraphicLineEntity" class="signalline" id="1YOh" stroke="#1e12bf" stroke-dasharray="5,4" x1="2880" x2="3010" y1="790" y2="790"/>
<g cb-classname="SignalConnection" cb-graphic-line="$1478$" cb-input-pin="$216$" id="1Yn0"/>
</g>
</g>
</g>
</g>
<text baseline-shift="-50%" cb-classname="GraphicTextEntity" class="algorithm" fill="#000000" font-family="MS Shell Dlg" id="6Bw" text-anchor="middle" x="2041" y="2226">
AND
</text>
<g cb-classname="ControlPin" cb-pin-name="1H-Dfa-6nx" id="6B4">
<line cb-classname="GraphicLineEntity" class="signalline" id="6Bb" x1="1990" x2="2010" y1="2230" y2="2230"/>
<polygon cb-classname="GraphicPolygonEntity" class="signal" id="6BC" points="2010,2230 1999,2224 1999,2235"/>
<g cb-classname="DynamicText" cb-source="sn-P6n-5iUh" class="signal" id="6BO" text-anchor="end">
<text cb-classname="GraphicTextEntity" class="signal" fill="black" font-style="normal" font-weight="normal" id="6Bn" text-anchor="end" text-decoration="normal" x="1995" y="2227"/>
</g>
</g>
</g>
<g cb-alg-oiMU="NO" cb-alg-oue="01B06G07-P01" cb-algorithm-id="007" cb-classname="ExternalPointInterface" cb-function-name="INPUT" id="6MF">
<ellipse cb-classname="GraphicEllipseEntity" class="algorithm" cx="870" cy="2570" id="6Mw" rx="50" ry="50"/>
<rect cb-classname="GraphicRectangleEntity" class="algorithm" height="100" id="6Mr" width="40" x="780" y="2520"/>
<line cb-classname="GraphicLineEntity" class="algorithm" id="6M4" x1="780" x2="820" y1="2570" y2="2570"/>
<g cb-classname="ControlPin" cb-pin-name="3k-6xs-Vuz" id="6Mb">
<line cb-classname="GraphicLineEntity" class="signalline" id="6MC" x1="920" x2="950" y1="2570" y2="2570"/>
<g cb-classname="DynamicText" cb-source="rq-R7q-Hgce" class="signal" id="6MO" text-anchor="start">
<text cb-classname="GraphicTextEntity" class="signal" fill="black" font-style="normal" font-weight="normal" id="6Mn" text-anchor="start" text-decoration="normal" x="934" y="2567"/>
</g>
<g cb-classname="SignalSegment" id="7Mr">
<line cb-classname="GraphicLineEntity" class="signalline" id="7M4" stroke="#1e12bf" stroke-dasharray="5,4" x1="950" x2="3620" y1="2570" y2="2570"/>
<g cb-classname="SignalSegment" id="7Mb">
<line cb-classname="GraphicLineEntity" class="signalline" id="7MC" stroke="#1e12bf" stroke-dasharray="5,4" x1="3620" x2="3620" y1="2570" y2="800"/>
<g cb-classname="SignalSegment" id="7MO">
<line cb-classname="GraphicLineEntity" class="signalline" id="7Mn" stroke="#1e12bf" stroke-dasharray="5,4" x1="3620" x2="3840" y1="800" y2="800"/>
<g cb-classname="SignalConnection" cb-graphic-line="$718$" cb-input-pin="$zpT$" id="7MU"/>
</g>
</g>
</g>
</g>
<g cb-classname="PointStatusIndicator" cb-indicator-type="Highway" cb-source="1H-Dfa-Vuq" id="6MU" visibility="hidden">
<line cb-classname="GraphicLineEntity" class="algorithmline" id="6QG" x1="820" x2="870" y1="2570" y2="2520"/>
<line cb-classname="GraphicLineEntity" class="algorithmline" id="6QF" x1="870" x2="920" y1="2520" y2="2570"/>
<line cb-classname="GraphicLineEntity" class="algorithmline" id="6Qw" x1="920" x2="870" y1="2570" y2="2620"/>
<line cb-classname="GraphicLineEntity" class="algorithmline" id="6Qr" x1="870" x2="820" y1="2620" y2="2570"/>
</g>
<g cb-classname="PointStatusIndicator" cb-indicator-type="hardware" cb-source="cT-J7i-VuZ" id="6Q4" visibility="hidden">
<line cb-classname="GraphicLineEntity" class="algorithmline" id="6Qb" x1="820" x2="920" y1="2520" y2="2520"/>
<line cb-classname="GraphicLineEntity" class="algorithmline" id="6QC" x1="920" x2="920" y1="2520" y2="2620"/>
<line cb-classname="GraphicLineEntity" class="algorithmline" id="6QO" x1="920" x2="820" y1="2620" y2="2620"/>
</g>
<g cb-classname="PointStatusIndicator" cb-indicator-type="alarm" cb-source="3k-6xs-Vuz" id="6Qn" visibility="visible">
<text cb-classname="GraphicTextEntity" class="algorithm" fill="#000000" font-family="arial" font-size="20" id="6QU" x="790" y="2555">
A
</text>
</g>
<g cb-classname="PointStatusIndicator" cb-indicator-type="ingraphic" cb-source="rq-CRl-duk" id="6UG" visibility="visible">
<text cb-classname="GraphicTextEntity" class="algorithm" fill="#000000" font-family="Arial" font-size="20" id="6UF" x="790" y="2605">
G
</text>
</g>
<g baseline-shift="-50%" cb-anchor-x="770" cb-anchor-y="2584" cb-classname="PointDescription" cb-content="extended" cb-labeled="false" cb-max-width="220" cb-source="1H-Dfa-Vuq" class="algorithm" id="6Uw" text-anchor="end">
<text baseline-shift="-50%" cb-classname="GraphicTextEntity" class="algorithm" id="6Ur" text-anchor="end" x="770" y="2572">
DESC: Point not found in
</text>
<text baseline-shift="-50%" cb-classname="GraphicTextEntity" class="algorithm" id="1Jbh" text-anchor="end" x="770" y="2597">
database (01B06G07-P01)
</text>
</g>
<g cb-classname="DynamicText" cb-labeled="false" cb-pin-name="gXh" cb-source="FB-Pc7-duH" class="algorithm" id="6U4" text-anchor="start">
<text baseline-shift="0%" cb-classname="GraphicTextEntity" class="algorithm" fill="black" font-family="arial" font-size="20" font-style="normal" font-weight="normal" id="6Ub" text-anchor="start" text-decoration="normal" x="940" y="2540"/>
</g>
<g baseline-shift="-100%" cb-anchor-x="940" cb-anchor-y="2580" cb-classname="PointReferences" cb-max-width="230" cb-originator="true" cb-source="mh-9gO-VuB" class="signal" id="6UC" text-anchor="start">
<text baseline-shift="-100%" cb-classname="GraphicTextEntity" class="algorithm" id="6UO" text-anchor="start" x="940" y="2580">
REF: Point not found in
</text>
<text baseline-shift="-100%" cb-classname="GraphicTextEntity" class="algorithm" id="2RGY" text-anchor="start" x="940" y="2605">
database (01B06G07-P01)
</text>
</g>
</g>
<g cb-alg-d1Fr="NO" cb-alg-duH="01B06G02-P12" cb-algorithm-id="008" cb-classname="ExternalPointInterface" cb-function-name="INPUT" id="6Un">
<ellipse cb-classname="GraphicEllipseEntity" class="algorithm" cx="870" cy="2690" id="6UU" rx="50" ry="50"/>
<rect cb-classname="GraphicRectangleEntity" class="algorithm" height="100" id="6YG" width="40" x="780" y="2640"/>
<line cb-classname="GraphicLineEntity" class="algorithm" id="6YF" x1="780" x2="820" y1="2690" y2="2690"/>
<g cb-classname="ControlPin" cb-pin-name="Ut-R6m-ouE" id="6Yw">
<line cb-classname="GraphicLineEntity" class="signalline" id="6Yr" x1="920" x2="950" y1="2690" y2="2690"/>
<g cb-classname="DynamicText" cb-source="ie-CJe-89PH" class="signal" id="6Y4" text-anchor="start">
<text cb-classname="GraphicTextEntity" class="signal" fill="black" font-style="normal" font-weight="normal" id="6Yb" text-anchor="start" text-decoration="normal" x="934" y="2687"/>
</g>
<g cb-classname="SignalSegment" id="7QG">
<line cb-classname="GraphicLineEntity" class="signalline" id="7QF" stroke="#1e12bf" stroke-dasharray="5,4" x1="950" x2="3650" y1="2690" y2="2690"/>
<g cb-classname="SignalSegment" id="7Qw">
<line cb-classname="GraphicLineEntity" class="signalline" id="7Qr" stroke="#1e12bf" stroke-dasharray="5,4" x1="3650" x2="3650" y1="2690" y2="820"/>
<g cb-classname="SignalSegment" id="7Q4">
<line cb-classname="GraphicLineEntity" class="signalline" id="7Qb" stroke="#1e12bf" stroke-dasharray="5,4" x1="3650" x2="3840" y1="820" y2="820"/>
<g cb-classname="SignalConnection" cb-graphic-line="$725$" cb-input-pin="$8Ie$" id="7QC"/>
</g>
</g>
</g>
</g>
<g cb-classname="PointStatusIndicator" cb-indicator-type="Highway" cb-source="M8-cDX-oue" id="6YC" visibility="hidden">
<line cb-classname="GraphicLineEntity" class="algorithmline" id="6YO" x1="820" x2="870" y1="2690" y2="2640"/>
<line cb-classname="GraphicLineEntity" class="algorithmline" id="6Yn" x1="870" x2="920" y1="2640" y2="2690"/>
<line cb-classname="GraphicLineEntity" class="algorithmline" id="6YU" x1="920" x2="870" y1="2690" y2="2740"/>
<line cb-classname="GraphicLineEntity" class="algorithmline" id="6ZG" x1="870" x2="820" y1="2740" y2="2690"/>
</g>
<g cb-classname="PointStatusIndicator" cb-indicator-type="hardware" cb-source="PN-OJ1-oub" id="6ZF" visibility="hidden">
<line cb-classname="GraphicLineEntity" class="algorithmline" id="6Zw" x1="820" x2="920" y1="2640" y2="2640"/>
<line cb-classname="GraphicLineEntity" class="algorithmline" id="6Zr" x1="920" x2="920" y1="2640" y2="2740"/>
<line cb-classname="GraphicLineEntity" class="algorithmline" id="6Z4" x1="920" x2="820" y1="2740" y2="2740"/>
</g>
<g cb-classname="PointStatusIndicator" cb-indicator-type="alarm" cb-source="Ut-R6m-ouE" id="6Zb" visibility="visible">
<text cb-classname="GraphicTextEntity" class="algorithm" fill="#000000" font-family="arial" font-size="20" id="6ZC" x="790" y="2675">
A
</text>
</g>
<g cb-classname="PointStatusIndicator" cb-indicator-type="ingraphic" cb-source="ie-fCp-Lut" id="6ZO" visibility="visible">
<text cb-classname="GraphicTextEntity" class="algorithm" fill="#000000" font-family="Arial" font-size="20" id="6Zn" x="790" y="2725">
G
</text>
</g>
<g baseline-shift="-50%" cb-anchor-x="770" cb-anchor-y="2704" cb-classname="PointDescription" cb-content="extended" cb-labeled="false" cb-max-width="220" cb-source="M8-cDX-oue" class="algorithm" id="6ZU" text-anchor="end">
<text baseline-shift="-50%" cb-classname="GraphicTextEntity" class="algorithm" id="6RG" text-anchor="end" x="770" y="2692">
DESC: Point not found in
</text>
<text baseline-shift="-50%" cb-classname="GraphicTextEntity" class="algorithm" id="1Jbr" text-anchor="end" x="770" y="2717">
database (01B06G02-P12)
</text>
</g>
<g cb-classname="DynamicText" cb-labeled="false" cb-pin-name="975" cb-source="sn-gPJ-Lu8" class="algorithm" id="6RF" text-anchor="start">
<text baseline-shift="0%" cb-classname="GraphicTextEntity" class="algorithm" fill="black" font-family="arial" font-size="20" font-style="normal" font-weight="normal" id="6Rw" text-anchor="start" text-decoration="normal" x="940" y="2660"/>
</g>
<g baseline-shift="-100%" cb-anchor-x="940" cb-anchor-y="2700" cb-classname="PointReferences" cb-max-width="230" cb-originator="true" cb-source="cT-J7i-VuZ" class="signal" id="6Rr" text-anchor="start">
<text baseline-shift="-100%" cb-classname="GraphicTextEntity" class="algorithm" id="6R4" text-anchor="start" x="940" y="2700">
REF: Point not found in
</text>
<text baseline-shift="-100%" cb-classname="GraphicTextEntity" class="algorithm" id="2RGf" text-anchor="start" x="940" y="2725">
database (01B06G02-P12)
</text>
</g>
</g>
<g cb-alg-d1Fr="NO" cb-alg-duH="01B06G01-PCK" cb-algorithm-id="00c" cb-classname="ExternalPointInterface" cb-function-name="INPUT" id="9ZG">
<ellipse cb-classname="GraphicEllipseEntity" class="algorithm" cx="870" cy="1040" id="9ZF" rx="50" ry="50"/>
<rect cb-classname="GraphicRectangleEntity" class="algorithm" height="100" id="9Zw" width="40" x="780" y="990"/>
<line cb-classname="GraphicLineEntity" class="algorithm" id="9Zr" x1="780" x2="820" y1="1040" y2="1040"/>
<g cb-classname="ControlPin" cb-pin-name="Ut-R6m-ouE" id="9Z4">
<line cb-classname="GraphicLineEntity" class="signalline" id="9Zb" x1="920" x2="950" y1="1040" y2="1040"/>
<g cb-classname="DynamicText" cb-source="ie-CJe-89PH" class="signal" id="9ZC" text-anchor="start">
<text cb-classname="GraphicTextEntity" class="signal" fill="black" font-style="normal" font-weight="normal" id="9ZO" text-anchor="start" text-decoration="normal" x="934" y="1037"/>
</g>
<g cb-classname="SignalSegment" id="9JO">
<line cb-classname="GraphicLineEntity" class="signalline" id="9Jn" x1="950" x2="1410" y1="1040" y2="1040"/>
<g cb-classname="SignalConnection" cb-graphic-line="$978$" cb-input-pin="$1ps$" id="9JU"/>
</g>
</g>
<g cb-classname="PointStatusIndicator" cb-indicator-type="Highway" cb-source="M8-cDX-oue" id="9Zn" visibility="hidden">
<line cb-classname="GraphicLineEntity" class="algorithmline" id="9ZU" x1="820" x2="870" y1="1040" y2="990"/>
<line cb-classname="GraphicLineEntity" class="algorithmline" id="9RG" x1="870" x2="920" y1="990" y2="1040"/>
<line cb-classname="GraphicLineEntity" class="algorithmline" id="9RF" x1="920" x2="870" y1="1040" y2="1090"/>
<line cb-classname="GraphicLineEntity" class="algorithmline" id="9Rw" x1="870" x2="820" y1="1090" y2="1040"/>
</g>
<g cb-classname="PointStatusIndicator" cb-indicator-type="hardware" cb-source="PN-OJ1-oub" id="9Rr" visibility="hidden">
<line cb-classname="GraphicLineEntity" class="algorithmline" id="9R4" x1="820" x2="920" y1="990" y2="990"/>
<line cb-classname="GraphicLineEntity" class="algorithmline" id="9Rb" x1="920" x2="920" y1="990" y2="1090"/>
<line cb-classname="GraphicLineEntity" class="algorithmline" id="9RC" x1="920" x2="820" y1="1090" y2="1090"/>
</g>
<g cb-classname="PointStatusIndicator" cb-indicator-type="alarm" cb-source="Ut-R6m-ouE" id="9RO" visibility="hidden">
<text cb-classname="GraphicTextEntity" class="algorithm" fill="#000000" font-family="arial" font-size="20" id="9Rn" x="790" y="1025">
A
</text>
</g>
<g cb-classname="PointStatusIndicator" cb-indicator-type="ingraphic" cb-source="ie-fCp-Lut" id="9RU" visibility="hidden">
<text cb-classname="GraphicTextEntity" class="algorithm" fill="#000000" font-family="Arial" font-size="20" id="9JG" x="790" y="1075">
G
</text>
</g>
<g baseline-shift="-50%" cb-anchor-x="770" cb-anchor-y="1054" cb-classname="PointDescription" cb-content="extended" cb-labeled="false" cb-max-width="220" cb-source="M8-cDX-oue" class="algorithm" id="9JF" text-anchor="end">
<text baseline-shift="-50%" cb-classname="GraphicTextEntity" class="algorithm" id="9Jw" text-anchor="end" x="770" y="1042">
DESC: Point not found in
</text>
<text baseline-shift="-50%" cb-classname="GraphicTextEntity" class="algorithm" id="1BwT" text-anchor="end" x="770" y="1067">
database (01B06G01-PCK)
</text>
</g>
<g cb-classname="DynamicText" cb-labeled="false" cb-pin-name="975" cb-source="sn-gPJ-Lu8" class="algorithm" id="9Jr" text-anchor="start">
<text baseline-shift="0%" cb-classname="GraphicTextEntity" class="algorithm" fill="black" font-family="arial" font-size="20" font-style="normal" font-weight="normal" id="9J4" text-anchor="start" text-decoration="normal" x="940" y="1010"/>
</g>
<g baseline-shift="-100%" cb-anchor-x="940" cb-anchor-y="1050" cb-classname="PointReferences" cb-max-width="230" cb-originator="true" cb-source="cT-J7i-VuZ" class="signal" id="9Jb" text-anchor="start">
<text baseline-shift="-100%" cb-classname="GraphicTextEntity" class="algorithm" id="9JC" text-anchor="start" x="940" y="1050">
REF: Point not found in
</text>
<text baseline-shift="-100%" cb-classname="GraphicTextEntity" class="algorithm" id="2RGr" text-anchor="start" x="940" y="1075">
database (01B06G01-PCK)
</text>
</g>
</g>
<g cb-alg-p15="$950$cb-alg-out$" cb-algorithm-id="00b" cb-classname="ControlAlgorithm" cb-function-name="UNPACK16" cb-modify-id="00000002" id="9MG">
<rect cb-classname="GraphicRectangleEntity" class="algorithm" height="100" id="9MF" width="140" x="1430" y="990"/>
<text baseline-shift="-50%" cb-classname="GraphicTextEntity" class="algorithm" fill="#000000" font-family="MS Shell Dlg" font-size="18" id="9Mw" text-anchor="middle" x="1498" y="1035">
UNPACK16
</text>
<g cb-classname="ControlPin" cb-pin-name="9E-xjF-CJe" id="9Mr">
<line cb-classname="GraphicLineEntity" class="signalline" id="9M4" x1="1410" x2="1430" y1="1040" y2="1040"/>
<polygon cb-classname="GraphicPolygonEntity" class="signal" id="9Mb" points="1430,1040 1419,1034 1419,1045"/>
<g cb-classname="DynamicText" cb-source="rq-R7q-Hgce" class="signal" id="9MC" text-anchor="end">
<text cb-classname="GraphicTextEntity" class="signal" fill="black" font-style="normal" font-weight="normal" id="9MO" text-anchor="end" text-decoration="normal" x="1415" y="1037"/>
</g>
</g>
<g cb-classname="ControlPin" cb-pin-name="M8-cDX-dY" id="9MU">
<line cb-classname="GraphicLineEntity" class="signalline" id="9QG" x1="1570" x2="1590" y1="1010" y2="1010"/>
<g cb-classname="DynamicText" cb-source="sn-P6n-5iUh" class="signal" id="9QF" text-anchor="start">
<text cb-classname="GraphicTextEntity" class="signal" fill="black" font-style="normal" font-weight="normal" id="9Qw" text-anchor="start" text-decoration="normal" x="1584" y="1007"/>
</g>
<g cb-classname="SignalSegment" id="9Un">
<line cb-classname="GraphicLineEntity" class="signalline" id="9UU" stroke="#1e12bf" stroke-dasharray="5,4" x1="1590" x2="2000" y1="1010" y2="1010"/>
<g cb-classname="SignalConnection" cb-graphic-line="$939$" cb-input-pin="$64a$" id="9YG"/>
</g>
</g>
<g cb-classname="ControlPin" cb-pin-name="PN-OJ1-dq" id="9Q4">
<line cb-classname="GraphicLineEntity" class="signalline" id="9Qb" x1="1570" x2="1590" y1="1030" y2="1030"/>
<g cb-classname="DynamicText" cb-source="9E-jpE-tDCk" class="signal" id="9QC" text-anchor="start">
<text cb-classname="GraphicTextEntity" class="signal" fill="black" font-style="normal" font-weight="normal" id="9QO" text-anchor="start" text-decoration="normal" x="1584" y="1027"/>
</g>
<g cb-classname="SignalSegment" id="9YF">
<line cb-classname="GraphicLineEntity" class="signalline" id="9Yw" stroke="#1e12bf" stroke-dasharray="5,4" x1="1590" x2="2000" y1="1030" y2="1030"/>
<g cb-classname="SignalConnection" cb-graphic-line="$942$" cb-input-pin="$fYU$" id="9Yr"/>
</g>
</g>
<g cb-classname="ControlPin" cb-pin-name="rq-CRl-LM" id="9QU">
<line cb-classname="GraphicLineEntity" class="signalline" id="9UG" x1="1570" x2="1590" y1="1050" y2="1050"/>
<g cb-classname="DynamicText" cb-source="1H-fOH-B3g8" class="signal" id="9UF" text-anchor="start">
<text cb-classname="GraphicTextEntity" class="signal" fill="black" font-style="normal" font-weight="normal" id="9Uw" text-anchor="start" text-decoration="normal" x="1584" y="1047"/>
</g>
<g cb-classname="SignalSegment" id="9Y4">
<line cb-classname="GraphicLineEntity" class="signalline" id="9Yb" stroke="#1e12bf" stroke-dasharray="5,4" x1="1590" x2="2000" y1="1050" y2="1050"/>
<g cb-classname="SignalConnection" cb-graphic-line="$945$" cb-input-pin="$P8x$" id="9YC"/>
</g>
</g>
<g cb-classname="ControlPin" cb-pin-name="sn-gPJ-VM" id="9U4">
<line cb-classname="GraphicLineEntity" class="signalline" id="9Ub" x1="1570" x2="1590" y1="1070" y2="1070"/>
<g cb-classname="DynamicText" cb-source="cT-7sT-zRxN" class="signal" id="9UC" text-anchor="start">
<text cb-classname="GraphicTextEntity" class="signal" fill="black" font-style="normal" font-weight="normal" id="9UO" text-anchor="start" text-decoration="normal" x="1584" y="1067"/>
</g>
<g cb-classname="SignalSegment" id="9YO">
<line cb-classname="GraphicLineEntity" class="signalline" id="9Yn" stroke="#1e12bf" stroke-dasharray="5,4" x1="1590" x2="2000" y1="1070" y2="1070"/>
<g cb-classname="SignalConnection" cb-graphic-line="$948$" cb-input-pin="$Jbf$" id="9YU"/>
</g>
</g>
</g>
<g cb-alg-L7Dp="3" cb-alg-RXsd="$910$cb-alg-d6$" cb-alg-TtBf="$910$cb-alg-d4$" cb-alg-axzN="$910$cb-alg-d7$" cb-alg-dy7d="$910$cb-alg-d5$" cb-alg-jbG2="0" cb-alg-jbG4="0" cb-alg-jbG8="0" cb-alg-jbGX="0" cb-alg-jbGa="0" cb-alg-jbGg="0" cb-alg-jbGi="0" cb-alg-jbGj="1" cb-alg-jbGt="0" cb-alg-jbO0="0" cb-alg-jbO2="0" cb-alg-jbO4="0" cb-alg-jbO8="0" cb-alg-jbOX="0" cb-alg-jbOa="0" cb-alg-jbOg="0" cb-alg-jbOi="0" cb-alg-jbOj="0" cb-alg-jbOt="0" cb-alg-jba0="0" cb-alg-jbw0="0" cb-alg-jbw2="0" cb-alg-jbw4="0" cb-alg-jbw8="0" cb-alg-jbwX="0" cb-alg-jbwa="0" cb-alg-jbwg="0" cb-alg-jbwi="0" cb-alg-jbwj="0" cb-alg-jbwt="0" cb-alg-jbzD="01B06G01-SNRZ" cb-alg-k6Je="1" cb-alg-xLoE="ADVISORY" cb-algorithm-id="009" cb-classname="ControlAlgorithm" cb-function-name="MASTERSEQ" cb-modify-id="00000002" id="7UO">
<rect cb-classname="GraphicRectangleEntity" class="algorithm" height="660" id="7Un" width="140" x="2020" y="740"/>
<text baseline-shift="-50%" cb-classname="GraphicTextEntity" class="algorithm" fill="#000000" font-family="MS Shell Dlg" font-size="18" id="7UU" text-anchor="middle" x="2090" y="1040">
MASTER
</text>
<text baseline-shift="-50%" cb-classname="GraphicTextEntity" class="algorithm" fill="#000000" font-family="MS Shell Dlg" font-size="18" id="7YG" text-anchor="middle" x="2090" y="1070">
SEQ
</text>
<g cb-classname="ControlPin" cb-pin-name="cT-J7i-ZEHR" id="7YF">
<line cb-classname="GraphicLineEntity" class="signalline" id="7Yw" x1="2000" x2="2020" y1="1010" y2="1010"/>
<polygon cb-classname="GraphicPolygonEntity" class="signal" id="7Yr" points="2020,1010 2009,1004 2009,1015"/>
<g cb-classname="DynamicText" cb-source="9E-jpE-tDCk" class="signal" id="7Y4" text-anchor="end">
<text cb-classname="GraphicTextEntity" class="signal" fill="black" font-style="normal" font-weight="normal" id="7Yb" text-anchor="end" text-decoration="normal" x="2005" y="1007"/>
</g>
</g>
<g cb-classname="ControlPin" cb-pin-name="Ut-R6m-oyjo" id="7YC">
<line cb-classname="GraphicLineEntity" class="signalline" id="7YO" x1="2000" x2="2020" y1="1030" y2="1030"/>
<polygon cb-classname="GraphicPolygonEntity" class="signal" id="7Yn" points="2020,1030 2009,1024 2009,1035"/>
<g cb-classname="DynamicText" cb-source="1H-fOH-B3g8" class="signal" id="7YU" text-anchor="end">
<text cb-classname="GraphicTextEntity" class="signal" fill="black" font-style="normal" font-weight="normal" id="7ZG" text-anchor="end" text-decoration="normal" x="2005" y="1027"/>
</g>
</g>
<g cb-classname="ControlPin" cb-pin-name="FB-Pc7-3COd" id="7ZF">
<line cb-classname="GraphicLineEntity" class="signalline" id="7Zw" x1="2000" x2="2020" y1="1050" y2="1050"/>
<polygon cb-classname="GraphicPolygonEntity" class="signal" id="7Zr" points="2020,1050 2009,1044 2009,1055"/>
<g cb-classname="DynamicText" cb-source="cT-7sT-zRxN" class="signal" id="7Z4" text-anchor="end">
<text cb-classname="GraphicTextEntity" class="signal" fill="black" font-style="normal" font-weight="normal" id="7Zb" text-anchor="end" text-decoration="normal" x="2005" y="1047"/>
</g>
</g>
<g cb-classname="ControlPin" cb-pin-name="gz-jOM-axzN" id="7ZC">
<line cb-classname="GraphicLineEntity" class="signalline" id="7ZO" x1="2000" x2="2020" y1="1070" y2="1070"/>
<polygon cb-classname="GraphicPolygonEntity" class="signal" id="7Zn" points="2020,1070 2009,1064 2009,1075"/>
<g cb-classname="DynamicText" cb-source="Ut-6Xt-ePDq" class="signal" id="7ZU" text-anchor="end">
<text cb-classname="GraphicTextEntity" class="signal" fill="black" font-style="normal" font-weight="normal" id="7RG" text-anchor="end" text-decoration="normal" x="2005" y="1067"/>
</g>
</g>
<g cb-classname="ControlPin" cb-pin-name="ie-fCp-m9R9" id="7RF">
<line cb-classname="GraphicLineEntity" class="signalline" id="7Rw" x1="2160" x2="2180" y1="1350" y2="1350"/>
<g cb-classname="DynamicText" cb-source="M8-Dj8-nU9B" class="signal" id="7Rr" text-anchor="start">
<text cb-classname="GraphicTextEntity" class="signal" fill="black" font-style="normal" font-weight="normal" id="7R4" text-anchor="start" text-decoration="normal" x="2175" y="1345"/>
</g>
<g cb-classname="SignalSegment" id="1IUj">
<line cb-classname="GraphicLineEntity" class="signalline" id="1IUh" stroke="#1e12bf" stroke-dasharray="5,4" x1="2180" x2="3010" y1="1350" y2="1350"/>
<g cb-classname="SignalConnection" cb-graphic-line="$1098$" cb-input-pin="$X0Er$" id="1IUr"/>
</g>
</g>
<g cb-classname="ControlPin" cb-pin-name="sn-gPJ-ZVrL" id="7Rb">
<line cb-classname="GraphicLineEntity" class="signalline" id="7RC" x1="2160" x2="2180" y1="1370" y2="1370"/>
<g cb-classname="DynamicText" cb-source="cT-7sT-zRxN" class="signal" id="7RO" text-anchor="start">
<text cb-classname="GraphicTextEntity" class="signal" fill="black" font-style="normal" font-weight="normal" id="7Rn" text-anchor="start" text-decoration="normal" x="2174" y="1367"/>
</g>
<g cb-classname="SignalSegment" id="1MG0">
<line cb-classname="GraphicLineEntity" class="signalline" id="1MGs" stroke="#1e12bf" stroke-dasharray="5,4" x1="2180" x2="3010" y1="1370" y2="1370"/>
<g cb-classname="SignalConnection" cb-graphic-line="$1101$" cb-input-pin="$O0qG$" id="1MG2"/>
</g>
</g>
<g cb-classname="ControlPin" cb-pin-name="gz-jOM-LLqE" id="7RU">
<line cb-classname="GraphicLineEntity" class="signalline" id="7JG" x1="2160" x2="2180" y1="1390" y2="1390"/>
<g cb-classname="DynamicText" cb-source="3k-xak-qcft" class="signal" id="7JF" text-anchor="start">
<text cb-classname="GraphicTextEntity" class="signal" fill="black" font-style="normal" font-weight="normal" id="7Jw" text-anchor="start" text-decoration="normal" x="2174" y="1387"/>
</g>
<g cb-classname="SignalSegment" id="1MGi">
<line cb-classname="GraphicLineEntity" class="signalline" id="1MGY" stroke="#1e12bf" stroke-dasharray="5,4" x1="2180" x2="3010" y1="1390" y2="1390"/>
<g cb-classname="SignalConnection" cb-graphic-line="$1104$" cb-input-pin="$MGrQ$" id="1MGT"/>
</g>
</g>
<g cb-classname="ControlPin" cb-pin-name="rq-CRl-CEq9" id="7Jr">
<line cb-classname="GraphicLineEntity" class="signalline" id="7J4" x1="2090" x2="2090" y1="1400" y2="1420"/>
<g cb-classname="DynamicText" cb-source="1H-fOH-B3g8" class="signal" id="7Jb" text-anchor="end">
<text cb-classname="GraphicTextEntity" class="signal" fill="black" font-style="normal" font-weight="normal" id="7JC" text-anchor="end" text-decoration="normal" transform="translate(2087,1414)rotate(-90)"/>
</g>
<g cb-classname="SignalSegment" id="1IOi">
<line cb-classname="GraphicLineEntity" class="signalline" id="1IOY" x1="2090" x2="2090" y1="1420" y2="1530"/>
<g cb-classname="SignalSegment" id="1IOT">
<line cb-classname="GraphicLineEntity" class="signalline" id="1IOf" x1="2090" x2="4560" y1="1530" y2="1530"/>
<g cb-classname="SignalConnection" cb-graphic-line="$1076$" cb-input-pin="$jI4F$" id="1IOj"/>
</g>
</g>
</g>
<g cb-classname="ControlPin" cb-pin-name="FB-Pc7-q9Vd" id="7JO">
<line cb-classname="GraphicLineEntity" class="signalline" id="7Jn" x1="2000" x2="2020" y1="1090" y2="1090"/>
<polygon cb-classname="GraphicPolygonEntity" class="signal" id="7JU" points="2020,1090 2009,1084 2009,1095"/>
<g cb-classname="DynamicText" cb-source="cT-7sT-zRxN" class="signal" id="7BG" text-anchor="end">
<text cb-classname="GraphicTextEntity" class="signal" fill="black" font-style="normal" font-weight="normal" id="7BF" text-anchor="end" text-decoration="normal" x="2005" y="1087"/>
</g>
</g>
<g cb-classname="ControlPin" cb-pin-name="gz-jOM-LyGj" id="7Bw">
<line cb-classname="GraphicLineEntity" class="signalline" id="7Br" x1="2160" x2="2180" y1="750" y2="750"/>
<g cb-classname="DynamicText" cb-source="3k-xak-qcft" class="signal" id="7B4" text-anchor="start">
<text cb-classname="GraphicTextEntity" class="signal" fill="black" font-style="normal" font-weight="normal" id="7Bb" text-anchor="start" text-decoration="normal" x="2174" y="747"/>
</g>
<g cb-classname="SignalSegment" id="9IO">
<line cb-classname="GraphicLineEntity" class="signalline" id="9In" x1="2180" x2="3010" y1="750" y2="750"/>
<g cb-classname="SignalConnection" cb-graphic-line="$908$" cb-input-pin="$QnR$" id="9IU"/>
</g>
</g>
<g cb-classname="ControlPin" cb-pin-name="rq-CRl-LA0Q" id="7BC">
<line cb-classname="GraphicLineEntity" class="signalline" id="7BO" x1="2160" x2="2180" y1="770" y2="770"/>
<g cb-classname="DynamicText" cb-source="1H-fOH-B3g8" class="signal" id="7Bn" text-anchor="start">
<text cb-classname="GraphicTextEntity" class="signal" fill="black" font-style="normal" font-weight="normal" id="7BU" text-anchor="start" text-decoration="normal" x="2174" y="767"/>
</g>
</g>
<g cb-classname="ControlPin" cb-pin-name="FB-Pc7-LvIC" id="73G">
<line cb-classname="GraphicLineEntity" class="signalline" id="73F" x1="2160" x2="2180" y1="790" y2="790"/>
<g cb-classname="DynamicText" cb-source="mh-gRh-Z1r5" class="signal" id="73w" text-anchor="start">
<text cb-classname="GraphicTextEntity" class="signal" fill="black" font-style="normal" font-weight="normal" id="73r" text-anchor="start" text-decoration="normal" x="2174" y="787"/>
</g>
</g>
<g cb-classname="ControlPin" cb-pin-name="PN-OJ1-dvIY" id="734">
<line cb-classname="GraphicLineEntity" class="signalline" id="73b" x1="2160" x2="2180" y1="810" y2="810"/>
<g cb-classname="DynamicText" cb-source="9E-jpE-tDCk" class="signal" id="73C" text-anchor="start">
<text cb-classname="GraphicTextEntity" class="signal" fill="black" font-style="normal" font-weight="normal" id="73O" text-anchor="start" text-decoration="normal" x="2174" y="807"/>
</g>
</g>
<g cb-classname="ControlPin" cb-pin-name="Ut-R6m-dyGh" id="73n">
<line cb-classname="GraphicLineEntity" class="signalline" id="73U" x1="2160" x2="2180" y1="830" y2="830"/>
<g cb-classname="DynamicText" cb-source="ie-CJe-89PH" class="signal" id="8IG" text-anchor="start">
<text cb-classname="GraphicTextEntity" class="signal" fill="black" font-style="normal" font-weight="normal" id="8IF" text-anchor="start" text-decoration="normal" x="2174" y="827"/>
</g>
</g>
<g cb-classname="ControlPin" cb-pin-name="M8-cDX-dA0p" id="8Iw">
<line cb-classname="GraphicLineEntity" class="signalline" id="8Ir" x1="2160" x2="2180" y1="850" y2="850"/>
<g cb-classname="DynamicText" cb-source="sn-P6n-5iUh" class="signal" id="8I4" text-anchor="start">
<text cb-classname="GraphicTextEntity" class="signal" fill="black" font-style="normal" font-weight="normal" id="8Ib" text-anchor="start" text-decoration="normal" x="2174" y="847"/>
</g>
</g>
<g cb-classname="ControlPin" cb-pin-name="cT-J7i-oA0c" id="8IC">
<line cb-classname="GraphicLineEntity" class="signalline" id="8IO" x1="2160" x2="2180" y1="870" y2="870"/>
<g cb-classname="DynamicText" cb-source="gz-Olz-kfRE" class="signal" id="8In" text-anchor="start">
<text cb-classname="GraphicTextEntity" class="signal" fill="black" font-style="normal" font-weight="normal" id="8IU" text-anchor="start" text-decoration="normal" x="2174" y="867"/>
</g>
</g>
<g cb-classname="ControlPin" cb-pin-name="3k-6xs-ovIe" id="8MG">
<line cb-classname="GraphicLineEntity" class="signalline" id="8MF" x1="2160" x2="2180" y1="890" y2="890"/>
<g cb-classname="DynamicText" cb-source="rq-R7q-Hgce" class="signal" id="8Mw" text-anchor="start">
<text cb-classname="GraphicTextEntity" class="signal" fill="black" font-style="normal" font-weight="normal" id="8Mr" text-anchor="start" text-decoration="normal" x="2174" y="887"/>
</g>
</g>
<g cb-classname="ControlPin" cb-pin-name="1H-Dfa-oyGx" id="8M4">
<line cb-classname="GraphicLineEntity" class="signalline" id="8Mb" x1="2160" x2="2180" y1="910" y2="910"/>
<g cb-classname="DynamicText" cb-source="FB-cxB-hr3n" class="signal" id="8MC" text-anchor="start">
<text cb-classname="GraphicTextEntity" class="signal" fill="black" font-style="normal" font-weight="normal" id="8MO" text-anchor="start" text-decoration="normal" x="2174" y="907"/>
</g>
</g>
<g cb-classname="ControlPin" cb-pin-name="mh-9gO-oAgI" id="8Mn">
<line cb-classname="GraphicLineEntity" class="signalline" id="8MU" x1="2160" x2="2180" y1="930" y2="930"/>
<g cb-classname="DynamicText" cb-source="PN-JmN-EC6z" class="signal" id="8QG" text-anchor="start">
<text cb-classname="GraphicTextEntity" class="signal" fill="black" font-style="normal" font-weight="normal" id="8QF" text-anchor="start" text-decoration="normal" x="2174" y="927"/>
</g>
</g>
<g cb-classname="ControlPin" cb-pin-name="9E-xjF-VAjx" id="8Qw">
<line cb-classname="GraphicLineEntity" class="signalline" id="8Qr" x1="2160" x2="2180" y1="950" y2="950"/>
<g cb-classname="DynamicText" cb-source="Ut-6Xt-ePDq" class="signal" id="8Q4" text-anchor="start">
<text cb-classname="GraphicTextEntity" class="signal" fill="black" font-style="normal" font-weight="normal" id="8Qb" text-anchor="start" text-decoration="normal" x="2174" y="947"/>
</g>
</g>
<g cb-classname="ControlPin" cb-pin-name="ie-fCp-VvCw" id="8QC">
<line cb-classname="GraphicLineEntity" class="signalline" id="8QO" x1="2160" x2="2180" y1="970" y2="970"/>
<g cb-classname="DynamicText" cb-source="M8-Dj8-nU9B" class="signal" id="8Qn" text-anchor="start">
<text cb-classname="GraphicTextEntity" class="signal" fill="black" font-style="normal" font-weight="normal" id="8QU" text-anchor="start" text-decoration="normal" x="2174" y="967"/>
</g>
</g>
<g cb-classname="ControlPin" cb-pin-name="sn-gPJ-VyPf" id="8UG">
<line cb-classname="GraphicLineEntity" class="signalline" id="8UF" x1="2160" x2="2180" y1="990" y2="990"/>
<g cb-classname="DynamicText" cb-source="cT-7sT-zRxN" class="signal" id="8Uw" text-anchor="start">
<text cb-classname="GraphicTextEntity" class="signal" fill="black" font-style="normal" font-weight="normal" id="8Ur" text-anchor="start" text-decoration="normal" x="2174" y="987"/>
</g>
</g>
<g cb-classname="ControlPin" cb-pin-name="gz-jOM-LyO4" id="8U4">
<line cb-classname="GraphicLineEntity" class="signalline" id="8Ub" x1="2160" x2="2180" y1="1010" y2="1010"/>
<g cb-classname="DynamicText" cb-source="3k-xak-qcft" class="signal" id="8UC" text-anchor="start">
<text cb-classname="GraphicTextEntity" class="signal" fill="black" font-style="normal" font-weight="normal" id="8UO" text-anchor="start" text-decoration="normal" x="2174" y="1007"/>
</g>
</g>
<g cb-classname="ControlPin" cb-pin-name="rq-CRl-LAR5" id="8Un">
<line cb-classname="GraphicLineEntity" class="signalline" id="8UU" x1="2160" x2="2180" y1="1030" y2="1030"/>
<g cb-classname="DynamicText" cb-source="1H-fOH-B3g8" class="signal" id="8YG" text-anchor="start">
<text cb-classname="GraphicTextEntity" class="signal" fill="black" font-style="normal" font-weight="normal" id="8YF" text-anchor="start" text-decoration="normal" x="2174" y="1027"/>
</g>
</g>
<g cb-classname="ControlPin" cb-pin-name="FB-Pc7-Lvca" id="8Yw">
<line cb-classname="GraphicLineEntity" class="signalline" id="8Yr" x1="2160" x2="2180" y1="1050" y2="1050"/>
<g cb-classname="DynamicText" cb-source="mh-gRh-Z1r5" class="signal" id="8Y4" text-anchor="start">
<text cb-classname="GraphicTextEntity" class="signal" fill="black" font-style="normal" font-weight="normal" id="8Yb" text-anchor="start" text-decoration="normal" x="2174" y="1047"/>
</g>
</g>
<g cb-classname="ControlPin" cb-pin-name="PN-OJ1-dvJP" id="8YC">
<line cb-classname="GraphicLineEntity" class="signalline" id="8YO" x1="2160" x2="2180" y1="1070" y2="1070"/>
<g cb-classname="DynamicText" cb-source="9E-jpE-tDCk" class="signal" id="8Yn" text-anchor="start">
<text cb-classname="GraphicTextEntity" class="signal" fill="black" font-style="normal" font-weight="normal" id="8YU" text-anchor="start" text-decoration="normal" x="2174" y="1067"/>
</g>
</g>
<g cb-classname="ControlPin" cb-pin-name="Ut-R6m-dy6H" id="8ZG">
<line cb-classname="GraphicLineEntity" class="signalline" id="8ZF" x1="2160" x2="2180" y1="1090" y2="1090"/>
<g cb-classname="DynamicText" cb-source="ie-CJe-89PH" class="signal" id="8Zw" text-anchor="start">
<text cb-classname="GraphicTextEntity" class="signal" fill="black" font-style="normal" font-weight="normal" id="8Zr" text-anchor="start" text-decoration="normal" x="2174" y="1087"/>
</g>
</g>
<g cb-classname="ControlPin" cb-pin-name="M8-cDX-dAD6" id="8Z4">
<line cb-classname="GraphicLineEntity" class="signalline" id="8Zb" x1="2160" x2="2180" y1="1110" y2="1110"/>
<g cb-classname="DynamicText" cb-source="sn-P6n-5iUh" class="signal" id="8ZC" text-anchor="start">
<text cb-classname="GraphicTextEntity" class="signal" fill="black" font-style="normal" font-weight="normal" id="8ZO" text-anchor="start" text-decoration="normal" x="2174" y="1107"/>
</g>
</g>
<g cb-classname="ControlPin" cb-pin-name="cT-J7i-oA2I" id="8Zn">
<line cb-classname="GraphicLineEntity" class="signalline" id="8ZU" x1="2160" x2="2180" y1="1130" y2="1130"/>
<g cb-classname="DynamicText" cb-source="gz-Olz-kfRE" class="signal" id="8RG" text-anchor="start">
<text cb-classname="GraphicTextEntity" class="signal" fill="black" font-style="normal" font-weight="normal" id="8RF" text-anchor="start" text-decoration="normal" x="2174" y="1127"/>
</g>
</g>
<g cb-classname="ControlPin" cb-pin-name="3k-6xs-ovQ6" id="8Rw">
<line cb-classname="GraphicLineEntity" class="signalline" id="8Rr" x1="2160" x2="2180" y1="1150" y2="1150"/>
<g cb-classname="DynamicText" cb-source="rq-R7q-Hgce" class="signal" id="8R4" text-anchor="start">
<text cb-classname="GraphicTextEntity" class="signal" fill="black" font-style="normal" font-weight="normal" id="8Rb" text-anchor="start" text-decoration="normal" x="2174" y="1147"/>
</g>
</g>
<g cb-classname="ControlPin" cb-pin-name="1H-Dfa-oyw2" id="8RC">
<line cb-classname="GraphicLineEntity" class="signalline" id="8RO" x1="2160" x2="2180" y1="1170" y2="1170"/>
<g cb-classname="DynamicText" cb-source="FB-cxB-hr3n" class="signal" id="8Rn" text-anchor="start">
<text cb-classname="GraphicTextEntity" class="signal" fill="black" font-style="normal" font-weight="normal" id="8RU" text-anchor="start" text-decoration="normal" x="2174" y="1167"/>
</g>
</g>
<g cb-classname="ControlPin" cb-pin-name="mh-9gO-oA2D" id="8JG">
<line cb-classname="GraphicLineEntity" class="signalline" id="8JF" x1="2160" x2="2180" y1="1190" y2="1190"/>
<g cb-classname="DynamicText" cb-source="PN-JmN-EC6z" class="signal" id="8Jw" text-anchor="start">
<text cb-classname="GraphicTextEntity" class="signal" fill="black" font-style="normal" font-weight="normal" id="8Jr" text-anchor="start" text-decoration="normal" x="2174" y="1187"/>
</g>
</g>
<g cb-classname="ControlPin" cb-pin-name="9E-xjF-VA2Y" id="8J4">
<line cb-classname="GraphicLineEntity" class="signalline" id="8Jb" x1="2160" x2="2180" y1="1210" y2="1210"/>
<g cb-classname="DynamicText" cb-source="Ut-6Xt-ePDq" class="signal" id="8JC" text-anchor="start">
<text cb-classname="GraphicTextEntity" class="signal" fill="black" font-style="normal" font-weight="normal" id="8JO" text-anchor="start" text-decoration="normal" x="2174" y="1207"/>
</g>
</g>
<g cb-classname="ControlPin" cb-pin-name="ie-fCp-VvQZ" id="8Jn">
<line cb-classname="GraphicLineEntity" class="signalline" id="8JU" x1="2160" x2="2180" y1="1230" y2="1230"/>
<g cb-classname="DynamicText" cb-source="M8-Dj8-nU9B" class="signal" id="8BG" text-anchor="start">
<text cb-classname="GraphicTextEntity" class="signal" fill="black" font-style="normal" font-weight="normal" id="8BF" text-anchor="start" text-decoration="normal" x="2174" y="1227"/>
</g>
</g>
<g cb-classname="ControlPin" cb-pin-name="sn-gPJ-VywX" id="8Bw">
<line cb-classname="GraphicLineEntity" class="signalline" id="8Br" x1="2160" x2="2180" y1="1250" y2="1250"/>
<g cb-classname="DynamicText" cb-source="cT-7sT-zRxN" class="signal" id="8B4" text-anchor="start">
<text cb-classname="GraphicTextEntity" class="signal" fill="black" font-style="normal" font-weight="normal" id="8Bb" text-anchor="start" text-decoration="normal" x="2174" y="1247"/>
</g>
</g>
<g cb-classname="ControlPin" cb-pin-name="gz-jOM-Lywg" id="8BC">
<line cb-classname="GraphicLineEntity" class="signalline" id="8BO" x1="2160" x2="2180" y1="1270" y2="1270"/>
<g cb-classname="DynamicText" cb-source="3k-xak-qcft" class="signal" id="8Bn" text-anchor="start">
<text cb-classname="GraphicTextEntity" class="signal" fill="black" font-style="normal" font-weight="normal" id="8BU" text-anchor="start" text-decoration="normal" x="2174" y="1267"/>
</g>
</g>
<g cb-classname="ControlPin" cb-pin-name="rq-CRl-LA28" id="83G">
<line cb-classname="GraphicLineEntity" class="signalline" id="83F" x1="2160" x2="2180" y1="1290" y2="1290"/>
<g cb-classname="DynamicText" cb-source="1H-fOH-B3g8" class="signal" id="83w" text-anchor="start">
<text cb-classname="GraphicTextEntity" class="signal" fill="black" font-style="normal" font-weight="normal" id="83r" text-anchor="start" text-decoration="normal" x="2174" y="1287"/>
</g>
</g>
<g cb-classname="ControlPin" cb-pin-name="FB-Pc7-LvQR" id="834">
<line cb-classname="GraphicLineEntity" class="signalline" id="83b" x1="2160" x2="2180" y1="1310" y2="1310"/>
<g cb-classname="DynamicText" cb-source="mh-gRh-Z1r5" class="signal" id="83C" text-anchor="start">
<text cb-classname="GraphicTextEntity" class="signal" fill="black" font-style="normal" font-weight="normal" id="83O" text-anchor="start" text-decoration="normal" x="2174" y="1307"/>
</g>
</g>
<g cb-classname="ControlPin" cb-pin-name="PN-OJ1-dvpG" id="83n">
<line cb-classname="GraphicLineEntity" class="signalline" id="83U" x1="2160" x2="2180" y1="1330" y2="1330"/>
<g cb-classname="DynamicText" cb-source="9E-jpE-tDCk" class="signal" id="9IG" text-anchor="start">
<text cb-classname="GraphicTextEntity" class="signal" fill="black" font-style="normal" font-weight="normal" id="9IF" text-anchor="start" text-decoration="normal" x="2174" y="1327"/>
</g>
</g>
<g cb-classname="ControlPin" cb-pin-name="Ut-R6m-NNxB" id="9Iw">
<line cb-classname="GraphicLineEntity" class="signalline" id="9Ir" x1="2000" x2="2020" y1="1110" y2="1110"/>
<polygon cb-classname="GraphicPolygonEntity" class="signal" id="9I4" points="2020,1110 2009,1104 2009,1115"/>
<g cb-classname="DynamicText" cb-source="1H-fOH-B3g8" class="signal" id="9Ib" text-anchor="end">
<text cb-classname="GraphicTextEntity" class="signal" fill="black" font-style="normal" font-weight="normal" id="9IC" text-anchor="end" text-decoration="normal" x="2005" y="1107"/>
</g>
</g>
</g>
<g cb-alg-bXlB="1.000000" cb-alg-d17U="5" cb-alg-fXMX="$216$cb-alg-out$" cb-alg-fik="NO_FREEZE" cb-alg-mmeM="$737$cb-alg-dv01$" cb-alg-pXlp="$665$cb-alg-out$" cb-alg-rLv="$185$cb-alg-out$" cb-alg-tX1U="600" cb-algorithm-id="001" cb-classname="ControlAlgorithm" cb-function-name="DEVICESEQ" cb-modify-id="00000001" id="2YO">
<rect cb-classname="GraphicRectangleEntity" class="algorithm" height="100" id="2Yn" width="140" x="3030" y="730"/>
<text baseline-shift="-50%" cb-classname="GraphicTextEntity" class="algorithm" fill="#000000" font-family="MS Shell Dlg" id="2YU" text-anchor="middle" x="3100" y="763">
DEVICE
</text>
<text baseline-shift="-50%" cb-classname="GraphicTextEntity" class="algorithm" fill="#000000" font-family="MS Shell Dlg" font-style="normal" id="2ZG" text-anchor="middle" x="3100" y="786">
SEQUENCER
</text>
<g cb-classname="ControlPin" cb-pin-name="3k-6xs-RRzj" id="2ZF">
<line cb-classname="GraphicLineEntity" class="signalline" id="2Zw" x1="3010" x2="3030" y1="750" y2="750"/>
<polygon cb-classname="GraphicPolygonEntity" class="signal" id="2Zr" points="3030,750 3019,744 3019,755"/>
<g cb-classname="DynamicText" cb-source="ie-CJe-89PH" class="signal" id="2Z4" text-anchor="end">
<text cb-classname="GraphicTextEntity" class="signal" fill="black" font-style="normal" font-weight="normal" id="2Zb" text-anchor="end" text-decoration="normal" x="3015" y="747"/>
</g>
</g>
<g cb-classname="ControlPin" cb-pin-name="M8-cDX-pUfU" id="2ZC">
<line cb-classname="GraphicLineEntity" class="signalline" id="2ZO" x1="3010" x2="3030" y1="770" y2="770"/>
<polygon cb-classname="GraphicPolygonEntity" class="signal" id="2Zn" points="3030,770 3019,764 3019,775"/>
<g cb-classname="DynamicText" cb-source="mh-gRh-Z1r5" class="signal" id="2ZU" text-anchor="end">
<text cb-classname="GraphicTextEntity" class="signal" fill="black" font-style="normal" font-weight="normal" id="2RG" text-anchor="end" text-decoration="normal" x="3015" y="767"/>
</g>
</g>
<g cb-classname="ControlPin" cb-pin-name="PN-OJ1-6Cx6" id="2RF">
<line cb-classname="GraphicLineEntity" class="signalline" id="2Rw" x1="3010" x2="3030" y1="790" y2="790"/>
<polygon cb-classname="GraphicPolygonEntity" class="signal" id="2Rr" points="3030,790 3019,784 3019,795"/>
<g cb-classname="DynamicText" cb-source="3k-xak-qcft" class="signal" id="2R4" text-anchor="end">
<text cb-classname="GraphicTextEntity" class="signal" fill="black" font-style="normal" font-weight="normal" id="2Rb" text-anchor="end" text-decoration="normal" x="3015" y="787"/>
</g>
</g>
<g cb-classname="ControlPin" cb-pin-name="rq-CRl-OVy" id="2RC">
<line cb-classname="GraphicLineEntity" class="signalline" id="2RO" x1="3010" x2="3030" y1="810" y2="810"/>
<polygon cb-classname="GraphicPolygonEntity" class="signal" id="2Rn" points="3030,810 3019,804 3019,815"/>
<g cb-classname="DynamicText" cb-source="M8-Dj8-nU9B" class="signal" id="2RU" text-anchor="end">
<text cb-classname="GraphicTextEntity" class="signal" fill="black" font-style="normal" font-weight="normal" id="2JG" text-anchor="end" text-decoration="normal" x="3015" y="807"/>
</g>
</g>
<g cb-classname="ControlPin" cb-pin-name="sn-gPJ-gHDB" id="2JF">
<line cb-classname="GraphicLineEntity" class="signalline" id="2Jw" x1="3170" x2="3190" y1="780" y2="780"/>
<g cb-classname="DynamicText" cb-source="cT-7sT-zRxN" class="signal" id="2Jr" text-anchor="start">
<text cb-classname="GraphicTextEntity" class="signal" fill="black" font-style="normal" font-weight="normal" id="2J4" text-anchor="start" text-decoration="normal" x="3184" y="777"/>
</g>
<g cb-classname="SignalSegment" id="5Qr">
<g cb-classname="SignalConnection" cb-graphic-line="$524$" cb-input-pin="$EIm$" id="5Qb"/>
<line cb-classname="GraphicLineEntity" class="signalline" id="5Q4" stroke="#1e12bf" stroke-dasharray="5,4" x1="3190" x2="3840" y1="780" y2="780"/>
</g>
</g>
<g cb-classname="DynamicText" cb-labeled="false" cb-source="Ut-R6m-nPfq" class="algorithm" id="2Jn" text-anchor="start">
<text cb-classname="GraphicTextEntity" class="algorithm" fill="black" font-family="arial" font-size="12" font-style="normal" font-weight="normal" id="2JU" text-anchor="start" text-decoration="normal" x="3050" y="720"/>
</g>
<g cb-classname="DynamicText" cb-labeled="false" cb-source="ie-fCp-E96O" class="algorithm" id="7Ub" text-anchor="start">
<text cb-classname="GraphicTextEntity" class="algorithm" fill="black" font-family="arial" font-size="12" font-style="normal" font-weight="normal" id="7UC" text-anchor="start" text-decoration="normal" x="3050" y="700"/>
</g>
</g>
<g cb-alg-duh="01B06G01-SZ1" cb-alg-mNQ="$638$cb-alg-out$" cb-alg-mNa="$247$cb-alg-strt$" cb-alg-mNs="$611$cb-alg-out$" cb-algorithm-id="002" cb-classname="FastBooleanAlgorithm" cb-function-name="OR" id="43U">
<ellipse cb-classname="GraphicEllipseEntity" class="algorithm" cx="3890" cy="800" id="5IG" rx="30" ry="30"/>
<line cb-classname="GraphicLineEntity" class="algorithm" id="5IF" x1="3860" x2="3860" y1="760" y2="840"/>
<text baseline-shift="-50%" cb-classname="GraphicTextEntity" class="algorithm" fill="#000000" font-family="MS Shell Dlg" font-size="18" id="5Iw" text-anchor="middle" x="3889" y="795">
OR
</text>
<g cb-classname="ControlPin" cb-pin-name="M8-cDX-RhD" id="5Ir">
<line cb-classname="GraphicLineEntity" class="signalline" id="5I4" x1="3840" x2="3860" y1="780" y2="780"/>
<polygon cb-classname="GraphicPolygonEntity" class="signal" id="5Ib" points="3860,780 3849,774 3849,785"/>
<g cb-classname="DynamicText" cb-source="mh-gRh-Z1r5" class="signal" id="5IC" text-anchor="end">
<text cb-classname="GraphicTextEntity" class="signal" fill="black" font-style="normal" font-weight="normal" id="5IO" text-anchor="end" text-decoration="normal" x="3845" y="777"/>
</g>
</g>
<g cb-classname="ControlPin" cb-pin-name="PN-OJ1-akQ" id="5In">
<line cb-classname="GraphicLineEntity" class="signalline" id="5IU" x1="3840" x2="3860" y1="820" y2="820"/>
<polygon cb-classname="GraphicPolygonEntity" class="signal" id="5MG" points="3860,820 3849,814 3849,825"/>
<g cb-classname="DynamicText" cb-source="3k-xak-qcft" class="signal" id="5MF" text-anchor="end">
<text cb-classname="GraphicTextEntity" class="signal" fill="black" font-style="normal" font-weight="normal" id="5Mw" text-anchor="end" text-decoration="normal" x="3845" y="817"/>
</g>
</g>
<g cb-classname="ControlPin" cb-pin-name="rq-CRl-duk" id="5Mr">
<line cb-classname="GraphicLineEntity" class="signalline" id="5M4" x1="3920" x2="3940" y1="800" y2="800"/>
<g cb-classname="DynamicText" cb-source="1H-fOH-B3g8" class="signal" id="5Mb" text-anchor="start">
<text cb-classname="GraphicTextEntity" class="signal" fill="black" font-style="normal" font-weight="normal" id="5MC" text-anchor="start" text-decoration="normal" x="3934" y="797"/>
</g>
<g cb-classname="SignalSegment" id="5QC">
<line cb-classname="GraphicLineEntity" class="signalline" id="5QO" stroke="#1e12bf" stroke-dasharray="5,4" x1="3940" x2="4560" y1="800" y2="800"/>
<g cb-classname="SignalConnection" cb-graphic-line="$527$" cb-input-pin="$2EY$" id="5Qn"/>
</g>
</g>
<g cb-classname="ControlPin" cb-pin-name="sn-gPJ-fZC" id="5Mn">
<line cb-classname="GraphicLineEntity" class="signalline" id="5MU" x1="3840" x2="3860" y1="800" y2="800"/>
<polygon cb-classname="GraphicPolygonEntity" class="signal" id="5QG" points="3860,800 3849,794 3849,805"/>
<g cb-classname="DynamicText" cb-source="PN-JmN-EC6z" class="signal" id="5QF" text-anchor="end">
<text cb-classname="GraphicTextEntity" class="signal" fill="black" font-style="normal" font-weight="normal" id="5Qw" text-anchor="end" text-decoration="normal" transform="translate(3845,797)rotate(360)"/>
</g>
</g>
</g>
<g cb-alg-pE="$499$cb-alg-out$" cb-algorithm-id="005" cb-classname="ExternalPointInterface" cb-function-name="OUTPUT" id="2BG">
<ellipse cb-classname="GraphicEllipseEntity" class="algorithm" cx="4640" cy="800" id="2BF" rx="50" ry="50"/>
<rect cb-classname="GraphicRectangleEntity" class="algorithm" height="100" id="2Bw" width="40" x="4690" y="750"/>
<line cb-classname="GraphicLineEntity" class="algorithm" id="2Br" x1="4690" x2="4730" y1="800" y2="800"/>
<g cb-classname="ControlPin" cb-pin-name="sn-gPJ-fZ" id="2B4">
<line cb-classname="GraphicLineEntity" class="signalline" id="2Bb" x1="4560" x2="4590" y1="800" y2="800"/>
<polygon cb-classname="GraphicPolygonEntity" class="signal" id="2BC" points="4590,800 4579,794 4579,805"/>
<g cb-classname="DynamicText" cb-source="PN-JmN-EC6z" class="signal" id="2BO" text-anchor="end">
<text cb-classname="GraphicTextEntity" class="signal" fill="black" font-style="normal" font-weight="normal" id="2Bn" text-anchor="end" text-decoration="normal" x="4575" y="797"/>
</g>
</g>
<g cb-classname="PointStatusIndicator" cb-indicator-type="highway" cb-source="9E-xjF-7q" id="2BU" visibility="hidden">
<line cb-classname="GraphicLineEntity" class="algorithmline" id="23G" x1="4590" x2="4640" y1="800" y2="750"/>
<line cb-classname="GraphicLineEntity" class="algorithmline" id="23F" x1="4640" x2="4690" y1="750" y2="800"/>
<line cb-classname="GraphicLineEntity" class="algorithmline" id="23w" x1="4690" x2="4640" y1="800" y2="850"/>
<line cb-classname="GraphicLineEntity" class="algorithmline" id="23r" x1="4640" x2="4590" y1="850" y2="800"/>
</g>
<g cb-classname="PointStatusIndicator" cb-indicator-type="hardware" cb-source="1H-Dfa-6n" id="234" visibility="hidden">
<line cb-classname="GraphicLineEntity" class="algorithmline" id="23b" x1="4690" x2="4590" y1="750" y2="750"/>
<line cb-classname="GraphicLineEntity" class="algorithmline" id="23C" x1="4590" x2="4590" y1="750" y2="850"/>
<line cb-classname="GraphicLineEntity" class="algorithmline" id="23O" x1="4590" x2="4690" y1="850" y2="850"/>
</g>
<g cb-classname="PointStatusIndicator" cb-indicator-type="alarm" cb-source="mh-9gO-Db" id="23n" visibility="hidden">
<text cb-classname="GraphicTextEntity" class="algorithm" fill="#000000" font-family="Arial" font-size="20" id="23U" x="4700" y="835">
A
</text>
</g>
<g cb-classname="PointStatusIndicator" cb-indicator-type="ingraphic" cb-source="PN-OJ1-ak" id="3IG" visibility="hidden">
<text cb-classname="GraphicTextEntity" class="algorithm" fill="#000000" font-family="Arial" font-size="20" id="3IF" x="4700" y="785">
G
</text>
</g>
<g cb-classname="DynamicText" cb-labeled="false" cb-pin-name="It" cb-source="9E-xjF-7q" class="algorithm" id="3Iw" text-anchor="end">
<text baseline-shift="0%" cb-classname="GraphicTextEntity" class="algorithm" fill="black" font-family="arial" font-size="20" font-style="normal" font-weight="normal" id="3Ir" text-anchor="end" text-decoration="normal" x="4565" y="775"/>
</g>
<g baseline-shift="-100%" cb-anchor-x="4565" cb-anchor-y="810" cb-classname="PointReferences" cb-max-width="130" cb-originator="false" cb-source="Ut-R6m-OH" class="signal" id="3I4" text-anchor="end">
<text baseline-shift="-100%" cb-classname="GraphicTextEntity" class="algorithm" id="3Ib" text-anchor="end" x="4565" y="810">
REF: Point not
</text>
<text baseline-shift="-100%" cb-classname="GraphicTextEntity" class="algorithm" id="2ZUY" text-anchor="end" x="4565" y="835">
found in
</text>
<text baseline-shift="-100%" cb-classname="GraphicTextEntity" class="algorithm" id="2RFs" text-anchor="end" x="4565" y="860">
database
</text>
<text baseline-shift="-100%" cb-classname="GraphicTextEntity" class="algorithm" id="2RF2" text-anchor="end" x="4565" y="885">
(01B06G01-SZ1)
</text>
</g>
<g baseline-shift="-50%" cb-anchor-x="4745" cb-anchor-y="815" cb-classname="PointDescription" cb-content="extended" cb-labeled="false" cb-max-width="240" cb-source="1H-Dfa-6n" class="algorithm" id="3IO" text-anchor="start">
<text baseline-shift="-50%" cb-classname="GraphicTextEntity" class="algorithm" id="3In" text-anchor="start" x="4745" y="803">
DESC: Point not found in
</text>
<text baseline-shift="-50%" cb-classname="GraphicTextEntity" class="algorithm" id="2RFi" text-anchor="start" x="4745" y="828">
database (01B06G01-SZ1)
</text>
</g>
</g>
<g cb-alg-L0="$737$cb-alg-fail$" cb-alg-L2="$737$cb-alg-done$" cb-alg-Lp="$737$cb-alg-hold$" cb-alg-OLu5="01B06G01-FDBZ" cb-algorithm-id="00f" cb-classname="ControlAlgorithm" cb-function-name="PACK16" id="9BG">
<rect cb-classname="GraphicRectangleEntity" class="algorithm" height="100" id="9BF" width="140" x="3030" y="1320"/>
<text baseline-shift="-50%" cb-classname="GraphicTextEntity" class="algorithm" fill="#000000" font-family="MS Shell Dlg" font-size="18" id="9Bw" text-anchor="middle" x="3100" y="1370">
PACK16
</text>
<g cb-classname="ControlPin" cb-pin-name="1H-Dfa-goue" id="9Br">
<line cb-classname="GraphicLineEntity" class="signalline" id="9B4" x1="3170" x2="3190" y1="1370" y2="1370"/>
<g cb-classname="DynamicText" cb-source="FB-cxB-hr3n" class="signal" id="9Bb" text-anchor="start">
<text cb-classname="GraphicTextEntity" class="signal" fill="black" font-style="normal" font-weight="normal" id="9BC" text-anchor="start" text-decoration="normal" x="3184" y="1367"/>
</g>
<g cb-classname="SignalSegment" id="1IO0">
<line cb-classname="GraphicLineEntity" class="signalline" id="1IOs" x1="3190" x2="4560" y1="1370" y2="1370"/>
<g cb-classname="SignalConnection" cb-graphic-line="$1071$" cb-input-pin="$aG7E$" id="1IO2"/>
</g>
</g>
<g cb-classname="ControlPin" cb-pin-name="PN-OJ1-d7" id="1In0">
<line cb-classname="GraphicLineEntity" class="signalline" id="1Ins" x1="3010" x2="3030" y1="1370" y2="1370"/>
<polygon cb-classname="GraphicPolygonEntity" class="signal" id="1In2" points="3030,1370 3019,1364 3019,1375"/>
<g cb-classname="DynamicText" cb-source="3k-xak-qcft" class="signal" id="1Ini" text-anchor="end">
<text cb-classname="GraphicTextEntity" class="signal" fill="black" font-style="normal" font-weight="normal" id="1InY" text-anchor="end" text-decoration="normal" transform="translate(3015,1367)rotate(360)"/>
</g>
</g>
<g cb-classname="ControlPin" cb-pin-name="ie-fCp-V0" id="1Inf">
<line cb-classname="GraphicLineEntity" class="signalline" id="1Inj" x1="3010" x2="3030" y1="1350" y2="1350"/>
<polygon cb-classname="GraphicPolygonEntity" class="signal" id="1Inh" points="3030,1350 3019,1344 3019,1355"/>
<g cb-classname="DynamicText" cb-source="FB-cxB-hr3n" class="signal" id="1Inr" text-anchor="end">
<text cb-classname="GraphicTextEntity" class="signal" fill="black" font-style="normal" font-weight="normal" id="1IU0" text-anchor="end" text-decoration="normal" transform="translate(3015,1347)rotate(360)"/>
</g>
</g>
<g cb-classname="ControlPin" cb-pin-name="cT-J7i-ow" id="1IU2">
<line cb-classname="GraphicLineEntity" class="signalline" id="1IUi" x1="3010" x2="3030" y1="1390" y2="1390"/>
<polygon cb-classname="GraphicPolygonEntity" class="signal" id="1IUY" points="3030,1390 3019,1384 3019,1395"/>
<g cb-classname="DynamicText" cb-source="9E-jpE-tDCk" class="signal" id="1IUT" text-anchor="end">
<text cb-classname="GraphicTextEntity" class="signal" fill="black" font-style="normal" font-weight="normal" id="1IUf" text-anchor="end" text-decoration="normal" transform="translate(3015,1387)rotate(360)"/>
</g>
</g>
</g>
<g cb-alg-ih="$980$cb-alg-pout$" cb-algorithm-id="010" cb-classname="ExternalPointInterface" cb-function-name="OUTPUT" id="1IFY">
<ellipse cb-classname="GraphicEllipseEntity" class="algorithm" cx="4640" cy="1370" id="1IFT" rx="50" ry="50"/>
<rect cb-classname="GraphicRectangleEntity" class="algorithm" height="100" id="1IFf" width="40" x="4690" y="1320"/>
<line cb-classname="GraphicLineEntity" class="algorithm" id="1IFj" x1="4690" x2="4730" y1="1370" y2="1370"/>
<g cb-classname="ControlPin" cb-pin-name="3k-6xs-Je" id="1IFh">
<line cb-classname="GraphicLineEntity" class="signalline" id="1IFr" x1="4560" x2="4590" y1="1370" y2="1370"/>
<polygon cb-classname="GraphicPolygonEntity" class="signal" id="1Iw0" points="4590,1370 4579,1364 4579,1375"/>
<g cb-classname="DynamicText" cb-source="ie-CJe-89PH" class="signal" id="1Iws" text-anchor="end">
<text cb-classname="GraphicTextEntity" class="signal" fill="black" font-style="normal" font-weight="normal" id="1Iw2" text-anchor="end" text-decoration="normal" x="4575" y="1367"/>
</g>
</g>
<g cb-classname="PointStatusIndicator" cb-indicator-type="highway" cb-source="M8-cDX-Rh" id="1Iwi" visibility="hidden">
<line cb-classname="GraphicLineEntity" class="algorithmline" id="1IwY" x1="4590" x2="4640" y1="1370" y2="1320"/>
<line cb-classname="GraphicLineEntity" class="algorithmline" id="1IwT" x1="4640" x2="4690" y1="1320" y2="1370"/>
<line cb-classname="GraphicLineEntity" class="algorithmline" id="1Iwf" x1="4690" x2="4640" y1="1370" y2="1420"/>
<line cb-classname="GraphicLineEntity" class="algorithmline" id="1Iwj" x1="4640" x2="4590" y1="1420" y2="1370"/>
</g>
<g cb-classname="PointStatusIndicator" cb-indicator-type="hardware" cb-source="PN-OJ1-ak" id="1Iwh" visibility="hidden">
<line cb-classname="GraphicLineEntity" class="algorithmline" id="1Iwr" x1="4690" x2="4590" y1="1320" y2="1320"/>
<line cb-classname="GraphicLineEntity" class="algorithmline" id="1Ir0" x1="4590" x2="4590" y1="1320" y2="1420"/>
<line cb-classname="GraphicLineEntity" class="algorithmline" id="1Irs" x1="4590" x2="4690" y1="1420" y2="1420"/>
</g>
<g cb-classname="PointStatusIndicator" cb-indicator-type="alarm" cb-source="Ut-R6m-OH" id="1Ir2" visibility="hidden">
<text cb-classname="GraphicTextEntity" class="algorithm" fill="#000000" font-family="Arial" font-size="20" id="1Iri" x="4700" y="1405">
A
</text>
</g>
<g cb-classname="PointStatusIndicator" cb-indicator-type="ingraphic" cb-source="ie-fCp-xB" id="1IrY" visibility="hidden">
<text cb-classname="GraphicTextEntity" class="algorithm" fill="#000000" font-family="Arial" font-size="20" id="1IrT" x="4700" y="1355">
G
</text>
</g>
<g cb-classname="DynamicText" cb-labeled="false" cb-pin-name="In" cb-source="M8-cDX-Rh" class="algorithm" id="1Irf" text-anchor="end">
<text baseline-shift="0%" cb-classname="GraphicTextEntity" class="algorithm" fill="black" font-family="arial" font-size="20" font-style="normal" font-weight="normal" id="1Irj" text-anchor="end" text-decoration="normal" x="4565" y="1345"/>
</g>
<g baseline-shift="-100%" cb-anchor-x="4565" cb-anchor-y="1380" cb-classname="PointReferences" cb-max-width="130" cb-originator="false" cb-source="sn-gPJ-fZ" class="signal" id="1Irh" text-anchor="end">
<text baseline-shift="-100%" cb-classname="GraphicTextEntity" class="algorithm" id="1Irr" text-anchor="end" x="4565" y="1380">
REF: Point not
</text>
<text baseline-shift="-100%" cb-classname="GraphicTextEntity" class="algorithm" id="2RFT" text-anchor="end" x="4565" y="1405">
found in
</text>
<text baseline-shift="-100%" cb-classname="GraphicTextEntity" class="algorithm" id="2RFf" text-anchor="end" x="4565" y="1430">
database
</text>
<text baseline-shift="-100%" cb-classname="GraphicTextEntity" class="algorithm" id="2RFj" text-anchor="end" x="4565" y="1455">
(01B06G01-FDBZ)
</text>
</g>
<g baseline-shift="-50%" cb-anchor-x="4745" cb-anchor-y="1385" cb-classname="PointDescription" cb-content="extended" cb-labeled="false" cb-max-width="240" cb-source="cT-J7i-pE" class="algorithm" id="1I40" text-anchor="start">
<text baseline-shift="-50%" cb-classname="GraphicTextEntity" class="algorithm" id="1I4s" text-anchor="start" x="4745" y="1373">
DESC: Point not found in
</text>
<text baseline-shift="-50%" cb-classname="GraphicTextEntity" class="algorithm" id="1JCs" text-anchor="start" x="4745" y="1398">
database (01B06G01-FDBZ)
</text>
</g>
</g>
<g cb-alg-MZ="$737$cb-alg-step$" cb-algorithm-id="011" cb-classname="ExternalPointInterface" cb-function-name="OUTPUT" id="1I42">
<ellipse cb-classname="GraphicEllipseEntity" class="algorithm" cx="4640" cy="1530" id="1I4i" rx="50" ry="50"/>
<rect cb-classname="GraphicRectangleEntity" class="algorithm" height="100" id="1I4Y" width="40" x="4690" y="1480"/>
<line cb-classname="GraphicLineEntity" class="algorithm" id="1I4T" x1="4690" x2="4730" y1="1530" y2="1530"/>
<g cb-classname="ControlPin" cb-pin-name="rq-CRl-j8" id="1I4f">
<line cb-classname="GraphicLineEntity" class="signalline" id="1I4j" x1="4560" x2="4590" y1="1530" y2="1530"/>
<polygon cb-classname="GraphicPolygonEntity" class="signal" id="1I4h" points="4590,1530 4579,1524 4579,1535"/>
<g cb-classname="DynamicText" cb-source="M8-Dj8-nU9B" class="signal" id="1I4r" text-anchor="end">
<text cb-classname="GraphicTextEntity" class="signal" fill="black" font-style="normal" font-weight="normal" id="1Ib0" text-anchor="end" text-decoration="normal" x="4575" y="1527"/>
</g>
</g>
<g cb-classname="PointStatusIndicator" cb-indicator-type="highway" cb-source="sn-gPJ-fZ" id="1Ibs" visibility="hidden">
<line cb-classname="GraphicLineEntity" class="algorithmline" id="1Ib2" x1="4590" x2="4640" y1="1530" y2="1480"/>
<line cb-classname="GraphicLineEntity" class="algorithmline" id="1Ibi" x1="4640" x2="4690" y1="1480" y2="1530"/>
<line cb-classname="GraphicLineEntity" class="algorithmline" id="1IbY" x1="4690" x2="4640" y1="1530" y2="1580"/>
<line cb-classname="GraphicLineEntity" class="algorithmline" id="1IbT" x1="4640" x2="4590" y1="1580" y2="1530"/>
</g>
<g cb-classname="PointStatusIndicator" cb-indicator-type="hardware" cb-source="9E-xjF-7q" id="1Ibf" visibility="hidden">
<line cb-classname="GraphicLineEntity" class="algorithmline" id="1Ibj" x1="4690" x2="4590" y1="1480" y2="1480"/>
<line cb-classname="GraphicLineEntity" class="algorithmline" id="1Ibh" x1="4590" x2="4590" y1="1480" y2="1580"/>
<line cb-classname="GraphicLineEntity" class="algorithmline" id="1Ibr" x1="4590" x2="4690" y1="1580" y2="1580"/>
</g>
<g cb-classname="PointStatusIndicator" cb-indicator-type="alarm" cb-source="ie-fCp-xB" id="1IC0" visibility="hidden">
<text cb-classname="GraphicTextEntity" class="algorithm" fill="#000000" font-family="Arial" font-size="20" id="1ICs" x="4700" y="1565">
A
</text>
</g>
<g cb-classname="PointStatusIndicator" cb-indicator-type="ingraphic" cb-source="M8-cDX-Rh" id="1IC2" visibility="hidden">
<text cb-classname="GraphicTextEntity" class="algorithm" fill="#000000" font-family="Arial" font-size="20" id="1ICi" x="4700" y="1515">
G
</text>
</g>
<g cb-classname="DynamicText" cb-labeled="false" cb-pin-name="05" cb-source="sn-gPJ-fZ" class="algorithm" id="1ICY" text-anchor="end">
<text baseline-shift="0%" cb-classname="GraphicTextEntity" class="algorithm" fill="black" font-family="arial" font-size="20" font-style="normal" font-weight="normal" id="1ICT" text-anchor="end" text-decoration="normal" x="4565" y="1505"/>
</g>
<g baseline-shift="-100%" cb-anchor-x="4565" cb-anchor-y="1540" cb-classname="PointReferences" cb-max-width="130" cb-originator="false" cb-source="cT-J7i-pE" class="signal" id="1ICf" text-anchor="end">
<text baseline-shift="-100%" cb-classname="GraphicTextEntity" class="algorithm" id="1ICj" text-anchor="end" x="4565" y="1540">
REF: Point not
</text>
<text baseline-shift="-100%" cb-classname="GraphicTextEntity" class="algorithm" id="2RFr" text-anchor="end" x="4565" y="1565">
found in
</text>
<text baseline-shift="-100%" cb-classname="GraphicTextEntity" class="algorithm" id="2Rw0" text-anchor="end" x="4565" y="1590">
database
</text>
<text baseline-shift="-100%" cb-classname="GraphicTextEntity" class="algorithm" id="2Rws" text-anchor="end" x="4565" y="1615">
(01B06G01-SNRZ)
</text>
</g>
<g baseline-shift="-50%" cb-anchor-x="4745" cb-anchor-y="1545" cb-classname="PointDescription" cb-content="extended" cb-labeled="false" cb-max-width="240" cb-source="gz-jOM-Xt" class="algorithm" id="1ICh" text-anchor="start">
<text baseline-shift="-50%" cb-classname="GraphicTextEntity" class="algorithm" id="1ICr" text-anchor="start" x="4745" y="1533">
DESC: Point not found in
</text>
<text baseline-shift="-50%" cb-classname="GraphicTextEntity" class="algorithm" id="1JC2" text-anchor="start" x="4745" y="1558">
database (01B06G01-SNRZ)
</text>
</g>
</g>
</g>
<g cb-classname="IncludeDocument" cb-modify-time="09/25/2018 01:40:30" cb-objectname="Frame" id="5">
<text cb-classname="GraphicTextEntity" class="frame" font-size="50" id="2Rni" x="3660" y="3146">
Project Title &lt;Edit in FRAME.SVG&gt;
</text>
<g baseline-shift="-50%" cb-classname="DynamicText" cb-source="rq-LXVD-xo" class="frame" id="2RnY">
<text cb-classname="GraphicTextEntity" class="frame" fill="black" font-family="arial" font-size="25" font-style="normal" font-weight="normal" id="2RnT" text-decoration="normal" x="4715" y="3325">
16
</text>
</g>
<g baseline-shift="-50%" cb-classname="DynamicText" cb-source="1H-oJdP-RL" class="frame" id="2Rnf" text-anchor="middle">
<text cb-classname="GraphicTextEntity" class="frame" fill="black" font-family="arial" font-size="48" font-style="normal" font-weight="normal" id="2Rnj" text-anchor="middle" text-decoration="normal" x="4900" y="3320">
16
</text>
</g>
<g baseline-shift="-50%" cb-classname="DynamicText" cb-source="FB-zgDk-fo" class="frame" id="2Rnh" text-anchor="middle">
<text cb-classname="GraphicTextEntity" class="frame" fill="black" font-family="arial" font-size="48" font-style="normal" font-weight="normal" id="2Rnr" text-anchor="middle" text-decoration="normal" x="5067" y="3324">
4
</text>
</g>
<g cb-classname="DynamicText" cb-source="mh-DhH8H-BghFT" class="frame" id="2RU0">
<text cb-classname="GraphicTextEntity" class="frame" fill="black" font-family="arial" font-size="48" font-style="normal" font-weight="normal" id="2RUs" text-decoration="normal" x="3660" y="3224">
B06G01 - FG FUEL OPERATION SHUT-DOWN
</text>
</g>
<g baseline-shift="-50%" cb-classname="DynamicText" cb-source="PN-aN5Z5-tuChtx" class="frame" id="2RU2" text-anchor="middle">
<text cb-classname="GraphicTextEntity" class="frame" fill="black" font-family="arial" font-size="48" font-style="normal" font-weight="normal" id="2RUi" text-anchor="middle" text-decoration="normal" x="5270" y="3324">
003
</text>
</g>
<g baseline-shift="0%" cb-classname="DynamicText" cb-source="9E-mZAXxJoH" class="frame" id="2RUY" text-anchor="middle">
<text cb-classname="GraphicTextEntity" class="frame" fill="black" font-family="arial" font-size="36" font-style="normal" font-weight="normal" id="2RUT" text-anchor="middle" text-decoration="normal" x="5270" y="3150">
A
</text>
</g>
<g baseline-shift="0%" cb-classname="DynamicText" cb-source="Ut-pTyJRjLB-qf3n" class="frame" id="2RUf" text-anchor="middle">
<text cb-classname="GraphicTextEntity" class="frame" fill="black" font-family="arial" font-size="20" font-style="normal" font-weight="normal" id="2RUj" text-anchor="middle" text-decoration="normal" x="5270" y="3230">
12/28/2010
</text>
</g>
<g baseline-shift="-50%" cb-classname="DynamicText" cb-source="ie-Nqpj8qeR" class="frame" id="2RUh" text-anchor="end">
<text cb-classname="GraphicTextEntity" class="frame" fill="black" font-family="arial" font-size="26" font-style="normal" font-weight="normal" id="2RUr" text-anchor="end" text-decoration="normal" x="4500" y="3420">
Ahdy
</text>
</g>
<g baseline-shift="-50%" cb-classname="DynamicText" cb-source="M8-JkA6eQ8f" class="frame" id="2JG0" text-anchor="end">
<text cb-classname="GraphicTextEntity" class="frame" fill="black" font-family="arial" font-size="26" font-style="normal" font-weight="normal" id="2JGs" text-anchor="end" text-decoration="normal" x="5353" y="3420">
Nemec
</text>
</g>
<g cb-classname="GraphicShape" cb-tag="BORDER" id="2JG2">
<line cb-classname="GraphicLineEntity" class="frameline" id="2JGi" x1="40" x2="40" y1="40" y2="3460"/>
<line cb-classname="GraphicLineEntity" class="frameline" id="2JGY" x1="40" x2="5380" y1="3460" y2="3460"/>
<line cb-classname="GraphicLineEntity" class="frameline" id="2JGT" x1="5380" x2="5380" y1="3460" y2="40"/>
<line cb-classname="GraphicLineEntity" class="frameline" id="2JGf" x1="5380" x2="40" y1="40" y2="40"/>
<line cb-classname="GraphicLineEntity" class="frame" id="2JGj" x1="5430" x2="5440" y1="3510" y2="3510"/>
</g>
<g cb-classname="GraphicShape" cb-tag="TITLE BOX" id="2JGh">
<line cb-classname="GraphicLineEntity" class="frameline" id="2JGr" x1="2340" x2="2340" y1="3080" y2="3460"/>
<line cb-classname="GraphicLineEntity" class="frameline" id="2JF0" x1="2340" x2="5380" y1="3080" y2="3080"/>
<line cb-classname="GraphicLineEntity" class="frameline" id="2JFs" x1="3650" x2="3650" y1="3460" y2="3080"/>
<line cb-classname="GraphicLineEntity" class="frameline" id="2JF2" x1="3650" x2="5380" y1="3240" y2="3240"/>
<line cb-classname="GraphicLineEntity" class="frameline" id="2JFi" x1="3650" x2="5380" y1="3390" y2="3390"/>
<line cb-classname="GraphicLineEntity" class="frameline" id="2JFY" x1="3650" x2="5380" y1="3160" y2="3160"/>
<line cb-classname="GraphicLineEntity" class="frameline" id="2JFT" x1="3650" x2="4520" y1="3320" y2="3320"/>
<line cb-classname="GraphicLineEntity" class="frameline" id="2JFf" x1="4520" x2="5380" y1="3290" y2="3290"/>
<line cb-classname="GraphicLineEntity" class="frameline" id="2JFj" x1="4520" x2="5380" y1="3240" y2="3240"/>
<line cb-classname="GraphicLineEntity" class="frameline" id="2JFh" x1="4520" x2="4520" y1="3240" y2="3460"/>
<line cb-classname="GraphicLineEntity" class="frameline" id="2JFr" x1="4810" x2="4810" y1="3240" y2="3390"/>
<line cb-classname="GraphicLineEntity" class="frameline" id="2Jw0" x1="4990" x2="4990" y1="3240" y2="3390"/>
<line cb-classname="GraphicLineEntity" class="frameline" id="2Jws" x1="5150" x2="5150" y1="3080" y2="3390"/>
</g>
<g cb-classname="GraphicShape" cb-tag="TEXT LABELS" id="2Jw2">
<text baseline-shift="-50%" cb-classname="GraphicTextEntity" class="frame" font-size="25" id="2Jwi" text-anchor="middle" x="4890" y="3252">
Drop
</text>
<text baseline-shift="-50%" cb-classname="GraphicTextEntity" class="frame" font-size="25" id="2JwY" text-anchor="middle" x="5075" y="3252">
Task
</text>
<text baseline-shift="-50%" cb-classname="GraphicTextEntity" class="frame" font-size="25" id="2JwT" text-anchor="middle" x="5265" y="3252">
Sheet
</text>
<text cb-classname="GraphicTextEntity" class="frame" font-size="25" id="2Jwf" x="5152" y="3107">
Rev.
</text>
<text cb-classname="GraphicTextEntity" class="frame" font-size="25" id="2Jwj" x="3653" y="3418">
Engineer
</text>
<text cb-classname="GraphicTextEntity" class="frame" font-size="25" id="2Jwh" x="4528" y="3419">
Approved
</text>
<text cb-classname="GraphicTextEntity" class="frame" font-size="25" id="2Jwr" x="5152" y="3187">
Date
</text>
<text baseline-shift="-50%" cb-classname="GraphicTextEntity" class="frame" font-size="25" id="2Jr0" text-anchor="middle" x="4660" y="3252">
Drawing Number
</text>
<text baseline-shift="-50%" cb-classname="GraphicTextEntity" class="frame" font-size="25" id="2Jrs" text-anchor="middle" x="4680" y="3325">
CTL
</text>
</g>
<text baseline-shift="-50%" cb-classname="GraphicTextEntity" class="frame" font-size="48" id="2Jr2" text-anchor="middle" x="3000" y="3100">
EMERSON PROCESS MANAGEMENT
</text>
<g baseline-shift="-100%" cb-anchor-x="2360" cb-anchor-y="3140" cb-classname="GroupText" cb-max-width="1260" fill="black" id="2Jri">
<text baseline-shift="-100%" cb-classname="GraphicTextEntity" class="frame" fill="black" font-family="arial" font-size="22" font-weight="normal" id="2JrY" text-anchor="start" text-decoration="normal" x="2360" y="3140">
THIS DOCUMENT CONTAINS INFORMATION PROPRIETARY TO EMERSON PROCESS
</text>
<text baseline-shift="-100%" cb-classname="GraphicTextEntity" class="frame" fill="black" font-family="arial" font-size="22" font-weight="normal" id="2JrT" text-anchor="start" text-decoration="normal" x="2360" y="3176">
MANAGEMENT POWER &amp; WATER SOLUTIONS, INC. IT IS SUBMITTED IN CONFIDENCE AND
</text>
<text baseline-shift="-100%" cb-classname="GraphicTextEntity" class="frame" fill="black" font-family="arial" font-size="22" font-weight="normal" id="2Jrf" text-anchor="start" text-decoration="normal" x="2360" y="3212">
TRUST, IS TO BE USED BY YOU SOLELY FOR THE PURPOSES FOR WHICH IT IS
</text>
<text baseline-shift="-100%" cb-classname="GraphicTextEntity" class="frame" fill="black" font-family="arial" font-size="22" font-weight="normal" id="2Jrj" text-anchor="start" text-decoration="normal" x="2360" y="3248">
FURNISHED AND IS TO BE RETURNED UPON REQUEST. THIS DOCUMENT AND ANY
</text>
<text baseline-shift="-100%" cb-classname="GraphicTextEntity" class="frame" fill="black" font-family="arial" font-size="22" font-weight="normal" id="2Jrh" text-anchor="start" text-decoration="normal" x="2360" y="3284">
OTHER INFORMATION PROVIDED TO YOU IS NOT TO BE REPRODUCED, TRANSMITTED,
</text>
<text baseline-shift="-100%" cb-classname="GraphicTextEntity" class="frame" fill="black" font-family="arial" font-size="22" font-weight="normal" id="2Jrr" text-anchor="start" text-decoration="normal" x="2360" y="3320">
DISCLOSED, OR USED OTHERWISE IN WHOLE OR IN PART WITHOUT THE PRIOR
</text>
<text baseline-shift="-100%" cb-classname="GraphicTextEntity" class="frame" fill="black" font-family="arial" font-size="22" font-weight="normal" id="2J40" text-anchor="start" text-decoration="normal" x="2360" y="3356">
WRITTEN AUTHORIZATION OF EMERSON PROCESS MANAGEMENT POWER &amp; WATER
</text>
<text baseline-shift="-100%" cb-classname="GraphicTextEntity" class="frame" fill="black" font-family="arial" font-size="22" font-weight="normal" id="2J4s" text-anchor="start" text-decoration="normal" x="2360" y="3392">
SOLUTIONS,INC.
</text>
</g>
</g>
</svg>