<?xml version="1.0" ?><svg cb-auto-time="03/05/2008 10:26:51" cb-classname="ControlFunction" cb-create-time="03/12/2008" cb-drop-id="12" cb-engineer="Dufek" cb-filename="Z:\OVATION\NET0\UNIT0\CONTROLFUNCTIONS\0396.svg" cb-function-id="0396" cb-key="123424433215" cb-modified-timestamp="1489318885" cb-modify-id="00000001" cb-ortho-mode="enabled" cb-path="Z:/OVATION/NET0/UNIT0/CONTROLFUNCTIONS" cb-reviewer="Nemec" cb-revision="A" cb-revision-time="12/28/2010" cb-sheet-number="014" cb-sheet-title="BOILER DRUM LEVEL LIMITS FOR MFT" cb-snap-grid="10" cb-task-id="3" height="3606" id="1" width="5450" xmlns="http://www.w3.org/2000/svg">
<style cb-classname="EntityStyle" id="2" type="text/css">
	.algorithm { fill: white; stroke: black; stroke-linecap: round; stroke-width: 2 }
	.algorithm-function { fill: none; stroke: black; stroke-linecap: round; stroke-width: 2 }
	.algorithm-functionline { fill: none; stroke: black; stroke-linecap: round; stroke-width: 2 }
	.algorithm-name { fill: none; stroke: black; stroke-linecap: round; stroke-width: 2 }
	.algorithm-nameline { fill: none; stroke: black; stroke-linecap: round; stroke-width: 2 }
	.algorithm-sequence { fill: none; stroke: black; stroke-linecap: round; stroke-width: 2 }
	.algorithm-sequenceline { fill: none; stroke: black; stroke-linecap: round; stroke-width: 2 }
	.algorithmline { fill: none; stroke: black; stroke-linecap: round; stroke-width: 2 }
	.annotation { fill: none; stroke: black; stroke-linecap: round; stroke-width: 2 }
	.annotationline { fill: none; stroke: black; stroke-linecap: round; stroke-width: 2 }
	.frame { fill: none; stroke: black; stroke-linecap: round; stroke-width: 2 }
	.frameline { fill: none; stroke: black; stroke-linecap: round; stroke-width: 2 }
	.signal { fill: black; stroke: black; stroke-linecap: round; stroke-width: 2 }
	.signalline { fill: none; stroke: black; stroke-linecap: round; stroke-width: 2 }
	text.algorithm { fill: black; font-family: MS Shell Dlg 2; font-size: 14; stroke: none }
	text.algorithm-function { fill: black; font-family: MS Shell Dlg 2; font-size: 16; stroke: none }
	text.algorithm-name { fill: black; font-family: MS Shell Dlg 2; font-size: 16; stroke: none }
	text.algorithm-sequence { fill: black; font-family: MS Shell Dlg 2; font-size: 16; stroke: none }
	text.annotation { fill: black; font-family: MS Shell Dlg 2; font-size: 16; stroke: none }
	text.frame { fill: black; font-family: MS Shell Dlg 2; font-size: 16; stroke: none }
	text.signal { fill: black; font-family: MS Shell Dlg 2; font-size: 12; stroke: none }
</style>
<g cb-classname="NamedObject" cb-objectname="Comments" id="3"/>
<g cb-classname="AlgorithmContainer" cb-objectname="Algorithms" id="4">
<g cb-alg-6RCt="LT-101A" cb-alg-fWMp="YES" cb-alg-fXt="01LT101B-CMP" cb-alg-g8lm="DRUM LEVEL LEFT" cb-algorithm-id="001" cb-classname="ExternalPointInterface" cb-function-name="INPUT" id="6v">
<ellipse cb-classname="GraphicEllipseEntity" class="algorithm" cx="1300" cy="540" id="6d" rx="50" ry="50"/>
<rect cb-classname="GraphicRectangleEntity" class="algorithm" height="40" id="6e" width="100" x="1250" y="450"/>
<line cb-classname="GraphicLineEntity" class="algorithm" id="6o" x1="1300" x2="1300" y1="490" y2="450"/>
<g cb-classname="ControlPin" cb-pin-name="sn-5Tc-FUF" id="6C">
<line cb-classname="GraphicLineEntity" class="signalline" id="6I" x1="1300" x2="1300" y1="590" y2="620"/>
<g cb-classname="DynamicText" cb-source="i8-5mS-6RCt" class="signal" id="7M" text-anchor="end">
<text cb-classname="GraphicTextEntity" class="signal" fill="black" font-style="normal" font-weight="normal" id="7U" text-anchor="end" text-decoration="normal" transform="translate(1292,607)rotate(-90)"/>
</g>
<g cb-classname="SignalSegment" id="1eOO">
<line cb-classname="GraphicLineEntity" class="signalline" id="1eOZ" x1="1300" x2="1300" y1="620" y2="1530"/>
<g cb-classname="SignalSegment" id="1ejc">
<line cb-classname="GraphicLineEntity" class="signalline" id="1ejN" x1="1300" x2="1410" y1="1530" y2="1530"/>
<g cb-classname="SignalConnection" cb-graphic-line="$1612$" cb-input-pin="$FSpT$" id="1ejV"/>
<line cb-classname="GraphicLineEntity" class="signalline" id="1enc" x1="1300" x2="1300" y1="1530" y2="2090"/>
<g cb-classname="SignalSegment" id="1enF">
<line cb-classname="GraphicLineEntity" class="signalline" id="1enl" x1="1300" x2="1410" y1="2090" y2="2090"/>
<g cb-classname="SignalConnection" cb-graphic-line="$1663$" cb-input-pin="$jFDK$" id="1enK"/>
</g>
<ellipse cb-classname="GraphicEllipseEntity" class="signal" cx="1300" cy="1530" id="1IqK" rx="5" ry="5"/>
</g>
</g>
</g>
<g cb-classname="PointStatusIndicator" cb-indicator-type="Highway" cb-source="et-ROp-4sj" id="7d" visibility="hidden">
<line cb-classname="GraphicLineEntity" class="algorithmline" id="7e" x1="1300" x2="1250" y1="490" y2="540"/>
<line cb-classname="GraphicLineEntity" class="algorithmline" id="7o" x1="1250" x2="1300" y1="540" y2="590"/>
<line cb-classname="GraphicLineEntity" class="algorithmline" id="7C" x1="1300" x2="1350" y1="590" y2="540"/>
<line cb-classname="GraphicLineEntity" class="algorithmline" id="7I" x1="1350" x2="1300" y1="540" y2="490"/>
</g>
<g cb-classname="PointStatusIndicator" cb-indicator-type="hardware" cb-source="re-6gb-UJM" id="8M" visibility="hidden">
<line cb-classname="GraphicLineEntity" class="algorithmline" id="8U" x1="1250" x2="1250" y1="490" y2="590"/>
<line cb-classname="GraphicLineEntity" class="algorithmline" id="8P" x1="1250" x2="1350" y1="590" y2="590"/>
<line cb-classname="GraphicLineEntity" class="algorithmline" id="89" x1="1350" x2="1350" y1="590" y2="490"/>
</g>
<g cb-classname="PointStatusIndicator" cb-indicator-type="alarm" cb-source="Pj-LhD-Nho" id="8v" visibility="hidden">
<text baseline-shift="-50%" cb-classname="GraphicTextEntity" class="algorithm" fill="#000000" font-family="MS Shell Dlg" font-size="20" id="8d" text-anchor="middle" x="1275" y="460">
A
</text>
</g>
<g cb-classname="PointStatusIndicator" cb-indicator-type="ingraphic" cb-source="mi-sXM-Q1j" id="8e" visibility="visible">
<text baseline-shift="-50%" cb-classname="GraphicTextEntity" class="algorithm" fill="#000000" font-family="MS Shell Dlg" font-size="20" id="8o" text-anchor="middle" x="1325" y="460">
G
</text>
</g>
<g cb-classname="DynamicText" cb-labeled="false" cb-pin-name="nSU" cb-source="et-ROp-4sj" class="algorithm" id="8C" text-anchor="middle">
<text cb-classname="GraphicTextEntity" class="algorithm" fill="black" font-family="arial" font-size="20" font-style="normal" font-weight="normal" id="8I" text-anchor="middle" text-decoration="normal" x="1300" y="430"/>
</g>
<g baseline-shift="-100%" cb-anchor-x="1320" cb-anchor-y="610" cb-classname="PointReferences" cb-max-width="160" cb-originator="true" cb-source="ZY-sYk-djX" class="signal" id="9M" text-anchor="start">
<text baseline-shift="-100%" cb-classname="GraphicTextEntity" class="algorithm" id="9U" text-anchor="start" x="1320" y="610">
REF: Point not
</text>
<text baseline-shift="-100%" cb-classname="GraphicTextEntity" class="algorithm" id="2e5N" text-anchor="start" x="1320" y="635">
found in database
</text>
<text baseline-shift="-100%" cb-classname="GraphicTextEntity" class="algorithm" id="2e5l" text-anchor="start" x="1320" y="660">
(01LT101B-CMP)
</text>
</g>
<g baseline-shift="0%" cb-anchor-x="1300" cb-anchor-y="390" cb-classname="PointDescription" cb-content="extended" cb-labeled="false" cb-max-width="240" cb-source="Dz-pMM-dkM" class="algorithm" id="9P" text-anchor="middle">
<text baseline-shift="0%" cb-classname="GraphicTextEntity" class="algorithm" id="99" text-anchor="middle" x="1300" y="365">
DESC: Point not found in
</text>
<text baseline-shift="0%" cb-classname="GraphicTextEntity" class="algorithm" id="195Z" text-anchor="middle" x="1300" y="390">
database (01LT101B-CMP)
</text>
</g>
</g>
<g cb-alg-9kpR="63" cb-alg-Dka3="250" cb-alg-Dklv="1" cb-alg-H3J="01DL-H01C" cb-alg-fLD="$64$cb-alg-out$" cb-algorithm-id="01c" cb-classname="ControlAlgorithm" cb-function-name="HIGHMON" cb-modify-id="00000002" id="1MmK">
<rect cb-classname="GraphicRectangleEntity" class="algorithm" height="40" id="1Mmf" width="80" x="1430" y="1510"/>
<line cb-classname="GraphicLineEntity" class="algorithm" id="1MmU" x1="1470" x2="1460" y1="1510" y2="1550"/>
<line cb-classname="GraphicLineEntity" class="algorithm" id="1MmO" x1="1480" x2="1470" y1="1510" y2="1550"/>
<line cb-classname="GraphicLineEntity" class="algorithm" id="1MmZ" x1="1440" x2="1440" y1="1520" y2="1540"/>
<line cb-classname="GraphicLineEntity" class="algorithm" id="1Mnc" x1="1450" x2="1450" y1="1540" y2="1520"/>
<line cb-classname="GraphicLineEntity" class="algorithm" id="1MnF" x1="1440" x2="1450" y1="1530" y2="1530"/>
<g cb-classname="ControlPin" cb-pin-name="PZ-7pn-tV5" id="1MnN">
<line cb-classname="GraphicLineEntity" class="signalline" id="1Mnl" x1="1410" x2="1430" y1="1530" y2="1530"/>
<polygon cb-classname="GraphicPolygonEntity" class="signal" id="1MnV" points="1430,1530 1419,1524 1419,1535"/>
<g cb-classname="DynamicText" cb-source="ZY-ktV-b7ms" class="signal" id="1MnK" text-anchor="end">
<text cb-classname="GraphicTextEntity" class="signal" fill="black" font-style="normal" font-weight="normal" id="1Mnf" text-anchor="end" text-decoration="normal" x="1415" y="1527"/>
</g>
</g>
<g cb-classname="ControlPin" cb-pin-name="Dz-pMM-dkM" id="1MnU">
<line cb-classname="GraphicLineEntity" class="signalline" id="1MnO" x1="1510" x2="1530" y1="1530" y2="1530"/>
<g cb-classname="DynamicText" cb-source="sn-bPV-Ssr8" class="signal" id="1MnZ" text-anchor="start">
<text cb-classname="GraphicTextEntity" class="signal" fill="black" font-style="normal" font-weight="normal" id="1Mlc" text-anchor="start" text-decoration="normal" x="1524" y="1527"/>
</g>
<g cb-classname="SignalSegment" id="1ejK">
<line cb-classname="GraphicLineEntity" class="signalline" id="1ejf" stroke="#1e12bf" stroke-dasharray="5,4" x1="1530" x2="2910" y1="1530" y2="1530"/>
<g cb-classname="SignalSegment" id="1ejU">
<g cb-classname="SignalSegment" id="1e0F">
<line cb-classname="GraphicLineEntity" class="signalline" id="1e0l" stroke="#1e12bf" stroke-dasharray="5,4" x1="2910" x2="3270" y1="1230" y2="1230"/>
<g cb-classname="SignalConnection" cb-graphic-line="$1623$" cb-input-pin="$UqFi$" id="1e0K"/>
</g>
<line cb-classname="GraphicLineEntity" class="signalline" id="1e0c" stroke="#1e12bf" stroke-dasharray="5,4" x1="2910" x2="2910" y1="1530" y2="1230"/>
</g>
</g>
</g>
<g cb-classname="DynamicText" cb-labeled="true" cb-source="mi-sXM-vtuq" class="algorithm" id="1MlV" text-anchor="start">
<text cb-classname="GraphicTextEntity" class="algorithm" fill="black" font-style="normal" font-weight="normal" id="1MlK" text-anchor="start" text-decoration="normal" x="1440" y="1500"/>
</g>
</g>
<g cb-alg-D19="$64$cb-alg-out$" cb-alg-XNHG="1" cb-alg-XNlk="-250" cb-alg-fXt="01DL-L01C" cb-alg-gD7p="60" cb-algorithm-id="01d" cb-classname="ControlAlgorithm" cb-function-name="LOWMON" cb-modify-id="00000002" id="1UOV">
<rect cb-classname="GraphicRectangleEntity" class="algorithm" height="40" id="1UOK" width="80" x="1430" y="2070"/>
<line cb-classname="GraphicLineEntity" class="algorithm" id="1UOf" x1="1470" x2="1460" y1="2070" y2="2110"/>
<line cb-classname="GraphicLineEntity" class="algorithm" id="1UOU" x1="1480" x2="1470" y1="2070" y2="2110"/>
<line cb-classname="GraphicLineEntity" class="algorithm" id="1UOO" x1="1490" x2="1490" y1="2080" y2="2100"/>
<line cb-classname="GraphicLineEntity" class="algorithm" id="1UOZ" x1="1490" x2="1500" y1="2100" y2="2100"/>
<g cb-classname="ControlPin" cb-pin-name="i8-aJr-D19" id="1Ujc">
<line cb-classname="GraphicLineEntity" class="signalline" id="1UjF" x1="1410" x2="1430" y1="2090" y2="2090"/>
<polygon cb-classname="GraphicPolygonEntity" class="signal" id="1UjN" points="1430,2090 1419,2084 1419,2095"/>
<g cb-classname="DynamicText" cb-source="mi-ID1-iSWi" class="signal" id="1Ujl" text-anchor="end">
<text cb-classname="GraphicTextEntity" class="signal" fill="black" font-style="normal" font-weight="normal" id="1UjV" text-anchor="end" text-decoration="normal" x="1415" y="2087"/>
</g>
</g>
<g cb-classname="ControlPin" cb-pin-name="et-ROp-4sj" id="1UjK">
<line cb-classname="GraphicLineEntity" class="signalline" id="1Ujf" x1="1510" x2="1530" y1="2090" y2="2090"/>
<g cb-classname="DynamicText" cb-source="ZY-ktV-b7ms" class="signal" id="1UjU" text-anchor="start">
<text cb-classname="GraphicTextEntity" class="signal" fill="black" font-style="normal" font-weight="normal" id="1UjO" text-anchor="start" text-decoration="normal" x="1524" y="2087"/>
</g>
<g cb-classname="SignalSegment" id="1enU">
<line cb-classname="GraphicLineEntity" class="signalline" id="1enO" stroke="#1e12bf" stroke-dasharray="5,4" x1="1530" x2="2910" y1="2090" y2="2090"/>
<g cb-classname="SignalSegment" id="1enZ">
<line cb-classname="GraphicLineEntity" class="signalline" id="1elc" stroke="#1e12bf" stroke-dasharray="5,4" x1="2910" x2="2910" y1="2090" y2="2010"/>
<g cb-classname="SignalSegment" id="1elF">
<line cb-classname="GraphicLineEntity" class="signalline" id="1ell" stroke="#1e12bf" stroke-dasharray="5,4" x1="2910" x2="3270" y1="2010" y2="2010"/>
<g cb-classname="SignalConnection" cb-graphic-line="$1673$" cb-input-pin="$BgyX$" id="1elK"/>
</g>
</g>
</g>
</g>
<g cb-classname="DynamicText" cb-labeled="true" cb-source="xv-47V-afJA" class="algorithm" id="1U0N" text-anchor="start">
<text cb-classname="GraphicTextEntity" class="algorithm" fill="black" font-style="normal" font-weight="normal" id="1U0l" text-anchor="start" text-decoration="normal" x="1430" y="2060"/>
</g>
</g>
<g cb-alg-4GI="01LT101-2-A-SEL" cb-alg-4o9M="YES" cb-alg-LpFL="LT-102A" cb-alg-j9HP="DRUM LEVEL RIGHT" cb-algorithm-id="012" cb-classname="ExternalPointInterface" cb-function-name="INPUT" id="9v">
<ellipse cb-classname="GraphicEllipseEntity" class="algorithm" cx="1810" cy="540" id="9d" rx="50" ry="50"/>
<rect cb-classname="GraphicRectangleEntity" class="algorithm" height="40" id="9e" width="100" x="1760" y="450"/>
<line cb-classname="GraphicLineEntity" class="algorithm" id="9o" x1="1810" x2="1810" y1="490" y2="450"/>
<g cb-classname="ControlPin" cb-pin-name="U3-2ao-uJe" id="9C">
<line cb-classname="GraphicLineEntity" class="signalline" id="9I" x1="1810" x2="1810" y1="590" y2="620"/>
<g cb-classname="DynamicText" cb-source="PZ-SDd-aEgx" class="signal" id="1MO" text-anchor="end">
<text cb-classname="GraphicTextEntity" class="signal" fill="black" font-style="normal" font-weight="normal" id="1Mj" text-anchor="end" text-decoration="normal" transform="translate(1802,607)rotate(-90)"/>
</g>
<g cb-classname="SignalSegment" id="1d5N">
<line cb-classname="GraphicLineEntity" class="signalline" id="1d5l" x1="1810" x2="1810" y1="620" y2="1210"/>
<g cb-classname="SignalSegment" id="1d5V">
<line cb-classname="GraphicLineEntity" class="signalline" id="1d5f" x1="1810" x2="1890" y1="1210" y2="1210"/>
<g cb-classname="SignalConnection" cb-graphic-line="$1596$" cb-input-pin="$TjA$" id="1d5O"/>
<line cb-classname="GraphicLineEntity" class="signalline" id="1eqN" x1="1810" x2="1810" y1="1210" y2="2020"/>
<g cb-classname="SignalSegment" id="1eql">
<line cb-classname="GraphicLineEntity" class="signalline" id="1eqK" x1="1810" x2="1890" y1="2020" y2="2020"/>
<g cb-classname="SignalConnection" cb-graphic-line="$1645$" cb-input-pin="$KRJ$" id="1eqU"/>
</g>
<ellipse cb-classname="GraphicEllipseEntity" class="signal" cx="1810" cy="1210" id="1eqO" rx="5" ry="5"/>
</g>
</g>
</g>
<g cb-classname="PointStatusIndicator" cb-indicator-type="Highway" cb-source="Dz-pMM-dkM" id="1Mm" visibility="hidden">
<line cb-classname="GraphicLineEntity" class="algorithmline" id="1Mn" x1="1810" x2="1760" y1="490" y2="540"/>
<line cb-classname="GraphicLineEntity" class="algorithmline" id="1Ml" x1="1760" x2="1810" y1="540" y2="590"/>
<line cb-classname="GraphicLineEntity" class="algorithmline" id="1Mv" x1="1810" x2="1860" y1="590" y2="540"/>
<line cb-classname="GraphicLineEntity" class="algorithmline" id="1M5" x1="1860" x2="1810" y1="540" y2="490"/>
</g>
<g cb-classname="PointStatusIndicator" cb-indicator-type="hardware" cb-source="Pj-LhD-Nho" id="1UO" visibility="hidden">
<line cb-classname="GraphicLineEntity" class="algorithmline" id="1Uj" x1="1760" x2="1760" y1="490" y2="590"/>
<line cb-classname="GraphicLineEntity" class="algorithmline" id="1U0" x1="1760" x2="1860" y1="590" y2="590"/>
<line cb-classname="GraphicLineEntity" class="algorithmline" id="1UI" x1="1860" x2="1860" y1="590" y2="490"/>
</g>
<g cb-classname="PointStatusIndicator" cb-indicator-type="alarm" cb-source="et-ROp-4sj" id="1Uq" visibility="hidden">
<text baseline-shift="-50%" cb-classname="GraphicTextEntity" class="algorithm" fill="#000000" font-family="MS Shell Dlg" font-size="20" id="1Um" text-anchor="middle" x="1785" y="460">
A
</text>
</g>
<g cb-classname="PointStatusIndicator" cb-indicator-type="ingraphic" cb-source="ZY-sYk-djX" id="1Un" visibility="visible">
<text baseline-shift="-50%" cb-classname="GraphicTextEntity" class="algorithm" fill="#000000" font-family="MS Shell Dlg" font-size="20" id="1Ul" text-anchor="middle" x="1835" y="460">
G
</text>
</g>
<g cb-classname="DynamicText" cb-labeled="false" cb-pin-name="bYB" cb-source="Dz-pMM-dkM" class="algorithm" id="1Uv" text-anchor="middle">
<text cb-classname="GraphicTextEntity" class="algorithm" fill="black" font-family="arial" font-size="20" font-style="normal" font-weight="normal" id="1U5" text-anchor="middle" text-decoration="normal" x="1810" y="430"/>
</g>
<g baseline-shift="-100%" cb-anchor-x="1830" cb-anchor-y="610" cb-classname="PointReferences" cb-max-width="160" cb-originator="true" cb-source="sn-5Tc-FUF" class="signal" id="1PO" text-anchor="start">
<text baseline-shift="-100%" cb-classname="GraphicTextEntity" class="algorithm" id="1Pj" text-anchor="start" x="1830" y="610">
REF: Point not
</text>
<text baseline-shift="-100%" cb-classname="GraphicTextEntity" class="algorithm" id="2e5f" text-anchor="start" x="1830" y="635">
found in database
</text>
<text baseline-shift="-100%" cb-classname="GraphicTextEntity" class="algorithm" id="2e5U" text-anchor="start" x="1830" y="660">
(01LT101-2-A-SEL)
</text>
</g>
<g baseline-shift="0%" cb-anchor-x="1810" cb-anchor-y="390" cb-classname="PointDescription" cb-content="extended" cb-labeled="false" cb-max-width="240" cb-source="i8-aJr-fXt" class="algorithm" id="1P0" text-anchor="middle">
<text baseline-shift="0%" cb-classname="GraphicTextEntity" class="algorithm" id="1PI" text-anchor="middle" x="1810" y="365">
DESC: Point not found in
</text>
<text baseline-shift="0%" cb-classname="GraphicTextEntity" class="algorithm" id="195O" text-anchor="middle" x="1810" y="390">
database (01LT101-2-A-SEL)
</text>
</g>
</g>
<g cb-alg-D19="$94$cb-alg-out$" cb-alg-fXt="01DL-H01B" cb-alg-gD7p="63" cb-alg-tDHG="1" cb-alg-tDlk="250" cb-algorithm-id="015" cb-classname="ControlAlgorithm" cb-function-name="HIGHMON" cb-modify-id="00000002" id="4Pv">
<rect cb-classname="GraphicRectangleEntity" class="algorithm" height="40" id="4P5" width="80" x="1910" y="1190"/>
<line cb-classname="GraphicLineEntity" class="algorithm" id="49O" x1="1950" x2="1940" y1="1190" y2="1230"/>
<line cb-classname="GraphicLineEntity" class="algorithm" id="49j" x1="1960" x2="1950" y1="1190" y2="1230"/>
<line cb-classname="GraphicLineEntity" class="algorithm" id="490" x1="1920" x2="1920" y1="1200" y2="1220"/>
<line cb-classname="GraphicLineEntity" class="algorithm" id="49I" x1="1930" x2="1930" y1="1220" y2="1200"/>
<line cb-classname="GraphicLineEntity" class="algorithm" id="49q" x1="1920" x2="1930" y1="1210" y2="1210"/>
<g cb-classname="ControlPin" cb-pin-name="Pj-LhD-DdW" id="49m">
<line cb-classname="GraphicLineEntity" class="signalline" id="49n" x1="1890" x2="1910" y1="1210" y2="1210"/>
<polygon cb-classname="GraphicPolygonEntity" class="signal" id="49l" points="1910,1210 1899,1204 1899,1215"/>
<g cb-classname="DynamicText" cb-source="PZ-SDd-aEgx" class="signal" id="49v" text-anchor="end">
<text cb-classname="GraphicTextEntity" class="signal" fill="black" font-style="normal" font-weight="normal" id="495" text-anchor="end" text-decoration="normal" x="1895" y="1207"/>
</g>
</g>
<g cb-classname="ControlPin" cb-pin-name="bq-755-pFz" id="4vO">
<line cb-classname="GraphicLineEntity" class="signalline" id="4vj" x1="1990" x2="2010" y1="1210" y2="1210"/>
<g cb-classname="DynamicText" cb-source="cN-Rhy-Xasw" class="signal" id="4v0" text-anchor="start">
<text cb-classname="GraphicTextEntity" class="signal" fill="black" font-style="normal" font-weight="normal" id="4vI" text-anchor="start" text-decoration="normal" x="2004" y="1207"/>
</g>
<g cb-classname="SignalSegment" id="1d5Z">
<g cb-classname="SignalConnection" cb-graphic-line="$1606$" cb-input-pin="$OKjQ$" id="1eOU"/>
<line cb-classname="GraphicLineEntity" class="signalline" id="1eOf" stroke="#1e12bf" stroke-dasharray="5,4" x1="2010" x2="3270" y1="1210" y2="1210"/>
</g>
</g>
<g cb-classname="DynamicText" cb-labeled="true" cb-source="i8-aJr-tDlk" class="algorithm" id="4vl" text-anchor="start">
<text cb-classname="GraphicTextEntity" class="algorithm" fill="black" font-style="normal" font-weight="normal" id="4vv" text-anchor="start" text-decoration="normal" x="1910" y="1170"/>
</g>
</g>
<g cb-alg-DVso="60" cb-alg-JF0q="1" cb-alg-JF8S="-250" cb-alg-UJM="01DL-L01B" cb-alg-mSj="$94$cb-alg-out$" cb-algorithm-id="01a" cb-classname="ControlAlgorithm" cb-function-name="LOWMON" cb-modify-id="00000002" id="4ol">
<rect cb-classname="GraphicRectangleEntity" class="algorithm" height="40" id="4ov" width="80" x="1910" y="2000"/>
<line cb-classname="GraphicLineEntity" class="algorithm" id="4o5" x1="1950" x2="1940" y1="2000" y2="2040"/>
<line cb-classname="GraphicLineEntity" class="algorithm" id="4CO" x1="1960" x2="1950" y1="2000" y2="2040"/>
<line cb-classname="GraphicLineEntity" class="algorithm" id="4Cj" x1="1970" x2="1970" y1="2010" y2="2030"/>
<line cb-classname="GraphicLineEntity" class="algorithm" id="4C0" x1="1970" x2="1980" y1="2030" y2="2030"/>
<g cb-classname="ControlPin" cb-pin-name="re-6gb-mSj" id="4CI">
<line cb-classname="GraphicLineEntity" class="signalline" id="4Cq" x1="1890" x2="1910" y1="2020" y2="2020"/>
<polygon cb-classname="GraphicPolygonEntity" class="signal" id="4Cm" points="1910,2020 1899,2014 1899,2025"/>
<g cb-classname="DynamicText" cb-source="i8-5mS-6RCt" class="signal" id="4Cn" text-anchor="end">
<text cb-classname="GraphicTextEntity" class="signal" fill="black" font-style="normal" font-weight="normal" id="4Cl" text-anchor="end" text-decoration="normal" x="1895" y="2017"/>
</g>
</g>
<g cb-classname="ControlPin" cb-pin-name="U3-2ao-uJe" id="4Cv">
<line cb-classname="GraphicLineEntity" class="signalline" id="4C5" x1="1990" x2="2010" y1="2020" y2="2020"/>
<g cb-classname="DynamicText" cb-source="PZ-SDd-aEgx" class="signal" id="4IO" text-anchor="start">
<text cb-classname="GraphicTextEntity" class="signal" fill="black" font-style="normal" font-weight="normal" id="4Ij" text-anchor="start" text-decoration="normal" x="2004" y="2017"/>
</g>
<g cb-classname="SignalSegment" id="1eqZ">
<line cb-classname="GraphicLineEntity" class="signalline" id="1emc" stroke="#1e12bf" stroke-dasharray="5,4" x1="2010" x2="2880" y1="2020" y2="2020"/>
<g cb-classname="SignalSegment" id="1emF">
<line cb-classname="GraphicLineEntity" class="signalline" id="1emN" stroke="#1e12bf" stroke-dasharray="5,4" x1="2880" x2="2880" y1="2020" y2="1990"/>
<g cb-classname="SignalSegment" id="1eml">
<line cb-classname="GraphicLineEntity" class="signalline" id="1emK" stroke="#1e12bf" stroke-dasharray="5,4" x1="2880" x2="3270" y1="1990" y2="1990"/>
<g cb-classname="SignalConnection" cb-graphic-line="$1655$" cb-input-pin="$kXwR$" id="1emU"/>
</g>
</g>
</g>
</g>
<g cb-classname="DynamicText" cb-labeled="true" cb-source="Dz-pMM-7UoI" class="algorithm" id="4Im" text-anchor="start">
<text cb-classname="GraphicTextEntity" class="algorithm" fill="black" font-style="normal" font-weight="normal" id="4In" text-anchor="start" text-decoration="normal" x="1920" y="1980"/>
</g>
</g>
<g cb-alg-Xasw="LT-101B" cb-alg-fA0e="DRUM LEVEL LEFT" cb-alg-uIl="01LT102B-CMP" cb-alg-uNmr="YES" cb-algorithm-id="014" cb-classname="ExternalPointInterface" cb-function-name="INPUT" id="1Pq">
<ellipse cb-classname="GraphicEllipseEntity" class="algorithm" cx="2290" cy="540" id="1Pm" rx="50" ry="50"/>
<rect cb-classname="GraphicRectangleEntity" class="algorithm" height="40" id="1Pn" width="100" x="2240" y="450"/>
<line cb-classname="GraphicLineEntity" class="algorithm" id="1Pl" x1="2290" x2="2290" y1="490" y2="450"/>
<g cb-classname="ControlPin" cb-pin-name="bq-755-pFz" id="1Pv">
<line cb-classname="GraphicLineEntity" class="signalline" id="1P5" x1="2290" x2="2290" y1="590" y2="620"/>
<g cb-classname="DynamicText" cb-source="cN-Rhy-Xasw" class="signal" id="19O" text-anchor="end">
<text cb-classname="GraphicTextEntity" class="signal" fill="black" font-style="normal" font-weight="normal" id="19j" text-anchor="end" text-decoration="normal" transform="translate(2282,607)rotate(-90)"/>
</g>
<g cb-classname="SignalSegment" id="1dlf">
<line cb-classname="GraphicLineEntity" class="signalline" id="1dlU" x1="2290" x2="2290" y1="620" y2="840"/>
<g cb-classname="SignalSegment" id="1dlO">
<line cb-classname="GraphicLineEntity" class="signalline" id="1dvc" x1="2290" x2="2570" y1="840" y2="840"/>
<g cb-classname="SignalConnection" cb-graphic-line="$1580$" cb-input-pin="$aRP$" id="1dvN"/>
<line cb-classname="GraphicLineEntity" class="signalline" id="1e0f" x1="2290" x2="2290" y1="840" y2="1970"/>
<g cb-classname="SignalSegment" id="1e0U">
<line cb-classname="GraphicLineEntity" class="signalline" id="1e0Z" x1="2290" x2="2570" y1="1970" y2="1970"/>
<g cb-classname="SignalConnection" cb-graphic-line="$1629$" cb-input-pin="$Avq$" id="1eIF"/>
</g>
<ellipse cb-classname="GraphicEllipseEntity" class="signal" cx="2290" cy="840" id="1eIN" rx="5" ry="5"/>
</g>
</g>
</g>
<g cb-classname="PointStatusIndicator" cb-indicator-type="Highway" cb-source="i8-aJr-fXt" id="19m" visibility="hidden">
<line cb-classname="GraphicLineEntity" class="algorithmline" id="19n" x1="2290" x2="2240" y1="490" y2="540"/>
<line cb-classname="GraphicLineEntity" class="algorithmline" id="19l" x1="2240" x2="2290" y1="540" y2="590"/>
<line cb-classname="GraphicLineEntity" class="algorithmline" id="19v" x1="2290" x2="2340" y1="590" y2="540"/>
<line cb-classname="GraphicLineEntity" class="algorithmline" id="195" x1="2340" x2="2290" y1="540" y2="490"/>
</g>
<g cb-classname="PointStatusIndicator" cb-indicator-type="hardware" cb-source="et-ROp-4sj" id="1vO" visibility="hidden">
<line cb-classname="GraphicLineEntity" class="algorithmline" id="1vj" x1="2240" x2="2240" y1="490" y2="590"/>
<line cb-classname="GraphicLineEntity" class="algorithmline" id="1v0" x1="2240" x2="2340" y1="590" y2="590"/>
<line cb-classname="GraphicLineEntity" class="algorithmline" id="1vI" x1="2340" x2="2340" y1="590" y2="490"/>
</g>
<g cb-classname="PointStatusIndicator" cb-indicator-type="alarm" cb-source="Dz-pMM-dkM" id="1vq" visibility="hidden">
<text baseline-shift="-50%" cb-classname="GraphicTextEntity" class="algorithm" fill="#000000" font-family="MS Shell Dlg" font-size="20" id="1vm" text-anchor="middle" x="2265" y="460">
A
</text>
</g>
<g cb-classname="PointStatusIndicator" cb-indicator-type="ingraphic" cb-source="sn-5Tc-FUF" id="1vn" visibility="visible">
<text baseline-shift="-50%" cb-classname="GraphicTextEntity" class="algorithm" fill="#000000" font-family="MS Shell Dlg" font-size="20" id="1vl" text-anchor="middle" x="2315" y="460">
G
</text>
</g>
<g cb-classname="DynamicText" cb-labeled="false" cb-pin-name="SJa" cb-source="i8-aJr-fXt" class="algorithm" id="1vv" text-anchor="middle">
<text cb-classname="GraphicTextEntity" class="algorithm" fill="black" font-family="arial" font-size="20" font-style="normal" font-weight="normal" id="1v5" text-anchor="middle" text-decoration="normal" x="2290" y="430"/>
</g>
<g baseline-shift="-100%" cb-anchor-x="2310" cb-anchor-y="610" cb-classname="PointReferences" cb-max-width="160" cb-originator="true" cb-source="U3-2ao-uJe" class="signal" id="1dO" text-anchor="start">
<text baseline-shift="-100%" cb-classname="GraphicTextEntity" class="algorithm" id="1dj" text-anchor="start" x="2310" y="610">
REF: Point not
</text>
<text baseline-shift="-100%" cb-classname="GraphicTextEntity" class="algorithm" id="2e5Z" text-anchor="start" x="2310" y="635">
found in database
</text>
<text baseline-shift="-100%" cb-classname="GraphicTextEntity" class="algorithm" id="2oOc" text-anchor="start" x="2310" y="660">
(01LT102B-CMP)
</text>
</g>
<g baseline-shift="0%" cb-anchor-x="2290" cb-anchor-y="390" cb-classname="PointDescription" cb-content="extended" cb-labeled="false" cb-max-width="240" cb-source="PZ-7pn-0d0" class="algorithm" id="1d0" text-anchor="middle">
<text baseline-shift="0%" cb-classname="GraphicTextEntity" class="algorithm" id="1dI" text-anchor="middle" x="2290" y="365">
DESC: Point not found in
</text>
<text baseline-shift="0%" cb-classname="GraphicTextEntity" class="algorithm" id="19lV" text-anchor="middle" x="2290" y="390">
database (01LT102B-CMP)
</text>
</g>
</g>
<g cb-alg-4ru="$124$cb-alg-out$" cb-alg-Hm2D="63" cb-alg-dkM="01DL-H01A" cb-alg-nm1t="1.0" cb-alg-nmoI="250.0" cb-algorithm-id="019" cb-classname="ControlAlgorithm" cb-function-name="HIGHMON" cb-modify-id="00000002" id="2Cj">
<rect cb-classname="GraphicRectangleEntity" class="algorithm" height="40" id="2C0" width="80" x="2590" y="820"/>
<line cb-classname="GraphicLineEntity" class="algorithm" id="2CI" x1="2630" x2="2620" y1="820" y2="860"/>
<line cb-classname="GraphicLineEntity" class="algorithm" id="2Cq" x1="2640" x2="2630" y1="820" y2="860"/>
<line cb-classname="GraphicLineEntity" class="algorithm" id="2Cm" x1="2600" x2="2600" y1="830" y2="850"/>
<line cb-classname="GraphicLineEntity" class="algorithm" id="2Cn" x1="2610" x2="2610" y1="850" y2="830"/>
<line cb-classname="GraphicLineEntity" class="algorithm" id="2Cl" x1="2600" x2="2610" y1="840" y2="840"/>
<g cb-classname="ControlPin" cb-pin-name="re-6gb-mSj" id="2Cv">
<line cb-classname="GraphicLineEntity" class="signalline" id="2C5" x1="2570" x2="2590" y1="840" y2="840"/>
<polygon cb-classname="GraphicPolygonEntity" class="signal" id="2IO" points="2590,840 2579,834 2579,845"/>
<g cb-classname="DynamicText" cb-source="i8-5mS-6RCt" class="signal" id="2Ij" text-anchor="end">
<text cb-classname="GraphicTextEntity" class="signal" fill="black" font-style="normal" font-weight="normal" id="2I0" text-anchor="end" text-decoration="normal" x="2575" y="837"/>
</g>
</g>
<g cb-classname="ControlPin" cb-pin-name="U3-2ao-uJe" id="2II">
<line cb-classname="GraphicLineEntity" class="signalline" id="2Iq" x1="2670" x2="2690" y1="840" y2="840"/>
<g cb-classname="DynamicText" cb-source="PZ-SDd-aEgx" class="signal" id="2Im" text-anchor="start">
<text cb-classname="GraphicTextEntity" class="signal" fill="black" font-style="normal" font-weight="normal" id="2In" text-anchor="start" text-decoration="normal" x="2684" y="837"/>
</g>
<g cb-classname="SignalSegment" id="1dvl">
<line cb-classname="GraphicLineEntity" class="signalline" id="1dvV" stroke="#1e12bf" stroke-dasharray="5,4" x1="2690" x2="2940" y1="840" y2="840"/>
<g cb-classname="SignalSegment" id="1dvK">
<line cb-classname="GraphicLineEntity" class="signalline" id="1dvf" stroke="#1e12bf" stroke-dasharray="5,4" x1="2940" x2="2940" y1="840" y2="1190"/>
<g cb-classname="SignalSegment" id="1dvU">
<g cb-classname="SignalConnection" cb-graphic-line="$1590$" cb-input-pin="$0sMO$" id="1d5F"/>
<line cb-classname="GraphicLineEntity" class="signalline" id="1d5c" stroke="#1e12bf" stroke-dasharray="5,4" x1="2940" x2="3270" y1="1190" y2="1190"/>
</g>
</g>
</g>
</g>
<g cb-classname="DynamicText" cb-labeled="true" cb-source="Dz-pMM-nmoI" class="algorithm" id="3MO" text-anchor="start">
<text cb-classname="GraphicTextEntity" class="algorithm" fill="black" font-style="normal" font-weight="normal" id="3Mj" text-anchor="start" text-decoration="normal" x="2590" y="800"/>
</g>
</g>
<g cb-alg-8Tny="OFF" cb-alg-9FUF="01DL-H01" cb-alg-DVso="85" cb-alg-mSG="$1055$cb-alg-out$" cb-alg-mSX="$428$cb-alg-out$" cb-alg-mSj="$281$cb-alg-out$" cb-alg-rqA6="3" cb-alg-sMLd="2" cb-algorithm-id="002" cb-classname="ControlAlgorithm" cb-function-name="DIGCOUNT" cb-modify-id="00000001" id="1vOc">
<g cb-classname="ControlPin" cb-pin-name="et-ROp-Hrz" id="1vOF">
<line cb-classname="GraphicLineEntity" class="signalline" id="1vON" x1="3270" x2="3290" y1="1190" y2="1190"/>
<polygon cb-classname="GraphicPolygonEntity" class="signal" id="1vOl" points="3290,1190 3279,1186 3279,1194"/>
<g cb-classname="DynamicText" cb-source="cN-Rhy-Xasw" class="signal" id="1vOV" text-anchor="end">
<text baseline-shift="5%" cb-classname="GraphicTextEntity" class="signal" fill="black" font-style="normal" font-weight="normal" id="1vOK" text-anchor="end" text-decoration="normal" x="3275" y="1186"/>
</g>
</g>
<g cb-classname="ControlPin" cb-pin-name="re-6gb-UJM" id="1vOf">
<line cb-classname="GraphicLineEntity" class="signalline" id="1vOU" x1="3390" x2="3410" y1="1230" y2="1230"/>
<g cb-classname="DynamicText" cb-source="xv-c4r-d7PF" class="signal" id="1vOO">
<text baseline-shift="5%" cb-classname="GraphicTextEntity" class="signal" fill="black" font-style="normal" font-weight="normal" id="1vOZ" text-decoration="normal" x="3405" y="1221"/>
</g>
</g>
<g cb-classname="ControlPin" cb-pin-name="Pj-LhD-6uJe" id="1vjc">
<line cb-classname="GraphicLineEntity" class="signalline" id="1vjF" x1="3390" x2="3410" y1="1290" y2="1290"/>
<g cb-classname="DynamicText" cb-source="mi-ID1-iSWi" class="signal" id="1vjN">
<text baseline-shift="5%" cb-classname="GraphicTextEntity" class="signal" fill="black" font-style="normal" font-weight="normal" id="1vjl" text-decoration="normal" x="3405" y="1281"/>
</g>
<g cb-classname="SignalSegment" id="1ojN">
<g cb-classname="SignalConnection" cb-graphic-line="$1715$" cb-input-pin="$UnOt$" id="1ojf"/>
<line cb-classname="GraphicLineEntity" class="signalline" id="1ojK" stroke="#1e12bf" stroke-dasharray="5,4" x1="3410" x2="4100" y1="1290" y2="1290"/>
</g>
</g>
<g cb-classname="ControlPin" cb-pin-name="et-ROp-Hrn" id="1vjV">
<line cb-classname="GraphicLineEntity" class="signalline" id="1vjK" x1="3270" x2="3290" y1="1210" y2="1210"/>
<polygon cb-classname="GraphicPolygonEntity" class="signal" id="1vjf" points="3290,1210 3279,1206 3279,1214"/>
<g cb-classname="DynamicText" cb-source="cN-Rhy-Xasw" class="signal" id="1vjU" text-anchor="end">
<text baseline-shift="5%" cb-classname="GraphicTextEntity" class="signal" fill="black" font-style="normal" font-weight="normal" id="1vjO" text-anchor="end" text-decoration="normal" x="3275" y="1206"/>
</g>
</g>
<g cb-classname="ControlPin" cb-pin-name="re-6gb-mSG" id="1vjZ">
<line cb-classname="GraphicLineEntity" class="signalline" id="1v0c" x1="3270" x2="3290" y1="1230" y2="1230"/>
<polygon cb-classname="GraphicPolygonEntity" class="signal" id="1v0F" points="3290,1230 3279,1226 3279,1234"/>
<g cb-classname="DynamicText" cb-source="i8-5mS-6RCt" class="signal" id="1v0N" text-anchor="end">
<text baseline-shift="5%" cb-classname="GraphicTextEntity" class="signal" fill="black" font-style="normal" font-weight="normal" id="1v0l" text-anchor="end" text-decoration="normal" x="3275" y="1226"/>
</g>
</g>
<g cb-classname="ControlPin" cb-pin-name="U3-2ao-Mil" id="1v0V">
<line cb-classname="GraphicLineEntity" class="signalline" id="1v0K" x1="3270" x2="3290" y1="1250" y2="1250"/>
<polygon cb-classname="GraphicPolygonEntity" class="signal" id="1v0f" points="3290,1250 3279,1246 3279,1254"/>
<g cb-classname="DynamicText" cb-source="et-hMi-VaXc" class="signal" id="1v0U" text-anchor="end">
<text baseline-shift="5%" cb-classname="GraphicTextEntity" class="signal" fill="black" font-style="normal" font-weight="normal" id="1v0O" text-anchor="end" text-decoration="normal" x="3275" y="1246"/>
</g>
</g>
<g cb-classname="ControlPin" cb-pin-name="ZY-sYk-ORA" id="1v0Z">
<line cb-classname="GraphicLineEntity" class="signalline" id="1vIc" x1="3270" x2="3290" y1="1270" y2="1270"/>
<polygon cb-classname="GraphicPolygonEntity" class="signal" id="1vIF" points="3290,1270 3279,1266 3279,1274"/>
<g cb-classname="DynamicText" cb-source="re-3iX-r29G" class="signal" id="1vIN" text-anchor="end">
<text baseline-shift="5%" cb-classname="GraphicTextEntity" class="signal" fill="black" font-style="normal" font-weight="normal" id="1vIl" text-anchor="end" text-decoration="normal" x="3275" y="1266"/>
</g>
</g>
<g cb-classname="ControlPin" cb-pin-name="xv-47V-A6G" id="1vIV">
<line cb-classname="GraphicLineEntity" class="signalline" id="1vIK" x1="3270" x2="3290" y1="1290" y2="1290"/>
<polygon cb-classname="GraphicPolygonEntity" class="signal" id="1vIf" points="3290,1290 3279,1286 3279,1294"/>
<g cb-classname="DynamicText" cb-source="U3-xA6-dsIv" class="signal" id="1vIU" text-anchor="end">
<text baseline-shift="5%" cb-classname="GraphicTextEntity" class="signal" fill="black" font-style="normal" font-weight="normal" id="1vIO" text-anchor="end" text-decoration="normal" x="3275" y="1286"/>
</g>
</g>
<g cb-classname="ControlPin" cb-pin-name="PZ-7pn-tVm" id="1vIZ">
<line cb-classname="GraphicLineEntity" class="signalline" id="1vqc" x1="3270" x2="3290" y1="1310" y2="1310"/>
<polygon cb-classname="GraphicPolygonEntity" class="signal" id="1vqF" points="3290,1310 3279,1306 3279,1314"/>
<g cb-classname="DynamicText" cb-source="ZY-ktV-b7ms" class="signal" id="1vqN" text-anchor="end">
<text baseline-shift="5%" cb-classname="GraphicTextEntity" class="signal" fill="black" font-style="normal" font-weight="normal" id="1vql" text-anchor="end" text-decoration="normal" x="3275" y="1306"/>
</g>
</g>
<g cb-classname="ControlPin" cb-pin-name="Dz-pMM-4rR" id="1vqV">
<line cb-classname="GraphicLineEntity" class="signalline" id="1vqK" x1="3270" x2="3290" y1="1330" y2="1330"/>
<polygon cb-classname="GraphicPolygonEntity" class="signal" id="1vqf" points="3290,1330 3279,1326 3279,1334"/>
<g cb-classname="DynamicText" cb-source="xv-c4r-d7PF" class="signal" id="1vqU" text-anchor="end">
<text baseline-shift="5%" cb-classname="GraphicTextEntity" class="signal" fill="black" font-style="normal" font-weight="normal" id="1vqO" text-anchor="end" text-decoration="normal" x="3275" y="1326"/>
</g>
</g>
<rect cb-classname="GraphicRectangleEntity" class="algorithm" height="180" id="1vqZ" width="100" x="3290" y="1170"/>
<text baseline-shift="-50%" cb-classname="GraphicTextEntity" class="algorithm" font-size="18" id="1vmc" text-anchor="middle" x="3340" y="1247">
DIG
</text>
<text baseline-shift="-50%" cb-classname="GraphicTextEntity" class="algorithm" font-size="18" id="1vmF" text-anchor="middle" x="3340" y="1273">
COUNT
</text>
<g cb-classname="DynamicText" cb-labeled="true" cb-source="ZY-sYk-bvrC" class="algorithm" id="1elf" text-anchor="start">
<text cb-classname="GraphicTextEntity" class="algorithm" fill="black" font-style="normal" font-weight="normal" id="1elU" text-anchor="start" text-decoration="normal" x="3290" y="1160"/>
</g>
<g cb-classname="DynamicText" cb-labeled="true" cb-source="Dz-pMM-zlTU" class="algorithm" id="1elO" text-anchor="start">
<text cb-classname="GraphicTextEntity" class="algorithm" fill="black" font-style="normal" font-weight="normal" id="1elZ" text-anchor="start" text-decoration="normal" x="3290" y="1140"/>
</g>
</g>
<g cb-alg-PV="$1400$cb-alg-fout$" cb-algorithm-id="004" cb-classname="ExternalPointInterface" cb-function-name="OUTPUT" id="1evV">
<ellipse cb-classname="GraphicEllipseEntity" class="algorithm" cx="4180" cy="1290" id="1evK" rx="50" ry="50"/>
<rect cb-classname="GraphicRectangleEntity" class="algorithm" height="100" id="1evf" width="40" x="4230" y="1240"/>
<line cb-classname="GraphicLineEntity" class="algorithm" id="1evU" x1="4230" x2="4270" y1="1290" y2="1290"/>
<g cb-classname="ControlPin" cb-pin-name="bq-755-Db" id="1evO">
<line cb-classname="GraphicLineEntity" class="signalline" id="1evZ" x1="4100" x2="4130" y1="1290" y2="1290"/>
<polygon cb-classname="GraphicPolygonEntity" class="signal" id="1e5c" points="4130,1290 4119,1284 4119,1295"/>
<g cb-classname="DynamicText" cb-source="Dz-u9m-VLqE" class="signal" id="1e5F" text-anchor="end">
<text cb-classname="GraphicTextEntity" class="signal" fill="black" font-style="normal" font-weight="normal" id="1e5N" text-anchor="end" text-decoration="normal" x="4115" y="1287"/>
</g>
</g>
<g cb-classname="PointStatusIndicator" cb-indicator-type="highway" cb-source="sn-5Tc-Vd" id="1e5l" visibility="hidden">
<line cb-classname="GraphicLineEntity" class="algorithmline" id="1e5V" x1="4130" x2="4180" y1="1290" y2="1240"/>
<line cb-classname="GraphicLineEntity" class="algorithmline" id="1e5K" x1="4180" x2="4230" y1="1240" y2="1290"/>
<line cb-classname="GraphicLineEntity" class="algorithmline" id="1e5f" x1="4230" x2="4180" y1="1290" y2="1340"/>
<line cb-classname="GraphicLineEntity" class="algorithmline" id="1e5U" x1="4180" x2="4130" y1="1340" y2="1290"/>
</g>
<g cb-classname="PointStatusIndicator" cb-indicator-type="hardware" cb-source="mi-sXM-za" id="1e5O" visibility="hidden">
<line cb-classname="GraphicLineEntity" class="algorithmline" id="1e5Z" x1="4230" x2="4130" y1="1240" y2="1240"/>
<line cb-classname="GraphicLineEntity" class="algorithmline" id="1oOc" x1="4130" x2="4130" y1="1240" y2="1340"/>
<line cb-classname="GraphicLineEntity" class="algorithmline" id="1oOF" x1="4130" x2="4230" y1="1340" y2="1340"/>
</g>
<g cb-classname="PointStatusIndicator" cb-indicator-type="alarm" cb-source="ZY-sYk-OR" id="1oON" visibility="visible">
<text cb-classname="GraphicTextEntity" class="algorithm" fill="#000000" font-family="Arial" font-size="20" id="1oOl" x="4240" y="1325">
A
</text>
</g>
<g cb-classname="PointStatusIndicator" cb-indicator-type="ingraphic" cb-source="Dz-pMM-4r" id="1oOV" visibility="hidden">
<text cb-classname="GraphicTextEntity" class="algorithm" fill="#000000" font-family="Arial" font-size="20" id="1oOK" x="4240" y="1275">
G
</text>
</g>
<g cb-classname="DynamicText" cb-labeled="false" cb-pin-name="5g" cb-source="sn-5Tc-Vd" class="algorithm" id="1oOf" text-anchor="end">
<text baseline-shift="0%" cb-classname="GraphicTextEntity" class="algorithm" fill="black" font-family="arial" font-size="20" font-style="normal" font-weight="normal" id="1oOU" text-anchor="end" text-decoration="normal" x="4105" y="1265"/>
</g>
<g baseline-shift="-100%" cb-anchor-x="4105" cb-anchor-y="1300" cb-classname="PointReferences" cb-max-width="130" cb-originator="false" cb-source="i8-aJr-D1" class="signal" id="1oOO" text-anchor="end">
<text baseline-shift="-100%" cb-classname="GraphicTextEntity" class="algorithm" id="1oOZ" text-anchor="end" x="4105" y="1300">
REF: Point not
</text>
<text baseline-shift="-100%" cb-classname="GraphicTextEntity" class="algorithm" id="2oOl" text-anchor="end" x="4105" y="1325">
found in
</text>
<text baseline-shift="-100%" cb-classname="GraphicTextEntity" class="algorithm" id="2oOV" text-anchor="end" x="4105" y="1350">
database
</text>
<text baseline-shift="-100%" cb-classname="GraphicTextEntity" class="algorithm" id="2oOK" text-anchor="end" x="4105" y="1375">
(01DL-H01)
</text>
</g>
<g baseline-shift="-50%" cb-anchor-x="4285" cb-anchor-y="1305" cb-classname="PointDescription" cb-content="extended" cb-labeled="false" cb-max-width="240" cb-source="U3-2ao-Mi" class="algorithm" id="1ojc" text-anchor="start">
<text baseline-shift="-50%" cb-classname="GraphicTextEntity" class="algorithm" id="1ojF" text-anchor="start" x="4285" y="1293">
DESC: Point not found in
</text>
<text baseline-shift="-50%" cb-classname="GraphicTextEntity" class="algorithm" id="1CnO" text-anchor="start" x="4285" y="1318">
database (01DL-H01)
</text>
</g>
</g>
<g cb-alg-9mk="$124$cb-alg-out$" cb-alg-Di4c="60" cb-alg-M2e5="-250" cb-alg-M2f3="1" cb-alg-rwI="01DL-L01A" cb-algorithm-id="018" cb-classname="ControlAlgorithm" cb-function-name="LOWMON" cb-modify-id="00000002" id="39O">
<rect cb-classname="GraphicRectangleEntity" class="algorithm" height="40" id="39j" width="80" x="2590" y="1950"/>
<line cb-classname="GraphicLineEntity" class="algorithm" id="390" x1="2630" x2="2620" y1="1950" y2="1990"/>
<line cb-classname="GraphicLineEntity" class="algorithm" id="39I" x1="2640" x2="2630" y1="1950" y2="1990"/>
<line cb-classname="GraphicLineEntity" class="algorithm" id="39q" x1="2650" x2="2650" y1="1960" y2="1980"/>
<line cb-classname="GraphicLineEntity" class="algorithm" id="39m" x1="2650" x2="2660" y1="1980" y2="1980"/>
<g cb-classname="ControlPin" cb-pin-name="bq-755-Db2" id="39n">
<line cb-classname="GraphicLineEntity" class="signalline" id="39l" x1="2570" x2="2590" y1="1970" y2="1970"/>
<polygon cb-classname="GraphicPolygonEntity" class="signal" id="39v" points="2590,1970 2579,1964 2579,1975"/>
<g cb-classname="DynamicText" cb-source="Dz-u9m-VLqE" class="signal" id="395" text-anchor="end">
<text cb-classname="GraphicTextEntity" class="signal" fill="black" font-style="normal" font-weight="normal" id="3vO" text-anchor="end" text-decoration="normal" x="2575" y="1967"/>
</g>
</g>
<g cb-classname="ControlPin" cb-pin-name="sn-5Tc-FUF" id="3vj">
<line cb-classname="GraphicLineEntity" class="signalline" id="3v0" x1="2670" x2="2690" y1="1970" y2="1970"/>
<g cb-classname="DynamicText" cb-source="i8-5mS-6RCt" class="signal" id="3vI" text-anchor="start">
<text cb-classname="GraphicTextEntity" class="signal" fill="black" font-style="normal" font-weight="normal" id="3vq" text-anchor="start" text-decoration="normal" x="2684" y="1967"/>
</g>
<g cb-classname="SignalSegment" id="1eIl">
<g cb-classname="SignalConnection" cb-graphic-line="$1636$" cb-input-pin="$lrYu$" id="1eIU"/>
<line cb-classname="GraphicLineEntity" class="signalline" id="1eIf" stroke="#1e12bf" stroke-dasharray="5,4" x1="2690" x2="3270" y1="1970" y2="1970"/>
</g>
</g>
<g cb-classname="DynamicText" cb-labeled="true" cb-source="et-ROp-3pGa" class="algorithm" id="3vv" text-anchor="start">
<text cb-classname="GraphicTextEntity" class="algorithm" fill="black" font-style="normal" font-weight="normal" id="3v5" text-anchor="start" text-decoration="normal" x="2590" y="1930"/>
</g>
</g>
<g cb-alg-6JAw="2" cb-alg-LO9m="3" cb-alg-PEuE="01DL-L01" cb-alg-RorG="OFF" cb-alg-jh6M="85" cb-alg-k5L="$330$cb-alg-out$" cb-alg-k5V="$1104$cb-alg-out$" cb-alg-k5g="$477$cb-alg-out$" cb-algorithm-id="003" cb-classname="ControlAlgorithm" cb-function-name="DIGCOUNT" cb-modify-id="00000001" id="1d0V">
<g cb-classname="ControlPin" cb-pin-name="xv-47V-A6l" id="1d0K">
<line cb-classname="GraphicLineEntity" class="signalline" id="1d0f" x1="3270" x2="3290" y1="1970" y2="1970"/>
<polygon cb-classname="GraphicPolygonEntity" class="signal" id="1d0U" points="3290,1970 3279,1966 3279,1974"/>
<g cb-classname="DynamicText" cb-source="U3-xA6-dsIv" class="signal" id="1d0O" text-anchor="end">
<text baseline-shift="5%" cb-classname="GraphicTextEntity" class="signal" fill="black" font-style="normal" font-weight="normal" id="1d0Z" text-anchor="end" text-decoration="normal" x="3275" y="1966"/>
</g>
</g>
<g cb-classname="ControlPin" cb-pin-name="PZ-7pn-0d0" id="1dIc">
<line cb-classname="GraphicLineEntity" class="signalline" id="1dIF" x1="3390" x2="3410" y1="2010" y2="2010"/>
<g cb-classname="DynamicText" cb-source="bq-Aza-rQvb" class="signal" id="1dIN">
<text baseline-shift="5%" cb-classname="GraphicTextEntity" class="signal" fill="black" font-style="normal" font-weight="normal" id="1dIl" text-decoration="normal" x="3405" y="2001"/>
</g>
</g>
<g cb-classname="ControlPin" cb-pin-name="cN-wNR-ndkM" id="1dIV">
<line cb-classname="GraphicLineEntity" class="signalline" id="1dIK" x1="3390" x2="3410" y1="2070" y2="2070"/>
<g cb-classname="DynamicText" cb-source="re-3iX-r29G" class="signal" id="1dIf">
<text baseline-shift="5%" cb-classname="GraphicTextEntity" class="signal" fill="black" font-style="normal" font-weight="normal" id="1dIU" text-decoration="normal" x="3405" y="2061"/>
</g>
<g cb-classname="SignalSegment" id="1oqU">
<g cb-classname="SignalConnection" cb-graphic-line="$1751$" cb-input-pin="$Bf5W$" id="1oml"/>
<line cb-classname="GraphicLineEntity" class="signalline" id="1omF" stroke="#1e12bf" stroke-dasharray="5,4" x1="3410" x2="4100" y1="2070" y2="2070"/>
</g>
</g>
<g cb-classname="ControlPin" cb-pin-name="xv-47V-A6O" id="1dIO">
<line cb-classname="GraphicLineEntity" class="signalline" id="1dIZ" x1="3270" x2="3290" y1="1990" y2="1990"/>
<polygon cb-classname="GraphicPolygonEntity" class="signal" id="1dqc" points="3290,1990 3279,1986 3279,1994"/>
<g cb-classname="DynamicText" cb-source="U3-xA6-dsIv" class="signal" id="1dqF" text-anchor="end">
<text baseline-shift="5%" cb-classname="GraphicTextEntity" class="signal" fill="black" font-style="normal" font-weight="normal" id="1dqN" text-anchor="end" text-decoration="normal" x="3275" y="1986"/>
</g>
</g>
<g cb-classname="ControlPin" cb-pin-name="PZ-7pn-tV8" id="1dql">
<line cb-classname="GraphicLineEntity" class="signalline" id="1dqV" x1="3270" x2="3290" y1="2010" y2="2010"/>
<polygon cb-classname="GraphicPolygonEntity" class="signal" id="1dqK" points="3290,2010 3279,2006 3279,2014"/>
<g cb-classname="DynamicText" cb-source="ZY-ktV-b7ms" class="signal" id="1dqf" text-anchor="end">
<text baseline-shift="5%" cb-classname="GraphicTextEntity" class="signal" fill="black" font-style="normal" font-weight="normal" id="1dqU" text-anchor="end" text-decoration="normal" x="3275" y="2006"/>
</g>
</g>
<g cb-classname="ControlPin" cb-pin-name="Dz-pMM-4rK" id="1dqO">
<line cb-classname="GraphicLineEntity" class="signalline" id="1dqZ" x1="3270" x2="3290" y1="2030" y2="2030"/>
<polygon cb-classname="GraphicPolygonEntity" class="signal" id="1dmc" points="3290,2030 3279,2026 3279,2034"/>
<g cb-classname="DynamicText" cb-source="xv-c4r-d7PF" class="signal" id="1dmF" text-anchor="end">
<text baseline-shift="5%" cb-classname="GraphicTextEntity" class="signal" fill="black" font-style="normal" font-weight="normal" id="1dmN" text-anchor="end" text-decoration="normal" x="3275" y="2026"/>
</g>
</g>
<g cb-classname="ControlPin" cb-pin-name="Pj-LhD-DdA" id="1dml">
<line cb-classname="GraphicLineEntity" class="signalline" id="1dmV" x1="3270" x2="3290" y1="2050" y2="2050"/>
<polygon cb-classname="GraphicPolygonEntity" class="signal" id="1dmK" points="3290,2050 3279,2046 3279,2054"/>
<g cb-classname="DynamicText" cb-source="PZ-SDd-aEgx" class="signal" id="1dmf" text-anchor="end">
<text baseline-shift="5%" cb-classname="GraphicTextEntity" class="signal" fill="black" font-style="normal" font-weight="normal" id="1dmU" text-anchor="end" text-decoration="normal" x="3275" y="2046"/>
</g>
</g>
<g cb-classname="ControlPin" cb-pin-name="bq-755-DbM" id="1dmO">
<line cb-classname="GraphicLineEntity" class="signalline" id="1dmZ" x1="3270" x2="3290" y1="2070" y2="2070"/>
<polygon cb-classname="GraphicPolygonEntity" class="signal" id="1dnc" points="3290,2070 3279,2066 3279,2074"/>
<g cb-classname="DynamicText" cb-source="Dz-u9m-VLqE" class="signal" id="1dnF" text-anchor="end">
<text baseline-shift="5%" cb-classname="GraphicTextEntity" class="signal" fill="black" font-style="normal" font-weight="normal" id="1dnN" text-anchor="end" text-decoration="normal" x="3275" y="2066"/>
</g>
</g>
<g cb-classname="ControlPin" cb-pin-name="sn-5Tc-Vdn" id="1dnl">
<line cb-classname="GraphicLineEntity" class="signalline" id="1dnV" x1="3270" x2="3290" y1="2090" y2="2090"/>
<polygon cb-classname="GraphicPolygonEntity" class="signal" id="1dnK" points="3290,2090 3279,2086 3279,2094"/>
<g cb-classname="DynamicText" cb-source="Pj-8Vd-17EH" class="signal" id="1dnf" text-anchor="end">
<text baseline-shift="5%" cb-classname="GraphicTextEntity" class="signal" fill="black" font-style="normal" font-weight="normal" id="1dnU" text-anchor="end" text-decoration="normal" x="3275" y="2086"/>
</g>
</g>
<g cb-classname="ControlPin" cb-pin-name="mi-sXM-za9" id="1dnO">
<line cb-classname="GraphicLineEntity" class="signalline" id="1dnZ" x1="3270" x2="3290" y1="2110" y2="2110"/>
<polygon cb-classname="GraphicPolygonEntity" class="signal" id="1dlc" points="3290,2110 3279,2106 3279,2114"/>
<g cb-classname="DynamicText" cb-source="bq-Aza-rQvb" class="signal" id="1dlF" text-anchor="end">
<text baseline-shift="5%" cb-classname="GraphicTextEntity" class="signal" fill="black" font-style="normal" font-weight="normal" id="1dlN" text-anchor="end" text-decoration="normal" x="3275" y="2106"/>
</g>
</g>
<rect cb-classname="GraphicRectangleEntity" class="algorithm" height="180" id="1dll" width="100" x="3290" y="1950"/>
<text baseline-shift="-50%" cb-classname="GraphicTextEntity" class="algorithm" font-size="18" id="1dlV" text-anchor="middle" x="3340" y="2027">
DIG
</text>
<text baseline-shift="-50%" cb-classname="GraphicTextEntity" class="algorithm" font-size="18" id="1dlK" text-anchor="middle" x="3340" y="2053">
COUNT
</text>
<g cb-classname="DynamicText" cb-labeled="true" cb-source="sn-5Tc-S9D1" class="algorithm" id="1evc" text-anchor="start">
<text cb-classname="GraphicTextEntity" class="algorithm" fill="black" font-style="normal" font-weight="normal" id="1evF" text-anchor="start" text-decoration="normal" x="3290" y="1940"/>
</g>
<g cb-classname="DynamicText" cb-labeled="true" cb-source="i8-aJr-rFUJ" class="algorithm" id="1evN" text-anchor="start">
<text cb-classname="GraphicTextEntity" class="algorithm" fill="black" font-style="normal" font-weight="normal" id="1evl" text-anchor="start" text-decoration="normal" x="3290" y="1920"/>
</g>
</g>
<g cb-alg-iu="$1524$cb-alg-fout$" cb-algorithm-id="005" cb-classname="ExternalPointInterface" cb-function-name="OUTPUT" id="1ojU">
<ellipse cb-classname="GraphicEllipseEntity" class="algorithm" cx="4180" cy="2070" id="1ojO" rx="50" ry="50"/>
<rect cb-classname="GraphicRectangleEntity" class="algorithm" height="100" id="1ojZ" width="40" x="4230" y="2020"/>
<line cb-classname="GraphicLineEntity" class="algorithm" id="1o0c" x1="4230" x2="4270" y1="2070" y2="2070"/>
<g cb-classname="ControlPin" cb-pin-name="i8-aJr-D1" id="1o0F">
<line cb-classname="GraphicLineEntity" class="signalline" id="1o0N" x1="4100" x2="4130" y1="2070" y2="2070"/>
<polygon cb-classname="GraphicPolygonEntity" class="signal" id="1o0l" points="4130,2070 4119,2064 4119,2075"/>
<g cb-classname="DynamicText" cb-source="mi-ID1-iSWi" class="signal" id="1o0V" text-anchor="end">
<text cb-classname="GraphicTextEntity" class="signal" fill="black" font-style="normal" font-weight="normal" id="1o0K" text-anchor="end" text-decoration="normal" x="4115" y="2067"/>
</g>
</g>
<g cb-classname="PointStatusIndicator" cb-indicator-type="highway" cb-source="et-ROp-Hr" id="1o0f" visibility="hidden">
<line cb-classname="GraphicLineEntity" class="algorithmline" id="1o0U" x1="4130" x2="4180" y1="2070" y2="2020"/>
<line cb-classname="GraphicLineEntity" class="algorithmline" id="1o0O" x1="4180" x2="4230" y1="2020" y2="2070"/>
<line cb-classname="GraphicLineEntity" class="algorithmline" id="1o0Z" x1="4230" x2="4180" y1="2070" y2="2120"/>
<line cb-classname="GraphicLineEntity" class="algorithmline" id="1oIc" x1="4180" x2="4130" y1="2120" y2="2070"/>
</g>
<g cb-classname="PointStatusIndicator" cb-indicator-type="hardware" cb-source="re-6gb-mS" id="1oIF" visibility="hidden">
<line cb-classname="GraphicLineEntity" class="algorithmline" id="1oIN" x1="4230" x2="4130" y1="2020" y2="2020"/>
<line cb-classname="GraphicLineEntity" class="algorithmline" id="1oIl" x1="4130" x2="4130" y1="2020" y2="2120"/>
<line cb-classname="GraphicLineEntity" class="algorithmline" id="1oIV" x1="4130" x2="4230" y1="2120" y2="2120"/>
</g>
<g cb-classname="PointStatusIndicator" cb-indicator-type="alarm" cb-source="Pj-LhD-Dd" id="1oIK" visibility="visible">
<text cb-classname="GraphicTextEntity" class="algorithm" fill="#000000" font-family="Arial" font-size="20" id="1oIf" x="4240" y="2105">
A
</text>
</g>
<g cb-classname="PointStatusIndicator" cb-indicator-type="ingraphic" cb-source="mi-sXM-za" id="1oIU" visibility="hidden">
<text cb-classname="GraphicTextEntity" class="algorithm" fill="#000000" font-family="Arial" font-size="20" id="1oIO" x="4240" y="2055">
G
</text>
</g>
<g cb-classname="DynamicText" cb-labeled="false" cb-pin-name="du" cb-source="et-ROp-Hr" class="algorithm" id="1oIZ" text-anchor="end">
<text baseline-shift="0%" cb-classname="GraphicTextEntity" class="algorithm" fill="black" font-family="arial" font-size="20" font-style="normal" font-weight="normal" id="1oqc" text-anchor="end" text-decoration="normal" x="4105" y="2045"/>
</g>
<g baseline-shift="-100%" cb-anchor-x="4105" cb-anchor-y="2080" cb-classname="PointReferences" cb-max-width="130" cb-originator="false" cb-source="ZY-sYk-OR" class="signal" id="1oqF" text-anchor="end">
<text baseline-shift="-100%" cb-classname="GraphicTextEntity" class="algorithm" id="1oqN" text-anchor="end" x="4105" y="2080">
REF: Point not
</text>
<text baseline-shift="-100%" cb-classname="GraphicTextEntity" class="algorithm" id="2oOf" text-anchor="end" x="4105" y="2105">
found in
</text>
<text baseline-shift="-100%" cb-classname="GraphicTextEntity" class="algorithm" id="2oOU" text-anchor="end" x="4105" y="2130">
database
</text>
<text baseline-shift="-100%" cb-classname="GraphicTextEntity" class="algorithm" id="2oOO" text-anchor="end" x="4105" y="2155">
(01DL-L01)
</text>
</g>
<g baseline-shift="-50%" cb-anchor-x="4285" cb-anchor-y="2085" cb-classname="PointDescription" cb-content="extended" cb-labeled="false" cb-max-width="240" cb-source="Dz-pMM-4r" class="algorithm" id="1oql" text-anchor="start">
<text baseline-shift="-50%" cb-classname="GraphicTextEntity" class="algorithm" id="1oqV" text-anchor="start" x="4285" y="2073">
DESC: Point not found in
</text>
<text baseline-shift="-50%" cb-classname="GraphicTextEntity" class="algorithm" id="1Clc" text-anchor="start" x="4285" y="2098">
database (01DL-L01)
</text>
</g>
</g>
</g>
<g cb-classname="IncludeDocument" cb-modify-time="09/25/2018 01:40:30" cb-objectname="Frame" id="5">
<text cb-classname="GraphicTextEntity" class="frame" font-size="50" id="2olc" x="3660" y="3146">
Project Title &lt;Edit in FRAME.SVG&gt;
</text>
<g baseline-shift="-50%" cb-classname="DynamicText" cb-source="re-Dtu5-V0" class="frame" id="2olF">
<text cb-classname="GraphicTextEntity" class="frame" fill="black" font-family="arial" font-size="25" font-style="normal" font-weight="normal" id="2olN" text-decoration="normal" x="4715" y="3325">
12
</text>
</g>
<g baseline-shift="-50%" cb-classname="DynamicText" cb-source="xv-fNUx-Dn" class="frame" id="2oll" text-anchor="middle">
<text cb-classname="GraphicTextEntity" class="frame" fill="black" font-family="arial" font-size="48" font-style="normal" font-weight="normal" id="2olV" text-anchor="middle" text-decoration="normal" x="4900" y="3320">
12
</text>
</g>
<g baseline-shift="-50%" cb-classname="DynamicText" cb-source="Pj-l28z-M9" class="frame" id="2olK" text-anchor="middle">
<text cb-classname="GraphicTextEntity" class="frame" fill="black" font-family="arial" font-size="48" font-style="normal" font-weight="normal" id="2olf" text-anchor="middle" text-decoration="normal" x="5067" y="3324">
3
</text>
</g>
<g cb-classname="DynamicText" cb-source="mi-8t8Fo-jDjnb" class="frame" id="2olU">
<text cb-classname="GraphicTextEntity" class="frame" fill="black" font-family="arial" font-size="48" font-style="normal" font-weight="normal" id="2olO" text-decoration="normal" x="3660" y="3224">
BOILER DRUM LEVEL LIMITS FOR MFT
</text>
</g>
<g baseline-shift="-50%" cb-classname="DynamicText" cb-source="et-JLtHj-bjmw0Q" class="frame" id="2olZ" text-anchor="middle">
<text cb-classname="GraphicTextEntity" class="frame" fill="black" font-family="arial" font-size="48" font-style="normal" font-weight="normal" id="2ovc" text-anchor="middle" text-decoration="normal" x="5270" y="3324">
014
</text>
</g>
<g baseline-shift="0%" cb-classname="DynamicText" cb-source="ZY-1HsDGQlC" class="frame" id="2ovF" text-anchor="middle">
<text cb-classname="GraphicTextEntity" class="frame" fill="black" font-family="arial" font-size="36" font-style="normal" font-weight="normal" id="2ovN" text-anchor="middle" text-decoration="normal" x="5270" y="3150">
A
</text>
</g>
<g baseline-shift="0%" cb-classname="DynamicText" cb-source="Dz-oznP2mFd-FMEH" class="frame" id="2ovl" text-anchor="middle">
<text cb-classname="GraphicTextEntity" class="frame" fill="black" font-family="arial" font-size="20" font-style="normal" font-weight="normal" id="2ovV" text-anchor="middle" text-decoration="normal" x="5270" y="3230">
12/28/2010
</text>
</g>
<g baseline-shift="-50%" cb-classname="DynamicText" cb-source="sn-LXcmSEGW" class="frame" id="2ovK" text-anchor="end">
<text cb-classname="GraphicTextEntity" class="frame" fill="black" font-family="arial" font-size="26" font-style="normal" font-weight="normal" id="2ovf" text-anchor="end" text-decoration="normal" x="4500" y="3420">
Dufek
</text>
</g>
<g baseline-shift="-50%" cb-classname="DynamicText" cb-source="i8-NXiAGzF1" class="frame" id="2ovU" text-anchor="end">
<text cb-classname="GraphicTextEntity" class="frame" fill="black" font-family="arial" font-size="26" font-style="normal" font-weight="normal" id="2ovO" text-anchor="end" text-decoration="normal" x="5353" y="3420">
Nemec
</text>
</g>
<g cb-classname="GraphicShape" cb-tag="BORDER" id="2ovZ">
<line cb-classname="GraphicLineEntity" class="frameline" id="2o5c" x1="40" x2="40" y1="40" y2="3460"/>
<line cb-classname="GraphicLineEntity" class="frameline" id="2o5F" x1="40" x2="5380" y1="3460" y2="3460"/>
<line cb-classname="GraphicLineEntity" class="frameline" id="2o5N" x1="5380" x2="5380" y1="3460" y2="40"/>
<line cb-classname="GraphicLineEntity" class="frameline" id="2o5l" x1="5380" x2="40" y1="40" y2="40"/>
<line cb-classname="GraphicLineEntity" class="frame" id="2o5V" x1="5430" x2="5440" y1="3510" y2="3510"/>
</g>
<g cb-classname="GraphicShape" cb-tag="TITLE BOX" id="2o5K">
<line cb-classname="GraphicLineEntity" class="frameline" id="2o5f" x1="2340" x2="2340" y1="3080" y2="3460"/>
<line cb-classname="GraphicLineEntity" class="frameline" id="2o5U" x1="2340" x2="5380" y1="3080" y2="3080"/>
<line cb-classname="GraphicLineEntity" class="frameline" id="2o5O" x1="3650" x2="3650" y1="3460" y2="3080"/>
<line cb-classname="GraphicLineEntity" class="frameline" id="2o5Z" x1="3650" x2="5380" y1="3240" y2="3240"/>
<line cb-classname="GraphicLineEntity" class="frameline" id="2COc" x1="3650" x2="5380" y1="3390" y2="3390"/>
<line cb-classname="GraphicLineEntity" class="frameline" id="2COF" x1="3650" x2="5380" y1="3160" y2="3160"/>
<line cb-classname="GraphicLineEntity" class="frameline" id="2CON" x1="3650" x2="4520" y1="3320" y2="3320"/>
<line cb-classname="GraphicLineEntity" class="frameline" id="2COl" x1="4520" x2="5380" y1="3290" y2="3290"/>
<line cb-classname="GraphicLineEntity" class="frameline" id="2COV" x1="4520" x2="5380" y1="3240" y2="3240"/>
<line cb-classname="GraphicLineEntity" class="frameline" id="2COK" x1="4520" x2="4520" y1="3240" y2="3460"/>
<line cb-classname="GraphicLineEntity" class="frameline" id="2COf" x1="4810" x2="4810" y1="3240" y2="3390"/>
<line cb-classname="GraphicLineEntity" class="frameline" id="2COU" x1="4990" x2="4990" y1="3240" y2="3390"/>
<line cb-classname="GraphicLineEntity" class="frameline" id="2COO" x1="5150" x2="5150" y1="3080" y2="3390"/>
</g>
<g cb-classname="GraphicShape" cb-tag="TEXT LABELS" id="2COZ">
<text baseline-shift="-50%" cb-classname="GraphicTextEntity" class="frame" font-size="25" id="2Cjc" text-anchor="middle" x="4890" y="3252">
Drop
</text>
<text baseline-shift="-50%" cb-classname="GraphicTextEntity" class="frame" font-size="25" id="2CjF" text-anchor="middle" x="5075" y="3252">
Task
</text>
<text baseline-shift="-50%" cb-classname="GraphicTextEntity" class="frame" font-size="25" id="2CjN" text-anchor="middle" x="5265" y="3252">
Sheet
</text>
<text cb-classname="GraphicTextEntity" class="frame" font-size="25" id="2Cjl" x="5152" y="3107">
Rev.
</text>
<text cb-classname="GraphicTextEntity" class="frame" font-size="25" id="2CjV" x="3653" y="3418">
Engineer
</text>
<text cb-classname="GraphicTextEntity" class="frame" font-size="25" id="2CjK" x="4528" y="3419">
Approved
</text>
<text cb-classname="GraphicTextEntity" class="frame" font-size="25" id="2Cjf" x="5152" y="3187">
Date
</text>
<text baseline-shift="-50%" cb-classname="GraphicTextEntity" class="frame" font-size="25" id="2CjU" text-anchor="middle" x="4660" y="3252">
Drawing Number
</text>
<text baseline-shift="-50%" cb-classname="GraphicTextEntity" class="frame" font-size="25" id="2CjO" text-anchor="middle" x="4680" y="3325">
CTL
</text>
</g>
<text baseline-shift="-50%" cb-classname="GraphicTextEntity" class="frame" font-size="48" id="2CjZ" text-anchor="middle" x="3000" y="3100">
EMERSON PROCESS MANAGEMENT
</text>
<g baseline-shift="-100%" cb-anchor-x="2360" cb-anchor-y="3140" cb-classname="GroupText" cb-max-width="1260" fill="black" id="2C0c">
<text baseline-shift="-100%" cb-classname="GraphicTextEntity" class="frame" fill="black" font-family="arial" font-size="22" font-weight="normal" id="2C0F" text-anchor="start" text-decoration="normal" x="2360" y="3140">
THIS DOCUMENT CONTAINS INFORMATION PROPRIETARY TO EMERSON PROCESS
</text>
<text baseline-shift="-100%" cb-classname="GraphicTextEntity" class="frame" fill="black" font-family="arial" font-size="22" font-weight="normal" id="2C0N" text-anchor="start" text-decoration="normal" x="2360" y="3176">
MANAGEMENT POWER &amp; WATER SOLUTIONS, INC. IT IS SUBMITTED IN CONFIDENCE AND
</text>
<text baseline-shift="-100%" cb-classname="GraphicTextEntity" class="frame" fill="black" font-family="arial" font-size="22" font-weight="normal" id="2C0l" text-anchor="start" text-decoration="normal" x="2360" y="3212">
TRUST, IS TO BE USED BY YOU SOLELY FOR THE PURPOSES FOR WHICH IT IS
</text>
<text baseline-shift="-100%" cb-classname="GraphicTextEntity" class="frame" fill="black" font-family="arial" font-size="22" font-weight="normal" id="2C0V" text-anchor="start" text-decoration="normal" x="2360" y="3248">
FURNISHED AND IS TO BE RETURNED UPON REQUEST. THIS DOCUMENT AND ANY
</text>
<text baseline-shift="-100%" cb-classname="GraphicTextEntity" class="frame" fill="black" font-family="arial" font-size="22" font-weight="normal" id="2C0K" text-anchor="start" text-decoration="normal" x="2360" y="3284">
OTHER INFORMATION PROVIDED TO YOU IS NOT TO BE REPRODUCED, TRANSMITTED,
</text>
<text baseline-shift="-100%" cb-classname="GraphicTextEntity" class="frame" fill="black" font-family="arial" font-size="22" font-weight="normal" id="2C0f" text-anchor="start" text-decoration="normal" x="2360" y="3320">
DISCLOSED, OR USED OTHERWISE IN WHOLE OR IN PART WITHOUT THE PRIOR
</text>
<text baseline-shift="-100%" cb-classname="GraphicTextEntity" class="frame" fill="black" font-family="arial" font-size="22" font-weight="normal" id="2C0U" text-anchor="start" text-decoration="normal" x="2360" y="3356">
WRITTEN AUTHORIZATION OF EMERSON PROCESS MANAGEMENT POWER &amp; WATER
</text>
<text baseline-shift="-100%" cb-classname="GraphicTextEntity" class="frame" fill="black" font-family="arial" font-size="22" font-weight="normal" id="2C0O" text-anchor="start" text-decoration="normal" x="2360" y="3392">
SOLUTIONS,INC.
</text>
</g>
</g>
</svg>