<?xml version="1.0" ?><svg cb-auto-time="03/14/2008 07:27:43" cb-classname="ControlFunction" cb-create-time="03/12/2008" cb-drop-id="12" cb-engineer="Dufek" cb-filename="Z:\OVATION\NET0\UNIT0\CONTROLFUNCTIONS\03B1.svg" cb-function-id="03B1" cb-key="525511234244" cb-modified-timestamp="1489318929" cb-modify-id="00000005" cb-path="Z:/OVATION/NET0/UNIT0/CONTROLFUNCTIONS" cb-reviewer="Nemec" cb-revision="A" cb-revision-time="12/28/2010" cb-sheet-number="121" cb-sheet-title="HP By-Pass Spray CV" cb-snap-grid="10" cb-task-id="3" height="3669" id="1" width="5450" xmlns="http://www.w3.org/2000/svg">
<style cb-classname="EntityStyle" id="2" type="text/css">
	.algorithm { fill: white; stroke: black; stroke-linecap: round; stroke-width: 2 }
	.algorithm-function { fill: none; stroke: black; stroke-linecap: round; stroke-width: 2 }
	.algorithm-functionline { fill: none; stroke: black; stroke-linecap: round; stroke-width: 2 }
	.algorithm-name { fill: none; stroke: black; stroke-linecap: round; stroke-width: 2 }
	.algorithm-nameline { fill: none; stroke: black; stroke-linecap: round; stroke-width: 2 }
	.algorithm-sequence { fill: none; stroke: black; stroke-linecap: round; stroke-width: 2 }
	.algorithm-sequenceline { fill: none; stroke: black; stroke-linecap: round; stroke-width: 2 }
	.algorithmline { fill: none; stroke: black; stroke-linecap: round; stroke-width: 2 }
	.annotation { fill: none; stroke: black; stroke-linecap: round; stroke-width: 2 }
	.annotationline { fill: none; stroke: black; stroke-linecap: round; stroke-width: 2 }
	.frame { fill: none; stroke: black; stroke-linecap: round; stroke-width: 2 }
	.frameline { fill: none; stroke: black; stroke-linecap: round; stroke-width: 2 }
	.signal { fill: black; stroke: black; stroke-linecap: round; stroke-width: 2 }
	.signalline { fill: none; stroke: black; stroke-linecap: round; stroke-width: 2 }
	text.algorithm { fill: black; font-family: MS Shell Dlg 2; font-size: 14; stroke: none }
	text.algorithm-function { fill: black; font-family: MS Shell Dlg 2; font-size: 16; stroke: none }
	text.algorithm-name { fill: black; font-family: MS Shell Dlg 2; font-size: 16; stroke: none }
	text.algorithm-sequence { fill: black; font-family: MS Shell Dlg 2; font-size: 16; stroke: none }
	text.annotation { fill: black; font-family: MS Shell Dlg 2; font-size: 16; stroke: none }
	text.frame { fill: black; font-family: MS Shell Dlg 2; font-size: 16; stroke: none }
	text.signal { fill: black; font-family: MS Shell Dlg 2; font-size: 12; stroke: none }
</style>
<g cb-classname="NamedObject" cb-objectname="Comments" id="3"/>
<g cb-classname="AlgorithmContainer" cb-objectname="Algorithms" id="4">
<g cb-alg-2SBu="NO" cb-alg-2Tzj="0.000000" cb-alg-6iz3="0" cb-alg-9n59="100" cb-alg-9urk="25" cb-alg-H2q="01HPTBSPYBIAS" cb-alg-LCl="01HPTBYBIAS-XM" cb-alg-MuzZ="9" cb-alg-UA59="-100" cb-alg-glZT="NO" cb-alg-ltku="4" cb-alg-o1h3="SOFT" cb-alg-oS1G="1" cb-alg-oek3="TRUN" cb-algorithm-id="005" cb-classname="ControlAlgorithm" cb-function-name="SETPOINT" cb-modify-id="00000001" id="1Qh">
<polygon cb-classname="GraphicPolygonEntity" class="algorithm" id="1NO" points="1710,1080 1650,1140 1710,1200 1770,1140"/>
<ellipse cb-classname="GraphicEllipseEntity" class="algorithm" cx="1590" cy="1140" id="1N4" rx="60" ry="60"/>
<line cb-classname="GraphicLineEntity" class="algorithm" id="1NC" x1="1710" x2="1700" y1="1120" y2="1150"/>
<line cb-classname="GraphicLineEntity" class="algorithm" id="1Nn" x1="1710" x2="1720" y1="1120" y2="1150"/>
<line cb-classname="GraphicLineEntity" class="algorithm" id="1NV" x1="1704" x2="1716" y1="1140" y2="1140"/>
<line cb-classname="GraphicLineEntity" class="algorithm" id="1Nl" x1="1590" x2="1590" y1="1120" y2="1150"/>
<line cb-classname="GraphicLineEntity" class="algorithm" id="1Nu" x1="1710" x2="1710" y1="1080" y2="1050"/>
<line cb-classname="GraphicLineEntity" class="algorithm" id="1NK" x1="1710" x2="1590" y1="1050" y2="1050"/>
<line cb-classname="GraphicLineEntity" class="algorithm" id="1NF" x1="1590" x2="1590" y1="1050" y2="1080"/>
<polygon cb-classname="GraphicPolygonEntity" class="signal" id="1Nh" points="1590,1080 1595,1069 1584,1069"/>
<ellipse cb-classname="GraphicEllipseEntity" class="algorithm" cx="1710" cy="1050" fill="black" id="2HO" rx="2" ry="2"/>
<g cb-classname="ControlPin" cb-pin-name="EU-zj3-ez3" id="2H4">
<line cb-classname="GraphicLineEntity" class="signalline" id="2HC" x1="1710" x2="1710" y1="1050" y2="1030"/>
<g cb-classname="DynamicText" cb-source="tD-OxO-B51I" class="signal" id="2Hn" text-anchor="start">
<text cb-classname="GraphicTextEntity" class="signal" fill="black" font-style="normal" font-weight="normal" id="2HV" text-anchor="start" text-decoration="normal" transform="translate(1707,1035)rotate(-90)"/>
</g>
<g cb-classname="SignalSegment" id="9HO">
<line cb-classname="GraphicLineEntity" class="signalline" id="9H4" x1="1710" x2="1710" y1="1030" y2="930"/>
<g cb-classname="SignalSegment" id="9HC">
<line cb-classname="GraphicLineEntity" class="signalline" id="9Hn" x1="1710" x2="1840" y1="930" y2="930"/>
<g cb-classname="SignalSegment" id="9HV">
<line cb-classname="GraphicLineEntity" class="signalline" id="9Hl" x1="1840" x2="1840" y1="930" y2="1090"/>
<g cb-classname="SignalConnection" cb-graphic-line="$905$" cb-input-pin="$cH8$" id="9Hu"/>
</g>
</g>
</g>
</g>
<g cb-classname="DynamicText" cb-labeled="false" cb-source="98-UiW-Sg7" class="algorithm" id="8Bu" text-anchor="start">
<text cb-classname="GraphicTextEntity" class="algorithm" fill="black" font-style="normal" font-weight="normal" id="8BK" text-anchor="start" text-decoration="normal" x="1600" y="1240"/>
</g>
<g cb-classname="DynamicText" cb-labeled="false" cb-source="98-UiW-3L6" class="algorithm" id="9HK" text-anchor="start">
<text cb-classname="GraphicTextEntity" class="algorithm" fill="black" font-style="normal" font-weight="normal" id="9HF" text-anchor="start" text-decoration="normal" x="1690" y="900"/>
</g>
<g cb-classname="DynamicText" cb-labeled="true" cb-source="98-UiW-YC4n" class="algorithm" id="1Buc" text-anchor="start">
<text cb-classname="GraphicTextEntity" class="algorithm" fill="black" font-style="normal" font-weight="normal" id="1BuT" text-anchor="start" text-decoration="normal" x="1620" y="1280"/>
</g>
<g cb-classname="DynamicText" cb-labeled="true" cb-source="H1-nCL-jcL6" class="algorithm" id="1BuH" text-anchor="start">
<text cb-classname="GraphicTextEntity" class="algorithm" fill="black" font-style="normal" font-weight="normal" id="1BKo" text-anchor="start" text-decoration="normal" x="1620" y="1300"/>
</g>
</g>
<g cb-alg-T3X="01TE338-SEL" cb-alg-TUbg="NO" cb-algorithm-id="006" cb-classname="ExternalPointInterface" cb-function-name="INPUT" id="2w4">
<ellipse cb-classname="GraphicEllipseEntity" class="algorithm" cx="2520" cy="320" id="2wC" rx="50" ry="50"/>
<rect cb-classname="GraphicRectangleEntity" class="algorithm" height="40" id="2wn" width="100" x="2470" y="230"/>
<line cb-classname="GraphicLineEntity" class="algorithm" id="2wV" x1="2520" x2="2520" y1="270" y2="230"/>
<g cb-classname="ControlPin" cb-pin-name="Wp-1IZ-sBY" id="2wl">
<line cb-classname="GraphicLineEntity" class="signalline" id="2wu" x1="2520" x2="2520" y1="370" y2="400"/>
<g cb-classname="DynamicText" cb-source="o0-62r-Wn4m" class="signal" id="2wK" text-anchor="end">
<text cb-classname="GraphicTextEntity" class="signal" fill="black" font-style="normal" font-weight="normal" id="2wF" text-anchor="end" text-decoration="normal" transform="translate(2512,387)rotate(-90)"/>
</g>
<g cb-classname="SignalSegment" id="2QF">
<line cb-classname="GraphicLineEntity" class="signalline" id="2Qh" x1="2520" x2="2520" y1="400" y2="1350"/>
<g cb-classname="SignalConnection" cb-graphic-line="$289$" cb-input-pin="$irX$" id="2NO"/>
</g>
</g>
<g cb-classname="PointStatusIndicator" cb-indicator-type="Highway" cb-source="Zt-dcg-EAc" id="2wh" visibility="visible">
<line cb-classname="GraphicLineEntity" class="algorithmline" id="2CO" x1="2520" x2="2470" y1="270" y2="320"/>
<line cb-classname="GraphicLineEntity" class="algorithmline" id="2C4" x1="2470" x2="2520" y1="320" y2="370"/>
<line cb-classname="GraphicLineEntity" class="algorithmline" id="2CC" x1="2520" x2="2570" y1="370" y2="320"/>
<line cb-classname="GraphicLineEntity" class="algorithmline" id="2Cn" x1="2570" x2="2520" y1="320" y2="270"/>
</g>
<g cb-classname="PointStatusIndicator" cb-indicator-type="hardware" cb-source="76-lqD-N1u" id="2CV" visibility="hidden">
<line cb-classname="GraphicLineEntity" class="algorithmline" id="2Cl" x1="2470" x2="2470" y1="270" y2="370"/>
<line cb-classname="GraphicLineEntity" class="algorithmline" id="2Cu" x1="2470" x2="2570" y1="370" y2="370"/>
<line cb-classname="GraphicLineEntity" class="algorithmline" id="2CK" x1="2570" x2="2570" y1="370" y2="270"/>
</g>
<g cb-classname="PointStatusIndicator" cb-indicator-type="alarm" cb-source="Wp-1IZ-sBY" id="2CF" visibility="hidden">
<text baseline-shift="-50%" cb-classname="GraphicTextEntity" class="algorithm" fill="#000000" font-family="MS Shell Dlg" font-size="20" id="2Ch" text-anchor="middle" x="2495" y="240">
A
</text>
</g>
<g cb-classname="PointStatusIndicator" cb-indicator-type="ingraphic" cb-source="o0-en9-dZJ" id="2QO" visibility="visible">
<text baseline-shift="-50%" cb-classname="GraphicTextEntity" class="algorithm" fill="#000000" font-family="MS Shell Dlg" font-size="20" id="2Q4" text-anchor="middle" x="2545" y="240">
G
</text>
</g>
<g cb-classname="DynamicText" cb-labeled="false" cb-pin-name="pbU" cb-source="Zt-dcg-EAc" class="algorithm" id="2QC" text-anchor="middle">
<text cb-classname="GraphicTextEntity" class="algorithm" fill="black" font-family="arial" font-size="20" font-style="normal" font-weight="normal" id="2Qn" text-anchor="middle" text-decoration="normal" x="2520" y="210"/>
</g>
<g baseline-shift="-100%" cb-anchor-x="2540" cb-anchor-y="390" cb-classname="PointReferences" cb-max-width="160" cb-originator="true" cb-source="4g-wO9-Ooc" class="signal" id="2QV" text-anchor="start">
<text baseline-shift="-100%" cb-classname="GraphicTextEntity" class="algorithm" id="2Ql" text-anchor="start" x="2540" y="390">
REF: Point not
</text>
<text baseline-shift="-100%" cb-classname="GraphicTextEntity" class="algorithm" id="1NVT" text-anchor="start" x="2540" y="415">
found in database
</text>
<text baseline-shift="-100%" cb-classname="GraphicTextEntity" class="algorithm" id="1NVH" text-anchor="start" x="2540" y="440">
(01TE338-SEL)
</text>
</g>
<g baseline-shift="0%" cb-anchor-x="2520" cb-anchor-y="170" cb-classname="PointDescription" cb-content="extended" cb-labeled="false" cb-max-width="240" cb-source="cJ-t15-H2q" class="algorithm" id="2Qu" text-anchor="middle">
<text baseline-shift="0%" cb-classname="GraphicTextEntity" class="algorithm" id="2QK" text-anchor="middle" x="2520" y="145">
DESC: Point not found in
</text>
<text baseline-shift="0%" cb-classname="GraphicTextEntity" class="algorithm" id="8Hn" text-anchor="middle" x="2520" y="170">
database (01TE338-SEL)
</text>
</g>
</g>
<g cb-alg-oDes="NO" cb-alg-ofP="01TBC-T2ARE" cb-algorithm-id="008" cb-classname="ExternalPointInterface" cb-function-name="INPUT" id="35l">
<ellipse cb-classname="GraphicEllipseEntity" class="algorithm" cx="850" cy="2150" id="35u" rx="50" ry="50"/>
<rect cb-classname="GraphicRectangleEntity" class="algorithm" height="100" id="35K" width="40" x="760" y="2100"/>
<line cb-classname="GraphicLineEntity" class="algorithm" id="35F" x1="760" x2="800" y1="2150" y2="2150"/>
<g cb-classname="ControlPin" cb-pin-name="zD-LCl-L4r" id="35h">
<line cb-classname="GraphicLineEntity" class="signalline" id="3rO" x1="900" x2="930" y1="2150" y2="2150"/>
<g cb-classname="DynamicText" cb-source="EU-PrB-OwL0" class="signal" id="3r4" text-anchor="start">
<text cb-classname="GraphicTextEntity" class="signal" fill="black" font-style="normal" font-weight="normal" id="3rC" text-anchor="start" text-decoration="normal" x="914" y="2147"/>
</g>
<g cb-classname="SignalSegment" id="1BFc">
<g cb-classname="SignalConnection" cb-graphic-line="$1190$" cb-input-pin="$VaHN$" id="1BhM"/>
<line cb-classname="GraphicLineEntity" class="signalline" id="1Bho" stroke="#1e12bf" stroke-dasharray="5,4" x1="930" x2="1270" y1="2150" y2="2150"/>
</g>
</g>
<g cb-classname="PointStatusIndicator" cb-indicator-type="Highway" cb-source="tD-J55-GcY" id="3rn" visibility="hidden">
<line cb-classname="GraphicLineEntity" class="algorithmline" id="3rV" x1="800" x2="850" y1="2150" y2="2100"/>
<line cb-classname="GraphicLineEntity" class="algorithmline" id="3rl" x1="850" x2="900" y1="2100" y2="2150"/>
<line cb-classname="GraphicLineEntity" class="algorithmline" id="3ru" x1="900" x2="850" y1="2150" y2="2200"/>
<line cb-classname="GraphicLineEntity" class="algorithmline" id="3rK" x1="850" x2="800" y1="2200" y2="2150"/>
</g>
<g cb-classname="PointStatusIndicator" cb-indicator-type="hardware" cb-source="cJ-t15-H2q" id="3rF" visibility="hidden">
<line cb-classname="GraphicLineEntity" class="algorithmline" id="3rh" x1="800" x2="900" y1="2100" y2="2100"/>
<line cb-classname="GraphicLineEntity" class="algorithmline" id="3dO" x1="900" x2="900" y1="2100" y2="2200"/>
<line cb-classname="GraphicLineEntity" class="algorithmline" id="3d4" x1="900" x2="800" y1="2200" y2="2200"/>
</g>
<g cb-classname="PointStatusIndicator" cb-indicator-type="alarm" cb-source="zD-LCl-L4r" id="3dC" visibility="hidden">
<text cb-classname="GraphicTextEntity" class="algorithm" fill="#000000" font-family="arial" font-size="20" id="3dn" x="770" y="2135">
A
</text>
</g>
<g cb-classname="PointStatusIndicator" cb-indicator-type="ingraphic" cb-source="EU-zj3-ez3" id="3dV" visibility="hidden">
<text cb-classname="GraphicTextEntity" class="algorithm" fill="#000000" font-family="Arial" font-size="20" id="3dl" x="770" y="2185">
G
</text>
</g>
<g baseline-shift="-50%" cb-anchor-x="750" cb-anchor-y="2164" cb-classname="PointDescription" cb-content="extended" cb-labeled="false" cb-max-width="220" cb-source="tD-J55-GcY" class="algorithm" id="3du" text-anchor="end">
<text baseline-shift="-50%" cb-classname="GraphicTextEntity" class="algorithm" id="3dK" text-anchor="end" x="750" y="2152">
DESC: Point not found in
</text>
<text baseline-shift="-50%" cb-classname="GraphicTextEntity" class="algorithm" id="1HhH" text-anchor="end" x="750" y="2177">
database (01TBC-T2ARE)
</text>
</g>
<g cb-classname="DynamicText" cb-labeled="false" cb-pin-name="UDe" cb-source="98-UiW-3L6" class="algorithm" id="3dF" text-anchor="start">
<text baseline-shift="0%" cb-classname="GraphicTextEntity" class="algorithm" fill="black" font-family="arial" font-size="20" font-style="normal" font-weight="normal" id="3dh" text-anchor="start" text-decoration="normal" x="920" y="2120"/>
</g>
<g baseline-shift="-100%" cb-anchor-x="920" cb-anchor-y="2160" cb-classname="PointReferences" cb-max-width="230" cb-originator="true" cb-source="H1-nCL-tNk" class="signal" id="3mO" text-anchor="start">
<text baseline-shift="-100%" cb-classname="GraphicTextEntity" class="algorithm" id="3m4" text-anchor="start" x="920" y="2160">
REF: Point not found in
</text>
<text baseline-shift="-100%" cb-classname="GraphicTextEntity" class="algorithm" id="1NlK" text-anchor="start" x="920" y="2185">
database (01TBC-T2ARE)
</text>
</g>
</g>
<g cb-alg-3etg="98" cb-alg-AX4="0" cb-alg-DPQyP="RETRIGGABLE" cb-alg-Jk4e="1.000000" cb-alg-esM="$325$cb-alg-out$" cb-alg-nkhg="2" cb-alg-zmnh="POSITIVE" cb-algorithm-id="015" cb-classname="ControlAlgorithm" cb-function-name="ONESHOT" cb-modify-id="00000005" id="1BKM">
<g cb-classname="ControlPin" cb-pin-name="NA-mbp-BNC" id="1BKK">
<line cb-classname="GraphicLineEntity" class="signalline" id="1BKU" x1="1270" x2="1290" y1="2150" y2="2150"/>
<polygon cb-classname="GraphicPolygonEntity" class="signal" id="1BKJ" points="1290,2150 1279,2146 1279,2154"/>
<g cb-classname="DynamicText" cb-source="Wp-nBN-rUkr" class="signal" id="1BKe" text-anchor="end">
<text baseline-shift="5%" cb-classname="GraphicTextEntity" class="signal" fill="black" font-style="normal" font-weight="normal" id="1BKO" text-anchor="end" text-decoration="normal" x="1291" y="2137"/>
</g>
</g>
<g cb-classname="ControlPin" cb-pin-name="o0-en9-dZJ" id="1BKc">
<line cb-classname="GraphicLineEntity" class="signalline" id="1BKT" x1="1330" x2="1350" y1="2150" y2="2150"/>
<g cb-classname="DynamicText" cb-source="Zt-70W-TSoc" class="signal" id="1BKH">
<text baseline-shift="5%" cb-classname="GraphicTextEntity" class="signal" fill="black" font-style="normal" font-weight="normal" id="1BFo" text-decoration="normal" x="1342" y="2139"/>
</g>
<g cb-classname="SignalSegment" id="1BhK">
<g cb-classname="SignalConnection" cb-graphic-line="$1195$" cb-input-pin="$Nn$" id="1BhO"/>
<line cb-classname="GraphicLineEntity" class="signalline" id="1Bhe" stroke="#1e12bf" stroke-dasharray="5,4" x1="1350" x2="1650" y1="2150" y2="2150"/>
</g>
</g>
<rect cb-classname="GraphicRectangleEntity" class="algorithm" height="40" id="1BFM" width="40" x="1290" y="2130"/>
<line cb-classname="GraphicLineEntity" class="algorithmline" id="1BFK" x1="1293" x2="1303" y1="2160" y2="2160"/>
<line cb-classname="GraphicLineEntity" class="algorithmline" id="1BFU" x1="1303" x2="1303" y1="2160" y2="2140"/>
<line cb-classname="GraphicLineEntity" class="algorithmline" id="1BFJ" x1="1303" x2="1317" y1="2140" y2="2140"/>
<line cb-classname="GraphicLineEntity" class="algorithmline" id="1BFe" x1="1317" x2="1317" y1="2140" y2="2160"/>
<line cb-classname="GraphicLineEntity" class="algorithmline" id="1BFO" x1="1317" x2="1327" y1="2160" y2="2160"/>
<g cb-classname="DynamicText" cb-labeled="true" cb-source="76-lqD-Azh3" class="algorithm" id="1Bhc" text-anchor="start">
<text cb-classname="GraphicTextEntity" class="algorithm" fill="black" font-style="normal" font-weight="normal" id="1BhT" text-anchor="start" text-decoration="normal" x="1280" y="2110"/>
</g>
</g>
<g cb-alg-SOA="01TBC-T2MRE" cb-alg-Sgul="NO" cb-algorithm-id="009" cb-classname="ExternalPointInterface" cb-function-name="INPUT" id="3mK">
<ellipse cb-classname="GraphicEllipseEntity" class="algorithm" cx="850" cy="1900" id="3mF" rx="50" ry="50"/>
<rect cb-classname="GraphicRectangleEntity" class="algorithm" height="100" id="3mh" width="40" x="760" y="1850"/>
<line cb-classname="GraphicLineEntity" class="algorithm" id="3wO" x1="760" x2="800" y1="1900" y2="1900"/>
<g cb-classname="ControlPin" cb-pin-name="98-UiW-3L6" id="3w4">
<line cb-classname="GraphicLineEntity" class="signalline" id="3wC" x1="900" x2="930" y1="1900" y2="1900"/>
<g cb-classname="DynamicText" cb-source="H1-9Wl-iCKw" class="signal" id="3wn" text-anchor="start">
<text cb-classname="GraphicTextEntity" class="signal" fill="black" font-style="normal" font-weight="normal" id="3wV" text-anchor="start" text-decoration="normal" x="914" y="1897"/>
</g>
<g cb-classname="SignalSegment" id="1HhK">
<line cb-classname="GraphicLineEntity" class="signalline" id="1HhU" stroke="#1e12bf" stroke-dasharray="5,4" x1="930" x2="1450" y1="1900" y2="1900"/>
<g cb-classname="SignalSegment" id="1HhJ">
<line cb-classname="GraphicLineEntity" class="signalline" id="1Hhe" stroke="#1e12bf" stroke-dasharray="5,4" x1="1450" x2="1450" y1="1900" y2="2130"/>
<g cb-classname="SignalSegment" id="1HhO">
<line cb-classname="GraphicLineEntity" class="signalline" id="1Hhc" stroke="#1e12bf" stroke-dasharray="5,4" x1="1450" x2="1650" y1="2130" y2="2130"/>
<g cb-classname="SignalConnection" cb-graphic-line="$1097$" cb-input-pin="$h7$" id="1HhT"/>
</g>
</g>
</g>
</g>
<g cb-classname="PointStatusIndicator" cb-indicator-type="Highway" cb-source="76-lqD-N1u" id="3wl" visibility="hidden">
<line cb-classname="GraphicLineEntity" class="algorithmline" id="3wu" x1="800" x2="850" y1="1900" y2="1850"/>
<line cb-classname="GraphicLineEntity" class="algorithmline" id="3wK" x1="850" x2="900" y1="1850" y2="1900"/>
<line cb-classname="GraphicLineEntity" class="algorithmline" id="3wF" x1="900" x2="850" y1="1900" y2="1950"/>
<line cb-classname="GraphicLineEntity" class="algorithmline" id="3wh" x1="850" x2="800" y1="1950" y2="1900"/>
</g>
<g cb-classname="PointStatusIndicator" cb-indicator-type="hardware" cb-source="EU-zj3-ez3" id="3CO" visibility="hidden">
<line cb-classname="GraphicLineEntity" class="algorithmline" id="3C4" x1="800" x2="900" y1="1850" y2="1850"/>
<line cb-classname="GraphicLineEntity" class="algorithmline" id="3CC" x1="900" x2="900" y1="1850" y2="1950"/>
<line cb-classname="GraphicLineEntity" class="algorithmline" id="3Cn" x1="900" x2="800" y1="1950" y2="1950"/>
</g>
<g cb-classname="PointStatusIndicator" cb-indicator-type="alarm" cb-source="98-UiW-3L6" id="3CV" visibility="hidden">
<text cb-classname="GraphicTextEntity" class="algorithm" fill="#000000" font-family="arial" font-size="20" id="3Cl" x="770" y="1885">
A
</text>
</g>
<g cb-classname="PointStatusIndicator" cb-indicator-type="ingraphic" cb-source="H1-nCL-tNk" id="3Cu" visibility="hidden">
<text cb-classname="GraphicTextEntity" class="algorithm" fill="#000000" font-family="Arial" font-size="20" id="3CK" x="770" y="1935">
G
</text>
</g>
<g baseline-shift="-50%" cb-anchor-x="750" cb-anchor-y="1914" cb-classname="PointDescription" cb-content="extended" cb-labeled="false" cb-max-width="220" cb-source="76-lqD-N1u" class="algorithm" id="3CF" text-anchor="end">
<text baseline-shift="-50%" cb-classname="GraphicTextEntity" class="algorithm" id="3Ch" text-anchor="end" x="750" y="1902">
DESC: Point not found in
</text>
<text baseline-shift="-50%" cb-classname="GraphicTextEntity" class="algorithm" id="1BOM" text-anchor="end" x="750" y="1927">
database (01TBC-T2MRE)
</text>
</g>
<g cb-classname="DynamicText" cb-labeled="false" cb-pin-name="R7y" cb-source="ij-4wo-Ten" class="algorithm" id="3QO" text-anchor="start">
<text baseline-shift="0%" cb-classname="GraphicTextEntity" class="algorithm" fill="black" font-family="arial" font-size="20" font-style="normal" font-weight="normal" id="3Q4" text-anchor="start" text-decoration="normal" x="920" y="1870"/>
</g>
<g baseline-shift="-100%" cb-anchor-x="920" cb-anchor-y="1910" cb-classname="PointReferences" cb-max-width="230" cb-originator="true" cb-source="Wp-1IZ-sBY" class="signal" id="3QC" text-anchor="start">
<text baseline-shift="-100%" cb-classname="GraphicTextEntity" class="algorithm" id="3Qn" text-anchor="start" x="920" y="1910">
REF: Point not found in
</text>
<text baseline-shift="-100%" cb-classname="GraphicTextEntity" class="algorithm" id="1Nle" text-anchor="start" x="920" y="1935">
database (01TBC-T2MRE)
</text>
</g>
</g>
<g cb-alg-T0x5="NO" cb-alg-Ten="01TBC-T2PLW" cb-algorithm-id="00c" cb-classname="ExternalPointInterface" cb-function-name="INPUT" id="4mC">
<ellipse cb-classname="GraphicEllipseEntity" class="algorithm" cx="850" cy="1770" id="4mn" rx="50" ry="50"/>
<rect cb-classname="GraphicRectangleEntity" class="algorithm" height="100" id="4mV" width="40" x="760" y="1720"/>
<line cb-classname="GraphicLineEntity" class="algorithm" id="4ml" x1="760" x2="800" y1="1770" y2="1770"/>
<g cb-classname="ControlPin" cb-pin-name="76-lqD-N1u" id="4mu">
<line cb-classname="GraphicLineEntity" class="signalline" id="4mK" x1="900" x2="930" y1="1770" y2="1770"/>
<g cb-classname="DynamicText" cb-source="ij-12S-NJSp" class="signal" id="4mF" text-anchor="start">
<text cb-classname="GraphicTextEntity" class="signal" fill="black" font-style="normal" font-weight="normal" id="4mh" text-anchor="start" text-decoration="normal" x="914" y="1767"/>
</g>
<g cb-classname="SignalSegment" id="4Qu">
<line cb-classname="GraphicLineEntity" class="signalline" id="4QK" stroke="#1e12bf" stroke-dasharray="5,4" x1="930" x2="1490" y1="1770" y2="1770"/>
<g cb-classname="SignalSegment" id="4QF">
<line cb-classname="GraphicLineEntity" class="signalline" id="4Qh" stroke="#1e12bf" stroke-dasharray="5,4" x1="1490" x2="1490" y1="1770" y2="2050"/>
<g cb-classname="SignalSegment" id="4NO">
<line cb-classname="GraphicLineEntity" class="signalline" id="4N4" stroke="#1e12bf" stroke-dasharray="5,4" x1="1490" x2="1650" y1="2050" y2="2050"/>
<g cb-classname="SignalConnection" cb-graphic-line="$491$" cb-input-pin="$ZG$" id="4NC"/>
</g>
</g>
</g>
</g>
<g cb-classname="PointStatusIndicator" cb-indicator-type="Highway" cb-source="Wp-1IZ-sBY" id="4wO" visibility="hidden">
<line cb-classname="GraphicLineEntity" class="algorithmline" id="4w4" x1="800" x2="850" y1="1770" y2="1720"/>
<line cb-classname="GraphicLineEntity" class="algorithmline" id="4wC" x1="850" x2="900" y1="1720" y2="1770"/>
<line cb-classname="GraphicLineEntity" class="algorithmline" id="4wn" x1="900" x2="850" y1="1770" y2="1820"/>
<line cb-classname="GraphicLineEntity" class="algorithmline" id="4wV" x1="850" x2="800" y1="1820" y2="1770"/>
</g>
<g cb-classname="PointStatusIndicator" cb-indicator-type="hardware" cb-source="98-UiW-3L6" id="4wl" visibility="hidden">
<line cb-classname="GraphicLineEntity" class="algorithmline" id="4wu" x1="800" x2="900" y1="1720" y2="1720"/>
<line cb-classname="GraphicLineEntity" class="algorithmline" id="4wK" x1="900" x2="900" y1="1720" y2="1820"/>
<line cb-classname="GraphicLineEntity" class="algorithmline" id="4wF" x1="900" x2="800" y1="1820" y2="1820"/>
</g>
<g cb-classname="PointStatusIndicator" cb-indicator-type="alarm" cb-source="76-lqD-N1u" id="4wh" visibility="hidden">
<text cb-classname="GraphicTextEntity" class="algorithm" fill="#000000" font-family="arial" font-size="20" id="4CO" x="770" y="1755">
A
</text>
</g>
<g cb-classname="PointStatusIndicator" cb-indicator-type="ingraphic" cb-source="ij-4wo-Ten" id="4C4" visibility="hidden">
<text cb-classname="GraphicTextEntity" class="algorithm" fill="#000000" font-family="Arial" font-size="20" id="4CC" x="770" y="1805">
G
</text>
</g>
<g baseline-shift="-50%" cb-anchor-x="750" cb-anchor-y="1784" cb-classname="PointDescription" cb-content="extended" cb-labeled="false" cb-max-width="220" cb-source="Wp-1IZ-sBY" class="algorithm" id="4Cn" text-anchor="end">
<text baseline-shift="-50%" cb-classname="GraphicTextEntity" class="algorithm" id="4CV" text-anchor="end" x="750" y="1772">
DESC: Point not found in
</text>
<text baseline-shift="-50%" cb-classname="GraphicTextEntity" class="algorithm" id="1BOU" text-anchor="end" x="750" y="1797">
database (01TBC-T2PLW)
</text>
</g>
<g cb-classname="DynamicText" cb-labeled="false" cb-pin-name="V3T" cb-source="o0-en9-dZJ" class="algorithm" id="4Cl" text-anchor="start">
<text baseline-shift="0%" cb-classname="GraphicTextEntity" class="algorithm" fill="black" font-family="arial" font-size="20" font-style="normal" font-weight="normal" id="4Cu" text-anchor="start" text-decoration="normal" x="920" y="1740"/>
</g>
<g baseline-shift="-100%" cb-anchor-x="920" cb-anchor-y="1780" cb-classname="PointReferences" cb-max-width="230" cb-originator="true" cb-source="Zt-dcg-EAc" class="signal" id="4CK" text-anchor="start">
<text baseline-shift="-100%" cb-classname="GraphicTextEntity" class="algorithm" id="4CF" text-anchor="start" x="920" y="1780">
REF: Point not found in
</text>
<text baseline-shift="-100%" cb-classname="GraphicTextEntity" class="algorithm" id="1NlT" text-anchor="start" x="920" y="1805">
database (01TBC-T2PLW)
</text>
</g>
</g>
<g cb-alg-aDW="$1171$cb-alg-out$" cb-alg-afPQ="01CV302-AUTO" cb-alg-mDW="$357$cb-alg-out$" cb-alg-mTmn="01CV302-MODE" cb-alg-pAI="$452$cb-alg-out$" cb-algorithm-id="001" cb-classname="ControlAlgorithm" cb-function-name="MAMODE" id="6m">
<rect cb-classname="GraphicRectangleEntity" class="algorithm" height="140" id="6w" width="140" x="1670" y="2040"/>
<text baseline-shift="-50%" cb-classname="GraphicTextEntity" class="algorithm" fill="#000000" font-family="MS Shell Dlg" font-size="18" id="6C" text-anchor="middle" x="1740" y="2110">
MAMODE
</text>
<g cb-classname="ControlPin" cb-pin-name="ij-4wo-6nR" id="6Q">
<line cb-classname="GraphicLineEntity" class="signalline" id="6N" x1="1650" x2="1670" y1="2050" y2="2050"/>
<polygon cb-classname="GraphicPolygonEntity" class="signal" id="7H" points="1670,2050 1659,2044 1659,2055"/>
<g cb-classname="DynamicText" cb-source="EU-PrB-OwL0" class="signal" id="7B" text-anchor="end">
<text cb-classname="GraphicTextEntity" class="signal" fill="black" font-style="normal" font-weight="normal" id="75" text-anchor="end" text-decoration="normal" x="1655" y="2047"/>
</g>
</g>
<g cb-classname="ControlPin" cb-pin-name="tD-J55-9RS" id="7r">
<line cb-classname="GraphicLineEntity" class="signalline" id="7d" x1="1650" x2="1670" y1="2070" y2="2070"/>
<polygon cb-classname="GraphicPolygonEntity" class="signal" id="7m" points="1670,2070 1659,2064 1659,2075"/>
<g cb-classname="DynamicText" cb-source="4g-3gT-nyFc" class="signal" id="7w" text-anchor="end">
<text cb-classname="GraphicTextEntity" class="signal" fill="black" font-style="normal" font-weight="normal" id="7C" text-anchor="end" text-decoration="normal" x="1655" y="2067"/>
</g>
</g>
<g cb-classname="ControlPin" cb-pin-name="cJ-t15-wiB" id="7Q">
<line cb-classname="GraphicLineEntity" class="signalline" id="7N" x1="1650" x2="1670" y1="2090" y2="2090"/>
<polygon cb-classname="GraphicPolygonEntity" class="signal" id="8H" points="1670,2090 1659,2084 1659,2095"/>
<g cb-classname="DynamicText" cb-source="ij-12S-NJSp" class="signal" id="8B" text-anchor="end">
<text cb-classname="GraphicTextEntity" class="signal" fill="black" font-style="normal" font-weight="normal" id="85" text-anchor="end" text-decoration="normal" x="1655" y="2087"/>
</g>
</g>
<g cb-classname="ControlPin" cb-pin-name="Wp-1IZ-KU0" id="8r">
<line cb-classname="GraphicLineEntity" class="signalline" id="8d" x1="1650" x2="1670" y1="2110" y2="2110"/>
<polygon cb-classname="GraphicPolygonEntity" class="signal" id="8m" points="1670,2110 1659,2104 1659,2115"/>
<g cb-classname="DynamicText" cb-source="tD-OxO-B51I" class="signal" id="8w" text-anchor="end">
<text cb-classname="GraphicTextEntity" class="signal" fill="black" font-style="normal" font-weight="normal" id="8C" text-anchor="end" text-decoration="normal" x="1655" y="2107"/>
</g>
</g>
<g cb-classname="ControlPin" cb-pin-name="98-UiW-14c" id="8Q">
<line cb-classname="GraphicLineEntity" class="signalline" id="8N" x1="1650" x2="1670" y1="2130" y2="2130"/>
<polygon cb-classname="GraphicPolygonEntity" class="signal" id="9H" points="1670,2130 1659,2124 1659,2135"/>
<g cb-classname="DynamicText" cb-source="cJ-gsY-x1rk" class="signal" id="9B" text-anchor="end">
<text cb-classname="GraphicTextEntity" class="signal" fill="black" font-style="normal" font-weight="normal" id="95" text-anchor="end" text-decoration="normal" x="1655" y="2127"/>
</g>
</g>
<g cb-classname="ControlPin" cb-pin-name="NA-mbp-zhj" id="9r">
<line cb-classname="GraphicLineEntity" class="signalline" id="9d" x1="1650" x2="1670" y1="2150" y2="2150"/>
<polygon cb-classname="GraphicPolygonEntity" class="signal" id="9m" points="1670,2150 1659,2144 1659,2155"/>
<g cb-classname="DynamicText" cb-source="Wp-nBN-rUkr" class="signal" id="9w" text-anchor="end">
<text cb-classname="GraphicTextEntity" class="signal" fill="black" font-style="normal" font-weight="normal" id="9C" text-anchor="end" text-decoration="normal" x="1655" y="2147"/>
</g>
</g>
<g cb-classname="ControlPin" cb-pin-name="o0-en9-ZnpY" id="9Q">
<line cb-classname="GraphicLineEntity" class="signalline" id="9N" x1="1650" x2="1670" y1="2170" y2="2170"/>
<polygon cb-classname="GraphicPolygonEntity" class="signal" id="1HO" points="1670,2170 1659,2164 1659,2175"/>
<g cb-classname="DynamicText" cb-source="98-Y0B-l8e5" class="signal" id="1H4" text-anchor="end">
<text cb-classname="GraphicTextEntity" class="signal" fill="black" font-style="normal" font-weight="normal" id="1HC" text-anchor="end" text-decoration="normal" x="1655" y="2167"/>
</g>
</g>
<g cb-classname="ControlPin" cb-pin-name="H1-nCL-yNke" id="1Hn">
<line cb-classname="GraphicLineEntity" class="signalline" id="1HV" x1="1810" x2="1830" y1="2080" y2="2080"/>
<g cb-classname="DynamicText" cb-source="76-yst-SzGj" class="signal" id="1Hl" text-anchor="start">
<text cb-classname="GraphicTextEntity" class="signal" fill="black" font-style="normal" font-weight="normal" id="1Hu" text-anchor="start" text-decoration="normal" x="1824" y="2077"/>
</g>
<g cb-classname="SignalSegment" id="35O">
<line cb-classname="GraphicLineEntity" class="signalline" id="354" stroke="#1e12bf" stroke-dasharray="5,4" x1="1830" x2="2080" y1="2080" y2="2080"/>
<g cb-classname="SignalConnection" cb-graphic-line="$321$" cb-input-pin="$16R$" id="35C"/>
</g>
</g>
<g cb-classname="ControlPin" cb-pin-name="ij-4wo-GJr" id="1HK">
<line cb-classname="GraphicLineEntity" class="signalline" id="1HF" x1="1810" x2="1830" y1="2100" y2="2100"/>
<g cb-classname="DynamicText" cb-source="Wp-nBN-rUkr" class="signal" id="1Hh" text-anchor="start">
<text cb-classname="GraphicTextEntity" class="signal" fill="black" font-style="normal" font-weight="normal" id="1BO" text-anchor="start" text-decoration="normal" x="1824" y="2097"/>
</g>
</g>
<g cb-classname="ControlPin" cb-pin-name="o0-en9-iGp" id="1B4">
<line cb-classname="GraphicLineEntity" class="signalline" id="1BC" x1="1810" x2="1830" y1="2120" y2="2120"/>
<g cb-classname="DynamicText" cb-source="Zt-70W-TSoc" class="signal" id="1Bn" text-anchor="start">
<text cb-classname="GraphicTextEntity" class="signal" fill="black" font-style="normal" font-weight="normal" id="1BV" text-anchor="start" text-decoration="normal" x="1824" y="2117"/>
</g>
</g>
<g cb-classname="ControlPin" cb-pin-name="4g-wO9-otkc" id="1Bl">
<line cb-classname="GraphicLineEntity" class="signalline" id="1Bu" x1="1810" x2="1830" y1="2140" y2="2140"/>
<g cb-classname="DynamicText" cb-source="cJ-gsY-x1rk" class="signal" id="1BK" text-anchor="start">
<text cb-classname="GraphicTextEntity" class="signal" fill="black" font-style="normal" font-weight="normal" id="1BF" text-anchor="start" text-decoration="normal" x="1824" y="2137"/>
</g>
<g cb-classname="SignalSegment" id="25F">
<line cb-classname="GraphicLineEntity" class="signalline" id="25h" visibility="visible" x1="1830" x2="2190" y1="2140" y2="2140"/>
<g cb-classname="SignalSegment" id="2r4">
<line cb-classname="GraphicLineEntity" class="signalline" id="2rC" x1="2190" x2="2330" y1="2140" y2="2280"/>
<g cb-classname="SignalConnection" cb-graphic-line="$232$" cb-input-pin="$5CU$" id="2wO"/>
</g>
</g>
</g>
<g cb-classname="DynamicText" cb-labeled="false" cb-source="tD-J55-LEHI" class="algorithm" id="8BV" text-anchor="start">
<text cb-classname="GraphicTextEntity" class="algorithm" fill="black" font-style="normal" font-weight="normal" id="8Bl" text-anchor="start" text-decoration="normal" x="1930" y="2180"/>
</g>
</g>
<g cb-alg-Kx="$65$cb-alg-auto$" cb-algorithm-id="007" cb-classname="ExternalPointInterface" cb-function-name="OUTPUT" id="2NC">
<ellipse cb-classname="GraphicEllipseEntity" class="algorithm" cx="2160" cy="2080" id="2Nn" rx="50" ry="50"/>
<rect cb-classname="GraphicRectangleEntity" class="algorithm" height="100" id="2NV" width="40" x="2210" y="2030"/>
<line cb-classname="GraphicLineEntity" class="algorithm" id="2Nl" x1="2210" x2="2250" y1="2080" y2="2080"/>
<g cb-classname="ControlPin" cb-pin-name="98-UiW-Wn" id="2Nu">
<line cb-classname="GraphicLineEntity" class="signalline" id="2NK" x1="2080" x2="2110" y1="2080" y2="2080"/>
<polygon cb-classname="GraphicPolygonEntity" class="signal" id="2NF" points="2110,2080 2099,2074 2099,2085"/>
<g cb-classname="DynamicText" cb-source="cJ-gsY-x1rk" class="signal" id="2Nh" text-anchor="end">
<text cb-classname="GraphicTextEntity" class="signal" fill="black" font-style="normal" font-weight="normal" id="3HO" text-anchor="end" text-decoration="normal" x="2095" y="2077"/>
</g>
</g>
<g cb-classname="PointStatusIndicator" cb-indicator-type="highway" cb-source="NA-mbp-BN" id="3H4" visibility="hidden">
<line cb-classname="GraphicLineEntity" class="algorithmline" id="3HC" x1="2110" x2="2160" y1="2080" y2="2030"/>
<line cb-classname="GraphicLineEntity" class="algorithmline" id="3Hn" x1="2160" x2="2210" y1="2030" y2="2080"/>
<line cb-classname="GraphicLineEntity" class="algorithmline" id="3HV" x1="2210" x2="2160" y1="2080" y2="2130"/>
<line cb-classname="GraphicLineEntity" class="algorithmline" id="3Hl" x1="2160" x2="2110" y1="2130" y2="2080"/>
</g>
<g cb-classname="PointStatusIndicator" cb-indicator-type="hardware" cb-source="o0-en9-0B" id="3Hu" visibility="hidden">
<line cb-classname="GraphicLineEntity" class="algorithmline" id="3HK" x1="2210" x2="2110" y1="2030" y2="2030"/>
<line cb-classname="GraphicLineEntity" class="algorithmline" id="3HF" x1="2110" x2="2110" y1="2030" y2="2130"/>
<line cb-classname="GraphicLineEntity" class="algorithmline" id="3Hh" x1="2110" x2="2210" y1="2130" y2="2130"/>
</g>
<g cb-classname="PointStatusIndicator" cb-indicator-type="alarm" cb-source="4g-wO9-vi" id="3BO" visibility="visible">
<text cb-classname="GraphicTextEntity" class="algorithm" fill="#000000" font-family="Arial" font-size="20" id="3B4" x="2220" y="2115">
A
</text>
</g>
<g cb-classname="PointStatusIndicator" cb-indicator-type="ingraphic" cb-source="cJ-t15-2S" id="3BC" visibility="visible">
<text cb-classname="GraphicTextEntity" class="algorithm" fill="#000000" font-family="Arial" font-size="20" id="3Bn" x="2220" y="2065">
G
</text>
</g>
<g cb-classname="DynamicText" cb-labeled="false" cb-pin-name="zz" cb-source="NA-mbp-BN" class="algorithm" id="3BV" text-anchor="end">
<text baseline-shift="0%" cb-classname="GraphicTextEntity" class="algorithm" fill="black" font-family="arial" font-size="20" font-style="normal" font-weight="normal" id="3Bl" text-anchor="end" text-decoration="normal" x="2085" y="2055"/>
</g>
<g baseline-shift="-100%" cb-anchor-x="2085" cb-anchor-y="2090" cb-classname="PointReferences" cb-max-width="130" cb-originator="false" cb-source="zD-LCl-2r" class="signal" id="3Bu" text-anchor="end">
<text baseline-shift="-100%" cb-classname="GraphicTextEntity" class="algorithm" id="3BK" text-anchor="end" x="2085" y="2090">
REF: Point not
</text>
<text baseline-shift="-100%" cb-classname="GraphicTextEntity" class="algorithm" id="1NVc" text-anchor="end" x="2085" y="2115">
found in
</text>
<text baseline-shift="-100%" cb-classname="GraphicTextEntity" class="algorithm" id="1Nuo" text-anchor="end" x="2085" y="2140">
database
</text>
<text baseline-shift="-100%" cb-classname="GraphicTextEntity" class="algorithm" id="1NuM" text-anchor="end" x="2085" y="2165">
(01CV302-AUTO)
</text>
</g>
<g baseline-shift="-50%" cb-anchor-x="2265" cb-anchor-y="2095" cb-classname="PointDescription" cb-content="extended" cb-labeled="false" cb-max-width="150" cb-source="EU-zj3-0W" class="algorithm" id="3BF" text-anchor="start">
<text baseline-shift="-50%" cb-classname="GraphicTextEntity" class="algorithm" id="3Bh" text-anchor="start" x="2265" y="2058">
DESC: Point not
</text>
<text baseline-shift="-50%" cb-classname="GraphicTextEntity" class="algorithm" id="8Hh" text-anchor="start" x="2265" y="2083">
found in
</text>
<text baseline-shift="-50%" cb-classname="GraphicTextEntity" class="algorithm" id="15Oo" text-anchor="start" x="2265" y="2108">
database
</text>
<text baseline-shift="-50%" cb-classname="GraphicTextEntity" class="algorithm" id="15OM" text-anchor="start" x="2265" y="2133">
(01CV302-AUTO)
</text>
</g>
</g>
<g cb-alg-oDes="NO" cb-alg-ofP="01SF001" cb-algorithm-id="00d" cb-classname="ExternalPointInterface" cb-function-name="INPUT" id="8Bh">
<ellipse cb-classname="GraphicEllipseEntity" class="algorithm" cx="1880" cy="320" id="85O" rx="50" ry="50"/>
<rect cb-classname="GraphicRectangleEntity" class="algorithm" height="40" id="854" width="100" x="1830" y="230"/>
<line cb-classname="GraphicLineEntity" class="algorithm" id="85C" x1="1880" x2="1880" y1="270" y2="230"/>
<g cb-classname="ControlPin" cb-pin-name="zD-LCl-L4r" id="85n">
<line cb-classname="GraphicLineEntity" class="signalline" id="85V" x1="1880" x2="1880" y1="370" y2="400"/>
<g cb-classname="DynamicText" cb-source="EU-PrB-OwL0" class="signal" id="85l" text-anchor="end">
<text cb-classname="GraphicTextEntity" class="signal" fill="black" font-style="normal" font-weight="normal" id="85u" text-anchor="end" text-decoration="normal" transform="translate(1872,387)rotate(-90)"/>
</g>
<g cb-classname="SignalSegment" id="8mh">
<g cb-classname="SignalConnection" cb-graphic-line="$862$" cb-input-pin="$8E7$" id="8wn"/>
<line cb-classname="GraphicLineEntity" class="signalline" id="8wC" x1="1880" x2="1880" y1="400" y2="570"/>
</g>
</g>
<g cb-classname="PointStatusIndicator" cb-indicator-type="Highway" cb-source="tD-J55-GcY" id="85K" visibility="visible">
<line cb-classname="GraphicLineEntity" class="algorithmline" id="85F" x1="1880" x2="1830" y1="270" y2="320"/>
<line cb-classname="GraphicLineEntity" class="algorithmline" id="85h" x1="1830" x2="1880" y1="320" y2="370"/>
<line cb-classname="GraphicLineEntity" class="algorithmline" id="8rO" x1="1880" x2="1930" y1="370" y2="320"/>
<line cb-classname="GraphicLineEntity" class="algorithmline" id="8r4" x1="1930" x2="1880" y1="320" y2="270"/>
</g>
<g cb-classname="PointStatusIndicator" cb-indicator-type="hardware" cb-source="cJ-t15-H2q" id="8rC" visibility="hidden">
<line cb-classname="GraphicLineEntity" class="algorithmline" id="8rn" x1="1830" x2="1830" y1="270" y2="370"/>
<line cb-classname="GraphicLineEntity" class="algorithmline" id="8rV" x1="1830" x2="1930" y1="370" y2="370"/>
<line cb-classname="GraphicLineEntity" class="algorithmline" id="8rl" x1="1930" x2="1930" y1="370" y2="270"/>
</g>
<g cb-classname="PointStatusIndicator" cb-indicator-type="alarm" cb-source="zD-LCl-L4r" id="8ru" visibility="hidden">
<text baseline-shift="-50%" cb-classname="GraphicTextEntity" class="algorithm" fill="#000000" font-family="MS Shell Dlg" font-size="20" id="8rK" text-anchor="middle" x="1855" y="240">
A
</text>
</g>
<g cb-classname="PointStatusIndicator" cb-indicator-type="ingraphic" cb-source="EU-zj3-ez3" id="8rF" visibility="visible">
<text baseline-shift="-50%" cb-classname="GraphicTextEntity" class="algorithm" fill="#000000" font-family="MS Shell Dlg" font-size="20" id="8rh" text-anchor="middle" x="1905" y="240">
G
</text>
</g>
<g cb-classname="DynamicText" cb-labeled="false" cb-pin-name="cNX" cb-source="tD-J55-GcY" class="algorithm" id="8dO" text-anchor="middle">
<text cb-classname="GraphicTextEntity" class="algorithm" fill="black" font-family="arial" font-size="20" font-style="normal" font-weight="normal" id="8d4" text-anchor="middle" text-decoration="normal" x="1880" y="210"/>
</g>
<g baseline-shift="-100%" cb-anchor-x="1900" cb-anchor-y="390" cb-classname="PointReferences" cb-max-width="160" cb-originator="true" cb-source="98-UiW-3L6" class="signal" id="8dC" text-anchor="start">
<text baseline-shift="-100%" cb-classname="GraphicTextEntity" class="algorithm" id="8dn" text-anchor="start" x="1900" y="390">
REF: Point not
</text>
<text baseline-shift="-100%" cb-classname="GraphicTextEntity" class="algorithm" id="1NuK" text-anchor="start" x="1900" y="415">
found in database
</text>
<text baseline-shift="-100%" cb-classname="GraphicTextEntity" class="algorithm" id="1NuU" text-anchor="start" x="1900" y="440">
(01SF001)
</text>
</g>
<g baseline-shift="0%" cb-anchor-x="1880" cb-anchor-y="170" cb-classname="PointDescription" cb-content="extended" cb-labeled="false" cb-max-width="240" cb-source="H1-nCL-tNk" class="algorithm" id="8dV" text-anchor="middle">
<text baseline-shift="0%" cb-classname="GraphicTextEntity" class="algorithm" id="8dl" text-anchor="middle" x="1880" y="145">
DESC: Point not found in
</text>
<text baseline-shift="0%" cb-classname="GraphicTextEntity" class="algorithm" id="8du" text-anchor="middle" x="1880" y="170">
database (01SF001)
</text>
</g>
</g>
<g cb-alg-6XUW="0.000000" cb-alg-6blT="0.000000" cb-alg-6ghT="5" cb-alg-PgUW="600" cb-alg-PhlP="2.500000" cb-alg-Z-0="280" cb-alg-Z-0Q="0.000000" cb-alg-Z-0i="0.000000" cb-alg-Z-0x="0.000000" cb-alg-Z-8="355" cb-alg-Z-F="305" cb-alg-Z-H="280" cb-alg-Z-N="0.000000" cb-alg-Z-O="0.000000" cb-alg-Z-b="355" cb-alg-Z-c="0.000000" cb-alg-Z-o="0.000000" cb-alg-btsY="1.000000" cb-alg-ef0="$819$cb-alg-out$" cb-alg-mbl5="105" cb-alg-w-0="0" cb-alg-w-0Q="0.000000" cb-alg-w-0i="0.000000" cb-alg-w-0x="0.000000" cb-alg-w-8="772" cb-alg-w-F="370" cb-alg-w-H="268" cb-alg-w-N="0.000000" cb-alg-w-O="0.000000" cb-alg-w-b="1000" cb-alg-w-c="0.000000" cb-alg-w-o="0.000000" cb-algorithm-id="00e" cb-classname="ControlAlgorithm" cb-function-name="FUNCTION" cb-modify-id="00000003" id="8dK">
<g cb-classname="ControlPin" cb-pin-name="ij-4wo-rBC" id="8dF">
<line cb-classname="GraphicLineEntity" class="signalline" id="8dh" x1="1880" x2="1880" y1="570" y2="590"/>
<polygon cb-classname="GraphicPolygonEntity" class="signal" id="8mO" points="1880,590 1884,579 1876,579"/>
<g cb-classname="DynamicText" cb-source="EU-PrB-OwL0" class="signal" id="8m4">
<text baseline-shift="5%" cb-classname="GraphicTextEntity" class="signal" fill="black" font-style="normal" font-weight="normal" id="8mC" text-decoration="normal" transform="translate(1873,569)rotate(-90)"/>
</g>
</g>
<g cb-classname="ControlPin" cb-pin-name="tD-J55-GcY" id="8mn">
<line cb-classname="GraphicLineEntity" class="signalline" id="8mV" x1="1880" x2="1880" y1="650" y2="670"/>
<g cb-classname="DynamicText" cb-source="98-Y0B-l8e5" class="signal" id="8ml" text-anchor="end">
<text baseline-shift="5%" cb-classname="GraphicTextEntity" class="signal" fill="black" font-style="normal" font-weight="normal" id="8mu" text-anchor="end" text-decoration="normal" transform="translate(1874,648)rotate(-90)"/>
</g>
<g cb-classname="SignalSegment" id="8Nl">
<g cb-classname="SignalConnection" cb-graphic-line="$898$" cb-input-pin="$TOa$" id="8Nh"/>
<line cb-classname="GraphicLineEntity" class="signalline" id="8NF" x1="1880" x2="1880" y1="670" y2="1090"/>
</g>
</g>
<rect cb-classname="GraphicRectangleEntity" class="algorithm" height="60" id="8mK" width="100" x="1830" y="590"/>
<text baseline-shift="-50%" cb-classname="GraphicTextEntity" class="algorithm" font-size="28" id="8mF" text-anchor="middle" x="1880" y="607">
f(x)
</text>
<g cb-anchor-x="1160" cb-anchor-y="720" cb-classname="FunctionGeneratorGraph" cb-height="310" cb-width="530" class="algorithm" id="8wV">
<rect cb-classname="GraphicRectangleEntity" class="algorithm" height="310" id="8wl" width="530" x="1160" y="410"/>
<text baseline-shift="0%" cb-classname="GraphicTextEntity" id="8wu" text-anchor="end" x="1160" y="720">
0
</text>
<text baseline-shift="-100%" cb-classname="GraphicTextEntity" id="8wK" text-anchor="end" x="1160" y="410">
600
</text>
<text baseline-shift="-100%" cb-classname="GraphicTextEntity" id="8wF" x="1160" y="720">
0
</text>
<text baseline-shift="-100%" cb-classname="GraphicTextEntity" id="8wh" text-anchor="end" x="1690" y="720">
1000
</text>
<line cb-classname="GraphicLineEntity" id="8CO" x1="1160" x2="1160" y1="720" y2="575"/>
<line cb-classname="GraphicLineEntity" id="8C4" x1="1160" x2="1302" y1="575" y2="575"/>
<line cb-classname="GraphicLineEntity" id="8CC" x1="1302" x2="1356" y1="575" y2="562"/>
<line cb-classname="GraphicLineEntity" id="1BuJ" x1="1356" x2="1568" y1="562" y2="536"/>
<line cb-classname="GraphicLineEntity" id="1Bue" x1="1568" x2="1689" y1="536" y2="536"/>
<line cb-classname="GraphicLineEntity" id="1BuO" x1="1689" x2="1690" y1="536" y2="536"/>
</g>
</g>
<g cb-alg-6XUW="0.000000" cb-alg-PA1o="ON" cb-alg-PgUW="600" cb-alg-PhlP="2.500000" cb-alg-PhsY="$158$cb-alg-tout$" cb-alg-a6h="01SF001-DMD" cb-alg-ef0="$189$cb-alg-out$" cb-alg-ef05="1.000000" cb-alg-ef0D="0.000000" cb-alg-ef85="1.000000" cb-alg-ef8D="0.000000" cb-alg-efF5="1.000000" cb-alg-efFD="0.000000" cb-alg-efH="$847$cb-alg-out$" cb-alg-efH5="1.000000" cb-alg-efHD="0.000000" cb-alg-mbl5="84" cb-algorithm-id="00f" cb-classname="ControlAlgorithm" cb-function-name="SUM" cb-modify-id="00000003" id="8Cn">
<g cb-classname="ControlPin" cb-pin-name="ij-4wo-rBC" id="8CV">
<line cb-classname="GraphicLineEntity" class="signalline" id="8Cl" x1="1840" x2="1840" y1="1090" y2="1110"/>
<polygon cb-classname="GraphicPolygonEntity" class="signal" id="8Cu" points="1840,1110 1844,1099 1836,1099"/>
<g cb-classname="DynamicText" cb-source="EU-PrB-OwL0" class="signal" id="8CK">
<text baseline-shift="5%" cb-classname="GraphicTextEntity" class="signal" fill="black" font-style="normal" font-weight="normal" id="8CF" text-decoration="normal" transform="translate(1840,1074)rotate(-90)"/>
</g>
</g>
<g cb-classname="ControlPin" cb-pin-name="tD-J55-gTG" id="8Ch">
<line cb-classname="GraphicLineEntity" class="signalline" id="8QO" x1="1880" x2="1880" y1="1090" y2="1110"/>
<polygon cb-classname="GraphicPolygonEntity" class="signal" id="8Q4" points="1880,1110 1884,1099 1876,1099"/>
<g cb-classname="DynamicText" cb-source="4g-3gT-nyFc" class="signal" id="8QC">
<text baseline-shift="5%" cb-classname="GraphicTextEntity" class="signal" fill="black" font-style="normal" font-weight="normal" id="8Qn" text-decoration="normal" transform="translate(1880,1074)rotate(-90)"/>
</g>
</g>
<g cb-classname="ControlPin" cb-pin-name="cJ-t15-H2q" id="8QV">
<line cb-classname="GraphicLineEntity" class="signalline" id="8Ql" x1="1860" x2="1860" y1="1170" y2="1190"/>
<g cb-classname="DynamicText" cb-source="NA-MKx-keQ0" class="signal" id="8Qu" text-anchor="end">
<text baseline-shift="5%" cb-classname="GraphicTextEntity" class="signal" fill="black" font-style="normal" font-weight="normal" id="8QK" text-anchor="end" text-decoration="normal" transform="translate(1856,1170)rotate(-90)"/>
</g>
<g cb-classname="SignalSegment" id="1Hno">
<line cb-classname="GraphicLineEntity" class="signalline" id="1HnM" stroke="green" stroke-dasharray="5,4" x1="1860" x2="1860" y1="1190" y2="1260"/>
<g cb-classname="SignalSegment" id="1HnK">
<line cb-classname="GraphicLineEntity" class="signalline" id="1HnU" stroke="green" stroke-dasharray="5,4" x1="1860" x2="2460" y1="1260" y2="1260"/>
<g cb-classname="SignalSegment" id="1HnJ">
<line cb-classname="GraphicLineEntity" class="signalline" id="1Hne" stroke="green" stroke-dasharray="5,4" x1="2460" x2="2460" y1="1260" y2="1350"/>
<g cb-classname="SignalConnection" cb-graphic-line="$1035$" cb-input-pin="$aYN$" id="1HnO"/>
</g>
</g>
</g>
</g>
<rect cb-classname="GraphicRectangleEntity" class="algorithm" height="60" id="8QF" width="100" x="1810" y="1110"/>
<line cb-classname="GraphicLineEntity" class="algorithmline" id="8Qh" x1="1875" x2="1845" y1="1120" y2="1120"/>
<line cb-classname="GraphicLineEntity" class="algorithmline" id="8NO" x1="1845" x2="1875" y1="1160" y2="1160"/>
<line cb-classname="GraphicLineEntity" class="algorithmline" id="8N4" x1="1875" x2="1875" y1="1120" y2="1125"/>
<line cb-classname="GraphicLineEntity" class="algorithmline" id="8NC" x1="1875" x2="1875" y1="1160" y2="1155"/>
<line cb-classname="GraphicLineEntity" class="algorithmline" id="8Nn" x1="1845" x2="1860" y1="1120" y2="1140"/>
<line cb-classname="GraphicLineEntity" class="algorithmline" id="8NV" x1="1860" x2="1845" y1="1140" y2="1160"/>
</g>
<g cb-alg-6XUW="-100" cb-alg-8XyP="$873$cb-alg-out$" cb-alg-8gh5="0.166666" cb-alg-8ghD="0.000000" cb-alg-8ghT="100.000000" cb-alg-8gjT="0.000000" cb-alg-DPg="1.000000" cb-alg-DPj="0.000000" cb-alg-NtUW="NORMAL" cb-alg-PByF="NORMAL" cb-alg-PgUW="100.000000" cb-alg-PhlP="2.500000" cb-alg-PhsY="$1046$cb-alg-tout$" cb-alg-WfrqKT="DISABLE" cb-alg-Wgnhb9="DISABLED" cb-alg-Whwc="0.000000" cb-alg-Xq="$261$cb-alg-out$" cb-alg-Xqg="0.166666" cb-alg-XqhT="100.000000" cb-alg-Xqhm5="0.000000" cb-alg-Xqj="0.000000" cb-alg-XqjT="0.000000" cb-alg-Xslst="1.000000" cb-alg-XtzP="NORMAL" cb-alg-aGjY9="0.000000" cb-alg-efPD="ENABLE" cb-alg-efh5="10.000000" cb-alg-etzP="NORMAL" cb-alg-k6UW="NONE" cb-alg-k6UW1="INT" cb-alg-kihY="DIRECT" cb-alg-mAdc="0.000000" cb-alg-mQyP="SINGLE" cb-alg-mQyPn="SINGLE" cb-alg-mSsJ="100.000000" cb-alg-mbl5="38" cb-alg-mhlP="0.15" cb-alg-msh21A="PURE GAIN" cb-alg-mslst="0.000000" cb-alg-mtzP="NORMAL" cb-algorithm-id="004" cb-classname="ControlAlgorithm" cb-function-name="PID" cb-modify-id="00000001" id="1mF">
<rect cb-classname="GraphicRectangleEntity" class="algorithm" height="150" id="1mh" width="140" x="2420" y="1370"/>
<path cb-classname="GraphicCurveEntity" class="algorithm" d="M 2502 1456 C 2476 1462, 2507 1499, 2478 1507" id="1wO"/>
<polygon cb-classname="GraphicPolygonEntity" class="algorithm" id="1w4" points="2490,1380 2460,1430 2520,1430"/>
<g cb-classname="ControlPin" cb-pin-name="EU-zj3-CY9J" id="1wC">
<line cb-classname="GraphicLineEntity" class="signalline" id="1wn" x1="2460" x2="2460" y1="1350" y2="1370"/>
<polygon cb-classname="GraphicPolygonEntity" class="signal" id="1wV" points="2460,1370 2465,1359 2454,1359"/>
<g cb-classname="DynamicText" cb-source="Zt-70W-TSoc" class="signal" id="1wl" text-anchor="start">
<text cb-classname="GraphicTextEntity" class="signal" fill="black" font-style="normal" font-weight="normal" id="1wu" text-anchor="start" text-decoration="normal" transform="translate(2457,1355)rotate(-90)"/>
</g>
</g>
<g cb-classname="ControlPin" cb-pin-name="4g-wO9-Cq" id="1wK">
<line cb-classname="GraphicLineEntity" class="signalline" id="1wF" x1="2520" x2="2520" y1="1350" y2="1370"/>
<polygon cb-classname="GraphicPolygonEntity" class="signal" id="1wh" points="2520,1370 2525,1359 2514,1359"/>
<g cb-classname="DynamicText" cb-source="76-yst-SzGj" class="signal" id="1CO" text-anchor="start">
<text cb-classname="GraphicTextEntity" class="signal" fill="black" font-style="normal" font-weight="normal" id="1C4" text-anchor="start" text-decoration="normal" transform="translate(2517,1355)rotate(-90)"/>
</g>
</g>
<g cb-classname="ControlPin" cb-pin-name="ij-4wo-Ten" id="1CC">
<line cb-classname="GraphicLineEntity" class="signalline" id="1Cn" x1="2490" x2="2490" y1="1520" y2="1540"/>
<g cb-classname="DynamicText" cb-source="Wp-nBN-rUkr" class="signal" id="1CV" text-anchor="end">
<text cb-classname="GraphicTextEntity" class="signal" fill="black" font-style="normal" font-weight="normal" id="1Cl" text-anchor="end" text-decoration="normal" transform="translate(2487,1534)rotate(-90)"/>
</g>
<g cb-classname="SignalSegment" id="1HuT">
<g cb-classname="SignalConnection" cb-graphic-line="$1071$" cb-input-pin="$qY2C$" id="1HKK"/>
<line cb-classname="GraphicLineEntity" class="signalline" id="1HKM" stroke="green" stroke-dasharray="5,4" x1="2490" x2="2490" y1="1540" y2="1850"/>
</g>
</g>
<g cb-classname="ControlPin" cb-pin-name="o0-en9-SrrS" id="1Cu">
<line cb-classname="GraphicLineEntity" class="signalline" id="1CK" x1="2560" x2="2580" y1="1440" y2="1440"/>
<g cb-classname="DynamicText" cb-source="Zt-70W-TSoc" class="signal" id="1CF" text-anchor="start">
<text cb-classname="GraphicTextEntity" class="signal" fill="black" font-style="normal" font-weight="normal" id="1Ch" text-anchor="start" text-decoration="normal" x="2574" y="1437"/>
</g>
</g>
<text baseline-shift="-50%" cb-classname="GraphicTextEntity" class="algorithm" fill="#000000" font-family="MS Shell Dlg" font-size="18" id="1QO" text-anchor="middle" x="2538" y="1459">
d
</text>
<text baseline-shift="-50%" cb-classname="GraphicTextEntity" class="algorithm" fill="#000000" font-family="MS Shell Dlg" font-size="18" id="1Q4" text-anchor="middle" x="2538" y="1486">
dt
</text>
<line cb-classname="GraphicLineEntity" class="algorithm" id="1QC" x1="2528" x2="2550" y1="1478" y2="1478"/>
<line cb-classname="GraphicLineEntity" class="algorithm" id="1Qn" x1="2420" x2="2560" y1="1440" y2="1440"/>
<line cb-classname="GraphicLineEntity" class="algorithm" id="1QV" stroke-dasharray="solid line" x1="2465" x2="2465" y1="1440" y2="1520"/>
<line cb-classname="GraphicLineEntity" class="algorithm" id="1Ql" x1="2515" x2="2515" y1="1440" y2="1519"/>
<line cb-classname="GraphicLineEntity" class="algorithm" id="1Qu" x1="2432" x2="2452" y1="1484" y2="1464"/>
<line cb-classname="GraphicLineEntity" class="algorithm" id="1QK" x1="2439" x2="2452" y1="1478" y2="1494"/>
<line cb-classname="GraphicLineEntity" class="algorithm" id="1QF" x1="2432" x2="2432" y1="1463" y2="1494"/>
<g cb-classname="DynamicText" cb-labeled="true" cb-source="EU-zj3-UI3T" class="algorithm" id="9Bu" text-anchor="start">
<text cb-classname="GraphicTextEntity" class="algorithm" fill="black" font-style="normal" font-weight="normal" id="9BK" text-anchor="start" text-decoration="normal" x="2640" y="1380"/>
</g>
<g cb-classname="DynamicText" cb-labeled="true" cb-source="tD-J55-99Svi" class="algorithm" id="9BF" text-anchor="start">
<text cb-classname="GraphicTextEntity" class="algorithm" fill="black" font-style="normal" font-weight="normal" id="9Bh" text-anchor="start" text-decoration="normal" x="2640" y="1400"/>
</g>
<g cb-classname="DynamicText" cb-labeled="true" cb-source="98-UiW-Wn6s" class="algorithm" id="95O" text-anchor="start">
<text cb-classname="GraphicTextEntity" class="algorithm" fill="black" font-style="normal" font-weight="normal" id="954" text-anchor="start" text-decoration="normal" x="2640" y="1430"/>
</g>
</g>
<g cb-alg-sBY="01CV301-CMD" cb-alg-sb0W="NO" cb-algorithm-id="010" cb-classname="ExternalPointInterface" cb-function-name="INPUT" id="95C">
<ellipse cb-classname="GraphicEllipseEntity" class="algorithm" cx="3290" cy="320" id="95n" rx="50" ry="50"/>
<rect cb-classname="GraphicRectangleEntity" class="algorithm" height="40" id="95V" width="100" x="3240" y="230"/>
<line cb-classname="GraphicLineEntity" class="algorithm" id="95l" x1="3290" x2="3290" y1="270" y2="230"/>
<g cb-classname="ControlPin" cb-pin-name="ij-4wo-Ten" id="95u">
<line cb-classname="GraphicLineEntity" class="signalline" id="95K" x1="3290" x2="3290" y1="370" y2="400"/>
<g cb-classname="DynamicText" cb-source="Wp-nBN-rUkr" class="signal" id="95F" text-anchor="end">
<text cb-classname="GraphicTextEntity" class="signal" fill="black" font-style="normal" font-weight="normal" id="95h" text-anchor="end" text-decoration="normal" transform="translate(3282,387)rotate(-90)"/>
</g>
<g cb-classname="SignalSegment" id="1HOM">
<g cb-classname="SignalConnection" cb-graphic-line="$1004$" cb-input-pin="$aJP$" id="1HOe"/>
<line cb-classname="GraphicLineEntity" class="signalline" id="1HOJ" x1="3290" x2="3290" y1="400" y2="900"/>
</g>
</g>
<g cb-classname="PointStatusIndicator" cb-indicator-type="Highway" cb-source="o0-en9-dZJ" id="9rO" visibility="hidden">
<line cb-classname="GraphicLineEntity" class="algorithmline" id="9r4" x1="3290" x2="3240" y1="270" y2="320"/>
<line cb-classname="GraphicLineEntity" class="algorithmline" id="9rC" x1="3240" x2="3290" y1="320" y2="370"/>
<line cb-classname="GraphicLineEntity" class="algorithmline" id="9rn" x1="3290" x2="3340" y1="370" y2="320"/>
<line cb-classname="GraphicLineEntity" class="algorithmline" id="9rV" x1="3340" x2="3290" y1="320" y2="270"/>
</g>
<g cb-classname="PointStatusIndicator" cb-indicator-type="hardware" cb-source="H1-nCL-tNk" id="9rl" visibility="hidden">
<line cb-classname="GraphicLineEntity" class="algorithmline" id="9ru" x1="3240" x2="3240" y1="270" y2="370"/>
<line cb-classname="GraphicLineEntity" class="algorithmline" id="9rK" x1="3240" x2="3340" y1="370" y2="370"/>
<line cb-classname="GraphicLineEntity" class="algorithmline" id="9rF" x1="3340" x2="3340" y1="370" y2="270"/>
</g>
<g cb-classname="PointStatusIndicator" cb-indicator-type="alarm" cb-source="ij-4wo-Ten" id="9rh" visibility="hidden">
<text baseline-shift="-50%" cb-classname="GraphicTextEntity" class="algorithm" fill="#000000" font-family="MS Shell Dlg" font-size="20" id="9dO" text-anchor="middle" x="3265" y="240">
A
</text>
</g>
<g cb-classname="PointStatusIndicator" cb-indicator-type="ingraphic" cb-source="Wp-1IZ-sBY" id="9d4" visibility="hidden">
<text baseline-shift="-50%" cb-classname="GraphicTextEntity" class="algorithm" fill="#000000" font-family="MS Shell Dlg" font-size="20" id="9dC" text-anchor="middle" x="3315" y="240">
G
</text>
</g>
<g cb-classname="DynamicText" cb-labeled="false" cb-pin-name="V3T" cb-source="o0-en9-dZJ" class="algorithm" id="9dn" text-anchor="middle">
<text cb-classname="GraphicTextEntity" class="algorithm" fill="black" font-family="arial" font-size="20" font-style="normal" font-weight="normal" id="9dV" text-anchor="middle" text-decoration="normal" x="3290" y="210"/>
</g>
<g baseline-shift="-100%" cb-anchor-x="3310" cb-anchor-y="390" cb-classname="PointReferences" cb-max-width="160" cb-originator="true" cb-source="Zt-dcg-EAc" class="signal" id="9dl" text-anchor="start">
<text baseline-shift="-100%" cb-classname="GraphicTextEntity" class="algorithm" id="9du" text-anchor="start" x="3310" y="390">
REF: Point not
</text>
<text baseline-shift="-100%" cb-classname="GraphicTextEntity" class="algorithm" id="1Nue" text-anchor="start" x="3310" y="415">
found in database
</text>
<text baseline-shift="-100%" cb-classname="GraphicTextEntity" class="algorithm" id="1NuO" text-anchor="start" x="3310" y="440">
(01CV301-CMD)
</text>
</g>
<g baseline-shift="0%" cb-anchor-x="3290" cb-anchor-y="170" cb-classname="PointDescription" cb-content="extended" cb-labeled="false" cb-max-width="240" cb-source="4g-wO9-Ooc" class="algorithm" id="9dK" text-anchor="middle">
<text baseline-shift="0%" cb-classname="GraphicTextEntity" class="algorithm" id="9dF" text-anchor="middle" x="3290" y="145">
DESC: Point not found in
</text>
<text baseline-shift="0%" cb-classname="GraphicTextEntity" class="algorithm" id="9dh" text-anchor="middle" x="3290" y="170">
database (01CV301-CMD)
</text>
</g>
</g>
<g cb-alg-T0x5="NO" cb-alg-Ten="01PT301-SEL" cb-algorithm-id="012" cb-classname="ExternalPointInterface" cb-function-name="INPUT" id="9CC">
<ellipse cb-classname="GraphicEllipseEntity" class="algorithm" cx="2910" cy="320" id="9Cn" rx="50" ry="50"/>
<rect cb-classname="GraphicRectangleEntity" class="algorithm" height="40" id="9CV" width="100" x="2860" y="230"/>
<line cb-classname="GraphicLineEntity" class="algorithm" id="9Cl" x1="2910" x2="2910" y1="270" y2="230"/>
<g cb-classname="ControlPin" cb-pin-name="76-lqD-N1u" id="9Cu">
<line cb-classname="GraphicLineEntity" class="signalline" id="9CK" x1="2910" x2="2910" y1="370" y2="400"/>
<g cb-classname="DynamicText" cb-source="ij-12S-NJSp" class="signal" id="9CF" text-anchor="end">
<text cb-classname="GraphicTextEntity" class="signal" fill="black" font-style="normal" font-weight="normal" id="9Ch" text-anchor="end" text-decoration="normal" transform="translate(2902,387)rotate(-90)"/>
</g>
<g cb-classname="SignalSegment" id="1HOO">
<line cb-classname="GraphicLineEntity" class="signalline" id="1HOc" x1="2910" x2="2910" y1="400" y2="710"/>
<g cb-classname="SignalSegment" id="1HOT">
<line cb-classname="GraphicLineEntity" class="signalline" id="1HOH" x1="2910" x2="3250" y1="710" y2="710"/>
<g cb-classname="SignalSegment" id="1H4o">
<line cb-classname="GraphicLineEntity" class="signalline" id="1H4M" x1="3250" x2="3250" y1="710" y2="900"/>
<g cb-classname="SignalConnection" cb-graphic-line="$1011$" cb-input-pin="$6S8$" id="1H4K"/>
</g>
</g>
</g>
</g>
<g cb-classname="PointStatusIndicator" cb-indicator-type="Highway" cb-source="Wp-1IZ-sBY" id="9QO" visibility="visible">
<line cb-classname="GraphicLineEntity" class="algorithmline" id="9Q4" x1="2910" x2="2860" y1="270" y2="320"/>
<line cb-classname="GraphicLineEntity" class="algorithmline" id="9QC" x1="2860" x2="2910" y1="320" y2="370"/>
<line cb-classname="GraphicLineEntity" class="algorithmline" id="9Qn" x1="2910" x2="2960" y1="370" y2="320"/>
<line cb-classname="GraphicLineEntity" class="algorithmline" id="9QV" x1="2960" x2="2910" y1="320" y2="270"/>
</g>
<g cb-classname="PointStatusIndicator" cb-indicator-type="hardware" cb-source="98-UiW-3L6" id="9Ql" visibility="hidden">
<line cb-classname="GraphicLineEntity" class="algorithmline" id="9Qu" x1="2860" x2="2860" y1="270" y2="370"/>
<line cb-classname="GraphicLineEntity" class="algorithmline" id="9QK" x1="2860" x2="2960" y1="370" y2="370"/>
<line cb-classname="GraphicLineEntity" class="algorithmline" id="9QF" x1="2960" x2="2960" y1="370" y2="270"/>
</g>
<g cb-classname="PointStatusIndicator" cb-indicator-type="alarm" cb-source="76-lqD-N1u" id="9Qh" visibility="visible">
<text baseline-shift="-50%" cb-classname="GraphicTextEntity" class="algorithm" fill="#000000" font-family="MS Shell Dlg" font-size="20" id="9NO" text-anchor="middle" x="2885" y="240">
A
</text>
</g>
<g cb-classname="PointStatusIndicator" cb-indicator-type="ingraphic" cb-source="ij-4wo-Ten" id="9N4" visibility="visible">
<text baseline-shift="-50%" cb-classname="GraphicTextEntity" class="algorithm" fill="#000000" font-family="MS Shell Dlg" font-size="20" id="9NC" text-anchor="middle" x="2935" y="240">
G
</text>
</g>
<g cb-classname="DynamicText" cb-labeled="false" cb-pin-name="teY" cb-source="Wp-1IZ-sBY" class="algorithm" id="9Nn" text-anchor="middle">
<text cb-classname="GraphicTextEntity" class="algorithm" fill="black" font-family="arial" font-size="20" font-style="normal" font-weight="normal" id="9NV" text-anchor="middle" text-decoration="normal" x="2910" y="210"/>
</g>
<g baseline-shift="-100%" cb-anchor-x="2930" cb-anchor-y="390" cb-classname="PointReferences" cb-max-width="160" cb-originator="true" cb-source="o0-en9-dZJ" class="signal" id="9Nl" text-anchor="start">
<text baseline-shift="-100%" cb-classname="GraphicTextEntity" class="algorithm" id="9Nu" text-anchor="start" x="2930" y="390">
REF: Point not
</text>
<text baseline-shift="-100%" cb-classname="GraphicTextEntity" class="algorithm" id="1NuH" text-anchor="start" x="2930" y="415">
found in database
</text>
<text baseline-shift="-100%" cb-classname="GraphicTextEntity" class="algorithm" id="1NKo" text-anchor="start" x="2930" y="440">
(01PT301-SEL)
</text>
</g>
<g baseline-shift="0%" cb-anchor-x="2910" cb-anchor-y="170" cb-classname="PointDescription" cb-content="extended" cb-labeled="false" cb-max-width="240" cb-source="Zt-dcg-EAc" class="algorithm" id="9NK" text-anchor="middle">
<text baseline-shift="0%" cb-classname="GraphicTextEntity" class="algorithm" id="9NF" text-anchor="middle" x="2910" y="145">
DESC: Point not found in
</text>
<text baseline-shift="0%" cb-classname="GraphicTextEntity" class="algorithm" id="9Nh" text-anchor="middle" x="2910" y="170">
database (01PT301-SEL)
</text>
</g>
</g>
<g cb-alg-3etg="82" cb-alg-JP4z="0.000000" cb-alg-esK="$922$cb-alg-out$" cb-alg-esKg="1.00" cb-alg-esKj="0.000000" cb-alg-esM="$972$cb-alg-out$" cb-alg-esMg="0.0033333" cb-alg-esMj="1" cb-alg-n6SB="ON" cb-alg-nUth="2.500000" cb-alg-nX4z="150" cb-algorithm-id="011" cb-classname="ControlAlgorithm" cb-function-name="MULTIPLY" cb-modify-id="00000003" id="9mO">
<g cb-classname="ControlPin" cb-pin-name="NA-mbp-BNC" id="9m4">
<line cb-classname="GraphicLineEntity" class="signalline" id="9mC" x1="3250" x2="3250" y1="900" y2="920"/>
<polygon cb-classname="GraphicPolygonEntity" class="signal" id="9mn" points="3250,920 3254,909 3246,909"/>
<g cb-classname="DynamicText" cb-source="Wp-nBN-rUkr" class="signal" id="9mV">
<text baseline-shift="5%" cb-classname="GraphicTextEntity" class="signal" fill="black" font-style="normal" font-weight="normal" id="9ml" text-decoration="normal" transform="translate(3248,899)rotate(-90)"/>
</g>
</g>
<g cb-classname="ControlPin" cb-pin-name="o0-en9-0Bt" id="9mu">
<line cb-classname="GraphicLineEntity" class="signalline" id="9mK" x1="3290" x2="3290" y1="900" y2="920"/>
<polygon cb-classname="GraphicPolygonEntity" class="signal" id="9mF" points="3290,920 3294,909 3286,909"/>
<g cb-classname="DynamicText" cb-source="98-Y0B-l8e5" class="signal" id="9mh">
<text baseline-shift="5%" cb-classname="GraphicTextEntity" class="signal" fill="black" font-style="normal" font-weight="normal" id="9wO" text-decoration="normal" transform="translate(3288,899)rotate(-90)"/>
</g>
</g>
<g cb-classname="ControlPin" cb-pin-name="H1-nCL-tNk" id="9w4">
<line cb-classname="GraphicLineEntity" class="signalline" id="9wC" x1="3270" x2="3270" y1="980" y2="1000"/>
<g cb-classname="DynamicText" cb-source="76-yst-SzGj" class="signal" id="9wn" text-anchor="end">
<text baseline-shift="5%" cb-classname="GraphicTextEntity" class="signal" fill="black" font-style="normal" font-weight="normal" id="9wV" text-anchor="end" text-decoration="normal" transform="translate(3264,979)rotate(-90)"/>
</g>
<g cb-classname="SignalSegment" id="1HCe">
<g cb-classname="SignalConnection" cb-graphic-line="$1028$" cb-input-pin="$MIiW$" id="1HCH"/>
<line cb-classname="GraphicLineEntity" class="signalline" id="1HCT" x1="3270" x2="3270" y1="1000" y2="1170"/>
</g>
</g>
<rect cb-classname="GraphicRectangleEntity" class="algorithm" height="60" id="9wl" width="100" x="3220" y="920"/>
<text baseline-shift="-50%" cb-classname="GraphicTextEntity" class="algorithm" font-size="33" id="9wu" text-anchor="middle" x="3270" y="945">
X
</text>
</g>
<g cb-alg-9U0B="1.000000" cb-alg-M-4="0.000000" cb-alg-M-5="0.000000" cb-alg-M-8="0" cb-alg-M-8s="0.000000" cb-alg-M-8u="0.000000" cb-alg-M-8v="0.000000" cb-alg-M-J="0.000000" cb-alg-M-P="100" cb-alg-M-U="0.000000" cb-alg-M-m="0.000000" cb-alg-M-r="105" cb-alg-M-v="0.000000" cb-alg-T0wW="105" cb-alg-g0w8="0.000000" cb-alg-gYY8="3" cb-alg-grDx="0.000000" cb-alg-i-4="0.000000" cb-alg-i-5="0.000000" cb-alg-i-8="0" cb-alg-i-8s="0.000000" cb-alg-i-8u="0.000000" cb-alg-i-8v="0.000000" cb-alg-i-J="0.000000" cb-alg-i-P="75" cb-alg-i-U="0.000000" cb-alg-i-m="0.000000" cb-alg-i-r="100" cb-alg-i-v="0.000000" cb-alg-nYDx="105" cb-alg-nbw3="2.500000" cb-alg-xO8="$950$cb-alg-out$" cb-algorithm-id="013" cb-classname="ControlAlgorithm" cb-function-name="FUNCTION" cb-modify-id="00000003" id="1H4U">
<g cb-classname="ControlPin" cb-pin-name="cJ-t15-2SV" id="1H4J">
<line cb-classname="GraphicLineEntity" class="signalline" id="1H4e" x1="3270" x2="3270" y1="1170" y2="1190"/>
<polygon cb-classname="GraphicPolygonEntity" class="signal" id="1H4O" points="3270,1190 3274,1179 3266,1179"/>
<g cb-classname="DynamicText" cb-source="ij-12S-NJSp" class="signal" id="1H4c">
<text baseline-shift="5%" cb-classname="GraphicTextEntity" class="signal" fill="black" font-style="normal" font-weight="normal" id="1H4T" text-decoration="normal" transform="translate(3263,1169)rotate(-90)"/>
</g>
</g>
<g cb-classname="ControlPin" cb-pin-name="Wp-1IZ-sBY" id="1H4H">
<line cb-classname="GraphicLineEntity" class="signalline" id="1HCo" x1="3270" x2="3270" y1="1250" y2="1270"/>
<g cb-classname="DynamicText" cb-source="o0-62r-Wn4m" class="signal" id="1HCM" text-anchor="end">
<text baseline-shift="5%" cb-classname="GraphicTextEntity" class="signal" fill="black" font-style="normal" font-weight="normal" id="1HCK" text-anchor="end" text-decoration="normal" transform="translate(3264,1248)rotate(-90)"/>
</g>
<g cb-classname="SignalSegment" id="1HKU">
<line cb-classname="GraphicLineEntity" class="signalline" id="1HKJ" x1="3270" x2="3270" y1="1270" y2="1700"/>
<g cb-classname="SignalSegment" id="1HKe">
<line cb-classname="GraphicLineEntity" class="signalline" id="1HKO" x1="3270" x2="2530" y1="1700" y2="1700"/>
<g cb-classname="SignalSegment" id="1HKc">
<line cb-classname="GraphicLineEntity" class="signalline" id="1HKT" x1="2530" x2="2530" y1="1700" y2="1850"/>
<g cb-classname="SignalConnection" cb-graphic-line="$1078$" cb-input-pin="$BOeH$" id="1HKH"/>
</g>
</g>
</g>
</g>
<rect cb-classname="GraphicRectangleEntity" class="algorithm" height="60" id="1HCU" width="100" x="3220" y="1190"/>
<text baseline-shift="-50%" cb-classname="GraphicTextEntity" class="algorithm" font-size="28" id="1HCJ" text-anchor="middle" x="3270" y="1207">
f(x)
</text>
<g cb-anchor-x="3470" cb-anchor-y="1570" cb-classname="FunctionGeneratorGraph" cb-height="400" cb-width="640" class="algorithm" id="1Hnc">
<rect cb-classname="GraphicRectangleEntity" class="algorithm" height="400" id="1HnT" width="640" x="3470" y="1170"/>
<text baseline-shift="0%" cb-classname="GraphicTextEntity" id="1HnH" text-anchor="end" x="3470" y="1570">
0
</text>
<text baseline-shift="-100%" cb-classname="GraphicTextEntity" id="1HVo" text-anchor="end" x="3470" y="1170">
105
</text>
<text baseline-shift="-100%" cb-classname="GraphicTextEntity" id="1HVM" x="3470" y="1570">
0
</text>
<text baseline-shift="-100%" cb-classname="GraphicTextEntity" id="1HVK" text-anchor="end" x="4110" y="1570">
100
</text>
<line cb-classname="GraphicLineEntity" id="1HVU" x1="3470" x2="3476" y1="1570" y2="1566"/>
<line cb-classname="GraphicLineEntity" id="1HVJ" x1="3476" x2="3946" y1="1566" y2="1192"/>
<line cb-classname="GraphicLineEntity" id="1HVe" x1="3946" x2="4103" y1="1192" y2="1173"/>
<line cb-classname="GraphicLineEntity" id="1BuU" x1="4103" x2="4110" y1="1173" y2="1170"/>
</g>
</g>
<g cb-alg-921l="84" cb-alg-AUCY="ON" cb-alg-Ag1q="2.500000" cb-alg-Aguk="$119$cb-alg-tout$" cb-alg-AlwZ="100.000000" cb-alg-Kx6D="0.000000" cb-alg-Kx6l="1.000000" cb-alg-Kx9="$1013$cb-alg-out$" cb-alg-Kx9D="0.000000" cb-alg-Kx9l="1.000000" cb-alg-KxWD="0.000000" cb-alg-KxWl="1.000000" cb-alg-Kxf="$158$cb-alg-out$" cb-alg-KxfD="0.000000" cb-alg-Kxfl="1.000000" cb-alg-p9wZ="0.000000" cb-algorithm-id="014" cb-classname="ControlAlgorithm" cb-function-name="SUM" cb-modify-id="00000003" id="1HVO">
<g cb-classname="ControlPin" cb-pin-name="o0-en9-0BV" id="1HVc">
<line cb-classname="GraphicLineEntity" class="signalline" id="1HVT" x1="2490" x2="2490" y1="1850" y2="1870"/>
<polygon cb-classname="GraphicPolygonEntity" class="signal" id="1HVH" points="2490,1870 2494,1859 2486,1859"/>
<g cb-classname="DynamicText" cb-source="98-Y0B-l8e5" class="signal" id="1Hlo">
<text baseline-shift="5%" cb-classname="GraphicTextEntity" class="signal" fill="black" font-style="normal" font-weight="normal" id="1HlM" text-decoration="normal" transform="translate(2490,1834)rotate(-90)"/>
</g>
</g>
<g cb-classname="ControlPin" cb-pin-name="H1-nCL-NOB" id="1HlK">
<line cb-classname="GraphicLineEntity" class="signalline" id="1HlU" x1="2530" x2="2530" y1="1850" y2="1870"/>
<polygon cb-classname="GraphicPolygonEntity" class="signal" id="1HlJ" points="2530,1870 2534,1859 2526,1859"/>
<g cb-classname="DynamicText" cb-source="NA-MKx-keQ0" class="signal" id="1Hle">
<text baseline-shift="5%" cb-classname="GraphicTextEntity" class="signal" fill="black" font-style="normal" font-weight="normal" id="1HlO" text-decoration="normal" transform="translate(2530,1834)rotate(-90)"/>
</g>
</g>
<g cb-classname="ControlPin" cb-pin-name="zD-LCl-L4r" id="1Hlc">
<line cb-classname="GraphicLineEntity" class="signalline" id="1HlT" x1="2510" x2="2510" y1="1930" y2="1950"/>
<g cb-classname="DynamicText" cb-source="EU-PrB-OwL0" class="signal" id="1HlH" text-anchor="end">
<text baseline-shift="5%" cb-classname="GraphicTextEntity" class="signal" fill="black" font-style="normal" font-weight="normal" id="1Huo" text-anchor="end" text-decoration="normal" transform="translate(2506,1930)rotate(-90)"/>
</g>
<g cb-classname="SignalSegment" id="1HFo">
<g cb-classname="SignalConnection" cb-graphic-line="$1083$" cb-input-pin="$ddj$" id="1HFJ"/>
<line cb-classname="GraphicLineEntity" class="signalline" id="1HFU" stroke="green" stroke-dasharray="5,4" x1="2510" x2="2510" y1="1950" y2="2250"/>
</g>
</g>
<rect cb-classname="GraphicRectangleEntity" class="algorithm" height="60" id="1HuM" width="100" x="2460" y="1870"/>
<line cb-classname="GraphicLineEntity" class="algorithmline" id="1HuK" x1="2525" x2="2495" y1="1880" y2="1880"/>
<line cb-classname="GraphicLineEntity" class="algorithmline" id="1HuU" x1="2495" x2="2525" y1="1920" y2="1920"/>
<line cb-classname="GraphicLineEntity" class="algorithmline" id="1HuJ" x1="2525" x2="2525" y1="1880" y2="1885"/>
<line cb-classname="GraphicLineEntity" class="algorithmline" id="1Hue" x1="2525" x2="2525" y1="1920" y2="1915"/>
<line cb-classname="GraphicLineEntity" class="algorithmline" id="1HuO" x1="2495" x2="2510" y1="1880" y2="1900"/>
<line cb-classname="GraphicLineEntity" class="algorithmline" id="1Huc" x1="2510" x2="2495" y1="1900" y2="1920"/>
</g>
<g cb-alg-6XUW="0.000000" cb-alg-6XjT="0.000000" cb-alg-Dg="MANUAL" cb-alg-J3lQ="0" cb-alg-J3lc="0" cb-alg-Nfv5="NORMAL" cb-alg-Ntwc="1" cb-alg-PByF="SOFT" cb-alg-PbuF="25" cb-alg-PgUW="100.000000" cb-alg-PgjT="0.000000" cb-alg-PhlP="2.500000" cb-alg-UGdP="NO" cb-alg-Un5K="BAD" cb-alg-XS6P="0.000000" cb-alg-XS6f="2.500000" cb-alg-Xh1s="YES" cb-alg-XhlP="100.000000" cb-alg-Xhlf="2.500000" cb-alg-XidP="4" cb-alg-a6h="01CV302-CMD" cb-alg-ef0="$1046$cb-alg-out$" cb-alg-ef05="1.000000" cb-alg-ef0D="0.000000" cb-alg-kSg="01CV302-MA" cb-alg-mbl5="10" cb-alg-mhnF="NO" cb-alg-qQrF="$65$cb-alg-mode$" cb-alg-qheP="5" cb-algorithm-id="002" cb-classname="ControlAlgorithm" cb-function-name="MASTATION" cb-modify-id="00000001" id="1Bh">
<polygon cb-classname="GraphicPolygonEntity" class="algorithm" id="15O" points="2390,2280 2330,2340 2390,2400 2450,2340"/>
<line cb-classname="GraphicLineEntity" class="algorithm" id="154" x1="2390" x2="2380" y1="2320" y2="2350"/>
<line cb-classname="GraphicLineEntity" class="algorithm" id="15C" x1="2390" x2="2400" y1="2320" y2="2350"/>
<line cb-classname="GraphicLineEntity" class="algorithm" id="15n" x1="2384" x2="2396" y1="2340" y2="2340"/>
<polygon cb-classname="GraphicPolygonEntity" class="algorithm" id="15V" points="2510,2280 2450,2340 2510,2400 2570,2340"/>
<line cb-classname="GraphicLineEntity" class="algorithm" id="15l" x1="2495" x2="2525" y1="2326" y2="2326"/>
<line cb-classname="GraphicLineEntity" class="algorithm" id="15u" x1="2510" x2="2510" y1="2326" y2="2356"/>
<ellipse cb-classname="GraphicEllipseEntity" class="algorithm" cx="2270" cy="2340" id="15K" rx="60" ry="60"/>
<line cb-classname="GraphicLineEntity" class="algorithm" id="15F" x1="2270" x2="2270" y1="2320" y2="2350"/>
<g cb-classname="ControlPin" cb-pin-name="H1-nCL-NOU" id="15h">
<line cb-classname="GraphicLineEntity" class="signalline" id="1rO" x1="2510" x2="2510" y1="2250" y2="2280"/>
<polygon cb-classname="GraphicPolygonEntity" class="signal" id="1r4" points="2510,2280 2515,2269 2504,2269"/>
<g cb-classname="DynamicText" cb-source="NA-MKx-keQ0" class="signal" id="1rC" text-anchor="start">
<text cb-classname="GraphicTextEntity" class="signal" fill="black" font-style="normal" font-weight="normal" id="1rn" text-anchor="start" text-decoration="normal" transform="translate(2507,2265)rotate(-90)"/>
</g>
</g>
<line cb-classname="GraphicLineEntity" class="signalline" id="1rV" x1="2270" x2="2270" y1="2430" y2="2400"/>
<polygon cb-classname="GraphicPolygonEntity" class="signal" id="1rl" points="2270,2400 2264,2410 2275,2410"/>
<line cb-classname="GraphicLineEntity" class="algorithm" id="1ru" x1="2510" x2="2510" y1="2400" y2="2430"/>
<line cb-classname="GraphicLineEntity" class="algorithm" id="1rK" x1="2510" x2="2270" y1="2430" y2="2430"/>
<g cb-classname="ControlPin" cb-pin-name="tD-J55-GcY" id="1rF">
<line cb-classname="GraphicLineEntity" class="signalline" id="1rh" x1="2510" x2="2510" y1="2430" y2="2450"/>
<g cb-classname="DynamicText" cb-source="98-Y0B-l8e5" class="signal" id="1dO" text-anchor="end">
<text cb-classname="GraphicTextEntity" class="signal" fill="black" font-style="normal" font-weight="normal" id="1d4" text-anchor="end" text-decoration="normal" transform="translate(2507,2444)rotate(-90)"/>
</g>
<g cb-classname="SignalSegment" id="2Bh">
<line cb-classname="GraphicLineEntity" class="signalline" id="1B4H" x1="2510" x2="2510" y1="2450" y2="2520"/>
<g cb-classname="SignalSegment" id="1BCo">
<line cb-classname="GraphicLineEntity" class="signalline" id="25O" x1="2510" x2="2510" y1="2520" y2="2640"/>
<g cb-classname="SignalConnection" cb-graphic-line="$220$" cb-input-pin="$BVe$" id="254"/>
<g cb-classname="SignalConnection" cb-graphic-line="$1123$" cb-input-pin="$qfRf$" id="1BCJ"/>
<line cb-classname="GraphicLineEntity" class="signalline" id="1BCU" x1="2510" x2="2770" y1="2520" y2="2520"/>
<ellipse cb-classname="GraphicEllipseEntity" class="signal" cx="2510" cy="2520" id="1BCe" rx="5" ry="5"/>
</g>
</g>
</g>
<ellipse cb-classname="GraphicEllipseEntity" class="algorithm" cx="2510" cy="2430" fill="black" id="1dC" rx="2" ry="2"/>
<g cb-classname="ControlPin" cb-pin-name="NA-mbp-rTF0" id="25n">
<line cb-classname="GraphicLineEntity" class="signalline" id="25V" x1="2330" x2="2360" y1="2280" y2="2310"/>
<polygon cb-classname="GraphicPolygonEntity" class="signal" id="25l" points="2360,2310 2355,2298 2348,2305"/>
<g cb-classname="DynamicText" cb-source="Wp-nBN-rUkr" class="signal" id="25u" text-anchor="end">
<text cb-classname="GraphicTextEntity" class="signal" fill="black" font-style="normal" font-weight="normal" id="25K" text-anchor="end" text-decoration="normal" transform="translate(2351,2297)rotate(45)"/>
</g>
</g>
<g cb-classname="DynamicText" cb-labeled="false" cb-source="EU-zj3-UiW" class="algorithm" id="8BC" text-anchor="start">
<text cb-classname="GraphicTextEntity" class="algorithm" fill="black" font-style="normal" font-weight="normal" id="8Bn" text-anchor="start" text-decoration="normal" x="2280" y="2450"/>
</g>
<g cb-classname="DynamicText" cb-labeled="false" cb-source="EU-zj3-ez3" class="algorithm" id="1HFe" text-anchor="start">
<text cb-classname="GraphicTextEntity" class="algorithm" fill="black" font-style="normal" font-weight="normal" id="1HFO" text-anchor="start" text-decoration="normal" x="2580" y="2330"/>
</g>
</g>
<g cb-alg-deks="0" cb-alg-huXX="01CV302" cb-alg-iS4="$119$cb-alg-out$" cb-algorithm-id="003" cb-classname="ControlAlgorithm" cb-function-name="FIELD" cb-modify-id="00000001" id="1dn">
<polygon cb-classname="GraphicPolygonEntity" class="algorithm" id="1dV" points="2430,2700 2470,2660 2550,2660 2590,2700"/>
<g cb-classname="ControlPin" cb-pin-name="NA-mbp-BNC" id="1dl">
<line cb-classname="GraphicLineEntity" class="signalline" id="1du" x1="2510" x2="2510" y1="2640" y2="2660"/>
<polygon cb-classname="GraphicPolygonEntity" class="signal" id="1dK" points="2510,2660 2515,2649 2504,2649"/>
<g cb-classname="DynamicText" cb-source="Wp-nBN-rUkr" class="signal" id="1dF" text-anchor="start">
<text cb-classname="GraphicTextEntity" class="signal" fill="black" font-style="normal" font-weight="normal" id="1dh" text-anchor="start" text-decoration="normal" transform="translate(2507,2645)rotate(-90)"/>
</g>
</g>
<g cb-classname="ControlPin" cb-pin-name="4g-wO9-ly4Q" id="1mV">
<line cb-classname="GraphicLineEntity" class="signalline" id="1ml" x1="2570" x2="2590" y1="2680" y2="2680"/>
<g cb-classname="DynamicText" cb-source="cJ-gsY-x1rk" class="signal" id="1mu" text-anchor="start">
<text cb-classname="GraphicTextEntity" class="signal" fill="black" font-style="normal" font-weight="normal" id="1mK" text-anchor="start" text-decoration="normal" x="2584" y="2677"/>
</g>
</g>
<g cb-classname="DynamicText" cb-labeled="false" cb-source="zD-LCl-9RYY" class="algorithm" id="8BO" text-anchor="start">
<text cb-classname="GraphicTextEntity" class="algorithm" fill="black" font-size="26" font-style="normal" font-weight="normal" id="8B4" text-anchor="start" text-decoration="normal" x="2440" y="2750"/>
</g>
<g baseline-shift="0%" cb-anchor-x="2520" cb-anchor-y="2870" cb-classname="PointDescription" cb-content="extended" cb-labeled="false" cb-max-width="150" cb-source="Zt-dcg-YtC6" class="algorithm" id="1HFT" text-anchor="middle">
<text baseline-shift="0%" cb-classname="GraphicTextEntity" class="algorithm" id="1HFH" text-anchor="middle" x="2520" y="2795">
DESC: Point not
</text>
<text baseline-shift="0%" cb-classname="GraphicTextEntity" class="algorithm" id="1Hho" text-anchor="middle" x="2520" y="2820">
found in
</text>
<text baseline-shift="0%" cb-classname="GraphicTextEntity" class="algorithm" id="1HhM" text-anchor="middle" x="2520" y="2845">
database
</text>
<text baseline-shift="0%" cb-classname="GraphicTextEntity" class="algorithm" id="1NKK" text-anchor="middle" x="2520" y="2870">
(01CV302)
</text>
</g>
</g>
<g cb-alg-deks="60" cb-alg-iS4="$119$cb-alg-out$" cb-alg-lT8g="0.5" cb-alg-lTmA="0.1" cb-alg-ofP="01TBC-HPSVCL" cb-algorithm-id="00a" cb-classname="ControlAlgorithm" cb-function-name="LOWMON" cb-modify-id="00000004" id="1BOe">
<g cb-classname="ControlPin" cb-pin-name="76-lqD-uka" id="1BOO">
<line cb-classname="GraphicLineEntity" class="signalline" id="1BOc" x1="2770" x2="2790" y1="2520" y2="2520"/>
<polygon cb-classname="GraphicPolygonEntity" class="signal" id="1BOT" points="2790,2520 2779,2516 2779,2524"/>
<g cb-classname="DynamicText" cb-source="zD-luk-Bdah" class="signal" id="1BOH" text-anchor="end">
<text baseline-shift="5%" cb-classname="GraphicTextEntity" class="signal" fill="black" font-style="normal" font-weight="normal" id="1B4o" text-anchor="end" text-decoration="normal" x="2787" y="2512"/>
</g>
</g>
<g cb-classname="ControlPin" cb-pin-name="EU-zj3-ez3" id="1B4M">
<line cb-classname="GraphicLineEntity" class="signalline" id="1B4K" x1="2870" x2="2890" y1="2520" y2="2520"/>
<g cb-classname="DynamicText" cb-source="tD-OxO-B51I" class="signal" id="1B4U">
<text baseline-shift="5%" cb-classname="GraphicTextEntity" class="signal" fill="black" font-style="normal" font-weight="normal" id="1B4J" text-decoration="normal" x="2885" y="2512"/>
</g>
<g cb-classname="SignalSegment" id="1BlO">
<g cb-classname="SignalConnection" cb-graphic-line="$1159$" cb-input-pin="$0iMd$" id="1Buo"/>
<line cb-classname="GraphicLineEntity" class="signalline" id="1BlH" stroke="#1e12bf" stroke-dasharray="5,4" x1="2890" x2="3180" y1="2520" y2="2520"/>
</g>
</g>
<rect cb-classname="GraphicRectangleEntity" class="algorithm" height="40" id="1B4e" width="80" x="2790" y="2500"/>
<line cb-classname="GraphicLineEntity" class="algorithmline" id="1B4O" x1="2838" x2="2818" y1="2500" y2="2540"/>
<line cb-classname="GraphicLineEntity" class="algorithmline" id="1B4c" x1="2842" x2="2822" y1="2500" y2="2540"/>
<text baseline-shift="-50%" cb-classname="GraphicTextEntity" class="algorithm" id="1B4T" text-anchor="middle" x="2855" y="2519">
L
</text>
<g cb-classname="DynamicText" cb-labeled="true" cb-source="tD-J55-OEeC" class="algorithm" id="1BCO" text-anchor="start">
<text cb-classname="GraphicTextEntity" class="algorithm" fill="black" font-style="normal" font-weight="normal" id="1BCc" text-anchor="start" text-decoration="normal" x="2760" y="2470"/>
</g>
</g>
<g cb-alg-rB="$1105$cb-alg-out$" cb-algorithm-id="00b" cb-classname="ExternalPointInterface" cb-function-name="OUTPUT" id="1BCT">
<ellipse cb-classname="GraphicEllipseEntity" class="algorithm" cx="3260" cy="2520" id="1BCH" rx="50" ry="50"/>
<rect cb-classname="GraphicRectangleEntity" class="algorithm" height="100" id="1Bno" width="40" x="3310" y="2470"/>
<line cb-classname="GraphicLineEntity" class="algorithm" id="1BnM" x1="3310" x2="3350" y1="2520" y2="2520"/>
<g cb-classname="ControlPin" cb-pin-name="76-lqD-uk" id="1BnK">
<line cb-classname="GraphicLineEntity" class="signalline" id="1BnU" x1="3180" x2="3210" y1="2520" y2="2520"/>
<polygon cb-classname="GraphicPolygonEntity" class="signal" id="1BnJ" points="3210,2520 3199,2514 3199,2525"/>
<g cb-classname="DynamicText" cb-source="zD-luk-Bdah" class="signal" id="1Bne" text-anchor="end">
<text cb-classname="GraphicTextEntity" class="signal" fill="black" font-style="normal" font-weight="normal" id="1BnO" text-anchor="end" text-decoration="normal" x="3195" y="2517"/>
</g>
</g>
<g cb-classname="PointStatusIndicator" cb-indicator-type="highway" cb-source="EU-zj3-0W" id="1Bnc" visibility="hidden">
<line cb-classname="GraphicLineEntity" class="algorithmline" id="1BnT" x1="3210" x2="3260" y1="2520" y2="2470"/>
<line cb-classname="GraphicLineEntity" class="algorithmline" id="1BnH" x1="3260" x2="3310" y1="2470" y2="2520"/>
<line cb-classname="GraphicLineEntity" class="algorithmline" id="1BVo" x1="3310" x2="3260" y1="2520" y2="2570"/>
<line cb-classname="GraphicLineEntity" class="algorithmline" id="1BVM" x1="3260" x2="3210" y1="2570" y2="2520"/>
</g>
<g cb-classname="PointStatusIndicator" cb-indicator-type="hardware" cb-source="4g-wO9-vi" id="1BVK" visibility="hidden">
<line cb-classname="GraphicLineEntity" class="algorithmline" id="1BVU" x1="3310" x2="3210" y1="2470" y2="2470"/>
<line cb-classname="GraphicLineEntity" class="algorithmline" id="1BVJ" x1="3210" x2="3210" y1="2470" y2="2570"/>
<line cb-classname="GraphicLineEntity" class="algorithmline" id="1BVe" x1="3210" x2="3310" y1="2570" y2="2570"/>
</g>
<g cb-classname="PointStatusIndicator" cb-indicator-type="alarm" cb-source="NA-mbp-BN" id="1BVO" visibility="hidden">
<text cb-classname="GraphicTextEntity" class="algorithm" fill="#000000" font-family="Arial" font-size="20" id="1BVc" x="3320" y="2555">
A
</text>
</g>
<g cb-classname="PointStatusIndicator" cb-indicator-type="ingraphic" cb-source="zD-LCl-2r" id="1BVT" visibility="hidden">
<text cb-classname="GraphicTextEntity" class="algorithm" fill="#000000" font-family="Arial" font-size="20" id="1BVH" x="3320" y="2505">
G
</text>
</g>
<g cb-classname="DynamicText" cb-labeled="false" cb-pin-name="Tn" cb-source="EU-zj3-0W" class="algorithm" id="1Blo" text-anchor="end">
<text baseline-shift="0%" cb-classname="GraphicTextEntity" class="algorithm" fill="black" font-family="arial" font-size="20" font-style="normal" font-weight="normal" id="1BlM" text-anchor="end" text-decoration="normal" x="3185" y="2495"/>
</g>
<g baseline-shift="-100%" cb-anchor-x="3185" cb-anchor-y="2530" cb-classname="PointReferences" cb-max-width="130" cb-originator="false" cb-source="tD-J55-gT" class="signal" id="1BlK" text-anchor="end">
<text baseline-shift="-100%" cb-classname="GraphicTextEntity" class="algorithm" id="1BlU" text-anchor="end" x="3185" y="2530">
REF: Point not
</text>
<text baseline-shift="-100%" cb-classname="GraphicTextEntity" class="algorithm" id="1NKU" text-anchor="end" x="3185" y="2555">
found in
</text>
<text baseline-shift="-100%" cb-classname="GraphicTextEntity" class="algorithm" id="1NKJ" text-anchor="end" x="3185" y="2580">
database
</text>
<text baseline-shift="-100%" cb-classname="GraphicTextEntity" class="algorithm" id="1NKe" text-anchor="end" x="3185" y="2605">
(01TBC-HPSVCL)
</text>
</g>
<g baseline-shift="-50%" cb-anchor-x="3365" cb-anchor-y="2535" cb-classname="PointDescription" cb-content="extended" cb-labeled="false" cb-max-width="240" cb-source="98-UiW-Wn" class="algorithm" id="1BlJ" text-anchor="start">
<text baseline-shift="-50%" cb-classname="GraphicTextEntity" class="algorithm" id="1Ble" text-anchor="start" x="3365" y="2523">
DESC: Point not found in
</text>
<text baseline-shift="-50%" cb-classname="GraphicTextEntity" class="algorithm" id="1NKO" text-anchor="start" x="3365" y="2548">
database (01TBC-HPSVCL)
</text>
</g>
</g>
</g>
<g cb-classname="IncludeDocument" cb-modify-time="09/25/2018 01:40:30" cb-objectname="Frame" id="5">
<text cb-classname="GraphicTextEntity" class="frame" font-size="50" id="2HnH" x="3660" y="3146">
Project Title &lt;Edit in FRAME.SVG&gt;
</text>
<g baseline-shift="-50%" cb-classname="DynamicText" cb-source="H1-aR3C-41" class="frame" id="2HVo">
<text cb-classname="GraphicTextEntity" class="frame" fill="black" font-family="arial" font-size="25" font-style="normal" font-weight="normal" id="2HVM" text-decoration="normal" x="4715" y="3325">
12
</text>
</g>
<g baseline-shift="-50%" cb-classname="DynamicText" cb-source="76-rfSl-B3" class="frame" id="2HVK" text-anchor="middle">
<text cb-classname="GraphicTextEntity" class="frame" fill="black" font-family="arial" font-size="48" font-style="normal" font-weight="normal" id="2HVU" text-anchor="middle" text-decoration="normal" x="4900" y="3320">
12
</text>
</g>
<g baseline-shift="-50%" cb-classname="DynamicText" cb-source="ij-ALwY-2T" class="frame" id="2HVJ" text-anchor="middle">
<text cb-classname="GraphicTextEntity" class="frame" fill="black" font-family="arial" font-size="48" font-style="normal" font-weight="normal" id="2HVe" text-anchor="middle" text-decoration="normal" x="5067" y="3324">
3
</text>
</g>
<g cb-classname="DynamicText" cb-source="Wp-wukjn-YgJkI" class="frame" id="2HVO">
<text cb-classname="GraphicTextEntity" class="frame" fill="black" font-family="arial" font-size="48" font-style="normal" font-weight="normal" id="2HVc" text-decoration="normal" x="3660" y="3224">
HP By-Pass Spray CV
</text>
</g>
<g baseline-shift="-50%" cb-classname="DynamicText" cb-source="o0-I90pY-TAoj5J" class="frame" id="2HVT" text-anchor="middle">
<text cb-classname="GraphicTextEntity" class="frame" fill="black" font-family="arial" font-size="48" font-style="normal" font-weight="normal" id="2HVH" text-anchor="middle" text-decoration="normal" x="5270" y="3324">
121
</text>
</g>
<g baseline-shift="0%" cb-classname="DynamicText" cb-source="Zt-KpMgjWOi" class="frame" id="2Hlo" text-anchor="middle">
<text cb-classname="GraphicTextEntity" class="frame" fill="black" font-family="arial" font-size="36" font-style="normal" font-weight="normal" id="2HlM" text-anchor="middle" text-decoration="normal" x="5270" y="3150">
A
</text>
</g>
<g baseline-shift="0%" cb-classname="DynamicText" cb-source="4g-jrrWBNIw-IidJ" class="frame" id="2HlK" text-anchor="middle">
<text cb-classname="GraphicTextEntity" class="frame" fill="black" font-family="arial" font-size="20" font-style="normal" font-weight="normal" id="2HlU" text-anchor="middle" text-decoration="normal" x="5270" y="3230">
12/28/2010
</text>
</g>
<g baseline-shift="-50%" cb-classname="DynamicText" cb-source="cJ-nd5KxlAh" class="frame" id="2HlJ" text-anchor="end">
<text cb-classname="GraphicTextEntity" class="frame" fill="black" font-family="arial" font-size="26" font-style="normal" font-weight="normal" id="2Hle" text-anchor="end" text-decoration="normal" x="4500" y="3420">
Dufek
</text>
</g>
<g baseline-shift="-50%" cb-classname="DynamicText" cb-source="NA-fNZuARjK" class="frame" id="2HlO" text-anchor="end">
<text cb-classname="GraphicTextEntity" class="frame" fill="black" font-family="arial" font-size="26" font-style="normal" font-weight="normal" id="2Hlc" text-anchor="end" text-decoration="normal" x="5353" y="3420">
Nemec
</text>
</g>
<g cb-classname="GraphicShape" cb-tag="BORDER" id="2HlT">
<line cb-classname="GraphicLineEntity" class="frameline" id="2HlH" x1="40" x2="40" y1="40" y2="3460"/>
<line cb-classname="GraphicLineEntity" class="frameline" id="2Huo" x1="40" x2="5380" y1="3460" y2="3460"/>
<line cb-classname="GraphicLineEntity" class="frameline" id="2HuM" x1="5380" x2="5380" y1="3460" y2="40"/>
<line cb-classname="GraphicLineEntity" class="frameline" id="2HuK" x1="5380" x2="40" y1="40" y2="40"/>
<line cb-classname="GraphicLineEntity" class="frame" id="2HuU" x1="5430" x2="5440" y1="3510" y2="3510"/>
</g>
<g cb-classname="GraphicShape" cb-tag="TITLE BOX" id="2HuJ">
<line cb-classname="GraphicLineEntity" class="frameline" id="2Hue" x1="2340" x2="2340" y1="3080" y2="3460"/>
<line cb-classname="GraphicLineEntity" class="frameline" id="2HuO" x1="2340" x2="5380" y1="3080" y2="3080"/>
<line cb-classname="GraphicLineEntity" class="frameline" id="2Huc" x1="3650" x2="3650" y1="3460" y2="3080"/>
<line cb-classname="GraphicLineEntity" class="frameline" id="2HuT" x1="3650" x2="5380" y1="3240" y2="3240"/>
<line cb-classname="GraphicLineEntity" class="frameline" id="2HuH" x1="3650" x2="5380" y1="3390" y2="3390"/>
<line cb-classname="GraphicLineEntity" class="frameline" id="2HKo" x1="3650" x2="5380" y1="3160" y2="3160"/>
<line cb-classname="GraphicLineEntity" class="frameline" id="2HKM" x1="3650" x2="4520" y1="3320" y2="3320"/>
<line cb-classname="GraphicLineEntity" class="frameline" id="2HKK" x1="4520" x2="5380" y1="3290" y2="3290"/>
<line cb-classname="GraphicLineEntity" class="frameline" id="2HKU" x1="4520" x2="5380" y1="3240" y2="3240"/>
<line cb-classname="GraphicLineEntity" class="frameline" id="2HKJ" x1="4520" x2="4520" y1="3240" y2="3460"/>
<line cb-classname="GraphicLineEntity" class="frameline" id="2HKe" x1="4810" x2="4810" y1="3240" y2="3390"/>
<line cb-classname="GraphicLineEntity" class="frameline" id="2HKO" x1="4990" x2="4990" y1="3240" y2="3390"/>
<line cb-classname="GraphicLineEntity" class="frameline" id="2HKc" x1="5150" x2="5150" y1="3080" y2="3390"/>
</g>
<g cb-classname="GraphicShape" cb-tag="TEXT LABELS" id="2HKT">
<text baseline-shift="-50%" cb-classname="GraphicTextEntity" class="frame" font-size="25" id="2HKH" text-anchor="middle" x="4890" y="3252">
Drop
</text>
<text baseline-shift="-50%" cb-classname="GraphicTextEntity" class="frame" font-size="25" id="2HFo" text-anchor="middle" x="5075" y="3252">
Task
</text>
<text baseline-shift="-50%" cb-classname="GraphicTextEntity" class="frame" font-size="25" id="2HFM" text-anchor="middle" x="5265" y="3252">
Sheet
</text>
<text cb-classname="GraphicTextEntity" class="frame" font-size="25" id="2HFK" x="5152" y="3107">
Rev.
</text>
<text cb-classname="GraphicTextEntity" class="frame" font-size="25" id="2HFU" x="3653" y="3418">
Engineer
</text>
<text cb-classname="GraphicTextEntity" class="frame" font-size="25" id="2HFJ" x="4528" y="3419">
Approved
</text>
<text cb-classname="GraphicTextEntity" class="frame" font-size="25" id="2HFe" x="5152" y="3187">
Date
</text>
<text baseline-shift="-50%" cb-classname="GraphicTextEntity" class="frame" font-size="25" id="2HFO" text-anchor="middle" x="4660" y="3252">
Drawing Number
</text>
<text baseline-shift="-50%" cb-classname="GraphicTextEntity" class="frame" font-size="25" id="2HFc" text-anchor="middle" x="4680" y="3325">
CTL
</text>
</g>
<text baseline-shift="-50%" cb-classname="GraphicTextEntity" class="frame" font-size="48" id="2HFT" text-anchor="middle" x="3000" y="3100">
EMERSON PROCESS MANAGEMENT
</text>
<g baseline-shift="-100%" cb-anchor-x="2360" cb-anchor-y="3140" cb-classname="GroupText" cb-max-width="1260" fill="black" id="2HFH">
<text baseline-shift="-100%" cb-classname="GraphicTextEntity" class="frame" fill="black" font-family="arial" font-size="22" font-weight="normal" id="2Hho" text-anchor="start" text-decoration="normal" x="2360" y="3140">
THIS DOCUMENT CONTAINS INFORMATION PROPRIETARY TO EMERSON PROCESS
</text>
<text baseline-shift="-100%" cb-classname="GraphicTextEntity" class="frame" fill="black" font-family="arial" font-size="22" font-weight="normal" id="2HhM" text-anchor="start" text-decoration="normal" x="2360" y="3176">
MANAGEMENT POWER &amp; WATER SOLUTIONS, INC. IT IS SUBMITTED IN CONFIDENCE AND
</text>
<text baseline-shift="-100%" cb-classname="GraphicTextEntity" class="frame" fill="black" font-family="arial" font-size="22" font-weight="normal" id="2HhK" text-anchor="start" text-decoration="normal" x="2360" y="3212">
TRUST, IS TO BE USED BY YOU SOLELY FOR THE PURPOSES FOR WHICH IT IS
</text>
<text baseline-shift="-100%" cb-classname="GraphicTextEntity" class="frame" fill="black" font-family="arial" font-size="22" font-weight="normal" id="2HhU" text-anchor="start" text-decoration="normal" x="2360" y="3248">
FURNISHED AND IS TO BE RETURNED UPON REQUEST. THIS DOCUMENT AND ANY
</text>
<text baseline-shift="-100%" cb-classname="GraphicTextEntity" class="frame" fill="black" font-family="arial" font-size="22" font-weight="normal" id="2HhJ" text-anchor="start" text-decoration="normal" x="2360" y="3284">
OTHER INFORMATION PROVIDED TO YOU IS NOT TO BE REPRODUCED, TRANSMITTED,
</text>
<text baseline-shift="-100%" cb-classname="GraphicTextEntity" class="frame" fill="black" font-family="arial" font-size="22" font-weight="normal" id="2Hhe" text-anchor="start" text-decoration="normal" x="2360" y="3320">
DISCLOSED, OR USED OTHERWISE IN WHOLE OR IN PART WITHOUT THE PRIOR
</text>
<text baseline-shift="-100%" cb-classname="GraphicTextEntity" class="frame" fill="black" font-family="arial" font-size="22" font-weight="normal" id="2HhO" text-anchor="start" text-decoration="normal" x="2360" y="3356">
WRITTEN AUTHORIZATION OF EMERSON PROCESS MANAGEMENT POWER &amp; WATER
</text>
<text baseline-shift="-100%" cb-classname="GraphicTextEntity" class="frame" fill="black" font-family="arial" font-size="22" font-weight="normal" id="2Hhc" text-anchor="start" text-decoration="normal" x="2360" y="3392">
SOLUTIONS,INC.
</text>
</g>
</g>
</svg>