<?xml version="1.0" ?><svg cb-auto-time="07/10/2008 11:32:42" cb-classname="ControlFunction" cb-drop-id="12" cb-filename="Z:\OVATION\NET0\UNIT0\CONTROLFUNCTIONS\03C9.svg" cb-function-id="03C9" cb-key="321525511234" cb-modified-timestamp="1489318983" cb-modify-id="00000001" cb-path="Z:/OVATION/NET0/UNIT0/CONTROLFUNCTIONS" cb-revision="A" cb-revision-time="12/28/2010" cb-sheet-number="800" cb-sheet-title="MHI VIBRATION ADJUST" cb-snap-grid="10" cb-task-id="3" height="3606" id="1" width="5450" xmlns="http://www.w3.org/2000/svg">
<style cb-classname="EntityStyle" id="2" type="text/css">
	.algorithm { fill: white; stroke: black; stroke-linecap: round; stroke-width: 2 }
	.algorithm-function { fill: none; stroke: black; stroke-linecap: round; stroke-width: 2 }
	.algorithm-functionline { fill: none; stroke: black; stroke-linecap: round; stroke-width: 2 }
	.algorithm-name { fill: none; stroke: black; stroke-linecap: round; stroke-width: 2 }
	.algorithm-nameline { fill: none; stroke: black; stroke-linecap: round; stroke-width: 2 }
	.algorithm-sequence { fill: none; stroke: black; stroke-linecap: round; stroke-width: 2 }
	.algorithm-sequenceline { fill: none; stroke: black; stroke-linecap: round; stroke-width: 2 }
	.algorithmline { fill: none; stroke: black; stroke-linecap: round; stroke-width: 2 }
	.annotation { fill: none; stroke: black; stroke-linecap: round; stroke-width: 2 }
	.annotationline { fill: none; stroke: black; stroke-linecap: round; stroke-width: 2 }
	.frame { fill: none; stroke: black; stroke-linecap: round; stroke-width: 2 }
	.frameline { fill: none; stroke: black; stroke-linecap: round; stroke-width: 2 }
	.signal { fill: black; stroke: black; stroke-linecap: round; stroke-width: 2 }
	.signalline { fill: none; stroke: black; stroke-linecap: round; stroke-width: 2 }
	text.algorithm { fill: black; font-family: MS Shell Dlg 2; font-size: 14; stroke: none }
	text.algorithm-function { fill: black; font-family: MS Shell Dlg 2; font-size: 16; stroke: none }
	text.algorithm-name { fill: black; font-family: MS Shell Dlg 2; font-size: 16; stroke: none }
	text.algorithm-sequence { fill: black; font-family: MS Shell Dlg 2; font-size: 16; stroke: none }
	text.annotation { fill: black; font-family: MS Shell Dlg 2; font-size: 16; stroke: none }
	text.frame { fill: black; font-family: MS Shell Dlg 2; font-size: 16; stroke: none }
	text.signal { fill: black; font-family: MS Shell Dlg 2; font-size: 12; stroke: none }
</style>
<g cb-classname="NamedObject" cb-objectname="Comments" id="3"/>
<g cb-classname="AlgorithmContainer" cb-objectname="Algorithms" id="4">
<g cb-alg-dBw="01MT311" cb-alg-dHDL="NO" cb-algorithm-id="001" cb-classname="ExternalPointInterface" cb-function-name="INPUT" id="6v">
<ellipse cb-classname="GraphicEllipseEntity" class="algorithm" cx="590" cy="410" id="6p" rx="40" ry="40"/>
<rect cb-classname="GraphicRectangleEntity" class="algorithm" height="30" id="6b" width="80" x="550" y="340"/>
<line cb-classname="GraphicLineEntity" class="algorithm" id="6m" x1="590" x2="590" y1="370" y2="340"/>
<g cb-classname="PointStatusIndicator" cb-indicator-type="Highway" cb-source="87-IiF-gnB" id="66" visibility="visible">
<line cb-classname="GraphicLineEntity" class="algorithmline" id="6I" x1="590" x2="550" y1="370" y2="410"/>
<line cb-classname="GraphicLineEntity" class="algorithmline" id="7K" x1="550" x2="590" y1="410" y2="450"/>
<line cb-classname="GraphicLineEntity" class="algorithmline" id="7S" x1="590" x2="630" y1="450" y2="410"/>
<line cb-classname="GraphicLineEntity" class="algorithmline" id="7N" x1="630" x2="590" y1="410" y2="370"/>
</g>
<g cb-classname="PointStatusIndicator" cb-indicator-type="hardware" cb-source="Nu-W5W-nvd" id="73" visibility="visible">
<line cb-classname="GraphicLineEntity" class="algorithmline" id="7v" x1="550" x2="550" y1="370" y2="450"/>
<line cb-classname="GraphicLineEntity" class="algorithmline" id="7p" x1="550" x2="630" y1="450" y2="450"/>
<line cb-classname="GraphicLineEntity" class="algorithmline" id="7b" x1="630" x2="630" y1="450" y2="370"/>
</g>
<g cb-classname="PointStatusIndicator" cb-indicator-type="alarm" cb-source="kF-Myi-Kaz" id="7m" visibility="hidden">
<text baseline-shift="-50%" cb-classname="GraphicTextEntity" class="algorithm" fill="#000000" font-family="Arial" font-size="20" id="76" text-anchor="middle" x="570" y="351">
A
</text>
</g>
<g cb-classname="PointStatusIndicator" cb-indicator-type="ingraphic" cb-source="FE-bTT-TpN" id="7I" visibility="visible">
<text baseline-shift="-50%" cb-classname="GraphicTextEntity" class="algorithm" fill="#000000" font-family="Arial" font-size="20" id="8K" text-anchor="middle" x="610" y="349">
G
</text>
</g>
<g cb-classname="DynamicText" cb-labeled="false" cb-pin-name="pdD" cb-source="87-IiF-gnB" class="algorithm" id="8S" text-anchor="middle">
<text cb-classname="GraphicTextEntity" class="algorithm" fill="black" font-family="Arial" font-size="20" font-style="normal" font-weight="normal" id="8N" text-anchor="middle" text-decoration="normal" x="590" y="330"/>
</g>
<g baseline-shift="-100%" cb-anchor-x="603" cb-anchor-y="463" cb-classname="PointReferences" cb-max-width="160" cb-originator="true" cb-source="PO-oAG-dBw" class="signal" id="83" text-anchor="start">
<text baseline-shift="-100%" cb-classname="GraphicTextEntity" class="algorithm" id="8v" text-anchor="start" x="603" y="463">
REF: Point not
</text>
<text baseline-shift="-100%" cb-classname="GraphicTextEntity" class="algorithm" id="8bM" text-anchor="start" x="603" y="488">
found in database
</text>
<text baseline-shift="-100%" cb-classname="GraphicTextEntity" class="algorithm" id="8bH" text-anchor="start" x="603" y="513">
(01MT311)
</text>
</g>
<g baseline-shift="0%" cb-anchor-x="590" cb-anchor-y="300" cb-classname="PointDescription" cb-content="extended" cb-labeled="false" cb-max-width="240" cb-source="I4-9JL-E9a" class="algorithm" id="86" text-anchor="middle">
<text baseline-shift="0%" cb-classname="GraphicTextEntity" class="algorithm" id="8I" text-anchor="middle" x="590" y="275">
DESC: Point not found in
</text>
<text baseline-shift="0%" cb-classname="GraphicTextEntity" class="algorithm" id="9K" text-anchor="middle" x="590" y="300">
database (01MT311)
</text>
</g>
<g cb-classname="ControlPin" cb-pin-name="FE-bTT-TpN" id="9N">
<line cb-classname="GraphicLineEntity" class="signalline" id="93" x1="590" x2="590" y1="450" y2="470"/>
<g cb-classname="SignalSegment" id="13p">
<g cb-classname="SignalConnection" cb-graphic-line="$137$" cb-input-pin="$Mp$" id="13v"/>
<line cb-classname="GraphicLineEntity" class="signalline" id="138" x1="590" x2="590" y1="470" y2="700"/>
</g>
</g>
</g>
<g cb-alg-29Sf="0.000000" cb-alg-2i5R="0" cb-alg-9bHh="1.000000" cb-alg-D7Tg="ON" cb-alg-DF5R="350" cb-alg-DjSe="2.500000" cb-alg-Kjdl="ON" cb-alg-R9ST="76" cb-alg-Uuo="01MT311-MHI" cb-alg-gEe="$64$cb-alg-out$" cb-algorithm-id="002" cb-classname="ControlAlgorithm" cb-function-name="GAINBIAS" cb-modify-id="00000001" id="9v">
<rect cb-classname="GraphicRectangleEntity" class="algorithm" height="60" id="9p" width="100" x="540" y="720"/>
<text baseline-shift="-50%" cb-classname="GraphicTextEntity" class="algorithm" font-size="33" id="9b" text-anchor="middle" x="590" y="745">
K
</text>
<g cb-classname="ControlPin" cb-pin-name="Ry-4k7-kKP" id="9m">
<line cb-classname="GraphicLineEntity" class="signalline" id="96" x1="590" x2="590" y1="700" y2="720"/>
<polygon cb-classname="GraphicPolygonEntity" class="signal" id="9I" points="590,720 594,709 586,709"/>
<g cb-classname="DynamicText" cb-source="iH-SkK-2wkb" class="signal" id="1Ks">
<text baseline-shift="5%" cb-classname="GraphicTextEntity" class="signal" fill="black" font-style="normal" font-weight="normal" id="1KM" text-decoration="normal" transform="translate(580,700)rotate(-90)"/>
</g>
</g>
<g cb-classname="ControlPin" cb-pin-name="yT-zOO-VXm" id="1KH">
<line cb-classname="GraphicLineEntity" class="signalline" id="1KZ" x1="590" x2="590" y1="780" y2="800"/>
<g cb-classname="DynamicText" cb-source="cR-K93-Dojz" class="signal" id="1Kp" text-anchor="end">
<text baseline-shift="5%" cb-classname="GraphicTextEntity" class="signal" fill="black" font-style="normal" font-weight="normal" id="1Kj" text-anchor="end" text-decoration="normal" transform="translate(582,792)rotate(-90)"/>
</g>
<g cb-classname="SignalSegment" id="13o">
<g cb-classname="SignalConnection" cb-graphic-line="$142$" cb-input-pin="$SZm$" id="1vZ"/>
<line cb-classname="GraphicLineEntity" class="signalline" id="1vH" x1="590" x2="590" y1="800" y2="1210"/>
</g>
</g>
<g cb-classname="GraphicShape" id="1vp">
<g cb-classname="DynamicText" cb-labeled="true" cb-source="G2-S4Z-0TVk" id="1vj">
<text cb-classname="GraphicTextEntity" class="algorithm" id="1vl" text-anchor="start" x="650" y="790"/>
</g>
</g>
<g cb-classname="GraphicShape" id="1v8">
<g cb-classname="DynamicText" cb-labeled="true" cb-source="PO-oAG-Top8" id="1vv">
<text cb-classname="GraphicTextEntity" class="algorithm" id="1vo" text-anchor="start" x="650" y="820"/>
</g>
</g>
</g>
<g cb-alg-xu="$94$cb-alg-out$" cb-algorithm-id="003" cb-classname="ExternalPointInterface" cb-function-name="OUTPUT" id="1Kl">
<ellipse cb-classname="GraphicEllipseEntity" class="algorithm" cx="590" cy="1270" id="1K8" rx="40" ry="40"/>
<rect cb-classname="GraphicRectangleEntity" class="algorithm" height="30" id="1Kv" rx="0" width="80" x="550" y="1310"/>
<line cb-classname="GraphicLineEntity" class="algorithm" id="1Ko" x1="590" x2="590" y1="1310" y2="1340"/>
<g cb-classname="PointStatusIndicator" cb-indicator-type="hardware" cb-source="Ry-4k7-kK" id="1Ss" visibility="visible">
<line cb-classname="GraphicLineEntity" class="algorithmline" id="1SM" x1="550" x2="550" y1="1310" y2="1230"/>
<line cb-classname="GraphicLineEntity" class="algorithmline" id="1SH" x1="550" x2="630" y1="1230" y2="1230"/>
<line cb-classname="GraphicLineEntity" class="algorithmline" id="1SZ" x1="630" x2="630" y1="1230" y2="1310"/>
</g>
<g cb-classname="PointStatusIndicator" cb-indicator-type="Highway" cb-source="I4-9JL-OW" id="1Sp" visibility="hidden">
<line cb-classname="GraphicLineEntity" class="algorithmline" id="1Sj" x1="550" x2="590" y1="1270" y2="1230"/>
<line cb-classname="GraphicLineEntity" class="algorithmline" id="1Sl" x1="590" x2="630" y1="1230" y2="1270"/>
<line cb-classname="GraphicLineEntity" class="algorithmline" id="1S8" x1="630" x2="590" y1="1270" y2="1310"/>
<line cb-classname="GraphicLineEntity" class="algorithmline" id="1Sv" x1="590" x2="550" y1="1310" y2="1270"/>
</g>
<g cb-classname="PointStatusIndicator" cb-indicator-type="alarm" cb-source="G2-S4Z-6e" id="1So" visibility="hidden">
<text cb-classname="GraphicTextEntity" class="algorithm" fill="#000000" font-family="Arial" font-size="20" id="1Ns" x="563" y="1334">
A
</text>
</g>
<g cb-classname="PointStatusIndicator" cb-indicator-type="ingraphic" cb-source="c0-6EW-Fc" id="1NM" visibility="visible">
<text cb-classname="GraphicTextEntity" class="algorithm" fill="#000000" font-family="Arial" font-size="20" id="1NH" x="600" y="1335">
G
</text>
</g>
<g baseline-shift="-100%" cb-anchor-x="590" cb-anchor-y="1390" cb-classname="PointDescription" cb-content="extended" cb-labeled="false" cb-max-width="260" cb-source="Ry-4k7-kK" class="algorithm" id="1NZ" text-anchor="middle">
<text baseline-shift="-100%" cb-classname="GraphicTextEntity" class="algorithm" id="1Np" text-anchor="middle" x="590" y="1390">
DESC: Point not found in
</text>
<text baseline-shift="-100%" cb-classname="GraphicTextEntity" class="algorithm" id="36o" text-anchor="middle" x="590" y="1415">
database (01MT311-MHI)
</text>
</g>
<g cb-classname="DynamicText" cb-labeled="false" cb-pin-name="La" cb-source="iH-MiV-Lt" class="algorithm" id="1Nl" text-anchor="middle">
<text baseline-shift="-50%" cb-classname="GraphicTextEntity" class="algorithm" fill="black" font-family="Arial" font-size="20" font-style="normal" font-weight="normal" id="1N8" text-anchor="middle" text-decoration="normal" x="590" y="1360"/>
</g>
<g baseline-shift="0%" cb-anchor-x="610" cb-anchor-y="1210" cb-classname="PointReferences" cb-max-width="250" cb-originator="false" cb-source="yT-zOO-zY" class="signal" id="1Nv" text-anchor="start">
<text baseline-shift="0%" cb-classname="GraphicTextEntity" class="algorithm" id="1No" text-anchor="start" x="610" y="1185">
REF: Point not found in
</text>
<text baseline-shift="0%" cb-classname="GraphicTextEntity" class="algorithm" id="8bp" text-anchor="start" x="610" y="1210">
database (01MT311-MHI)
</text>
</g>
<g cb-classname="ControlPin" cb-pin-name="FE-bTT-6X" id="13M">
<line cb-classname="GraphicLineEntity" class="signalline" id="13H" x1="590" x2="590" y1="1210" y2="1230"/>
<polygon cb-classname="GraphicPolygonEntity" class="signal" id="13Z" points="590,1230 594,1219 586,1219"/>
</g>
</g>
</g>
<g cb-classname="IncludeDocument" cb-modify-time="09/25/2018 01:40:30" cb-objectname="Frame" id="5">
<text cb-classname="GraphicTextEntity" class="frame" font-size="50" id="9N8" x="3660" y="3146">
Project Title &lt;Edit in FRAME.SVG&gt;
</text>
<g baseline-shift="-50%" cb-classname="DynamicText" cb-source="PO-xyg0-kt" class="frame" id="9Nv">
<text cb-classname="GraphicTextEntity" class="frame" fill="black" font-family="arial" font-size="25" font-style="normal" font-weight="normal" id="9No" text-decoration="normal" x="4715" y="3325">
12
</text>
</g>
<g baseline-shift="-50%" cb-classname="DynamicText" cb-source="SR-Bvdn-RZ" class="frame" id="93s" text-anchor="middle">
<text cb-classname="GraphicTextEntity" class="frame" fill="black" font-family="arial" font-size="48" font-style="normal" font-weight="normal" id="93M" text-anchor="middle" text-decoration="normal" x="4900" y="3320">
12
</text>
</g>
<g baseline-shift="-50%" cb-classname="DynamicText" cb-source="iH-B9pB-OB" class="frame" id="93H" text-anchor="middle">
<text cb-classname="GraphicTextEntity" class="frame" fill="black" font-family="arial" font-size="48" font-style="normal" font-weight="normal" id="93Z" text-anchor="middle" text-decoration="normal" x="5067" y="3324">
3
</text>
</g>
<g cb-classname="DynamicText" cb-source="yT-pzecU-m4J5n" class="frame" id="93p">
<text cb-classname="GraphicTextEntity" class="frame" fill="black" font-family="arial" font-size="48" font-style="normal" font-weight="normal" id="93j" text-decoration="normal" x="3660" y="3224">
MHI VIBRATION ADJUST
</text>
</g>
<g baseline-shift="-50%" cb-classname="DynamicText" cb-source="cR-o2nmG-XQhTDs" class="frame" id="93l" text-anchor="middle">
<text cb-classname="GraphicTextEntity" class="frame" fill="black" font-family="arial" font-size="48" font-style="normal" font-weight="normal" id="938" text-anchor="middle" text-decoration="normal" x="5270" y="3324">
800
</text>
</g>
<g baseline-shift="0%" cb-classname="DynamicText" cb-source="G2-GmU6nr3c" class="frame" id="93v" text-anchor="middle">
<text cb-classname="GraphicTextEntity" class="frame" fill="black" font-family="arial" font-size="36" font-style="normal" font-weight="normal" id="93o" text-anchor="middle" text-decoration="normal" x="5270" y="3150">
A
</text>
</g>
<g baseline-shift="0%" cb-classname="DynamicText" cb-source="c0-FHNrVqfK-qOkb" class="frame" id="9vs" text-anchor="middle">
<text cb-classname="GraphicTextEntity" class="frame" fill="black" font-family="arial" font-size="20" font-style="normal" font-weight="normal" id="9vM" text-anchor="middle" text-decoration="normal" x="5270" y="3230">
12/28/2010
</text>
</g>
<g baseline-shift="-50%" cb-classname="DynamicText" cb-source="Ry-1e7qmHsQ" class="frame" id="9vH" text-anchor="end">
<text cb-classname="GraphicTextEntity" class="frame" fill="black" font-family="arial" font-size="26" font-style="normal" font-weight="normal" id="9vZ" text-anchor="end" text-decoration="normal" x="4500" y="3420">

</text>
</g>
<g baseline-shift="-50%" cb-classname="DynamicText" cb-source="Nu-vUQDsMc3" class="frame" id="9vp" text-anchor="end">
<text cb-classname="GraphicTextEntity" class="frame" fill="black" font-family="arial" font-size="26" font-style="normal" font-weight="normal" id="9vj" text-anchor="end" text-decoration="normal" x="5353" y="3420">

</text>
</g>
<g cb-classname="GraphicShape" cb-tag="BORDER" id="9vl">
<line cb-classname="GraphicLineEntity" class="frameline" id="9v8" x1="40" x2="40" y1="40" y2="3460"/>
<line cb-classname="GraphicLineEntity" class="frameline" id="9vv" x1="40" x2="5380" y1="3460" y2="3460"/>
<line cb-classname="GraphicLineEntity" class="frameline" id="9vo" x1="5380" x2="5380" y1="3460" y2="40"/>
<line cb-classname="GraphicLineEntity" class="frameline" id="9ps" x1="5380" x2="40" y1="40" y2="40"/>
<line cb-classname="GraphicLineEntity" class="frame" id="9pM" x1="5430" x2="5440" y1="3510" y2="3510"/>
</g>
<g cb-classname="GraphicShape" cb-tag="TITLE BOX" id="9pH">
<line cb-classname="GraphicLineEntity" class="frameline" id="9pZ" x1="2340" x2="2340" y1="3080" y2="3460"/>
<line cb-classname="GraphicLineEntity" class="frameline" id="9pp" x1="2340" x2="5380" y1="3080" y2="3080"/>
<line cb-classname="GraphicLineEntity" class="frameline" id="9pj" x1="3650" x2="3650" y1="3460" y2="3080"/>
<line cb-classname="GraphicLineEntity" class="frameline" id="9pl" x1="3650" x2="5380" y1="3240" y2="3240"/>
<line cb-classname="GraphicLineEntity" class="frameline" id="9p8" x1="3650" x2="5380" y1="3390" y2="3390"/>
<line cb-classname="GraphicLineEntity" class="frameline" id="9pv" x1="3650" x2="5380" y1="3160" y2="3160"/>
<line cb-classname="GraphicLineEntity" class="frameline" id="9po" x1="3650" x2="4520" y1="3320" y2="3320"/>
<line cb-classname="GraphicLineEntity" class="frameline" id="9bs" x1="4520" x2="5380" y1="3290" y2="3290"/>
<line cb-classname="GraphicLineEntity" class="frameline" id="9bM" x1="4520" x2="5380" y1="3240" y2="3240"/>
<line cb-classname="GraphicLineEntity" class="frameline" id="9bH" x1="4520" x2="4520" y1="3240" y2="3460"/>
<line cb-classname="GraphicLineEntity" class="frameline" id="9bZ" x1="4810" x2="4810" y1="3240" y2="3390"/>
<line cb-classname="GraphicLineEntity" class="frameline" id="9bp" x1="4990" x2="4990" y1="3240" y2="3390"/>
<line cb-classname="GraphicLineEntity" class="frameline" id="9bj" x1="5150" x2="5150" y1="3080" y2="3390"/>
</g>
<g cb-classname="GraphicShape" cb-tag="TEXT LABELS" id="9bl">
<text baseline-shift="-50%" cb-classname="GraphicTextEntity" class="frame" font-size="25" id="9b8" text-anchor="middle" x="4890" y="3252">
Drop
</text>
<text baseline-shift="-50%" cb-classname="GraphicTextEntity" class="frame" font-size="25" id="9bv" text-anchor="middle" x="5075" y="3252">
Task
</text>
<text baseline-shift="-50%" cb-classname="GraphicTextEntity" class="frame" font-size="25" id="9bo" text-anchor="middle" x="5265" y="3252">
Sheet
</text>
<text cb-classname="GraphicTextEntity" class="frame" font-size="25" id="9ms" x="5152" y="3107">
Rev.
</text>
<text cb-classname="GraphicTextEntity" class="frame" font-size="25" id="9mM" x="3653" y="3418">
Engineer
</text>
<text cb-classname="GraphicTextEntity" class="frame" font-size="25" id="9mH" x="4528" y="3419">
Approved
</text>
<text cb-classname="GraphicTextEntity" class="frame" font-size="25" id="9mZ" x="5152" y="3187">
Date
</text>
<text baseline-shift="-50%" cb-classname="GraphicTextEntity" class="frame" font-size="25" id="9mp" text-anchor="middle" x="4660" y="3252">
Drawing Number
</text>
<text baseline-shift="-50%" cb-classname="GraphicTextEntity" class="frame" font-size="25" id="9mj" text-anchor="middle" x="4680" y="3325">
CTL
</text>
</g>
<text baseline-shift="-50%" cb-classname="GraphicTextEntity" class="frame" font-size="48" id="9ml" text-anchor="middle" x="3000" y="3100">
EMERSON PROCESS MANAGEMENT
</text>
<g baseline-shift="-100%" cb-anchor-x="2360" cb-anchor-y="3140" cb-classname="GroupText" cb-max-width="1260" fill="black" id="9m8">
<text baseline-shift="-100%" cb-classname="GraphicTextEntity" class="frame" fill="black" font-family="arial" font-size="22" font-weight="normal" id="9mv" text-anchor="start" text-decoration="normal" x="2360" y="3140">
THIS DOCUMENT CONTAINS INFORMATION PROPRIETARY TO EMERSON PROCESS
</text>
<text baseline-shift="-100%" cb-classname="GraphicTextEntity" class="frame" fill="black" font-family="arial" font-size="22" font-weight="normal" id="9mo" text-anchor="start" text-decoration="normal" x="2360" y="3176">
MANAGEMENT POWER &amp; WATER SOLUTIONS, INC. IT IS SUBMITTED IN CONFIDENCE AND
</text>
<text baseline-shift="-100%" cb-classname="GraphicTextEntity" class="frame" fill="black" font-family="arial" font-size="22" font-weight="normal" id="96s" text-anchor="start" text-decoration="normal" x="2360" y="3212">
TRUST, IS TO BE USED BY YOU SOLELY FOR THE PURPOSES FOR WHICH IT IS
</text>
<text baseline-shift="-100%" cb-classname="GraphicTextEntity" class="frame" fill="black" font-family="arial" font-size="22" font-weight="normal" id="96M" text-anchor="start" text-decoration="normal" x="2360" y="3248">
FURNISHED AND IS TO BE RETURNED UPON REQUEST. THIS DOCUMENT AND ANY
</text>
<text baseline-shift="-100%" cb-classname="GraphicTextEntity" class="frame" fill="black" font-family="arial" font-size="22" font-weight="normal" id="96H" text-anchor="start" text-decoration="normal" x="2360" y="3284">
OTHER INFORMATION PROVIDED TO YOU IS NOT TO BE REPRODUCED, TRANSMITTED,
</text>
<text baseline-shift="-100%" cb-classname="GraphicTextEntity" class="frame" fill="black" font-family="arial" font-size="22" font-weight="normal" id="96Z" text-anchor="start" text-decoration="normal" x="2360" y="3320">
DISCLOSED, OR USED OTHERWISE IN WHOLE OR IN PART WITHOUT THE PRIOR
</text>
<text baseline-shift="-100%" cb-classname="GraphicTextEntity" class="frame" fill="black" font-family="arial" font-size="22" font-weight="normal" id="96p" text-anchor="start" text-decoration="normal" x="2360" y="3356">
WRITTEN AUTHORIZATION OF EMERSON PROCESS MANAGEMENT POWER &amp; WATER
</text>
<text baseline-shift="-100%" cb-classname="GraphicTextEntity" class="frame" fill="black" font-family="arial" font-size="22" font-weight="normal" id="96j" text-anchor="start" text-decoration="normal" x="2360" y="3392">
SOLUTIONS,INC.
</text>
</g>
</g>
</svg>