<?xml version="1.0" ?><svg cb-auto-time="01/16/2008 18:07:52" cb-classname="ControlFunction" cb-create-time="03/12/2008" cb-drop-id="13" cb-engineer="Dufek" cb-filename="Z:\OVATION\NET0\UNIT0\CONTROLFUNCTIONS\03FE.svg" cb-function-id="03FE" cb-key="112342443321" cb-modified-timestamp="1489319072" cb-modify-id="00000001" cb-ortho-mode="enabled" cb-path="Z:/OVATION/NET0/UNIT0/CONTROLFUNCTIONS" cb-reviewer="Nemec" cb-revision="A" cb-revision-time="12/28/2010" cb-sheet-number="001" cb-sheet-title="BFPT Flow Limits" cb-snap-grid="10" cb-task-id="3" height="3606" id="1" width="5450" xmlns="http://www.w3.org/2000/svg">
<style cb-classname="EntityStyle" id="2" type="text/css">
	.algorithm { fill: white; stroke: black; stroke-linecap: round; stroke-width: 2 }
	.algorithm-function { fill: none; stroke: black; stroke-linecap: round; stroke-width: 2 }
	.algorithm-functionline { fill: none; stroke: black; stroke-linecap: round; stroke-width: 2 }
	.algorithm-name { fill: none; stroke: black; stroke-linecap: round; stroke-width: 2 }
	.algorithm-nameline { fill: none; stroke: black; stroke-linecap: round; stroke-width: 2 }
	.algorithm-sequence { fill: none; stroke: black; stroke-linecap: round; stroke-width: 2 }
	.algorithm-sequenceline { fill: none; stroke: black; stroke-linecap: round; stroke-width: 2 }
	.algorithmline { fill: none; stroke: black; stroke-linecap: round; stroke-width: 2 }
	.annotation { fill: none; stroke: black; stroke-linecap: round; stroke-width: 2 }
	.annotationline { fill: none; stroke: black; stroke-linecap: round; stroke-width: 2 }
	.frame { fill: none; stroke: black; stroke-linecap: round; stroke-width: 2 }
	.frameline { fill: none; stroke: black; stroke-linecap: round; stroke-width: 2 }
	.signal { fill: black; stroke: black; stroke-linecap: round; stroke-width: 2 }
	.signalline { fill: none; stroke: black; stroke-linecap: round; stroke-width: 2 }
	text.algorithm { fill: black; font-family: MS Shell Dlg 2; font-size: 14; stroke: none }
	text.algorithm-function { fill: black; font-family: MS Shell Dlg 2; font-size: 16; stroke: none }
	text.algorithm-name { fill: black; font-family: MS Shell Dlg 2; font-size: 16; stroke: none }
	text.algorithm-sequence { fill: black; font-family: MS Shell Dlg 2; font-size: 16; stroke: none }
	text.annotation { fill: black; font-family: MS Shell Dlg 2; font-size: 16; stroke: none }
	text.frame { fill: black; font-family: MS Shell Dlg 2; font-size: 16; stroke: none }
	text.signal { fill: black; font-family: MS Shell Dlg 2; font-size: 12; stroke: none }
</style>
<g cb-classname="NamedObject" cb-objectname="Comments" id="3"/>
<g cb-classname="AlgorithmContainer" cb-objectname="Algorithms" id="4">
<g cb-alg-e3Vm="NO" cb-alg-eqK="01FT104-CMP" cb-algorithm-id="001" cb-classname="ExternalPointInterface" cb-function-name="INPUT" id="6N">
<ellipse cb-classname="GraphicEllipseEntity" class="algorithm" cx="710" cy="410" id="6B" rx="50" ry="50"/>
<rect cb-classname="GraphicRectangleEntity" class="algorithm" height="40" id="6v" width="100" x="660" y="320"/>
<line cb-classname="GraphicLineEntity" class="algorithm" id="6h" x1="710" x2="710" y1="360" y2="320"/>
<g cb-classname="ControlPin" cb-pin-name="TV-40O-Jtf" id="6c">
<line cb-classname="GraphicLineEntity" class="signalline" id="6k" x1="710" x2="710" y1="460" y2="490"/>
<g cb-classname="DynamicText" cb-source="oN-mBA-5MpK" class="signal" id="7w" text-anchor="end">
<text cb-classname="GraphicTextEntity" class="signal" fill="black" font-style="normal" font-weight="normal" id="7A" text-anchor="end" text-decoration="normal" transform="translate(702,477)rotate(-90)"/>
</g>
<g cb-classname="SignalSegment" id="7I">
<line cb-classname="GraphicLineEntity" class="signalline" id="7W" x1="710" x2="710" y1="490" y2="760"/>
<g cb-classname="SignalSegment" id="7N">
<line cb-classname="GraphicLineEntity" class="signalline" id="2Nk" x1="710" x2="1120" y1="760" y2="760"/>
<g cb-classname="SignalConnection" cb-graphic-line="$245$" cb-input-pin="$SS2$" id="2Np"/>
<line cb-classname="GraphicLineEntity" class="signalline" id="2Nu" x1="710" x2="710" y1="760" y2="940"/>
<g cb-classname="SignalSegment" id="2N9">
<line cb-classname="GraphicLineEntity" class="signalline" id="2N3" x1="710" x2="1120" y1="940" y2="940"/>
<g cb-classname="SignalConnection" cb-graphic-line="$249$" cb-input-pin="$FIU$" id="2BI"/>
</g>
<ellipse cb-classname="GraphicEllipseEntity" class="signal" cx="710" cy="760" id="2Bs" rx="5" ry="5"/>
</g>
</g>
</g>
<g cb-classname="PointStatusIndicator" cb-indicator-type="Highway" cb-source="PH-tqX-o4H" id="8I" visibility="hidden">
<line cb-classname="GraphicLineEntity" class="algorithmline" id="8W" x1="710" x2="660" y1="360" y2="410"/>
<line cb-classname="GraphicLineEntity" class="algorithmline" id="8N" x1="660" x2="710" y1="410" y2="460"/>
<line cb-classname="GraphicLineEntity" class="algorithmline" id="8B" x1="710" x2="760" y1="460" y2="410"/>
<line cb-classname="GraphicLineEntity" class="algorithmline" id="8v" x1="760" x2="710" y1="410" y2="360"/>
</g>
<g cb-classname="PointStatusIndicator" cb-indicator-type="hardware" cb-source="Di-O4f-xQU" id="8h" visibility="hidden">
<line cb-classname="GraphicLineEntity" class="algorithmline" id="8c" x1="660" x2="660" y1="360" y2="460"/>
<line cb-classname="GraphicLineEntity" class="algorithmline" id="8k" x1="660" x2="760" y1="460" y2="460"/>
<line cb-classname="GraphicLineEntity" class="algorithmline" id="9w" x1="760" x2="760" y1="460" y2="360"/>
</g>
<g cb-classname="PointStatusIndicator" cb-indicator-type="alarm" cb-source="cR-dqq-j4U" id="9A" visibility="hidden">
<text baseline-shift="-50%" cb-classname="GraphicTextEntity" class="algorithm" fill="#000000" font-family="MS Shell Dlg" font-size="20" id="9I" text-anchor="middle" x="685" y="330">
A
</text>
</g>
<g cb-classname="PointStatusIndicator" cb-indicator-type="ingraphic" cb-source="Zr-lYv-LHF" id="9W" visibility="visible">
<text baseline-shift="-50%" cb-classname="GraphicTextEntity" class="algorithm" fill="#000000" font-family="MS Shell Dlg" font-size="20" id="9N" text-anchor="middle" x="735" y="330">
G
</text>
</g>
<g cb-classname="DynamicText" cb-labeled="false" cb-pin-name="2Lr" cb-source="PH-tqX-o4H" class="algorithm" id="9B" text-anchor="middle">
<text cb-classname="GraphicTextEntity" class="algorithm" fill="black" font-family="arial" font-size="20" font-style="normal" font-weight="normal" id="9v" text-anchor="middle" text-decoration="normal" x="710" y="300"/>
</g>
<g baseline-shift="-100%" cb-anchor-x="730" cb-anchor-y="480" cb-classname="PointReferences" cb-max-width="160" cb-originator="true" cb-source="Tw-FZG-BPv" class="signal" id="9h" text-anchor="start">
<text baseline-shift="-100%" cb-classname="GraphicTextEntity" class="algorithm" id="9c" text-anchor="start" x="730" y="480">
REF: Point not
</text>
<text baseline-shift="-100%" cb-classname="GraphicTextEntity" class="algorithm" id="9h9" text-anchor="start" x="730" y="505">
found in database
</text>
<text baseline-shift="-100%" cb-classname="GraphicTextEntity" class="algorithm" id="9h3" text-anchor="start" x="730" y="530">
(01FT104-CMP)
</text>
</g>
<g baseline-shift="0%" cb-anchor-x="710" cb-anchor-y="260" cb-classname="PointDescription" cb-content="extended" cb-labeled="false" cb-max-width="240" cb-source="xu-atJ-94d" class="algorithm" id="9k" text-anchor="middle">
<text baseline-shift="0%" cb-classname="GraphicTextEntity" class="algorithm" id="1wI" text-anchor="middle" x="710" y="235">
DESC: Point not found in
</text>
<text baseline-shift="0%" cb-classname="GraphicTextEntity" class="algorithm" id="1k3" text-anchor="middle" x="710" y="260">
database (01FT104-CMP)
</text>
</g>
</g>
<g cb-alg-ZPWz="450" cb-alg-ZPXo="5" cb-alg-i5d="$64$cb-alg-out$" cb-alg-o4H="01FT104-H01" cb-alg-qPMf="63" cb-algorithm-id="002" cb-classname="ControlAlgorithm" cb-function-name="HIGHMON" cb-modify-id="00000001" id="2wp">
<g cb-classname="ControlPin" cb-pin-name="2s-wuu-25U" id="2wu">
<line cb-classname="GraphicLineEntity" class="signalline" id="2w9" x1="1120" x2="1140" y1="760" y2="760"/>
<polygon cb-classname="GraphicPolygonEntity" class="signal" id="2w3" points="1140,760 1129,756 1129,764"/>
<g cb-classname="DynamicText" cb-source="Zr-DyF-QeXn" class="signal" id="2AI" text-anchor="end">
<text baseline-shift="5%" cb-classname="GraphicTextEntity" class="signal" fill="black" font-style="normal" font-weight="normal" id="2As" text-anchor="end" text-decoration="normal" x="1140" y="752"/>
</g>
</g>
<g cb-classname="ControlPin" cb-pin-name="PH-tqX-o4H" id="2An">
<line cb-classname="GraphicLineEntity" class="signalline" id="2A8" x1="1220" x2="1240" y1="760" y2="760"/>
<g cb-classname="DynamicText" cb-source="Tw-6lE-LZ5v" class="signal" id="2A1">
<text baseline-shift="5%" cb-classname="GraphicTextEntity" class="signal" fill="black" font-style="normal" font-weight="normal" id="2Ak" text-decoration="normal" x="1235" y="752"/>
</g>
<g cb-classname="SignalSegment" id="2Bn">
<g cb-classname="SignalConnection" cb-graphic-line="$255$" cb-input-pin="$m5Y$" id="2Bp"/>
<line cb-classname="GraphicLineEntity" class="signalline" id="2Bk" stroke="#1e12bf" stroke-dasharray="5,4" x1="1240" x2="1660" y1="760" y2="760"/>
</g>
</g>
<rect cb-classname="GraphicRectangleEntity" class="algorithm" height="40" id="2Ap" width="80" x="1140" y="740"/>
<line cb-classname="GraphicLineEntity" class="algorithmline" id="2Au" x1="1188" x2="1168" y1="740" y2="780"/>
<line cb-classname="GraphicLineEntity" class="algorithmline" id="2A9" x1="1192" x2="1172" y1="740" y2="780"/>
<text baseline-shift="-50%" cb-classname="GraphicTextEntity" class="algorithm" id="2A3" text-anchor="middle" x="1156" y="759">
H
</text>
<g cb-classname="DynamicText" cb-labeled="true" cb-source="cR-dqq-ZHfi" class="algorithm" id="2W1" text-anchor="start">
<text cb-classname="GraphicTextEntity" class="algorithm" fill="black" font-style="normal" font-weight="normal" id="2Wk" text-anchor="start" text-decoration="normal" x="1140" y="730"/>
</g>
<g cb-classname="DynamicText" cb-labeled="true" cb-source="Zr-lYv-nlxb" class="algorithm" id="2Wp" text-anchor="start">
<text cb-classname="GraphicTextEntity" class="algorithm" fill="black" font-style="normal" font-weight="normal" id="2Wu" text-anchor="start" text-decoration="normal" x="1140" y="710"/>
</g>
</g>
<g cb-alg-T1="$206$cb-alg-out$" cb-algorithm-id="004" cb-classname="ExternalPointInterface" cb-function-name="OUTPUT" id="1Is">
<ellipse cb-classname="GraphicEllipseEntity" class="algorithm" cx="1740" cy="760" id="1In" rx="50" ry="50"/>
<rect cb-classname="GraphicRectangleEntity" class="algorithm" height="100" id="1I8" width="40" x="1790" y="710"/>
<line cb-classname="GraphicLineEntity" class="algorithm" id="1I1" x1="1790" x2="1830" y1="760" y2="760"/>
<g cb-classname="ControlPin" cb-pin-name="xu-atJ-fs" id="1Ik">
<line cb-classname="GraphicLineEntity" class="signalline" id="1Ip" x1="1660" x2="1690" y1="760" y2="760"/>
<polygon cb-classname="GraphicPolygonEntity" class="signal" id="1Iu" points="1690,760 1679,754 1679,765"/>
<g cb-classname="DynamicText" cb-source="Pg-zfs-EfGw" class="signal" id="1I9" text-anchor="end">
<text cb-classname="GraphicTextEntity" class="signal" fill="black" font-style="normal" font-weight="normal" id="1I3" text-anchor="end" text-decoration="normal" x="1675" y="757"/>
</g>
</g>
<g cb-classname="PointStatusIndicator" cb-indicator-type="highway" cb-source="cR-dqq-cn" id="1WI" visibility="hidden">
<line cb-classname="GraphicLineEntity" class="algorithmline" id="1Ws" x1="1690" x2="1740" y1="760" y2="710"/>
<line cb-classname="GraphicLineEntity" class="algorithmline" id="1Wn" x1="1740" x2="1790" y1="710" y2="760"/>
<line cb-classname="GraphicLineEntity" class="algorithmline" id="1W8" x1="1790" x2="1740" y1="760" y2="810"/>
<line cb-classname="GraphicLineEntity" class="algorithmline" id="1W1" x1="1740" x2="1690" y1="810" y2="760"/>
</g>
<g cb-classname="PointStatusIndicator" cb-indicator-type="hardware" cb-source="oN-i4p-PL" id="1Wk" visibility="hidden">
<line cb-classname="GraphicLineEntity" class="algorithmline" id="1Wp" x1="1790" x2="1690" y1="710" y2="710"/>
<line cb-classname="GraphicLineEntity" class="algorithmline" id="1Wu" x1="1690" x2="1690" y1="710" y2="810"/>
<line cb-classname="GraphicLineEntity" class="algorithmline" id="1W9" x1="1690" x2="1790" y1="810" y2="810"/>
</g>
<g cb-classname="PointStatusIndicator" cb-indicator-type="alarm" cb-source="Di-O4f-Cr" id="1W3" visibility="hidden">
<text cb-classname="GraphicTextEntity" class="algorithm" fill="#000000" font-family="Arial" font-size="20" id="1NI" x="1800" y="795">
A
</text>
</g>
<g cb-classname="PointStatusIndicator" cb-indicator-type="ingraphic" cb-source="Pg-ZPq-a1" id="1Ns" visibility="hidden">
<text cb-classname="GraphicTextEntity" class="algorithm" fill="#000000" font-family="Arial" font-size="20" id="1Nn" x="1800" y="745">
G
</text>
</g>
<g cb-classname="DynamicText" cb-labeled="false" cb-pin-name="I0" cb-source="cR-dqq-cn" class="algorithm" id="1N8" text-anchor="end">
<text baseline-shift="0%" cb-classname="GraphicTextEntity" class="algorithm" fill="black" font-family="arial" font-size="20" font-style="normal" font-weight="normal" id="1N1" text-anchor="end" text-decoration="normal" x="1665" y="735"/>
</g>
<g baseline-shift="-100%" cb-anchor-x="1665" cb-anchor-y="770" cb-classname="PointReferences" cb-max-width="130" cb-originator="false" cb-source="Zr-lYv-BA" class="signal" id="1Nk" text-anchor="end">
<text baseline-shift="-100%" cb-classname="GraphicTextEntity" class="algorithm" id="1Np" text-anchor="end" x="1665" y="770">
REF: Point not
</text>
<text baseline-shift="-100%" cb-classname="GraphicTextEntity" class="algorithm" id="9cs" text-anchor="end" x="1665" y="795">
found in
</text>
<text baseline-shift="-100%" cb-classname="GraphicTextEntity" class="algorithm" id="9cn" text-anchor="end" x="1665" y="820">
database
</text>
<text baseline-shift="-100%" cb-classname="GraphicTextEntity" class="algorithm" id="9c8" text-anchor="end" x="1665" y="845">
(01FT104-H01)
</text>
</g>
<g baseline-shift="-50%" cb-anchor-x="1845" cb-anchor-y="775" cb-classname="PointDescription" cb-content="extended" cb-labeled="false" cb-max-width="240" cb-source="oN-i4p-PL" class="algorithm" id="1N9" text-anchor="start">
<text baseline-shift="-50%" cb-classname="GraphicTextEntity" class="algorithm" id="1N3" text-anchor="start" x="1845" y="763">
DESC: Point not found in
</text>
<text baseline-shift="-50%" cb-classname="GraphicTextEntity" class="algorithm" id="2w1" text-anchor="start" x="1845" y="788">
database (01FT104-H01)
</text>
</g>
</g>
<g cb-alg-PL0="$64$cb-alg-out$" cb-alg-eqK="01FT104-L01" cb-alg-tBIM="150" cb-alg-tBmj="3" cb-alg-wVZm="60" cb-algorithm-id="007" cb-classname="ControlAlgorithm" cb-function-name="LOWMON" cb-modify-id="00000001" id="2II">
<g cb-classname="ControlPin" cb-pin-name="cR-dqq-cnv" id="2Is">
<line cb-classname="GraphicLineEntity" class="signalline" id="2In" x1="1120" x2="1140" y1="940" y2="940"/>
<polygon cb-classname="GraphicPolygonEntity" class="signal" id="2I8" points="1140,940 1129,936 1129,944"/>
<g cb-classname="DynamicText" cb-source="TV-Lcn-Aa7y" class="signal" id="2I1" text-anchor="end">
<text baseline-shift="5%" cb-classname="GraphicTextEntity" class="signal" fill="black" font-style="normal" font-weight="normal" id="2Ik" text-anchor="end" text-decoration="normal" x="1137" y="932"/>
</g>
</g>
<g cb-classname="ControlPin" cb-pin-name="oN-i4p-eqK" id="2Ip">
<line cb-classname="GraphicLineEntity" class="signalline" id="2Iu" x1="1220" x2="1240" y1="940" y2="940"/>
<g cb-classname="DynamicText" cb-source="kP-1i5-2w8D" class="signal" id="2I9">
<text baseline-shift="5%" cb-classname="GraphicTextEntity" class="signal" fill="black" font-style="normal" font-weight="normal" id="2I3" text-decoration="normal" x="1235" y="932"/>
</g>
<g cb-classname="SignalSegment" id="2Bu">
<g cb-classname="SignalConnection" cb-graphic-line="$260$" cb-input-pin="$scL$" id="2vs"/>
<line cb-classname="GraphicLineEntity" class="signalline" id="2vI" stroke="#1e12bf" stroke-dasharray="5,4" x1="1240" x2="1660" y1="940" y2="940"/>
</g>
</g>
<rect cb-classname="GraphicRectangleEntity" class="algorithm" height="40" id="2WI" width="80" x="1140" y="920"/>
<line cb-classname="GraphicLineEntity" class="algorithmline" id="2Ws" x1="1188" x2="1168" y1="920" y2="960"/>
<line cb-classname="GraphicLineEntity" class="algorithmline" id="2Wn" x1="1192" x2="1172" y1="920" y2="960"/>
<text baseline-shift="-50%" cb-classname="GraphicTextEntity" class="algorithm" id="2W8" text-anchor="middle" x="1205" y="939">
L
</text>
<g cb-classname="DynamicText" cb-labeled="true" cb-source="PH-tqX-HeXo" class="algorithm" id="2W9" text-anchor="start">
<text cb-classname="GraphicTextEntity" class="algorithm" fill="black" font-style="normal" font-weight="normal" id="2W3" text-anchor="start" text-decoration="normal" x="1140" y="910"/>
</g>
<g cb-classname="DynamicText" cb-labeled="true" cb-source="Tw-FZG-4NUG" class="algorithm" id="2NI" text-anchor="start">
<text cb-classname="GraphicTextEntity" class="algorithm" fill="black" font-style="normal" font-weight="normal" id="2Ns" text-anchor="start" text-decoration="normal" x="1140" y="890"/>
</g>
</g>
<g cb-alg-gc="$220$cb-alg-out$" cb-algorithm-id="006" cb-classname="ExternalPointInterface" cb-function-name="OUTPUT" id="1hI">
<ellipse cb-classname="GraphicEllipseEntity" class="algorithm" cx="1740" cy="940" id="1hs" rx="50" ry="50"/>
<rect cb-classname="GraphicRectangleEntity" class="algorithm" height="100" id="1hn" width="40" x="1790" y="890"/>
<line cb-classname="GraphicLineEntity" class="algorithm" id="1h8" x1="1790" x2="1830" y1="940" y2="940"/>
<g cb-classname="ControlPin" cb-pin-name="oN-i4p-PL" id="1h1">
<line cb-classname="GraphicLineEntity" class="signalline" id="1hk" x1="1660" x2="1690" y1="940" y2="940"/>
<polygon cb-classname="GraphicPolygonEntity" class="signal" id="1hp" points="1690,940 1679,934 1679,945"/>
<g cb-classname="DynamicText" cb-source="xu-VPL-nY7i" class="signal" id="1hu" text-anchor="end">
<text cb-classname="GraphicTextEntity" class="signal" fill="black" font-style="normal" font-weight="normal" id="1h9" text-anchor="end" text-decoration="normal" x="1675" y="937"/>
</g>
</g>
<g cb-classname="PointStatusIndicator" cb-indicator-type="highway" cb-source="7D-Mqm-BE" id="1h3" visibility="hidden">
<line cb-classname="GraphicLineEntity" class="algorithmline" id="1cI" x1="1690" x2="1740" y1="940" y2="890"/>
<line cb-classname="GraphicLineEntity" class="algorithmline" id="1cs" x1="1740" x2="1790" y1="890" y2="940"/>
<line cb-classname="GraphicLineEntity" class="algorithmline" id="1cn" x1="1790" x2="1740" y1="940" y2="990"/>
<line cb-classname="GraphicLineEntity" class="algorithmline" id="1c8" x1="1740" x2="1690" y1="990" y2="940"/>
</g>
<g cb-classname="PointStatusIndicator" cb-indicator-type="hardware" cb-source="Zr-lYv-BA" id="1c1" visibility="hidden">
<line cb-classname="GraphicLineEntity" class="algorithmline" id="1ck" x1="1790" x2="1690" y1="890" y2="890"/>
<line cb-classname="GraphicLineEntity" class="algorithmline" id="1cp" x1="1690" x2="1690" y1="890" y2="990"/>
<line cb-classname="GraphicLineEntity" class="algorithmline" id="1cu" x1="1690" x2="1790" y1="990" y2="990"/>
</g>
<g cb-classname="PointStatusIndicator" cb-indicator-type="alarm" cb-source="Tw-FZG-V2" id="1c9" visibility="hidden">
<text cb-classname="GraphicTextEntity" class="algorithm" fill="#000000" font-family="Arial" font-size="20" id="1c3" x="1800" y="975">
A
</text>
</g>
<g cb-classname="PointStatusIndicator" cb-indicator-type="ingraphic" cb-source="xu-atJ-fs" id="1kI" visibility="hidden">
<text cb-classname="GraphicTextEntity" class="algorithm" fill="#000000" font-family="Arial" font-size="20" id="1ks" x="1800" y="925">
G
</text>
</g>
<g cb-classname="DynamicText" cb-labeled="false" cb-pin-name="y2" cb-source="7D-Mqm-BE" class="algorithm" id="1kn" text-anchor="end">
<text baseline-shift="0%" cb-classname="GraphicTextEntity" class="algorithm" fill="black" font-family="arial" font-size="20" font-style="normal" font-weight="normal" id="1k8" text-anchor="end" text-decoration="normal" x="1665" y="915"/>
</g>
<g baseline-shift="-100%" cb-anchor-x="1665" cb-anchor-y="950" cb-classname="PointReferences" cb-max-width="130" cb-originator="false" cb-source="2s-wuu-25" class="signal" id="1k1" text-anchor="end">
<text baseline-shift="-100%" cb-classname="GraphicTextEntity" class="algorithm" id="1kk" text-anchor="end" x="1665" y="950">
REF: Point not
</text>
<text baseline-shift="-100%" cb-classname="GraphicTextEntity" class="algorithm" id="9ck" text-anchor="end" x="1665" y="975">
found in
</text>
<text baseline-shift="-100%" cb-classname="GraphicTextEntity" class="algorithm" id="9cp" text-anchor="end" x="1665" y="1000">
database
</text>
<text baseline-shift="-100%" cb-classname="GraphicTextEntity" class="algorithm" id="9cu" text-anchor="end" x="1665" y="1025">
(01FT104-L01)
</text>
</g>
<g baseline-shift="-50%" cb-anchor-x="1845" cb-anchor-y="955" cb-classname="PointDescription" cb-content="extended" cb-labeled="false" cb-max-width="240" cb-source="Zr-lYv-BA" class="algorithm" id="1ku" text-anchor="start">
<text baseline-shift="-50%" cb-classname="GraphicTextEntity" class="algorithm" id="1k9" text-anchor="start" x="1845" y="943">
DESC: Point not found in
</text>
<text baseline-shift="-50%" cb-classname="GraphicTextEntity" class="algorithm" id="2wk" text-anchor="start" x="1845" y="968">
database (01FT104-L01)
</text>
</g>
</g>
</g>
<g cb-classname="IncludeDocument" cb-modify-time="09/25/2018 01:40:30" cb-objectname="Frame" id="5">
<text cb-classname="GraphicTextEntity" class="frame" font-size="50" id="1wk1" x="3660" y="3146">
Project Title &lt;Edit in FRAME.SVG&gt;
</text>
<g baseline-shift="-50%" cb-classname="DynamicText" cb-source="Pg-mJx9-2Z" class="frame" id="1wkC">
<text cb-classname="GraphicTextEntity" class="frame" fill="black" font-family="arial" font-size="25" font-style="normal" font-weight="normal" id="1wkA" text-decoration="normal" x="4715" y="3325">
13
</text>
</g>
<g baseline-shift="-50%" cb-classname="DynamicText" cb-source="cR-893L-Hf" class="frame" id="1wka" text-anchor="middle">
<text cb-classname="GraphicTextEntity" class="frame" fill="black" font-family="arial" font-size="48" font-style="normal" font-weight="normal" id="1wkK" text-anchor="middle" text-decoration="normal" x="4900" y="3320">
13
</text>
</g>
<g baseline-shift="-50%" cb-classname="DynamicText" cb-source="Zr-A493-lq" class="frame" id="1wku" text-anchor="middle">
<text cb-classname="GraphicTextEntity" class="frame" fill="black" font-family="arial" font-size="48" font-style="normal" font-weight="normal" id="1wkm" text-anchor="middle" text-decoration="normal" x="5067" y="3324">
3
</text>
</g>
<g cb-classname="DynamicText" cb-source="PH-9BdsF-HVvuD" class="frame" id="1wkc">
<text cb-classname="GraphicTextEntity" class="frame" fill="black" font-family="arial" font-size="48" font-style="normal" font-weight="normal" id="1wk4" text-decoration="normal" x="3660" y="3224">
BFPT Flow Limits
</text>
</g>
<g baseline-shift="-50%" cb-classname="DynamicText" cb-source="Tw-R6knH-n47xNV" class="frame" id="1wkg" text-anchor="middle">
<text cb-classname="GraphicTextEntity" class="frame" fill="black" font-family="arial" font-size="48" font-style="normal" font-weight="normal" id="1wp1" text-anchor="middle" text-decoration="normal" x="5270" y="3324">
001
</text>
</g>
<g baseline-shift="0%" cb-classname="DynamicText" cb-source="xu-UnbVUCyE" class="frame" id="1wpC" text-anchor="middle">
<text cb-classname="GraphicTextEntity" class="frame" fill="black" font-family="arial" font-size="36" font-style="normal" font-weight="normal" id="1wpA" text-anchor="middle" text-decoration="normal" x="5270" y="3150">
A
</text>
</g>
<g baseline-shift="0%" cb-classname="DynamicText" cb-source="7D-3lHClaJ5-2PHa" class="frame" id="1wpa" text-anchor="middle">
<text cb-classname="GraphicTextEntity" class="frame" fill="black" font-family="arial" font-size="20" font-style="normal" font-weight="normal" id="1wpK" text-anchor="middle" text-decoration="normal" x="5270" y="3230">
12/28/2010
</text>
</g>
<g baseline-shift="-50%" cb-classname="DynamicText" cb-source="2s-Ksua1nwg" class="frame" id="1wpu" text-anchor="end">
<text cb-classname="GraphicTextEntity" class="frame" fill="black" font-family="arial" font-size="26" font-style="normal" font-weight="normal" id="1wpm" text-anchor="end" text-decoration="normal" x="4500" y="3420">
Dufek
</text>
</g>
<g baseline-shift="-50%" cb-classname="DynamicText" cb-source="J0-9MecemsU" class="frame" id="1wpc" text-anchor="end">
<text cb-classname="GraphicTextEntity" class="frame" fill="black" font-family="arial" font-size="26" font-style="normal" font-weight="normal" id="1wp4" text-anchor="end" text-decoration="normal" x="5353" y="3420">
Nemec
</text>
</g>
<g cb-classname="GraphicShape" cb-tag="BORDER" id="1wpg">
<line cb-classname="GraphicLineEntity" class="frameline" id="1wu1" x1="40" x2="40" y1="40" y2="3460"/>
<line cb-classname="GraphicLineEntity" class="frameline" id="1wuC" x1="40" x2="5380" y1="3460" y2="3460"/>
<line cb-classname="GraphicLineEntity" class="frameline" id="1wuA" x1="5380" x2="5380" y1="3460" y2="40"/>
<line cb-classname="GraphicLineEntity" class="frameline" id="1wua" x1="5380" x2="40" y1="40" y2="40"/>
<line cb-classname="GraphicLineEntity" class="frame" id="1wuK" x1="5430" x2="5440" y1="3510" y2="3510"/>
</g>
<g cb-classname="GraphicShape" cb-tag="TITLE BOX" id="1wuu">
<line cb-classname="GraphicLineEntity" class="frameline" id="1wum" x1="2340" x2="2340" y1="3080" y2="3460"/>
<line cb-classname="GraphicLineEntity" class="frameline" id="1wuc" x1="2340" x2="5380" y1="3080" y2="3080"/>
<line cb-classname="GraphicLineEntity" class="frameline" id="1wu4" x1="3650" x2="3650" y1="3460" y2="3080"/>
<line cb-classname="GraphicLineEntity" class="frameline" id="1wug" x1="3650" x2="5380" y1="3240" y2="3240"/>
<line cb-classname="GraphicLineEntity" class="frameline" id="1w91" x1="3650" x2="5380" y1="3390" y2="3390"/>
<line cb-classname="GraphicLineEntity" class="frameline" id="1w9C" x1="3650" x2="5380" y1="3160" y2="3160"/>
<line cb-classname="GraphicLineEntity" class="frameline" id="1w9A" x1="3650" x2="4520" y1="3320" y2="3320"/>
<line cb-classname="GraphicLineEntity" class="frameline" id="1w9a" x1="4520" x2="5380" y1="3290" y2="3290"/>
<line cb-classname="GraphicLineEntity" class="frameline" id="1w9K" x1="4520" x2="5380" y1="3240" y2="3240"/>
<line cb-classname="GraphicLineEntity" class="frameline" id="1w9u" x1="4520" x2="4520" y1="3240" y2="3460"/>
<line cb-classname="GraphicLineEntity" class="frameline" id="1w9m" x1="4810" x2="4810" y1="3240" y2="3390"/>
<line cb-classname="GraphicLineEntity" class="frameline" id="1w9c" x1="4990" x2="4990" y1="3240" y2="3390"/>
<line cb-classname="GraphicLineEntity" class="frameline" id="1w94" x1="5150" x2="5150" y1="3080" y2="3390"/>
</g>
<g cb-classname="GraphicShape" cb-tag="TEXT LABELS" id="1w9g">
<text baseline-shift="-50%" cb-classname="GraphicTextEntity" class="frame" font-size="25" id="1w31" text-anchor="middle" x="4890" y="3252">
Drop
</text>
<text baseline-shift="-50%" cb-classname="GraphicTextEntity" class="frame" font-size="25" id="1w3C" text-anchor="middle" x="5075" y="3252">
Task
</text>
<text baseline-shift="-50%" cb-classname="GraphicTextEntity" class="frame" font-size="25" id="1w3A" text-anchor="middle" x="5265" y="3252">
Sheet
</text>
<text cb-classname="GraphicTextEntity" class="frame" font-size="25" id="1w3a" x="5152" y="3107">
Rev.
</text>
<text cb-classname="GraphicTextEntity" class="frame" font-size="25" id="1w3K" x="3653" y="3418">
Engineer
</text>
<text cb-classname="GraphicTextEntity" class="frame" font-size="25" id="1w3u" x="4528" y="3419">
Approved
</text>
<text cb-classname="GraphicTextEntity" class="frame" font-size="25" id="1w3m" x="5152" y="3187">
Date
</text>
<text baseline-shift="-50%" cb-classname="GraphicTextEntity" class="frame" font-size="25" id="1w3c" text-anchor="middle" x="4660" y="3252">
Drawing Number
</text>
<text baseline-shift="-50%" cb-classname="GraphicTextEntity" class="frame" font-size="25" id="1w34" text-anchor="middle" x="4680" y="3325">
CTL
</text>
</g>
<text baseline-shift="-50%" cb-classname="GraphicTextEntity" class="frame" font-size="48" id="1w3g" text-anchor="middle" x="3000" y="3100">
EMERSON PROCESS MANAGEMENT
</text>
<g baseline-shift="-100%" cb-anchor-x="2360" cb-anchor-y="3140" cb-classname="GroupText" cb-max-width="1260" fill="black" id="1AI1">
<text baseline-shift="-100%" cb-classname="GraphicTextEntity" class="frame" fill="black" font-family="arial" font-size="22" font-weight="normal" id="1AIC" text-anchor="start" text-decoration="normal" x="2360" y="3140">
THIS DOCUMENT CONTAINS INFORMATION PROPRIETARY TO EMERSON PROCESS
</text>
<text baseline-shift="-100%" cb-classname="GraphicTextEntity" class="frame" fill="black" font-family="arial" font-size="22" font-weight="normal" id="1AIA" text-anchor="start" text-decoration="normal" x="2360" y="3176">
MANAGEMENT POWER &amp; WATER SOLUTIONS, INC. IT IS SUBMITTED IN CONFIDENCE AND
</text>
<text baseline-shift="-100%" cb-classname="GraphicTextEntity" class="frame" fill="black" font-family="arial" font-size="22" font-weight="normal" id="1AIa" text-anchor="start" text-decoration="normal" x="2360" y="3212">
TRUST, IS TO BE USED BY YOU SOLELY FOR THE PURPOSES FOR WHICH IT IS
</text>
<text baseline-shift="-100%" cb-classname="GraphicTextEntity" class="frame" fill="black" font-family="arial" font-size="22" font-weight="normal" id="1AIK" text-anchor="start" text-decoration="normal" x="2360" y="3248">
FURNISHED AND IS TO BE RETURNED UPON REQUEST. THIS DOCUMENT AND ANY
</text>
<text baseline-shift="-100%" cb-classname="GraphicTextEntity" class="frame" fill="black" font-family="arial" font-size="22" font-weight="normal" id="1AIu" text-anchor="start" text-decoration="normal" x="2360" y="3284">
OTHER INFORMATION PROVIDED TO YOU IS NOT TO BE REPRODUCED, TRANSMITTED,
</text>
<text baseline-shift="-100%" cb-classname="GraphicTextEntity" class="frame" fill="black" font-family="arial" font-size="22" font-weight="normal" id="1AIm" text-anchor="start" text-decoration="normal" x="2360" y="3320">
DISCLOSED, OR USED OTHERWISE IN WHOLE OR IN PART WITHOUT THE PRIOR
</text>
<text baseline-shift="-100%" cb-classname="GraphicTextEntity" class="frame" fill="black" font-family="arial" font-size="22" font-weight="normal" id="1AIc" text-anchor="start" text-decoration="normal" x="2360" y="3356">
WRITTEN AUTHORIZATION OF EMERSON PROCESS MANAGEMENT POWER &amp; WATER
</text>
<text baseline-shift="-100%" cb-classname="GraphicTextEntity" class="frame" fill="black" font-family="arial" font-size="22" font-weight="normal" id="1AI4" text-anchor="start" text-decoration="normal" x="2360" y="3392">
SOLUTIONS,INC.
</text>
</g>
</g>
</svg>