<?xml version="1.0" ?><svg cb-auto-time="04/13/2008 06:28:48" cb-classname="ControlFunction" cb-create-time="03/12/2008" cb-drop-id="13" cb-engineer="Heczko" cb-filename="Z:\OVATION\NET0\UNIT0\CONTROLFUNCTIONS\0422.svg" cb-function-id="0422" cb-key="152551123424" cb-modified-timestamp="1489320067" cb-modify-id="00000002" cb-path="Z:/OVATION/NET0/UNIT0/CONTROLFUNCTIONS" cb-reviewer="Nemec" cb-revision="A" cb-revision-time="12/28/2010" cb-sheet-number="127" cb-sheet-title="BFPT LP STM PIPE DRN VLV B-B0201D08B" cb-snap-grid="10" cb-task-id="4" height="3707" id="1" width="5450" xmlns="http://www.w3.org/2000/svg">
<style cb-classname="EntityStyle" id="2" type="text/css">
	.algorithm { fill: white; stroke: black; stroke-linecap: round; stroke-width: 2 }
	.algorithm-function { fill: none; stroke: black; stroke-linecap: round; stroke-width: 2 }
	.algorithm-functionline { fill: none; stroke: black; stroke-linecap: round; stroke-width: 2 }
	.algorithm-name { fill: none; stroke: black; stroke-linecap: round; stroke-width: 2 }
	.algorithm-nameline { fill: none; stroke: black; stroke-linecap: round; stroke-width: 2 }
	.algorithm-sequence { fill: none; stroke: black; stroke-linecap: round; stroke-width: 2 }
	.algorithm-sequenceline { fill: none; stroke: black; stroke-linecap: round; stroke-width: 2 }
	.algorithmline { fill: none; stroke: black; stroke-linecap: round; stroke-width: 2 }
	.annotation { fill: none; stroke: black; stroke-linecap: round; stroke-width: 2 }
	.annotationline { fill: none; stroke: black; stroke-linecap: round; stroke-width: 2 }
	.frame { fill: none; stroke: black; stroke-linecap: round; stroke-width: 2 }
	.frameline { fill: none; stroke: black; stroke-linecap: round; stroke-width: 2 }
	.signal { fill: black; stroke: black; stroke-linecap: round; stroke-width: 2 }
	.signalline { fill: none; stroke: black; stroke-linecap: round; stroke-width: 2 }
	text.algorithm { fill: black; font-family: MS Shell Dlg 2; font-size: 14; stroke: none }
	text.algorithm-function { fill: black; font-family: MS Shell Dlg 2; font-size: 16; stroke: none }
	text.algorithm-name { fill: black; font-family: MS Shell Dlg 2; font-size: 16; stroke: none }
	text.algorithm-sequence { fill: black; font-family: MS Shell Dlg 2; font-size: 16; stroke: none }
	text.annotation { fill: black; font-family: MS Shell Dlg 2; font-size: 16; stroke: none }
	text.frame { fill: black; font-family: MS Shell Dlg 2; font-size: 16; stroke: none }
	text.signal { fill: black; font-family: MS Shell Dlg 2; font-size: 12; stroke: none }
</style>
<g cb-classname="NamedObject" cb-objectname="Comments" id="3">
<text cb-classname="GraphicTextEntity" class="annotation" fill="#000000" font-family="MS Shell Dlg 2" font-size="72" id="6wN" x="2740" y="1460">
PCMS1
</text>
</g>
<g cb-classname="AlgorithmContainer" cb-objectname="Algorithms" id="4">
<g cb-alg-a44="01B0201D08B-KB" cb-alg-dkIJ="128" cb-alg-lr3J="5" cb-algorithm-id="002" cb-classname="ControlAlgorithm" cb-function-name="KEYBOARD" cb-modify-id="00000001" id="6f">
<rect cb-classname="GraphicRectangleEntity" class="annotation" height="200" id="6i" stroke-width="1" width="140" x="1400" y="560"/>
<g cb-classname="ControlPin" cb-pin-name="wk-po9-iP84" id="6w">
<line cb-classname="GraphicLineEntity" class="signalline" id="6C" x1="1540" x2="1550" y1="570" y2="570"/>
<g cb-classname="DynamicText" cb-source="q8-mLu-Rjeb" class="signal" id="6K" text-anchor="start">
<text cb-classname="GraphicTextEntity" class="signal" fill="black" font-style="normal" font-weight="normal" id="7U" text-anchor="start" text-decoration="normal" x="1554" y="567"/>
</g>
<g cb-classname="SignalSegment" id="7N">
<line cb-classname="GraphicLineEntity" class="signalline" id="7D" stroke="#1e12bf" stroke-dasharray="5,4" x1="1550" x2="2320" y1="570" y2="570"/>
<g cb-classname="SignalSegment" id="75">
<line cb-classname="GraphicLineEntity" class="signalline" id="7x" stroke="#1e12bf" stroke-dasharray="5,4" x1="2320" x2="2320" y1="570" y2="640"/>
<g cb-classname="SignalSegment" id="7f">
<line cb-classname="GraphicLineEntity" class="signalline" id="7i" stroke="#1e12bf" stroke-dasharray="5,4" x1="2320" x2="2490" y1="640" y2="640"/>
<g cb-classname="SignalConnection" cb-graphic-line="$76$" cb-input-pin="$Gl4$" id="7w"/>
</g>
</g>
</g>
</g>
<g cb-classname="ControlPin" cb-pin-name="cJ-y13-Wpit" id="7C">
<line cb-classname="GraphicLineEntity" class="signalline" id="7K" x1="1540" x2="1550" y1="590" y2="590"/>
<g cb-classname="DynamicText" cb-source="wk-lHB-ukiz" class="signal" id="8U" text-anchor="start">
<text cb-classname="GraphicTextEntity" class="signal" fill="black" font-style="normal" font-weight="normal" id="8N" text-anchor="start" text-decoration="normal" x="1554" y="587"/>
</g>
<g cb-classname="SignalSegment" id="8D">
<line cb-classname="GraphicLineEntity" class="signalline" id="85" stroke="#1e12bf" stroke-dasharray="5,4" x1="1550" x2="2300" y1="590" y2="590"/>
<g cb-classname="SignalSegment" id="8x">
<line cb-classname="GraphicLineEntity" class="signalline" id="8f" stroke="#1e12bf" stroke-dasharray="5,4" x1="2300" x2="2300" y1="590" y2="680"/>
<g cb-classname="SignalSegment" id="8i">
<line cb-classname="GraphicLineEntity" class="signalline" id="8w" stroke="#1e12bf" stroke-dasharray="5,4" x1="2300" x2="2490" y1="680" y2="680"/>
<g cb-classname="SignalConnection" cb-graphic-line="$87$" cb-input-pin="$mDk$" id="8C"/>
</g>
</g>
</g>
</g>
<g cb-classname="ControlPin" cb-pin-name="sZ-udq-5oh8" id="8K">
<line cb-classname="GraphicLineEntity" class="signalline" id="9U" x1="1540" x2="1550" y1="610" y2="610"/>
<g cb-classname="DynamicText" cb-source="cJ-Fy5-BFjl" class="signal" id="9N" text-anchor="start">
<text cb-classname="GraphicTextEntity" class="signal" fill="black" font-style="normal" font-weight="normal" id="9D" text-anchor="start" text-decoration="normal" x="1554" y="607"/>
</g>
</g>
<g cb-classname="ControlPin" cb-pin-name="df-jff-ZtS" id="1UB">
<line cb-classname="GraphicLineEntity" class="signalline" id="1UT" x1="1540" x2="1550" y1="630" y2="630"/>
<g cb-classname="DynamicText" cb-source="sZ-DwN-SjwE" class="signal" id="1Up" text-anchor="start">
<text cb-classname="GraphicTextEntity" class="signal" fill="black" font-style="normal" font-weight="normal" id="1UA" text-anchor="start" text-decoration="normal" x="1554" y="627"/>
</g>
</g>
<g cb-classname="ControlPin" cb-pin-name="Wt-kL5-D6Y" id="1NT">
<line cb-classname="GraphicLineEntity" class="signalline" id="1Np" x1="1540" x2="1550" y1="660" y2="660"/>
<g cb-classname="DynamicText" cb-source="df-t7U-NtVu" class="signal" id="1NA" text-anchor="start">
<text cb-classname="GraphicTextEntity" class="signal" fill="black" font-style="normal" font-weight="normal" id="1NN" text-anchor="start" text-decoration="normal" x="1554" y="657"/>
</g>
<g cb-classname="SignalSegment" id="1Na">
<line cb-classname="GraphicLineEntity" class="signalline" id="1Nh" stroke="#1e12bf" stroke-dasharray="5,4" x1="1550" x2="2200" y1="660" y2="660"/>
<g cb-classname="SignalSegment" id="1Nm">
<line cb-classname="GraphicLineEntity" class="signalline" id="1ND" stroke="#1e12bf" stroke-dasharray="5,4" x1="2200" x2="2200" y1="660" y2="800"/>
<g cb-classname="SignalSegment" id="1N6">
<line cb-classname="GraphicLineEntity" class="signalline" id="1DB" stroke="#1e12bf" stroke-dasharray="5,4" x1="2200" x2="2490" y1="800" y2="800"/>
<g cb-classname="SignalConnection" cb-graphic-line="$120$" cb-input-pin="$oVc$" id="1DT"/>
</g>
</g>
</g>
</g>
<g cb-classname="ControlPin" cb-pin-name="HE-Fxo-tMt" id="1Dp">
<line cb-classname="GraphicLineEntity" class="signalline" id="1DA" x1="1540" x2="1550" y1="680" y2="680"/>
<g cb-classname="DynamicText" cb-source="Wt-Po4-U9ZB" class="signal" id="1DN" text-anchor="start">
<text cb-classname="GraphicTextEntity" class="signal" fill="black" font-style="normal" font-weight="normal" id="1Da" text-anchor="start" text-decoration="normal" x="1554" y="677"/>
</g>
<g cb-classname="SignalSegment" id="1Dh">
<line cb-classname="GraphicLineEntity" class="signalline" id="1Dm" stroke="#1e12bf" stroke-dasharray="5,4" x1="1550" x2="2160" y1="680" y2="680"/>
<g cb-classname="SignalSegment" id="1DD">
<line cb-classname="GraphicLineEntity" class="signalline" id="1D6" stroke="#1e12bf" stroke-dasharray="5,4" x1="2160" x2="2160" y1="680" y2="840"/>
<g cb-classname="SignalSegment" id="15B">
<line cb-classname="GraphicLineEntity" class="signalline" id="15T" stroke="#1e12bf" stroke-dasharray="5,4" x1="2160" x2="2490" y1="840" y2="840"/>
<g cb-classname="SignalConnection" cb-graphic-line="$131$" cb-input-pin="$1u7$" id="15p"/>
</g>
</g>
</g>
</g>
<g cb-classname="ControlPin" cb-pin-name="6V-gRE-PNU" id="15A">
<line cb-classname="GraphicLineEntity" class="signalline" id="15N" x1="1540" x2="1550" y1="700" y2="700"/>
<g cb-classname="DynamicText" cb-source="HE-0r7-4Pvy" class="signal" id="15a" text-anchor="start">
<text cb-classname="GraphicTextEntity" class="signal" fill="black" font-style="normal" font-weight="normal" id="15h" text-anchor="start" text-decoration="normal" x="1554" y="697"/>
</g>
</g>
<g cb-classname="ControlPin" cb-pin-name="Wt-kL5-D60" id="15m">
<line cb-classname="GraphicLineEntity" class="signalline" id="15D" x1="1540" x2="1550" y1="720" y2="720"/>
<g cb-classname="DynamicText" cb-source="df-t7U-NtVu" class="signal" id="156" text-anchor="start">
<text cb-classname="GraphicTextEntity" class="signal" fill="black" font-style="normal" font-weight="normal" id="1xB" text-anchor="start" text-decoration="normal" x="1554" y="717"/>
</g>
</g>
<text cb-classname="GraphicTextEntity" class="annotation" fill="#000000" font-family="MS Shell Dlg 2" font-size="8" id="1xT" x="1440" y="650">
KEYBOARD
</text>
<g cb-classname="DynamicText" cb-labeled="false" cb-source="wk-po9-VmQ" class="algorithm" id="1N6n" text-anchor="start">
<text cb-classname="GraphicTextEntity" class="algorithm" fill="black" font-style="normal" font-weight="normal" id="1N6L" text-anchor="start" text-decoration="normal" x="1400" y="540"/>
</g>
<g cb-classname="ControlPin" cb-pin-name="Bs-9DU-hLy" id="1CB9">
<line cb-classname="GraphicLineEntity" class="signalline" id="1CBu" x1="1540" x2="1550" y1="740" y2="740"/>
<g cb-classname="DynamicText" cb-source="7c-3CA-3VG8" class="signal" id="1CBn" text-anchor="start">
<text cb-classname="GraphicTextEntity" class="signal" fill="black" font-style="normal" font-weight="normal" id="1CBL" text-anchor="start" text-decoration="normal" x="1554" y="737"/>
</g>
<g cb-classname="SignalSegment" id="1CTS">
<line cb-classname="GraphicLineEntity" class="signalline" id="1CTl" stroke="#1e12bf" stroke-dasharray="5,4" x1="1550" x2="2120" y1="740" y2="740"/>
<g cb-classname="SignalSegment" id="1CT0">
<line cb-classname="GraphicLineEntity" class="signalline" id="1CTK" stroke="#1e12bf" stroke-dasharray="5,4" x1="2120" x2="2120" y1="740" y2="870"/>
<g cb-classname="SignalSegment" id="1CT1">
<line cb-classname="GraphicLineEntity" class="signalline" id="1CTz" stroke="#1e12bf" stroke-dasharray="5,4" x1="2120" x2="2490" y1="870" y2="870"/>
<g cb-classname="SignalConnection" cb-graphic-line="$1815$" cb-input-pin="$EhM6$" id="1CT9"/>
</g>
</g>
</g>
</g>
</g>
<g cb-alg-IFr="01B0201D01-EPZ" cb-alg-Igws="NO" cb-algorithm-id="003" cb-classname="ExternalPointInterface" cb-function-name="INPUT" id="1xp">
<ellipse cb-classname="GraphicEllipseEntity" class="algorithm" cx="610" cy="1140" id="1xA" rx="50" ry="50"/>
<rect cb-classname="GraphicRectangleEntity" class="algorithm" height="100" id="1xN" width="40" x="520" y="1090"/>
<line cb-classname="GraphicLineEntity" class="algorithm" id="1xa" x1="520" x2="560" y1="1140" y2="1140"/>
<g cb-classname="ControlPin" cb-pin-name="6V-gRE-57W" id="1xh">
<line cb-classname="GraphicLineEntity" class="signalline" id="1xm" x1="660" x2="690" y1="1140" y2="1140"/>
<g cb-classname="DynamicText" cb-source="HE-0r7-4Pvy" class="signal" id="1xD" text-anchor="start">
<text cb-classname="GraphicTextEntity" class="signal" fill="black" font-style="normal" font-weight="normal" id="1x6" text-anchor="start" text-decoration="normal" x="674" y="1137"/>
</g>
<g cb-classname="SignalSegment" id="2UBn">
<line cb-classname="GraphicLineEntity" class="signalline" id="2UTK" stroke="#1e12bf" stroke-dasharray="5,4" x1="690" x2="1050" y1="1140" y2="1140"/>
<g cb-classname="SignalSegment" id="2UT1">
<line cb-classname="GraphicLineEntity" class="signalline" id="2UTz" stroke="#1e12bf" stroke-dasharray="5,4" x1="1050" x2="1050" y1="1140" y2="1220"/>
<g cb-classname="SignalSegment" id="2UT9">
<line cb-classname="GraphicLineEntity" class="signalline" id="2UTu" stroke="#1e12bf" stroke-dasharray="5,4" x1="1050" x2="1170" y1="1220" y2="1220"/>
<g cb-classname="SignalConnection" cb-graphic-line="$2017$" cb-input-pin="$Mh2$" id="2UTn"/>
</g>
<line cb-classname="GraphicLineEntity" class="signalline" id="2UTl" stroke="#1e12bf" stroke-dasharray="5,4" x1="1050" x2="2490" y1="1140" y2="1140"/>
<g cb-classname="SignalConnection" cb-graphic-line="$2011$" cb-input-pin="$mUx$" id="2UT0"/>
<ellipse cb-classname="GraphicEllipseEntity" class="signal" cx="1050" cy="1140" fill="#1e12bf" id="2UTL" rx="5" ry="5" stroke="#1e12bf" stroke-dasharray="5,4"/>
</g>
</g>
</g>
<g cb-classname="PointStatusIndicator" cb-indicator-type="Highway" cb-source="Qo-OmV-HP1" id="1iN" visibility="hidden">
<line cb-classname="GraphicLineEntity" class="algorithmline" id="1ia" x1="560" x2="610" y1="1140" y2="1090"/>
<line cb-classname="GraphicLineEntity" class="algorithmline" id="1ih" x1="610" x2="660" y1="1090" y2="1140"/>
<line cb-classname="GraphicLineEntity" class="algorithmline" id="1im" x1="660" x2="610" y1="1140" y2="1190"/>
<line cb-classname="GraphicLineEntity" class="algorithmline" id="1iD" x1="610" x2="560" y1="1190" y2="1140"/>
</g>
<g cb-classname="PointStatusIndicator" cb-indicator-type="hardware" cb-source="cJ-y13-nap" id="1i6" visibility="visible">
<line cb-classname="GraphicLineEntity" class="algorithmline" id="1wB" x1="560" x2="660" y1="1090" y2="1090"/>
<line cb-classname="GraphicLineEntity" class="algorithmline" id="1wT" x1="660" x2="660" y1="1090" y2="1190"/>
<line cb-classname="GraphicLineEntity" class="algorithmline" id="1wp" x1="660" x2="560" y1="1190" y2="1190"/>
</g>
<g cb-classname="PointStatusIndicator" cb-indicator-type="alarm" cb-source="q8-apv-FpA" id="1wA" visibility="hidden">
<text cb-classname="GraphicTextEntity" class="algorithm" fill="#000000" font-family="arial" font-size="20" id="1wN" x="530" y="1125">
A
</text>
</g>
<g cb-classname="PointStatusIndicator" cb-indicator-type="ingraphic" cb-source="s6-VmQ-12O" id="1wa" visibility="visible">
<text cb-classname="GraphicTextEntity" class="algorithm" fill="#000000" font-family="Arial" font-size="20" id="1wh" x="530" y="1175">
G
</text>
</g>
<g baseline-shift="-50%" cb-anchor-x="510" cb-anchor-y="1154" cb-classname="PointDescription" cb-content="extended" cb-labeled="false" cb-max-width="220" cb-source="Qo-OmV-HP1" class="algorithm" id="1wm" text-anchor="end">
<text baseline-shift="-50%" cb-classname="GraphicTextEntity" class="algorithm" id="1wD" text-anchor="end" x="510" y="1129">
DESC: Point not found in
</text>
<text baseline-shift="-50%" cb-classname="GraphicTextEntity" class="algorithm" id="1w6z" text-anchor="end" x="510" y="1154">
database
</text>
<text baseline-shift="-50%" cb-classname="GraphicTextEntity" class="algorithm" id="2Kpu" text-anchor="end" x="510" y="1179">
(01B0201D01-EPZ)
</text>
</g>
<g cb-classname="DynamicText" cb-labeled="false" cb-pin-name="qeL" cb-source="1c-PGs-okG" class="algorithm" id="1w6" text-anchor="start">
<text baseline-shift="0%" cb-classname="GraphicTextEntity" class="algorithm" fill="black" font-family="arial" font-size="20" font-style="normal" font-weight="normal" id="1CB" text-anchor="start" text-decoration="normal" x="680" y="1110"/>
</g>
<g baseline-shift="-100%" cb-anchor-x="680" cb-anchor-y="1150" cb-classname="PointReferences" cb-max-width="230" cb-originator="true" cb-source="Bs-9DU-4jt" class="signal" id="1CT" text-anchor="start">
<text baseline-shift="-100%" cb-classname="GraphicTextEntity" class="algorithm" id="1Cp" text-anchor="start" x="680" y="1150">
REF: Point not found in
</text>
<text baseline-shift="-100%" cb-classname="GraphicTextEntity" class="algorithm" id="2Kpn" text-anchor="start" x="680" y="1175">
database
</text>
<text baseline-shift="-100%" cb-classname="GraphicTextEntity" class="algorithm" id="2KpL" text-anchor="start" x="680" y="1200">
(01B0201D01-EPZ)
</text>
</g>
</g>
<g cb-alg-k3l="$142$cb-alg-out$" cb-algorithm-id="011" cb-classname="FastBooleanAlgorithm" cb-function-name="NOT" cb-modify-id="00000001" id="1CA">
<rect cb-classname="GraphicRectangleEntity" class="algorithm" height="40" id="1CN" width="40" x="1190" y="1200"/>
<g cb-classname="ControlPin" cb-pin-name="6V-gRE-vRD" id="1Ca">
<line cb-classname="GraphicLineEntity" class="signalline" id="1Ch" x1="1170" x2="1190" y1="1220" y2="1220"/>
<polygon cb-classname="GraphicPolygonEntity" class="signal" id="1Cm" points="1190,1220 1179,1214 1179,1225"/>
<g cb-classname="DynamicText" cb-source="s6-XvR-YuWJ" class="signal" id="1CD" text-anchor="end">
<text cb-classname="GraphicTextEntity" class="signal" fill="black" font-style="normal" font-weight="normal" id="1C6" text-anchor="end" text-decoration="normal" x="1175" y="1217"/>
</g>
</g>
<g cb-classname="ControlPin" cb-pin-name="Qo-OmV-HP1" id="1KB">
<line cb-classname="GraphicLineEntity" class="signalline" id="1KT" x1="1230" x2="1250" y1="1220" y2="1220"/>
<g cb-classname="DynamicText" cb-source="1c-2wq-k58Z" class="signal" id="1Kp" text-anchor="start">
<text cb-classname="GraphicTextEntity" class="signal" fill="black" font-style="normal" font-weight="normal" id="1KA" text-anchor="start" text-decoration="normal" x="1244" y="1217"/>
</g>
<g cb-classname="SignalSegment" id="1K69">
<line cb-classname="GraphicLineEntity" class="signalline" id="2UBl" stroke="#1e12bf" stroke-dasharray="5,4" x1="1250" x2="1320" y1="1220" y2="1220"/>
<g cb-classname="SignalSegment" id="2UB0">
<line cb-classname="GraphicLineEntity" class="signalline" id="2UBK" stroke="#1e12bf" stroke-dasharray="5,4" x1="1320" x2="1320" y1="1220" y2="1240"/>
<g cb-classname="SignalSegment" id="2UB1">
<line cb-classname="GraphicLineEntity" class="signalline" id="2UBz" stroke="#1e12bf" stroke-dasharray="5,4" x1="1320" x2="1410" y1="1240" y2="1240"/>
<g cb-classname="SignalConnection" cb-graphic-line="$2005$" cb-input-pin="$nK7$" id="2UB9"/>
</g>
<line cb-classname="GraphicLineEntity" class="signalline" id="1K6L" stroke="#1e12bf" stroke-dasharray="5,4" x1="1320" x2="1410" y1="1220" y2="1220"/>
<g cb-classname="SignalConnection" cb-graphic-line="$1999$" cb-input-pin="$qdL$" id="2UBS"/>
<ellipse cb-classname="GraphicEllipseEntity" class="signal" cx="1320" cy="1220" fill="#1e12bf" id="2UBu" rx="5" ry="5" stroke="#1e12bf" stroke-dasharray="5,4"/>
</g>
</g>
</g>
<line cb-classname="GraphicLineEntity" class="algorithm" id="2UN" x1="1200" x2="1200" y1="1210" y2="1230"/>
<line cb-classname="GraphicLineEntity" class="algorithm" id="2Ua" x1="1200" x2="1220" y1="1210" y2="1230"/>
<line cb-classname="GraphicLineEntity" class="algorithm" id="2Uh" x1="1220" x2="1220" y1="1230" y2="1210"/>
</g>
<g cb-alg-8YL="$183$cb-alg-out$" cb-alg-WPns="300" cb-alg-ZPpy="1.000000" cb-alg-n7us="96" cb-alg-zYBd="$183$cb-alg-out$" cb-algorithm-id="005" cb-classname="ControlAlgorithm" cb-function-name="ONDELAY" cb-modify-id="00000001" id="2Um">
<rect cb-classname="GraphicRectangleEntity" class="algorithm" height="40" id="2UD" width="80" x="1430" y="1210"/>
<text baseline-shift="-50%" cb-classname="GraphicTextEntity" class="algorithm" fill="#000000" font-family="MS Shell Dlg" id="2U6" text-anchor="middle" x="1470" y="1217">
TD
</text>
<text baseline-shift="-50%" cb-classname="GraphicTextEntity" class="algorithm" fill="#000000" font-family="MS Shell Dlg" id="2NB" text-anchor="middle" x="1470" y="1233">
ON
</text>
<g cb-classname="ControlPin" cb-pin-name="6V-gRE-vRD" id="2NT">
<line cb-classname="GraphicLineEntity" class="signalline" id="2Np" x1="1410" x2="1430" y1="1220" y2="1220"/>
<polygon cb-classname="GraphicPolygonEntity" class="signal" id="2NA" points="1430,1220 1419,1214 1419,1225"/>
<g cb-classname="DynamicText" cb-source="s6-XvR-YuWJ" class="signal" id="2NN" text-anchor="end">
<text cb-classname="GraphicTextEntity" class="signal" fill="black" font-style="normal" font-weight="normal" id="2Na" text-anchor="end" text-decoration="normal" x="1415" y="1217"/>
</g>
</g>
<g cb-classname="ControlPin" cb-pin-name="Qo-OmV-yNTI" id="2Nh">
<line cb-classname="GraphicLineEntity" class="signalline" id="2Nm" x1="1410" x2="1430" y1="1240" y2="1240"/>
<polygon cb-classname="GraphicPolygonEntity" class="signal" id="2ND" points="1430,1240 1419,1234 1419,1245"/>
<g cb-classname="DynamicText" cb-source="sZ-DwN-SjwE" class="signal" id="2N6" text-anchor="end">
<text cb-classname="GraphicTextEntity" class="signal" fill="black" font-style="normal" font-weight="normal" id="2DB" text-anchor="end" text-decoration="normal" x="1415" y="1237"/>
</g>
</g>
<g cb-classname="ControlPin" cb-pin-name="cJ-y13-nap" id="2DT">
<line cb-classname="GraphicLineEntity" class="signalline" id="2Dp" x1="1510" x2="1530" y1="1230" y2="1230"/>
<g cb-classname="DynamicText" cb-source="wk-lHB-ukiz" class="signal" id="2DA" text-anchor="start">
<text cb-classname="GraphicTextEntity" class="signal" fill="black" font-style="normal" font-weight="normal" id="2DN" text-anchor="start" text-decoration="normal" x="1524" y="1227"/>
</g>
<g cb-classname="SignalSegment" id="2Da">
<line cb-classname="GraphicLineEntity" class="signalline" id="2Dh" stroke="#1e12bf" stroke-dasharray="5,4" x1="1530" x2="2490" y1="1230" y2="1230"/>
<g cb-classname="SignalConnection" cb-graphic-line="$226$" cb-input-pin="$pxK$" id="2Dm"/>
</g>
</g>
<g cb-classname="DynamicText" cb-labeled="true" cb-source="df-jff-2tXE" class="algorithm" id="1N60" text-anchor="start">
<text cb-classname="GraphicTextEntity" class="algorithm" fill="black" font-style="normal" font-weight="normal" id="1N6K" text-anchor="start" text-decoration="normal" x="1430" y="1200"/>
</g>
</g>
<g cb-alg-9Vm7="0" cb-alg-vrkQ="69" cb-algorithm-id="006" cb-classname="ControlAlgorithm" cb-function-name="DVALGEN" cb-modify-id="00000001" id="2xp">
<rect cb-classname="GraphicRectangleEntity" class="algorithm" height="100" id="2xA" width="140" x="1400" y="1350"/>
<text baseline-shift="-50%" cb-classname="GraphicTextEntity" class="algorithm" fill="#000000" font-family="MS Shell Dlg" font-size="18" id="2xN" text-anchor="middle" x="1470" y="1400">
DVALGEN
</text>
<g cb-classname="ControlPin" cb-pin-name="sZ-udq-Yoh" id="2xa">
<line cb-classname="GraphicLineEntity" class="signalline" id="2xh" x1="1540" x2="1560" y1="1400" y2="1400"/>
<g cb-classname="DynamicText" cb-source="cJ-Fy5-BFjl" class="signal" id="2xm" text-anchor="start">
<text cb-classname="GraphicTextEntity" class="signal" fill="black" font-style="normal" font-weight="normal" id="2xD" text-anchor="start" text-decoration="normal" x="1554" y="1397"/>
</g>
<g cb-classname="SignalSegment" id="2x6">
<line cb-classname="GraphicLineEntity" class="signalline" id="2fB" stroke="#1e12bf" stroke-dasharray="5,4" x1="1560" x2="2330" y1="1400" y2="1400"/>
<g cb-classname="SignalSegment" id="2fT">
<line cb-classname="GraphicLineEntity" class="signalline" id="2fp" stroke="#1e12bf" stroke-dasharray="5,4" x1="2330" x2="2330" y1="1400" y2="1450"/>
<g cb-classname="SignalSegment" id="2fA">
<line cb-classname="GraphicLineEntity" class="signalline" id="2fN" stroke="#1e12bf" stroke-dasharray="5,4" x1="2330" x2="2490" y1="1450" y2="1450"/>
<g cb-classname="SignalConnection" cb-graphic-line="$254$" cb-input-pin="$mVh$" id="2fa"/>
<line cb-classname="GraphicLineEntity" class="signalline" id="15Au" stroke="#1e12bf" stroke-dasharray="5,4" x1="2330" x2="2330" y1="1450" y2="1950"/>
<g cb-classname="SignalSegment" id="15An">
<line cb-classname="GraphicLineEntity" class="signalline" id="15AL" stroke="#1e12bf" stroke-dasharray="5,4" x1="2330" x2="2490" y1="1950" y2="1950"/>
<g cb-classname="SignalConnection" cb-graphic-line="$1339$" cb-input-pin="$Nuu$" id="15NS"/>
</g>
<ellipse cb-classname="GraphicEllipseEntity" class="signal" cx="2330" cy="1450" fill="#1e12bf" id="15Nl" rx="5" ry="5" stroke="#1e12bf" stroke-dasharray="5,4"/>
</g>
<g cb-classname="SignalConnection" cb-graphic-line="$257$" cb-input-pin="$LuU$" id="2fh"/>
<line cb-classname="GraphicLineEntity" class="signalline" id="2fm" stroke="#1e12bf" stroke-dasharray="5,4" x1="2330" x2="2490" y1="1400" y2="1400"/>
<ellipse cb-classname="GraphicEllipseEntity" class="signal" cx="2330" cy="1400" fill="#1e12bf" id="2fD" rx="5" ry="5" stroke="#1e12bf" stroke-dasharray="5,4"/>
<line cb-classname="GraphicLineEntity" class="signalline" id="1Nm9" stroke="#1e12bf" stroke-dasharray="5,4" x1="2330" x2="2330" y1="1400" y2="1180"/>
<g cb-classname="SignalSegment" id="1Nmu">
<line cb-classname="GraphicLineEntity" class="signalline" id="1Nmn" stroke="#1e12bf" stroke-dasharray="5,4" x1="2330" x2="2490" y1="1180" y2="1180"/>
<g cb-classname="SignalConnection" cb-graphic-line="$1178$" cb-input-pin="$LmU$" id="1NmL"/>
</g>
</g>
</g>
</g>
<g cb-classname="DynamicText" cb-labeled="true" cb-source="sZ-udq-tjtu" class="algorithm" id="1N61" text-anchor="start">
<text cb-classname="GraphicTextEntity" class="algorithm" fill="black" font-style="normal" font-weight="normal" id="1N6z" text-anchor="start" text-decoration="normal" x="1430" y="1340"/>
</g>
</g>
<g cb-alg-OPG1="1" cb-alg-n7us="69" cb-algorithm-id="007" cb-classname="ControlAlgorithm" cb-function-name="DVALGEN" cb-modify-id="00000001" id="2f6">
<rect cb-classname="GraphicRectangleEntity" class="algorithm" height="100" id="2iB" width="140" x="1400" y="1560"/>
<text baseline-shift="-50%" cb-classname="GraphicTextEntity" class="algorithm" fill="#000000" font-family="MS Shell Dlg" font-size="18" id="2iT" text-anchor="middle" x="1470" y="1610">
DVALGEN
</text>
<g cb-classname="ControlPin" cb-pin-name="wk-po9-ix0" id="2ip">
<line cb-classname="GraphicLineEntity" class="signalline" id="2iA" x1="1540" x2="1560" y1="1610" y2="1610"/>
<g cb-classname="DynamicText" cb-source="q8-mLu-Rjeb" class="signal" id="2iN" text-anchor="start">
<text cb-classname="GraphicTextEntity" class="signal" fill="black" font-style="normal" font-weight="normal" id="2ia" text-anchor="start" text-decoration="normal" x="1554" y="1607"/>
</g>
<g cb-classname="SignalSegment" id="2ih">
<line cb-classname="GraphicLineEntity" class="signalline" id="2im" stroke="#1e12bf" stroke-dasharray="5,4" x1="1560" x2="2360" y1="1610" y2="1610"/>
<g cb-classname="SignalSegment" id="2iD">
<line cb-classname="GraphicLineEntity" class="signalline" id="2i6" stroke="#1e12bf" stroke-dasharray="5,4" x1="2360" x2="2360" y1="1610" y2="1660"/>
<g cb-classname="SignalSegment" id="2wB">
<line cb-classname="GraphicLineEntity" class="signalline" id="2wT" stroke="#1e12bf" stroke-dasharray="5,4" x1="2360" x2="2490" y1="1660" y2="1660"/>
<g cb-classname="SignalConnection" cb-graphic-line="$271$" cb-input-pin="$GV4$" id="2wp"/>
</g>
<line cb-classname="GraphicLineEntity" class="signalline" id="2wA" stroke="#1e12bf" stroke-dasharray="5,4" x1="2360" x2="2490" y1="1610" y2="1610"/>
<g cb-classname="SignalConnection" cb-graphic-line="$273$" cb-input-pin="$N9u$" id="2wN"/>
<ellipse cb-classname="GraphicEllipseEntity" class="signal" cx="2360" cy="1610" fill="#1e12bf" id="2wa" rx="5" ry="5" stroke="#1e12bf" stroke-dasharray="5,4"/>
</g>
</g>
</g>
<g cb-classname="DynamicText" cb-labeled="true" cb-source="cJ-y13-lFxx" class="algorithm" id="1N69" text-anchor="start">
<text cb-classname="GraphicTextEntity" class="algorithm" fill="black" font-style="normal" font-weight="normal" id="1N6u" text-anchor="start" text-decoration="normal" x="1430" y="1550"/>
</g>
</g>
<g cb-alg-FpA="01B0201D08B-EPO" cb-alg-Fw7f="NO" cb-algorithm-id="009" cb-classname="ExternalPointInterface" cb-function-name="INPUT" id="3NB">
<ellipse cb-classname="GraphicEllipseEntity" class="algorithm" cx="610" cy="1930" id="3NT" rx="50" ry="50"/>
<rect cb-classname="GraphicRectangleEntity" class="algorithm" height="100" id="3Np" width="40" x="520" y="1880"/>
<line cb-classname="GraphicLineEntity" class="algorithm" id="3NA" x1="520" x2="560" y1="1930" y2="1930"/>
<g cb-classname="ControlPin" cb-pin-name="wk-po9-ix0" id="3NN">
<line cb-classname="GraphicLineEntity" class="signalline" id="3Na" x1="660" x2="690" y1="1930" y2="1930"/>
<g cb-classname="DynamicText" cb-source="q8-mLu-Rjeb" class="signal" id="3Nh" text-anchor="start">
<text cb-classname="GraphicTextEntity" class="signal" fill="black" font-style="normal" font-weight="normal" id="3Nm" text-anchor="start" text-decoration="normal" x="674" y="1927"/>
</g>
<g cb-classname="SignalSegment" id="3ND">
<line cb-classname="GraphicLineEntity" class="signalline" id="3N6" stroke="#1e12bf" stroke-dasharray="5,4" x1="690" x2="2010" y1="1930" y2="1930"/>
<g cb-classname="SignalSegment" id="3DB">
<line cb-classname="GraphicLineEntity" class="signalline" id="3DT" stroke="#1e12bf" stroke-dasharray="5,4" x1="2010" x2="2010" y1="1930" y2="1990"/>
<g cb-classname="SignalSegment" id="3Dp">
<line cb-classname="GraphicLineEntity" class="signalline" id="3DA" stroke="#1e12bf" stroke-dasharray="5,4" x1="2010" x2="2500" y1="1990" y2="1990"/>
<g cb-classname="SignalConnection" cb-graphic-line="$323$" cb-input-pin="$Gh4$" id="3DN"/>
</g>
</g>
</g>
</g>
<g cb-classname="PointStatusIndicator" cb-indicator-type="Highway" cb-source="cJ-y13-nap" id="3Da" visibility="hidden">
<line cb-classname="GraphicLineEntity" class="algorithmline" id="3Dh" x1="560" x2="610" y1="1930" y2="1880"/>
<line cb-classname="GraphicLineEntity" class="algorithmline" id="3Dm" x1="610" x2="660" y1="1880" y2="1930"/>
<line cb-classname="GraphicLineEntity" class="algorithmline" id="3DD" x1="660" x2="610" y1="1930" y2="1980"/>
<line cb-classname="GraphicLineEntity" class="algorithmline" id="3D6" x1="610" x2="560" y1="1980" y2="1930"/>
</g>
<g cb-classname="PointStatusIndicator" cb-indicator-type="hardware" cb-source="HE-Fxo-IFr" id="35B" visibility="visible">
<line cb-classname="GraphicLineEntity" class="algorithmline" id="35T" x1="560" x2="660" y1="1880" y2="1880"/>
<line cb-classname="GraphicLineEntity" class="algorithmline" id="35p" x1="660" x2="660" y1="1880" y2="1980"/>
<line cb-classname="GraphicLineEntity" class="algorithmline" id="35A" x1="660" x2="560" y1="1980" y2="1980"/>
</g>
<g cb-classname="PointStatusIndicator" cb-indicator-type="alarm" cb-source="df-jff-Rus" id="35N" visibility="hidden">
<text cb-classname="GraphicTextEntity" class="algorithm" fill="#000000" font-family="arial" font-size="20" id="35a" x="530" y="1915">
A
</text>
</g>
<g cb-classname="PointStatusIndicator" cb-indicator-type="ingraphic" cb-source="sZ-udq-Yoh" id="35h" visibility="visible">
<text cb-classname="GraphicTextEntity" class="algorithm" fill="#000000" font-family="Arial" font-size="20" id="35m" x="530" y="1965">
G
</text>
</g>
<g baseline-shift="-50%" cb-anchor-x="510" cb-anchor-y="1944" cb-classname="PointDescription" cb-content="extended" cb-labeled="false" cb-max-width="220" cb-source="cJ-y13-nap" class="algorithm" id="35D" text-anchor="end">
<text baseline-shift="-50%" cb-classname="GraphicTextEntity" class="algorithm" id="356" text-anchor="end" x="510" y="1919">
DESC: Point not found in
</text>
<text baseline-shift="-50%" cb-classname="GraphicTextEntity" class="algorithm" id="2UpS" text-anchor="end" x="510" y="1944">
database
</text>
<text baseline-shift="-50%" cb-classname="GraphicTextEntity" class="algorithm" id="2KAS" text-anchor="end" x="510" y="1969">
(01B0201D08B-EPO)
</text>
</g>
<g cb-classname="DynamicText" cb-labeled="false" cb-pin-name="W38" cb-source="wk-po9-ix0" class="algorithm" id="3xB" text-anchor="start">
<text baseline-shift="0%" cb-classname="GraphicTextEntity" class="algorithm" fill="black" font-family="arial" font-size="20" font-style="normal" font-weight="normal" id="3xT" text-anchor="start" text-decoration="normal" x="680" y="1900"/>
</g>
<g baseline-shift="-100%" cb-anchor-x="680" cb-anchor-y="1940" cb-classname="PointReferences" cb-max-width="230" cb-originator="true" cb-source="q8-apv-FpA" class="signal" id="3xp" text-anchor="start">
<text baseline-shift="-100%" cb-classname="GraphicTextEntity" class="algorithm" id="3xA" text-anchor="start" x="680" y="1940">
REF: Point not found in
</text>
<text baseline-shift="-100%" cb-classname="GraphicTextEntity" class="algorithm" id="2KAl" text-anchor="start" x="680" y="1965">
database
</text>
<text baseline-shift="-100%" cb-classname="GraphicTextEntity" class="algorithm" id="2KA0" text-anchor="start" x="680" y="1990">
(01B0201D08B-EPO)
</text>
</g>
</g>
<g cb-alg-MGLv="NO" cb-alg-Mwm="01B0201D08B-EPZ" cb-algorithm-id="00a" cb-classname="ExternalPointInterface" cb-function-name="INPUT" id="3xN">
<ellipse cb-classname="GraphicEllipseEntity" class="algorithm" cx="610" cy="2080" id="3xa" rx="50" ry="50"/>
<rect cb-classname="GraphicRectangleEntity" class="algorithm" height="100" id="3xh" width="40" x="520" y="2030"/>
<line cb-classname="GraphicLineEntity" class="algorithm" id="3xm" x1="520" x2="560" y1="2080" y2="2080"/>
<g cb-classname="ControlPin" cb-pin-name="1c-PGs-okG" id="3xD">
<line cb-classname="GraphicLineEntity" class="signalline" id="3x6" x1="660" x2="690" y1="2080" y2="2080"/>
<g cb-classname="DynamicText" cb-source="Bs-g9k-lgFm" class="signal" id="3fB" text-anchor="start">
<text cb-classname="GraphicTextEntity" class="signal" fill="black" font-style="normal" font-weight="normal" id="3fT" text-anchor="start" text-decoration="normal" x="674" y="2077"/>
</g>
<g cb-classname="SignalSegment" id="3fp">
<line cb-classname="GraphicLineEntity" class="signalline" id="3fA" stroke="#1e12bf" stroke-dasharray="5,4" x1="690" x2="2060" y1="2080" y2="2080"/>
<g cb-classname="SignalSegment" id="3fN">
<line cb-classname="GraphicLineEntity" class="signalline" id="3fa" stroke="#1e12bf" stroke-dasharray="5,4" x1="2060" x2="2060" y1="2080" y2="2030"/>
<g cb-classname="SignalSegment" id="3fh">
<line cb-classname="GraphicLineEntity" class="signalline" id="3fm" stroke="#1e12bf" stroke-dasharray="5,4" x1="2060" x2="2480" y1="2030" y2="2030"/>
<g cb-classname="SignalConnection" cb-graphic-line="$357$" cb-input-pin="$xKz$" id="3fD"/>
</g>
</g>
</g>
</g>
<g cb-classname="PointStatusIndicator" cb-indicator-type="Highway" cb-source="Qo-OmV-HP1" id="3f6" visibility="hidden">
<line cb-classname="GraphicLineEntity" class="algorithmline" id="3iB" x1="560" x2="610" y1="2080" y2="2030"/>
<line cb-classname="GraphicLineEntity" class="algorithmline" id="3iT" x1="610" x2="660" y1="2030" y2="2080"/>
<line cb-classname="GraphicLineEntity" class="algorithmline" id="3ip" x1="660" x2="610" y1="2080" y2="2130"/>
<line cb-classname="GraphicLineEntity" class="algorithmline" id="3iA" x1="610" x2="560" y1="2130" y2="2080"/>
</g>
<g cb-classname="PointStatusIndicator" cb-indicator-type="hardware" cb-source="cJ-y13-nap" id="3iN" visibility="visible">
<line cb-classname="GraphicLineEntity" class="algorithmline" id="3ia" x1="560" x2="660" y1="2030" y2="2030"/>
<line cb-classname="GraphicLineEntity" class="algorithmline" id="3ih" x1="660" x2="660" y1="2030" y2="2130"/>
<line cb-classname="GraphicLineEntity" class="algorithmline" id="3im" x1="660" x2="560" y1="2130" y2="2130"/>
</g>
<g cb-classname="PointStatusIndicator" cb-indicator-type="alarm" cb-source="q8-apv-FpA" id="3iD" visibility="hidden">
<text cb-classname="GraphicTextEntity" class="algorithm" fill="#000000" font-family="arial" font-size="20" id="3i6" x="530" y="2065">
A
</text>
</g>
<g cb-classname="PointStatusIndicator" cb-indicator-type="ingraphic" cb-source="s6-VmQ-12O" id="3wB" visibility="visible">
<text cb-classname="GraphicTextEntity" class="algorithm" fill="#000000" font-family="Arial" font-size="20" id="3wT" x="530" y="2115">
G
</text>
</g>
<g baseline-shift="-50%" cb-anchor-x="510" cb-anchor-y="2094" cb-classname="PointDescription" cb-content="extended" cb-labeled="false" cb-max-width="220" cb-source="Qo-OmV-HP1" class="algorithm" id="3wp" text-anchor="end">
<text baseline-shift="-50%" cb-classname="GraphicTextEntity" class="algorithm" id="3wA" text-anchor="end" x="510" y="2069">
DESC: Point not found in
</text>
<text baseline-shift="-50%" cb-classname="GraphicTextEntity" class="algorithm" id="1w69" text-anchor="end" x="510" y="2094">
database
</text>
<text baseline-shift="-50%" cb-classname="GraphicTextEntity" class="algorithm" id="2xNK" text-anchor="end" x="510" y="2119">
(01B0201D08B-EPZ)
</text>
</g>
<g cb-classname="DynamicText" cb-labeled="false" cb-pin-name="qeL" cb-source="1c-PGs-okG" class="algorithm" id="3wN" text-anchor="start">
<text baseline-shift="0%" cb-classname="GraphicTextEntity" class="algorithm" fill="black" font-family="arial" font-size="20" font-style="normal" font-weight="normal" id="3wa" text-anchor="start" text-decoration="normal" x="680" y="2050"/>
</g>
<g baseline-shift="-100%" cb-anchor-x="680" cb-anchor-y="2090" cb-classname="PointReferences" cb-max-width="230" cb-originator="true" cb-source="Bs-9DU-4jt" class="signal" id="3wh" text-anchor="start">
<text baseline-shift="-100%" cb-classname="GraphicTextEntity" class="algorithm" id="3wm" text-anchor="start" x="680" y="2090">
REF: Point not found in
</text>
<text baseline-shift="-100%" cb-classname="GraphicTextEntity" class="algorithm" id="2KAK" text-anchor="start" x="680" y="2115">
database
</text>
<text baseline-shift="-100%" cb-classname="GraphicTextEntity" class="algorithm" id="2KA1" text-anchor="start" x="680" y="2140">
(01B0201D08B-EPZ)
</text>
</g>
</g>
<g cb-alg-OPG1="60" cb-alg-n7us="65" cb-algorithm-id="004" cb-classname="ControlAlgorithm" cb-function-name="AVALGEN" cb-modify-id="00000001" id="1fN9">
<polygon cb-classname="GraphicPolygonEntity" class="algorithm" id="1fNu" points="2070,2100 2010,2160 2070,2220 2130,2160"/>
<line cb-classname="GraphicLineEntity" class="algorithm" id="1fNn" x1="2070" x2="2060" y1="2140" y2="2170"/>
<line cb-classname="GraphicLineEntity" class="algorithm" id="1fNL" x1="2070" x2="2080" y1="2140" y2="2170"/>
<line cb-classname="GraphicLineEntity" class="algorithm" id="1faS" x1="2064" x2="2076" y1="2160" y2="2160"/>
<g cb-classname="ControlPin" cb-pin-name="q8-apv-FpA" id="1fal">
<line cb-classname="GraphicLineEntity" class="signalline" id="1fa0" x1="2070" x2="2070" y1="2220" y2="2240"/>
<g cb-classname="DynamicText" cb-source="s6-XvR-YuWJ" class="signal" id="1faK" text-anchor="end">
<text cb-classname="GraphicTextEntity" class="signal" fill="black" font-style="normal" font-weight="normal" id="1fa1" text-anchor="end" text-decoration="normal" transform="translate(2067,2234)rotate(-90)"/>
</g>
<g cb-classname="SignalSegment" id="1fDz">
<line cb-classname="GraphicLineEntity" class="signalline" id="1fD9" x1="2070" x2="2070" y1="2240" y2="2380"/>
<g cb-classname="SignalSegment" id="1fDu">
<line cb-classname="GraphicLineEntity" class="signalline" id="1fDn" x1="2070" x2="2490" y1="2380" y2="2380"/>
<g cb-classname="SignalConnection" cb-graphic-line="$1588$" cb-input-pin="$MRzA$" id="1fDL"/>
</g>
</g>
</g>
<g cb-classname="DynamicText" cb-labeled="true" cb-source="Qo-OmV-kx0k" class="algorithm" id="1faz" text-anchor="start">
<text cb-classname="GraphicTextEntity" class="algorithm" fill="black" font-family="arial" font-size="20" font-style="normal" font-weight="normal" id="1fa9" text-anchor="start" text-decoration="normal" x="1930" y="2220"/>
</g>
</g>
<g cb-alg-0OmF="60" cb-alg-QojV="65" cb-algorithm-id="008" cb-classname="ControlAlgorithm" cb-function-name="AVALGEN" cb-modify-id="00000001" id="1fau">
<polygon cb-classname="GraphicPolygonEntity" class="algorithm" id="1fan" points="2230,2100 2170,2160 2230,2220 2290,2160"/>
<line cb-classname="GraphicLineEntity" class="algorithm" id="1faL" x1="2230" x2="2220" y1="2140" y2="2170"/>
<line cb-classname="GraphicLineEntity" class="algorithm" id="1fhS" x1="2230" x2="2240" y1="2140" y2="2170"/>
<line cb-classname="GraphicLineEntity" class="algorithm" id="1fhl" x1="2224" x2="2236" y1="2160" y2="2160"/>
<g cb-classname="ControlPin" cb-pin-name="wk-po9-ix0" id="1fh0">
<line cb-classname="GraphicLineEntity" class="signalline" id="1fhK" x1="2230" x2="2230" y1="2220" y2="2240"/>
<g cb-classname="DynamicText" cb-source="q8-mLu-Rjeb" class="signal" id="1fh1" text-anchor="end">
<text cb-classname="GraphicTextEntity" class="signal" fill="black" font-style="normal" font-weight="normal" id="1fhz" text-anchor="end" text-decoration="normal" transform="translate(2227,2234)rotate(-90)"/>
</g>
<g cb-classname="SignalSegment" id="1fDS">
<line cb-classname="GraphicLineEntity" class="signalline" id="1fDl" x1="2230" x2="2230" y1="2240" y2="2320"/>
<g cb-classname="SignalSegment" id="1fD0">
<line cb-classname="GraphicLineEntity" class="signalline" id="1fDK" x1="2230" x2="2490" y1="2320" y2="2320"/>
<g cb-classname="SignalConnection" cb-graphic-line="$1583$" cb-input-pin="$DRVa$" id="1fD1"/>
</g>
</g>
</g>
<g cb-classname="DynamicText" cb-labeled="true" cb-source="s6-VmQ-ZudP" class="algorithm" id="1fh9" text-anchor="start">
<text cb-classname="GraphicTextEntity" class="algorithm" fill="black" font-family="arial" font-size="20" font-style="normal" font-weight="normal" id="1fhu" text-anchor="start" text-decoration="normal" x="2260" y="2220"/>
</g>
</g>
<g cb-alg-fIJ="01B02SG01-LLK" cb-alg-fmH9="NO" cb-algorithm-id="00b" cb-classname="ExternalPointInterface" cb-function-name="INPUT" id="1KNl">
<ellipse cb-classname="GraphicEllipseEntity" class="algorithm" cx="620" cy="910" id="1KN0" rx="50" ry="50"/>
<rect cb-classname="GraphicRectangleEntity" class="algorithm" height="100" id="1KNK" width="40" x="530" y="860"/>
<line cb-classname="GraphicLineEntity" class="algorithm" id="1KN1" x1="530" x2="570" y1="910" y2="910"/>
<g cb-classname="ControlPin" cb-pin-name="Qo-OmV-HP1" id="1KNz">
<line cb-classname="GraphicLineEntity" class="signalline" id="1KN9" x1="670" x2="700" y1="910" y2="910"/>
<g cb-classname="DynamicText" cb-source="1c-2wq-k58Z" class="signal" id="1KNu" text-anchor="start">
<text cb-classname="GraphicTextEntity" class="signal" fill="black" font-style="normal" font-weight="normal" id="1KNn" text-anchor="start" text-decoration="normal" x="684" y="907"/>
</g>
<g cb-classname="SignalSegment" id="1Khn">
<line cb-classname="GraphicLineEntity" class="signalline" id="1KhL" stroke="#1e12bf" stroke-dasharray="5,4" x1="700" x2="2120" y1="910" y2="910"/>
<g cb-classname="SignalSegment" id="1KmS">
<line cb-classname="GraphicLineEntity" class="signalline" id="1Kml" stroke="#1e12bf" stroke-dasharray="5,4" x1="2120" x2="2120" y1="910" y2="950"/>
<g cb-classname="SignalSegment" id="1Km0">
<line cb-classname="GraphicLineEntity" class="signalline" id="1KmK" stroke="#1e12bf" stroke-dasharray="5,4" x1="2120" x2="2490" y1="950" y2="950"/>
<g cb-classname="SignalConnection" cb-graphic-line="$1973$" cb-input-pin="$fNS$" id="1Km1"/>
</g>
<line cb-classname="GraphicLineEntity" class="signalline" id="1KDL" stroke="#1e12bf" stroke-dasharray="5,4" x1="2120" x2="2270" y1="910" y2="910"/>
<g cb-classname="SignalConnection" cb-graphic-line="$1989$" cb-input-pin="$TLYb$" id="1K6S"/>
<ellipse cb-classname="GraphicEllipseEntity" class="signal" cx="2120" cy="910" fill="#1e12bf" id="1K6l" rx="5" ry="5" stroke="#1e12bf" stroke-dasharray="5,4"/>
</g>
</g>
</g>
<g cb-classname="PointStatusIndicator" cb-indicator-type="Highway" cb-source="Bs-9DU-4jt" id="1KNL" visibility="hidden">
<line cb-classname="GraphicLineEntity" class="algorithmline" id="1KaS" x1="570" x2="620" y1="910" y2="860"/>
<line cb-classname="GraphicLineEntity" class="algorithmline" id="1Kal" x1="620" x2="670" y1="860" y2="910"/>
<line cb-classname="GraphicLineEntity" class="algorithmline" id="1Ka0" x1="670" x2="620" y1="910" y2="960"/>
<line cb-classname="GraphicLineEntity" class="algorithmline" id="1KaK" x1="620" x2="570" y1="960" y2="910"/>
</g>
<g cb-classname="PointStatusIndicator" cb-indicator-type="hardware" cb-source="q8-apv-FpA" id="1Ka1" visibility="hidden">
<line cb-classname="GraphicLineEntity" class="algorithmline" id="1Kaz" x1="570" x2="670" y1="860" y2="860"/>
<line cb-classname="GraphicLineEntity" class="algorithmline" id="1Ka9" x1="670" x2="670" y1="860" y2="960"/>
<line cb-classname="GraphicLineEntity" class="algorithmline" id="1Kau" x1="670" x2="570" y1="960" y2="960"/>
</g>
<g cb-classname="PointStatusIndicator" cb-indicator-type="alarm" cb-source="Qo-OmV-HP1" id="1Kan" visibility="hidden">
<text cb-classname="GraphicTextEntity" class="algorithm" fill="#000000" font-family="arial" font-size="20" id="1KaL" x="540" y="895">
A
</text>
</g>
<g cb-classname="PointStatusIndicator" cb-indicator-type="ingraphic" cb-source="1c-PGs-okG" id="1KhS" visibility="visible">
<text cb-classname="GraphicTextEntity" class="algorithm" fill="#000000" font-family="Arial" font-size="20" id="1Khl" x="540" y="945">
G
</text>
</g>
<g baseline-shift="-50%" cb-anchor-x="520" cb-anchor-y="924" cb-classname="PointDescription" cb-content="extended" cb-labeled="false" cb-max-width="220" cb-source="Bs-9DU-4jt" class="algorithm" id="1Kh0" text-anchor="end">
<text baseline-shift="-50%" cb-classname="GraphicTextEntity" class="algorithm" id="1KhK" text-anchor="end" x="520" y="912">
DESC: Point not found in
</text>
<text baseline-shift="-50%" cb-classname="GraphicTextEntity" class="algorithm" id="1K6z" text-anchor="end" x="520" y="937">
database (01B02SG01-LLK)
</text>
</g>
<g cb-classname="DynamicText" cb-labeled="false" cb-pin-name="SS4" cb-source="7c-CWl-yI8" class="algorithm" id="1Kh1" text-anchor="start">
<text baseline-shift="0%" cb-classname="GraphicTextEntity" class="algorithm" fill="black" font-family="arial" font-size="20" font-style="normal" font-weight="normal" id="1Khz" text-anchor="start" text-decoration="normal" x="690" y="880"/>
</g>
<g baseline-shift="-100%" cb-anchor-x="690" cb-anchor-y="920" cb-classname="PointReferences" cb-max-width="230" cb-originator="true" cb-source="6V-gRE-57W" class="signal" id="1Kh9" text-anchor="start">
<text baseline-shift="-100%" cb-classname="GraphicTextEntity" class="algorithm" id="1Khu" text-anchor="start" x="690" y="920">
REF: Point not found in
</text>
<text baseline-shift="-100%" cb-classname="GraphicTextEntity" class="algorithm" id="2KA9" text-anchor="start" x="690" y="945">
database (01B02SG01-LLK)
</text>
</g>
</g>
<g cb-alg-8YL="$1941$cb-alg-out$" cb-algorithm-id="00c" cb-classname="FastBooleanAlgorithm" cb-function-name="NOT" cb-modify-id="00000002" id="1Kmz">
<rect cb-classname="GraphicRectangleEntity" class="algorithm" height="40" id="1Km9" width="40" x="2290" y="890"/>
<g cb-classname="ControlPin" cb-pin-name="7c-CWl-LuE" id="1Kmu">
<line cb-classname="GraphicLineEntity" class="signalline" id="1Kmn" x1="2270" x2="2290" y1="910" y2="910"/>
<polygon cb-classname="GraphicPolygonEntity" class="signal" id="1KmL" points="2290,910 2279,904 2279,915"/>
<g cb-classname="DynamicText" cb-source="q8-mLu-Rjeb" class="signal" id="1KDS" text-anchor="end">
<text cb-classname="GraphicTextEntity" class="signal" fill="black" font-style="normal" font-weight="normal" id="1KDl" text-anchor="end" text-decoration="normal" x="2275" y="907"/>
</g>
</g>
<g cb-classname="ControlPin" cb-pin-name="s6-VmQ-12O" id="1KD0">
<line cb-classname="GraphicLineEntity" class="signalline" id="1KDK" x1="2330" x2="2350" y1="910" y2="910"/>
<g cb-classname="DynamicText" cb-source="Qo-p8Y-qxMK" class="signal" id="1KD1" text-anchor="start">
<text cb-classname="GraphicTextEntity" class="signal" fill="black" font-style="normal" font-weight="normal" id="1KDz" text-anchor="start" text-decoration="normal" x="2344" y="907"/>
</g>
<g cb-classname="SignalSegment" id="1K60">
<line cb-classname="GraphicLineEntity" class="signalline" id="1K6K" stroke="#1e12bf" stroke-dasharray="5,4" x1="2350" x2="2490" y1="910" y2="910"/>
<g cb-classname="SignalConnection" cb-graphic-line="$1993$" cb-input-pin="$R1s$" id="1K61"/>
</g>
</g>
<line cb-classname="GraphicLineEntity" class="algorithm" id="1KD9" x1="2300" x2="2300" y1="900" y2="920"/>
<line cb-classname="GraphicLineEntity" class="algorithm" id="1KDu" x1="2300" x2="2320" y1="900" y2="920"/>
<line cb-classname="GraphicLineEntity" class="algorithm" id="1KDn" x1="2320" x2="2320" y1="920" y2="900"/>
</g>
<g cb-alg-61YhG="$1546$cb-alg-out$" cb-alg-ARz="01B0201D08B-STS" cb-alg-Fq6="$259$cb-alg-out$" cb-alg-Fqw="$259$cb-alg-out$" cb-alg-H3YhG="$1557$cb-alg-out$" cb-alg-NV="01B0201D08B-LB" cb-alg-Pq6="$242$cb-alg-out$" cb-alg-Pqw="$242$cb-alg-out$" cb-alg-Q28="$242$cb-alg-out$" cb-alg-Q36="$344$cb-alg-out$" cb-alg-Q3w="$310$cb-alg-out$" cb-alg-c1L="$65$cb-alg-pk1$" cb-alg-c1m="$65$cb-alg-pk2$" cb-alg-cC="$1975$cb-alg-out$" cb-alg-cCL="$65$cb-alg-pk5$" cb-alg-cDp="$1941$cb-alg-out$" cb-alg-ce="$65$cb-alg-clos$" cb-alg-cf="$65$cb-alg-open$" cb-alg-vI="01B0201D08B-TR" cb-alg-y10="01B0201D08B-ALM" cb-alg-y1L="$242$cb-alg-out$" cb-alg-ye="$207$cb-alg-out$" cb-alg-yf="$142$cb-alg-out$" cb-algorithm-id="001" cb-classname="ControlMacroReference" cb-function-name="PCMS1" cb-macro-crc="30660" cb-modify-id="00000001" id="4Uh">
<rect cb-classname="GraphicRectangleEntity" class="annotation" height="1850" id="4Um" width="750" x="2520" y="570"/>
<g cb-classname="ControlPin" cb-pin-name="HE-Fxo-V1" id="4UD">
<line cb-classname="GraphicLineEntity" class="signalline" id="4U6" x1="2490" x2="2520" y1="640" y2="640"/>
<polygon cb-classname="GraphicPolygonEntity" class="signal" id="4NB" points="2520,640 2509,634 2509,645"/>
<g cb-classname="DynamicText" cb-source="Qo-p8Y-qxMK" class="signal" id="4NT" text-anchor="end">
<text cb-classname="GraphicTextEntity" class="signal" fill="black" font-style="normal" font-weight="normal" id="4Np" text-anchor="end" text-decoration="normal" x="2505" y="637"/>
</g>
</g>
<g cb-classname="ControlPin" cb-pin-name="1c-PGs-DG" id="4NA">
<line cb-classname="GraphicLineEntity" class="signalline" id="4NN" x1="2490" x2="2520" y1="680" y2="680"/>
<polygon cb-classname="GraphicPolygonEntity" class="signal" id="4Na" points="2520,680 2509,674 2509,685"/>
<g cb-classname="DynamicText" cb-source="cJ-Fy5-BFjl" class="signal" id="4Nh" text-anchor="end">
<text cb-classname="GraphicTextEntity" class="signal" fill="black" font-style="normal" font-weight="normal" id="4Nm" text-anchor="end" text-decoration="normal" x="2505" y="677"/>
</g>
</g>
<g cb-classname="ControlPin" cb-pin-name="wk-po9-Lk" id="4ND">
<line cb-classname="GraphicLineEntity" class="signalline" id="4N6" x1="2490" x2="2520" y1="910" y2="910"/>
<polygon cb-classname="GraphicPolygonEntity" class="signal" id="4DB" points="2520,910 2509,904 2509,915"/>
<g cb-classname="DynamicText" cb-source="HE-0r7-4Pvy" class="signal" id="4DT" text-anchor="end">
<text cb-classname="GraphicTextEntity" class="signal" fill="black" font-style="normal" font-weight="normal" id="4Dp" text-anchor="end" text-decoration="normal" x="2505" y="907"/>
</g>
</g>
<g cb-classname="ControlPin" cb-pin-name="Wt-kL5-sqx" id="4DA">
<line cb-classname="GraphicLineEntity" class="signalline" id="4DN" x1="2490" x2="2520" y1="950" y2="950"/>
<polygon cb-classname="GraphicPolygonEntity" class="signal" id="4Da" points="2520,950 2509,944 2509,955"/>
<g cb-classname="DynamicText" cb-source="1c-2wq-k58Z" class="signal" id="4Dh" text-anchor="end">
<text cb-classname="GraphicTextEntity" class="signal" fill="black" font-style="normal" font-weight="normal" id="4Dm" text-anchor="end" text-decoration="normal" x="2505" y="947"/>
</g>
</g>
<g cb-classname="ControlPin" cb-pin-name="Bs-9DU-btf" id="4DD">
<line cb-classname="GraphicLineEntity" class="signalline" id="4D6" x1="2490" x2="2520" y1="800" y2="800"/>
<polygon cb-classname="GraphicPolygonEntity" class="signal" id="45B" points="2520,800 2509,794 2509,805"/>
<g cb-classname="DynamicText" cb-source="wk-lHB-ukiz" class="signal" id="45T" text-anchor="end">
<text cb-classname="GraphicTextEntity" class="signal" fill="black" font-style="normal" font-weight="normal" id="45p" text-anchor="end" text-decoration="normal" x="2505" y="797"/>
</g>
</g>
<g cb-classname="ControlPin" cb-pin-name="q8-apv-kmg" id="45A">
<line cb-classname="GraphicLineEntity" class="signalline" id="45N" x1="2490" x2="2520" y1="840" y2="840"/>
<polygon cb-classname="GraphicPolygonEntity" class="signal" id="45a" points="2520,840 2509,834 2509,845"/>
<g cb-classname="DynamicText" cb-source="Wt-Po4-U9ZB" class="signal" id="45h" text-anchor="end">
<text cb-classname="GraphicTextEntity" class="signal" fill="black" font-style="normal" font-weight="normal" id="45m" text-anchor="end" text-decoration="normal" x="2505" y="837"/>
</g>
</g>
<g cb-classname="ControlPin" cb-pin-name="df-jff-xo" id="45D">
<line cb-classname="GraphicLineEntity" class="signalline" id="456" x1="2490" x2="2520" y1="1140" y2="1140"/>
<polygon cb-classname="GraphicPolygonEntity" class="signal" id="4xB" points="2520,1140 2509,1134 2509,1145"/>
<g cb-classname="DynamicText" cb-source="Bs-g9k-lgFm" class="signal" id="4xT" text-anchor="end">
<text cb-classname="GraphicTextEntity" class="signal" fill="black" font-style="normal" font-weight="normal" id="4xp" text-anchor="end" text-decoration="normal" x="2505" y="1137"/>
</g>
</g>
<g cb-classname="ControlPin" cb-pin-name="7c-CWl-FxI" id="4xA">
<line cb-classname="GraphicLineEntity" class="signalline" id="4xN" x1="2490" x2="2520" y1="1180" y2="1180"/>
<polygon cb-classname="GraphicPolygonEntity" class="signal" id="4xa" points="2520,1180 2509,1174 2509,1185"/>
<g cb-classname="DynamicText" cb-source="q8-mLu-Rjeb" class="signal" id="4xh" text-anchor="end">
<text cb-classname="GraphicTextEntity" class="signal" fill="black" font-style="normal" font-weight="normal" id="4xm" text-anchor="end" text-decoration="normal" x="2505" y="1177"/>
</g>
</g>
<g cb-classname="ControlPin" cb-pin-name="s6-VmQ-Py" id="4xD">
<line cb-classname="GraphicLineEntity" class="signalline" id="4x6" x1="2490" x2="2520" y1="1230" y2="1230"/>
<polygon cb-classname="GraphicPolygonEntity" class="signal" id="4fB" points="2520,1230 2509,1224 2509,1235"/>
<g cb-classname="DynamicText" cb-source="df-t7U-NtVu" class="signal" id="4fT" text-anchor="end">
<text cb-classname="GraphicTextEntity" class="signal" fill="black" font-style="normal" font-weight="normal" id="4fp" text-anchor="end" text-decoration="normal" x="2505" y="1227"/>
</g>
</g>
<g cb-classname="ControlPin" cb-pin-name="sZ-udq-X09" id="4fA">
<line cb-classname="GraphicLineEntity" class="signalline" id="4fN" x1="2490" x2="2520" y1="1400" y2="1400"/>
<polygon cb-classname="GraphicPolygonEntity" class="signal" id="4fa" points="2520,1400 2509,1394 2509,1405"/>
<g cb-classname="DynamicText" cb-source="7c-3CA-3VG8" class="signal" id="4fh" text-anchor="end">
<text cb-classname="GraphicTextEntity" class="signal" fill="black" font-style="normal" font-weight="normal" id="4fm" text-anchor="end" text-decoration="normal" x="2505" y="1397"/>
</g>
</g>
<g cb-classname="ControlPin" cb-pin-name="6V-gRE-nsA" id="4fD">
<line cb-classname="GraphicLineEntity" class="signalline" id="4f6" x1="2490" x2="2520" y1="1450" y2="1450"/>
<polygon cb-classname="GraphicPolygonEntity" class="signal" id="4iB" points="2520,1450 2509,1444 2509,1455"/>
<g cb-classname="DynamicText" cb-source="s6-XvR-YuWJ" class="signal" id="4iT" text-anchor="end">
<text cb-classname="GraphicTextEntity" class="signal" fill="black" font-style="normal" font-weight="normal" id="4ip" text-anchor="end" text-decoration="normal" x="2505" y="1447"/>
</g>
</g>
<g cb-classname="ControlPin" cb-pin-name="Qo-OmV-gCo" id="4iA">
<line cb-classname="GraphicLineEntity" class="signalline" id="4iN" x1="2490" x2="2520" y1="1610" y2="1610"/>
<polygon cb-classname="GraphicPolygonEntity" class="signal" id="4ia" points="2520,1610 2509,1604 2509,1615"/>
<g cb-classname="DynamicText" cb-source="sZ-DwN-SjwE" class="signal" id="4ih" text-anchor="end">
<text cb-classname="GraphicTextEntity" class="signal" fill="black" font-style="normal" font-weight="normal" id="4im" text-anchor="end" text-decoration="normal" x="2505" y="1607"/>
</g>
</g>
<g cb-classname="ControlPin" cb-pin-name="cJ-y13-mQl" id="4iD">
<line cb-classname="GraphicLineEntity" class="signalline" id="4i6" x1="2490" x2="2520" y1="1660" y2="1660"/>
<polygon cb-classname="GraphicPolygonEntity" class="signal" id="4wB" points="2520,1660 2509,1654 2509,1665"/>
<g cb-classname="DynamicText" cb-source="6V-Qj3-7Ohw" class="signal" id="4wT" text-anchor="end">
<text cb-classname="GraphicTextEntity" class="signal" fill="black" font-style="normal" font-weight="normal" id="4wp" text-anchor="end" text-decoration="normal" x="2505" y="1657"/>
</g>
</g>
<g cb-classname="ControlPin" cb-pin-name="HE-Fxo-zVB" id="4wA">
<line cb-classname="GraphicLineEntity" class="signalline" id="4wN" x1="2490" x2="2520" y1="1950" y2="1950"/>
<polygon cb-classname="GraphicPolygonEntity" class="signal" id="4wa" points="2520,1950 2509,1944 2509,1955"/>
<g cb-classname="DynamicText" cb-source="Qo-p8Y-qxMK" class="signal" id="4wh" text-anchor="end">
<text cb-classname="GraphicTextEntity" class="signal" fill="black" font-style="normal" font-weight="normal" id="4wm" text-anchor="end" text-decoration="normal" x="2505" y="1947"/>
</g>
</g>
<g cb-classname="ControlPin" cb-pin-name="1c-PGs-By4" id="4wD">
<line cb-classname="GraphicLineEntity" class="signalline" id="4w6" x1="2500" x2="2520" y1="1990" y2="1990"/>
<polygon cb-classname="GraphicPolygonEntity" class="signal" id="4CB" points="2520,1990 2509,1984 2509,1995"/>
<g cb-classname="DynamicText" cb-source="cJ-Fy5-BFjl" class="signal" id="4CT" text-anchor="end">
<text cb-classname="GraphicTextEntity" class="signal" fill="black" font-style="normal" font-weight="normal" id="4Cp" text-anchor="end" text-decoration="normal" x="2505" y="1987"/>
</g>
</g>
<g cb-classname="ControlPin" cb-pin-name="wk-po9-9PW" id="4CA">
<line cb-classname="GraphicLineEntity" class="signalline" id="4CN" x1="2480" x2="2520" y1="2030" y2="2030"/>
<polygon cb-classname="GraphicPolygonEntity" class="signal" id="4Ca" points="2520,2030 2509,2024 2509,2035"/>
<g cb-classname="DynamicText" cb-source="HE-0r7-4Pvy" class="signal" id="4Ch" text-anchor="end">
<text cb-classname="GraphicTextEntity" class="signal" fill="black" font-style="normal" font-weight="normal" id="4Cm" text-anchor="end" text-decoration="normal" x="2505" y="2027"/>
</g>
</g>
<g cb-classname="ControlPin" cb-pin-name="Wt-kL5-pOa" id="4CD">
<line cb-classname="GraphicLineEntity" class="signalline" id="4C6" x1="3270" x2="3310" y1="1290" y2="1290"/>
<g cb-classname="DynamicText" cb-source="df-t7U-NtVu" class="signal" id="4KB" text-anchor="start">
<text cb-classname="GraphicTextEntity" class="signal" fill="black" font-style="normal" font-weight="normal" id="4KT" text-anchor="start" text-decoration="normal" x="3284" y="1287"/>
</g>
<g cb-classname="SignalSegment" id="4Kp">
<line cb-classname="GraphicLineEntity" class="signalline" id="4KA" x1="3310" x2="4710" y1="1290" y2="1290"/>
<g cb-classname="SignalConnection" cb-graphic-line="$493$" cb-input-pin="$fA1$" id="4KN"/>
</g>
</g>
<g cb-classname="ControlPin" cb-pin-name="7c-CWl-FxG" id="4Ka">
<line cb-classname="GraphicLineEntity" class="signalline" id="4Kh" x1="3270" x2="3300" y1="1560" y2="1560"/>
<g cb-classname="DynamicText" cb-source="6V-Qj3-7Ohw" class="signal" id="4Km" text-anchor="start">
<text cb-classname="GraphicTextEntity" class="signal" fill="black" font-style="normal" font-weight="normal" id="4KD" text-anchor="start" text-decoration="normal" x="3284" y="1557"/>
</g>
<g cb-classname="SignalSegment" id="4K6">
<line cb-classname="GraphicLineEntity" class="signalline" id="5UB" x1="3300" x2="4710" y1="1560" y2="1560"/>
<g cb-classname="SignalConnection" cb-graphic-line="$500$" cb-input-pin="$6TL$" id="5UT"/>
</g>
</g>
<g cb-classname="ControlPin" cb-pin-name="Qo-OmV-di" id="5Up">
<line cb-classname="GraphicLineEntity" class="signalline" id="5UA" x1="3270" x2="3290" y1="1880" y2="1880"/>
<g cb-classname="DynamicText" cb-source="1c-2wq-k58Z" class="signal" id="5UN" text-anchor="start">
<text cb-classname="GraphicTextEntity" class="signal" fill="black" font-style="normal" font-weight="normal" id="5Ua" text-anchor="start" text-decoration="normal" x="3284" y="1877"/>
</g>
<g cb-classname="SignalSegment" id="5Uh">
<line cb-classname="GraphicLineEntity" class="signalline" id="5Um" stroke="#1e12bf" stroke-dasharray="5,4" x1="3290" x2="4710" y1="1880" y2="1880"/>
<g cb-classname="SignalConnection" cb-graphic-line="$507$" cb-input-pin="$aLW$" id="5UD"/>
</g>
</g>
<g cb-classname="ControlPin" cb-pin-name="wk-po9-pn" id="5U6">
<line cb-classname="GraphicLineEntity" class="signalline" id="5NB" x1="3270" x2="3290" y1="1940" y2="1940"/>
<g cb-classname="DynamicText" cb-source="q8-mLu-Rjeb" class="signal" id="5NT" text-anchor="start">
<text cb-classname="GraphicTextEntity" class="signal" fill="black" font-style="normal" font-weight="normal" id="5Np" text-anchor="start" text-decoration="normal" x="3284" y="1937"/>
</g>
<g cb-classname="SignalSegment" id="5NA">
<line cb-classname="GraphicLineEntity" class="signalline" id="5NN" stroke="#1e12bf" stroke-dasharray="5,4" x1="3290" x2="4460" y1="1940" y2="1940"/>
<g cb-classname="SignalSegment" id="5Na">
<line cb-classname="GraphicLineEntity" class="signalline" id="5Nh" stroke="#1e12bf" stroke-dasharray="5,4" x1="4460" x2="4460" y1="1940" y2="2150"/>
<g cb-classname="SignalSegment" id="5Nm">
<line cb-classname="GraphicLineEntity" class="signalline" id="5ND" stroke="#1e12bf" stroke-dasharray="5,4" x1="4460" x2="4710" y1="2150" y2="2150"/>
<g cb-classname="SignalConnection" cb-graphic-line="$518$" cb-input-pin="$8tJ$" id="5N6"/>
</g>
</g>
</g>
</g>
<g cb-classname="ControlPin" cb-pin-name="df-jff-Rms8x" id="1fhL">
<line cb-classname="GraphicLineEntity" class="signalline" id="1fmS" x1="2490" x2="2520" y1="2320" y2="2320"/>
<polygon cb-classname="GraphicPolygonEntity" class="signal" id="1fml" points="2520,2320 2509,2314 2509,2325"/>
<g cb-classname="DynamicText" cb-source="Bs-g9k-lgFm" class="signal" id="1fm0" text-anchor="end">
<text cb-classname="GraphicTextEntity" class="signal" fill="black" font-style="normal" font-weight="normal" id="1fmK" text-anchor="end" text-decoration="normal" transform="translate(2505,2317)rotate(360)"/>
</g>
</g>
<g cb-classname="ControlPin" cb-pin-name="wk-po9-dm0hg" id="1fmz">
<line cb-classname="GraphicLineEntity" class="signalline" id="1fm9" x1="2490" x2="2520" y1="2380" y2="2380"/>
<polygon cb-classname="GraphicPolygonEntity" class="signal" id="1fmu" points="2520,2380 2509,2374 2509,2385"/>
<g cb-classname="DynamicText" cb-source="HE-0r7-4Pvy" class="signal" id="1fmn" text-anchor="end">
<text cb-classname="GraphicTextEntity" class="signal" fill="black" font-style="normal" font-weight="normal" id="1fmL" text-anchor="end" text-decoration="normal" transform="translate(2505,2377)rotate(360)"/>
</g>
</g>
<g cb-classname="ControlPin" cb-pin-name="s6-VmQ-ju6" id="1CBS">
<line cb-classname="GraphicLineEntity" class="signalline" id="1CBl" x1="2490" x2="2520" y1="870" y2="870"/>
<polygon cb-classname="GraphicPolygonEntity" class="signal" id="1CB0" points="2520,870 2509,864 2509,875"/>
<g cb-classname="DynamicText" cb-source="df-t7U-NtVu" class="signal" id="1CBK" text-anchor="end">
<text cb-classname="GraphicTextEntity" class="signal" fill="black" font-style="normal" font-weight="normal" id="1CB1" text-anchor="end" text-decoration="normal" x="2505" y="867"/>
</g>
</g>
</g>
<g cb-alg-vR="$406$cb-alg-sts$" cb-algorithm-id="00d" cb-classname="ExternalPointInterface" cb-function-name="OUTPUT" id="55B">
<ellipse cb-classname="GraphicEllipseEntity" class="algorithm" cx="4790" cy="1290" id="55T" rx="50" ry="50"/>
<rect cb-classname="GraphicRectangleEntity" class="algorithm" height="100" id="55p" width="40" x="4840" y="1240"/>
<line cb-classname="GraphicLineEntity" class="algorithm" id="55A" x1="4840" x2="4880" y1="1290" y2="1290"/>
<g cb-classname="ControlPin" cb-pin-name="7c-CWl-Lu" id="55N">
<line cb-classname="GraphicLineEntity" class="signalline" id="55a" x1="4710" x2="4740" y1="1290" y2="1290"/>
<polygon cb-classname="GraphicPolygonEntity" class="signal" id="55h" points="4740,1290 4729,1284 4729,1295"/>
<g cb-classname="DynamicText" cb-source="q8-mLu-Rjeb" class="signal" id="55m" text-anchor="end">
<text cb-classname="GraphicTextEntity" class="signal" fill="black" font-style="normal" font-weight="normal" id="55D" text-anchor="end" text-decoration="normal" x="4725" y="1287"/>
</g>
</g>
<g cb-classname="PointStatusIndicator" cb-indicator-type="highway" cb-source="s6-VmQ-7U" id="556" visibility="hidden">
<line cb-classname="GraphicLineEntity" class="algorithmline" id="5xB" x1="4740" x2="4790" y1="1290" y2="1240"/>
<line cb-classname="GraphicLineEntity" class="algorithmline" id="5xT" x1="4790" x2="4840" y1="1240" y2="1290"/>
<line cb-classname="GraphicLineEntity" class="algorithmline" id="5xp" x1="4840" x2="4790" y1="1290" y2="1340"/>
<line cb-classname="GraphicLineEntity" class="algorithmline" id="5xA" x1="4790" x2="4740" y1="1340" y2="1290"/>
</g>
<g cb-classname="PointStatusIndicator" cb-indicator-type="hardware" cb-source="sZ-udq-Hl" id="5xN" visibility="hidden">
<line cb-classname="GraphicLineEntity" class="algorithmline" id="5xa" x1="4840" x2="4740" y1="1240" y2="1240"/>
<line cb-classname="GraphicLineEntity" class="algorithmline" id="5xh" x1="4740" x2="4740" y1="1240" y2="1340"/>
<line cb-classname="GraphicLineEntity" class="algorithmline" id="5xm" x1="4740" x2="4840" y1="1340" y2="1340"/>
</g>
<g cb-classname="PointStatusIndicator" cb-indicator-type="alarm" cb-source="wk-po9-r7" id="5xD" visibility="hidden">
<text cb-classname="GraphicTextEntity" class="algorithm" fill="#000000" font-family="Arial" font-size="20" id="5x6" x="4850" y="1325">
A
</text>
</g>
<g cb-classname="PointStatusIndicator" cb-indicator-type="ingraphic" cb-source="q8-apv-o4" id="5fB" visibility="visible">
<text cb-classname="GraphicTextEntity" class="algorithm" fill="#000000" font-family="Arial" font-size="20" id="5fT" x="4850" y="1275">
G
</text>
</g>
<g cb-classname="DynamicText" cb-labeled="false" cb-pin-name="BK" cb-source="s6-VmQ-7U" class="algorithm" id="5fp" text-anchor="end">
<text baseline-shift="0%" cb-classname="GraphicTextEntity" class="algorithm" fill="black" font-family="arial" font-size="20" font-style="normal" font-weight="normal" id="5fA" text-anchor="end" text-decoration="normal" x="4715" y="1265"/>
</g>
<g baseline-shift="-100%" cb-anchor-x="4715" cb-anchor-y="1300" cb-classname="PointReferences" cb-max-width="130" cb-originator="false" cb-source="Qo-OmV-wN" class="signal" id="5fN" text-anchor="end">
<text baseline-shift="-100%" cb-classname="GraphicTextEntity" class="algorithm" id="5fa" text-anchor="end" x="4715" y="1300">
REF: Point not
</text>
<text baseline-shift="-100%" cb-classname="GraphicTextEntity" class="algorithm" id="2KAn" text-anchor="end" x="4715" y="1325">
found in
</text>
<text baseline-shift="-100%" cb-classname="GraphicTextEntity" class="algorithm" id="2KAL" text-anchor="end" x="4715" y="1350">
database
</text>
<text baseline-shift="-100%" cb-classname="GraphicTextEntity" class="algorithm" id="2KNS" text-anchor="end" x="4715" y="1375">
(01B0201D08B-STS)
</text>
</g>
<g baseline-shift="-50%" cb-anchor-x="4895" cb-anchor-y="1305" cb-classname="PointDescription" cb-content="extended" cb-labeled="false" cb-max-width="240" cb-source="Bs-9DU-FU" class="algorithm" id="5fD" text-anchor="start">
<text baseline-shift="-50%" cb-classname="GraphicTextEntity" class="algorithm" id="5f6" text-anchor="start" x="4895" y="1280">
DESC: Point not found in
</text>
<text baseline-shift="-50%" cb-classname="GraphicTextEntity" class="algorithm" id="2KNl" text-anchor="start" x="4895" y="1305">
database
</text>
<text baseline-shift="-50%" cb-classname="GraphicTextEntity" class="algorithm" id="2KN0" text-anchor="start" x="4895" y="1330">
(01B0201D08B-STS)
</text>
</g>
</g>
<g cb-alg-k3="$406$cb-alg-alm$" cb-algorithm-id="00e" cb-classname="ExternalPointInterface" cb-function-name="OUTPUT" id="5iB">
<ellipse cb-classname="GraphicEllipseEntity" class="algorithm" cx="4790" cy="1560" id="5iT" rx="50" ry="50"/>
<rect cb-classname="GraphicRectangleEntity" class="algorithm" height="100" id="5ip" width="40" x="4840" y="1510"/>
<line cb-classname="GraphicLineEntity" class="algorithm" id="5iA" x1="4840" x2="4880" y1="1560" y2="1560"/>
<g cb-classname="ControlPin" cb-pin-name="HE-Fxo-8Y" id="5iN">
<line cb-classname="GraphicLineEntity" class="signalline" id="5ia" x1="4710" x2="4740" y1="1560" y2="1560"/>
<polygon cb-classname="GraphicPolygonEntity" class="signal" id="5ih" points="4740,1560 4729,1554 4729,1565"/>
<g cb-classname="DynamicText" cb-source="Qo-p8Y-qxMK" class="signal" id="5im" text-anchor="end">
<text cb-classname="GraphicTextEntity" class="signal" fill="black" font-style="normal" font-weight="normal" id="5iD" text-anchor="end" text-decoration="normal" x="4725" y="1557"/>
</g>
</g>
<g cb-classname="PointStatusIndicator" cb-indicator-type="highway" cb-source="1c-PGs-xS" id="5i6" visibility="hidden">
<line cb-classname="GraphicLineEntity" class="algorithmline" id="5wB" x1="4740" x2="4790" y1="1560" y2="1510"/>
<line cb-classname="GraphicLineEntity" class="algorithmline" id="5wT" x1="4790" x2="4840" y1="1510" y2="1560"/>
<line cb-classname="GraphicLineEntity" class="algorithmline" id="5wp" x1="4840" x2="4790" y1="1560" y2="1610"/>
<line cb-classname="GraphicLineEntity" class="algorithmline" id="5wA" x1="4790" x2="4740" y1="1610" y2="1560"/>
</g>
<g cb-classname="PointStatusIndicator" cb-indicator-type="hardware" cb-source="wk-po9-r7" id="5wN" visibility="hidden">
<line cb-classname="GraphicLineEntity" class="algorithmline" id="5wa" x1="4840" x2="4740" y1="1510" y2="1510"/>
<line cb-classname="GraphicLineEntity" class="algorithmline" id="5wh" x1="4740" x2="4740" y1="1510" y2="1610"/>
<line cb-classname="GraphicLineEntity" class="algorithmline" id="5wm" x1="4740" x2="4840" y1="1610" y2="1610"/>
</g>
<g cb-classname="PointStatusIndicator" cb-indicator-type="alarm" cb-source="s6-VmQ-7U" id="5wD" visibility="hidden">
<text cb-classname="GraphicTextEntity" class="algorithm" fill="#000000" font-family="Arial" font-size="20" id="5w6" x="4850" y="1595">
A
</text>
</g>
<g cb-classname="PointStatusIndicator" cb-indicator-type="ingraphic" cb-source="Qo-OmV-wN" id="5CB" visibility="visible">
<text cb-classname="GraphicTextEntity" class="algorithm" fill="#000000" font-family="Arial" font-size="20" id="5CT" x="4850" y="1545">
G
</text>
</g>
<g cb-classname="DynamicText" cb-labeled="false" cb-pin-name="RP" cb-source="1c-PGs-xS" class="algorithm" id="5Cp" text-anchor="end">
<text baseline-shift="0%" cb-classname="GraphicTextEntity" class="algorithm" fill="black" font-family="arial" font-size="20" font-style="normal" font-weight="normal" id="5CA" text-anchor="end" text-decoration="normal" x="4715" y="1535"/>
</g>
<g baseline-shift="-100%" cb-anchor-x="4715" cb-anchor-y="1570" cb-classname="PointReferences" cb-max-width="130" cb-originator="false" cb-source="Bs-9DU-FU" class="signal" id="5CN" text-anchor="end">
<text baseline-shift="-100%" cb-classname="GraphicTextEntity" class="algorithm" id="5Ca" text-anchor="end" x="4715" y="1570">
REF: Point not
</text>
<text baseline-shift="-100%" cb-classname="GraphicTextEntity" class="algorithm" id="2KNK" text-anchor="end" x="4715" y="1595">
found in
</text>
<text baseline-shift="-100%" cb-classname="GraphicTextEntity" class="algorithm" id="2KN1" text-anchor="end" x="4715" y="1620">
database
</text>
<text baseline-shift="-100%" cb-classname="GraphicTextEntity" class="algorithm" id="2KNz" text-anchor="end" x="4715" y="1645">
(01B0201D08B-ALM)
</text>
</g>
<g baseline-shift="-50%" cb-anchor-x="4895" cb-anchor-y="1575" cb-classname="PointDescription" cb-content="extended" cb-labeled="false" cb-max-width="240" cb-source="6V-gRE-vR" class="algorithm" id="5CD" text-anchor="start">
<text baseline-shift="-50%" cb-classname="GraphicTextEntity" class="algorithm" id="5C6" text-anchor="start" x="4895" y="1550">
DESC: Point not found in
</text>
<text baseline-shift="-50%" cb-classname="GraphicTextEntity" class="algorithm" id="2KN9" text-anchor="start" x="4895" y="1575">
database
</text>
<text baseline-shift="-50%" cb-classname="GraphicTextEntity" class="algorithm" id="2KNu" text-anchor="start" x="4895" y="1600">
(01B0201D08B-ALM)
</text>
</g>
</g>
<g cb-alg-CA="$406$cb-alg-lb$" cb-algorithm-id="00f" cb-classname="ExternalPointInterface" cb-function-name="OUTPUT" id="5KB">
<ellipse cb-classname="GraphicEllipseEntity" class="algorithm" cx="4790" cy="1880" id="5KT" rx="50" ry="50"/>
<rect cb-classname="GraphicRectangleEntity" class="algorithm" height="100" id="5Kp" width="40" x="4840" y="1830"/>
<line cb-classname="GraphicLineEntity" class="algorithm" id="5KA" x1="4840" x2="4880" y1="1880" y2="1880"/>
<g cb-classname="ControlPin" cb-pin-name="df-jff-9k" id="5KN">
<line cb-classname="GraphicLineEntity" class="signalline" id="5Ka" x1="4710" x2="4740" y1="1880" y2="1880"/>
<polygon cb-classname="GraphicPolygonEntity" class="signal" id="5Kh" points="4740,1880 4729,1874 4729,1885"/>
<g cb-classname="DynamicText" cb-source="Bs-g9k-lgFm" class="signal" id="5Km" text-anchor="end">
<text cb-classname="GraphicTextEntity" class="signal" fill="black" font-style="normal" font-weight="normal" id="5KD" text-anchor="end" text-decoration="normal" x="4725" y="1877"/>
</g>
</g>
<g cb-classname="PointStatusIndicator" cb-indicator-type="highway" cb-source="7c-CWl-Lu" id="5K6" visibility="hidden">
<line cb-classname="GraphicLineEntity" class="algorithmline" id="6UB" x1="4740" x2="4790" y1="1880" y2="1830"/>
<line cb-classname="GraphicLineEntity" class="algorithmline" id="6UT" x1="4790" x2="4840" y1="1830" y2="1880"/>
<line cb-classname="GraphicLineEntity" class="algorithmline" id="6Up" x1="4840" x2="4790" y1="1880" y2="1930"/>
<line cb-classname="GraphicLineEntity" class="algorithmline" id="6UA" x1="4790" x2="4740" y1="1930" y2="1880"/>
</g>
<g cb-classname="PointStatusIndicator" cb-indicator-type="hardware" cb-source="s6-VmQ-7U" id="6UN" visibility="hidden">
<line cb-classname="GraphicLineEntity" class="algorithmline" id="6Ua" x1="4840" x2="4740" y1="1830" y2="1830"/>
<line cb-classname="GraphicLineEntity" class="algorithmline" id="6Uh" x1="4740" x2="4740" y1="1830" y2="1930"/>
<line cb-classname="GraphicLineEntity" class="algorithmline" id="6Um" x1="4740" x2="4840" y1="1930" y2="1930"/>
</g>
<g cb-classname="PointStatusIndicator" cb-indicator-type="alarm" cb-source="1c-PGs-xS" id="6UD" visibility="hidden">
<text cb-classname="GraphicTextEntity" class="algorithm" fill="#000000" font-family="Arial" font-size="20" id="6U6" x="4850" y="1915">
A
</text>
</g>
<g cb-classname="PointStatusIndicator" cb-indicator-type="ingraphic" cb-source="Bs-9DU-FU" id="6NB" visibility="hidden">
<text cb-classname="GraphicTextEntity" class="algorithm" fill="#000000" font-family="Arial" font-size="20" id="6NT" x="4850" y="1865">
G
</text>
</g>
<g cb-classname="DynamicText" cb-labeled="false" cb-pin-name="t0" cb-source="7c-CWl-Lu" class="algorithm" id="6Np" text-anchor="end">
<text baseline-shift="0%" cb-classname="GraphicTextEntity" class="algorithm" fill="black" font-family="arial" font-size="20" font-style="normal" font-weight="normal" id="6NA" text-anchor="end" text-decoration="normal" x="4715" y="1855"/>
</g>
<g baseline-shift="-100%" cb-anchor-x="4715" cb-anchor-y="1890" cb-classname="PointReferences" cb-max-width="130" cb-originator="false" cb-source="6V-gRE-vR" class="signal" id="6NN" text-anchor="end">
<text baseline-shift="-100%" cb-classname="GraphicTextEntity" class="algorithm" id="6Na" text-anchor="end" x="4715" y="1890">
REF: Point not
</text>
<text baseline-shift="-100%" cb-classname="GraphicTextEntity" class="algorithm" id="2KNn" text-anchor="end" x="4715" y="1915">
found in
</text>
<text baseline-shift="-100%" cb-classname="GraphicTextEntity" class="algorithm" id="2KNL" text-anchor="end" x="4715" y="1940">
database
</text>
<text baseline-shift="-100%" cb-classname="GraphicTextEntity" class="algorithm" id="2KaS" text-anchor="end" x="4715" y="1965">
(01B0201D08B-LB)
</text>
</g>
<g baseline-shift="-50%" cb-anchor-x="4895" cb-anchor-y="1895" cb-classname="PointDescription" cb-content="extended" cb-labeled="false" cb-max-width="240" cb-source="s6-VmQ-7U" class="algorithm" id="6Nm" text-anchor="start">
<text baseline-shift="-50%" cb-classname="GraphicTextEntity" class="algorithm" id="6ND" text-anchor="start" x="4895" y="1883">
DESC: Point not found in
</text>
<text baseline-shift="-50%" cb-classname="GraphicTextEntity" class="algorithm" id="1w6u" text-anchor="start" x="4895" y="1908">
database (01B0201D08B-LB)
</text>
</g>
</g>
<g cb-alg-Lu="$406$cb-alg-tr$" cb-algorithm-id="010" cb-classname="ExternalPointInterface" cb-function-name="OUTPUT" id="6N6">
<ellipse cb-classname="GraphicEllipseEntity" class="algorithm" cx="4790" cy="2150" id="6DB" rx="50" ry="50"/>
<rect cb-classname="GraphicRectangleEntity" class="algorithm" height="100" id="6DT" width="40" x="4840" y="2100"/>
<line cb-classname="GraphicLineEntity" class="algorithm" id="6Dp" x1="4840" x2="4880" y1="2150" y2="2150"/>
<g cb-classname="ControlPin" cb-pin-name="Bs-9DU-FU" id="6DA">
<line cb-classname="GraphicLineEntity" class="signalline" id="6DN" x1="4710" x2="4740" y1="2150" y2="2150"/>
<polygon cb-classname="GraphicPolygonEntity" class="signal" id="6Da" points="4740,2150 4729,2144 4729,2155"/>
<g cb-classname="DynamicText" cb-source="wk-lHB-ukiz" class="signal" id="6Dh" text-anchor="end">
<text cb-classname="GraphicTextEntity" class="signal" fill="black" font-style="normal" font-weight="normal" id="6Dm" text-anchor="end" text-decoration="normal" x="4725" y="2147"/>
</g>
</g>
<g cb-classname="PointStatusIndicator" cb-indicator-type="highway" cb-source="q8-apv-o4" id="6DD" visibility="hidden">
<line cb-classname="GraphicLineEntity" class="algorithmline" id="6D6" x1="4740" x2="4790" y1="2150" y2="2100"/>
<line cb-classname="GraphicLineEntity" class="algorithmline" id="65B" x1="4790" x2="4840" y1="2100" y2="2150"/>
<line cb-classname="GraphicLineEntity" class="algorithmline" id="65T" x1="4840" x2="4790" y1="2150" y2="2200"/>
<line cb-classname="GraphicLineEntity" class="algorithmline" id="65p" x1="4790" x2="4740" y1="2200" y2="2150"/>
</g>
<g cb-classname="PointStatusIndicator" cb-indicator-type="hardware" cb-source="df-jff-9k" id="65A" visibility="hidden">
<line cb-classname="GraphicLineEntity" class="algorithmline" id="65N" x1="4840" x2="4740" y1="2100" y2="2100"/>
<line cb-classname="GraphicLineEntity" class="algorithmline" id="65a" x1="4740" x2="4740" y1="2100" y2="2200"/>
<line cb-classname="GraphicLineEntity" class="algorithmline" id="65h" x1="4740" x2="4840" y1="2200" y2="2200"/>
</g>
<g cb-classname="PointStatusIndicator" cb-indicator-type="alarm" cb-source="cJ-y13-j3" id="65m" visibility="visible">
<text cb-classname="GraphicTextEntity" class="algorithm" fill="#000000" font-family="Arial" font-size="20" id="65D" x="4850" y="2185">
A
</text>
</g>
<g cb-classname="PointStatusIndicator" cb-indicator-type="ingraphic" cb-source="wk-po9-r7" id="656" visibility="hidden">
<text cb-classname="GraphicTextEntity" class="algorithm" fill="#000000" font-family="Arial" font-size="20" id="6xB" x="4850" y="2135">
G
</text>
</g>
<g cb-classname="DynamicText" cb-labeled="false" cb-pin-name="wv" cb-source="q8-apv-o4" class="algorithm" id="6xT" text-anchor="end">
<text baseline-shift="0%" cb-classname="GraphicTextEntity" class="algorithm" fill="black" font-family="arial" font-size="20" font-style="normal" font-weight="normal" id="6xp" text-anchor="end" text-decoration="normal" x="4715" y="2125"/>
</g>
<g baseline-shift="-100%" cb-anchor-x="4715" cb-anchor-y="2160" cb-classname="PointReferences" cb-max-width="130" cb-originator="false" cb-source="s6-VmQ-7U" class="signal" id="6xA" text-anchor="end">
<text baseline-shift="-100%" cb-classname="GraphicTextEntity" class="algorithm" id="6xN" text-anchor="end" x="4715" y="2160">
REF: Point not
</text>
<text baseline-shift="-100%" cb-classname="GraphicTextEntity" class="algorithm" id="2Ka0" text-anchor="end" x="4715" y="2185">
found in
</text>
<text baseline-shift="-100%" cb-classname="GraphicTextEntity" class="algorithm" id="2KaK" text-anchor="end" x="4715" y="2210">
database
</text>
<text baseline-shift="-100%" cb-classname="GraphicTextEntity" class="algorithm" id="2Ka1" text-anchor="end" x="4715" y="2235">
(01B0201D08B-TR)
</text>
</g>
<g baseline-shift="-50%" cb-anchor-x="4895" cb-anchor-y="2165" cb-classname="PointDescription" cb-content="extended" cb-labeled="false" cb-max-width="240" cb-source="df-jff-9k" class="algorithm" id="6xh" text-anchor="start">
<text baseline-shift="-50%" cb-classname="GraphicTextEntity" class="algorithm" id="6xm" text-anchor="start" x="4895" y="2153">
DESC: Point not found in
</text>
<text baseline-shift="-50%" cb-classname="GraphicTextEntity" class="algorithm" id="1w6n" text-anchor="start" x="4895" y="2178">
database (01B0201D08B-TR)
</text>
</g>
</g>
</g>
<g cb-classname="IncludeDocument" cb-modify-time="09/25/2018 01:40:30" cb-objectname="Frame" id="5">
<text cb-classname="GraphicTextEntity" class="frame" font-size="50" id="3UT9" x="3660" y="3146">
Project Title &lt;Edit in FRAME.SVG&gt;
</text>
<g baseline-shift="-50%" cb-classname="DynamicText" cb-source="7c-smMm-rQ" class="frame" id="3UTu">
<text cb-classname="GraphicTextEntity" class="frame" fill="black" font-family="arial" font-size="25" font-style="normal" font-weight="normal" id="3UTn" text-decoration="normal" x="4715" y="3325">
13
</text>
</g>
<g baseline-shift="-50%" cb-classname="DynamicText" cb-source="6V-FGyX-on" class="frame" id="3UTL" text-anchor="middle">
<text cb-classname="GraphicTextEntity" class="frame" fill="black" font-family="arial" font-size="48" font-style="normal" font-weight="normal" id="3UpS" text-anchor="middle" text-decoration="normal" x="4900" y="3320">
13
</text>
</g>
<g baseline-shift="-50%" cb-classname="DynamicText" cb-source="HE-mVtN-7k" class="frame" id="3Upl" text-anchor="middle">
<text cb-classname="GraphicTextEntity" class="frame" fill="black" font-family="arial" font-size="48" font-style="normal" font-weight="normal" id="3Up0" text-anchor="middle" text-decoration="normal" x="5067" y="3324">
4
</text>
</g>
<g cb-classname="DynamicText" cb-source="Wt-tkzwr-2xs2Z" class="frame" id="3UpK">
<text cb-classname="GraphicTextEntity" class="frame" fill="black" font-family="arial" font-size="48" font-style="normal" font-weight="normal" id="3Up1" text-decoration="normal" x="3660" y="3224">
BFPT LP STM PIPE DRN VLV B-B0201D08B
</text>
</g>
<g baseline-shift="-50%" cb-classname="DynamicText" cb-source="df-rjby2-SowImA" class="frame" id="3Upz" text-anchor="middle">
<text cb-classname="GraphicTextEntity" class="frame" fill="black" font-family="arial" font-size="48" font-style="normal" font-weight="normal" id="3Up9" text-anchor="middle" text-decoration="normal" x="5270" y="3324">
127
</text>
</g>
<g baseline-shift="0%" cb-classname="DynamicText" cb-source="sZ-ny7xWF9p" class="frame" id="3Upu" text-anchor="middle">
<text cb-classname="GraphicTextEntity" class="frame" fill="black" font-family="arial" font-size="36" font-style="normal" font-weight="normal" id="3Upn" text-anchor="middle" text-decoration="normal" x="5270" y="3150">
A
</text>
</g>
<g baseline-shift="0%" cb-classname="DynamicText" cb-source="cJ-PKaH2Li7-W7vy" class="frame" id="3UpL" text-anchor="middle">
<text cb-classname="GraphicTextEntity" class="frame" fill="black" font-family="arial" font-size="20" font-style="normal" font-weight="normal" id="3UAS" text-anchor="middle" text-decoration="normal" x="5270" y="3230">
12/28/2010
</text>
</g>
<g baseline-shift="-50%" cb-classname="DynamicText" cb-source="wk-cA9Lul8w" class="frame" id="3UAl" text-anchor="end">
<text cb-classname="GraphicTextEntity" class="frame" fill="black" font-family="arial" font-size="26" font-style="normal" font-weight="normal" id="3UA0" text-anchor="end" text-decoration="normal" x="4500" y="3420">
Heczko
</text>
</g>
<g baseline-shift="-50%" cb-classname="DynamicText" cb-source="q8-Gbtv8own" class="frame" id="3UAK" text-anchor="end">
<text cb-classname="GraphicTextEntity" class="frame" fill="black" font-family="arial" font-size="26" font-style="normal" font-weight="normal" id="3UA1" text-anchor="end" text-decoration="normal" x="5353" y="3420">
Nemec
</text>
</g>
<g cb-classname="GraphicShape" cb-tag="BORDER" id="3UAz">
<line cb-classname="GraphicLineEntity" class="frameline" id="3UA9" x1="40" x2="40" y1="40" y2="3460"/>
<line cb-classname="GraphicLineEntity" class="frameline" id="3UAu" x1="40" x2="5380" y1="3460" y2="3460"/>
<line cb-classname="GraphicLineEntity" class="frameline" id="3UAn" x1="5380" x2="5380" y1="3460" y2="40"/>
<line cb-classname="GraphicLineEntity" class="frameline" id="3UAL" x1="5380" x2="40" y1="40" y2="40"/>
<line cb-classname="GraphicLineEntity" class="frame" id="3UNS" x1="5430" x2="5440" y1="3510" y2="3510"/>
</g>
<g cb-classname="GraphicShape" cb-tag="TITLE BOX" id="3UNl">
<line cb-classname="GraphicLineEntity" class="frameline" id="3UN0" x1="2340" x2="2340" y1="3080" y2="3460"/>
<line cb-classname="GraphicLineEntity" class="frameline" id="3UNK" x1="2340" x2="5380" y1="3080" y2="3080"/>
<line cb-classname="GraphicLineEntity" class="frameline" id="3UN1" x1="3650" x2="3650" y1="3460" y2="3080"/>
<line cb-classname="GraphicLineEntity" class="frameline" id="3UNz" x1="3650" x2="5380" y1="3240" y2="3240"/>
<line cb-classname="GraphicLineEntity" class="frameline" id="3UN9" x1="3650" x2="5380" y1="3390" y2="3390"/>
<line cb-classname="GraphicLineEntity" class="frameline" id="3UNu" x1="3650" x2="5380" y1="3160" y2="3160"/>
<line cb-classname="GraphicLineEntity" class="frameline" id="3UNn" x1="3650" x2="4520" y1="3320" y2="3320"/>
<line cb-classname="GraphicLineEntity" class="frameline" id="3UNL" x1="4520" x2="5380" y1="3290" y2="3290"/>
<line cb-classname="GraphicLineEntity" class="frameline" id="3UaS" x1="4520" x2="5380" y1="3240" y2="3240"/>
<line cb-classname="GraphicLineEntity" class="frameline" id="3Ual" x1="4520" x2="4520" y1="3240" y2="3460"/>
<line cb-classname="GraphicLineEntity" class="frameline" id="3Ua0" x1="4810" x2="4810" y1="3240" y2="3390"/>
<line cb-classname="GraphicLineEntity" class="frameline" id="3UaK" x1="4990" x2="4990" y1="3240" y2="3390"/>
<line cb-classname="GraphicLineEntity" class="frameline" id="3Ua1" x1="5150" x2="5150" y1="3080" y2="3390"/>
</g>
<g cb-classname="GraphicShape" cb-tag="TEXT LABELS" id="3Uaz">
<text baseline-shift="-50%" cb-classname="GraphicTextEntity" class="frame" font-size="25" id="3Ua9" text-anchor="middle" x="4890" y="3252">
Drop
</text>
<text baseline-shift="-50%" cb-classname="GraphicTextEntity" class="frame" font-size="25" id="3Uau" text-anchor="middle" x="5075" y="3252">
Task
</text>
<text baseline-shift="-50%" cb-classname="GraphicTextEntity" class="frame" font-size="25" id="3Uan" text-anchor="middle" x="5265" y="3252">
Sheet
</text>
<text cb-classname="GraphicTextEntity" class="frame" font-size="25" id="3UaL" x="5152" y="3107">
Rev.
</text>
<text cb-classname="GraphicTextEntity" class="frame" font-size="25" id="3UhS" x="3653" y="3418">
Engineer
</text>
<text cb-classname="GraphicTextEntity" class="frame" font-size="25" id="3Uhl" x="4528" y="3419">
Approved
</text>
<text cb-classname="GraphicTextEntity" class="frame" font-size="25" id="3Uh0" x="5152" y="3187">
Date
</text>
<text baseline-shift="-50%" cb-classname="GraphicTextEntity" class="frame" font-size="25" id="3UhK" text-anchor="middle" x="4660" y="3252">
Drawing Number
</text>
<text baseline-shift="-50%" cb-classname="GraphicTextEntity" class="frame" font-size="25" id="3Uh1" text-anchor="middle" x="4680" y="3325">
CTL
</text>
</g>
<text baseline-shift="-50%" cb-classname="GraphicTextEntity" class="frame" font-size="48" id="3Uhz" text-anchor="middle" x="3000" y="3100">
EMERSON PROCESS MANAGEMENT
</text>
<g baseline-shift="-100%" cb-anchor-x="2360" cb-anchor-y="3140" cb-classname="GroupText" cb-max-width="1260" fill="black" id="3Uh9">
<text baseline-shift="-100%" cb-classname="GraphicTextEntity" class="frame" fill="black" font-family="arial" font-size="22" font-weight="normal" id="3Uhu" text-anchor="start" text-decoration="normal" x="2360" y="3140">
THIS DOCUMENT CONTAINS INFORMATION PROPRIETARY TO EMERSON PROCESS
</text>
<text baseline-shift="-100%" cb-classname="GraphicTextEntity" class="frame" fill="black" font-family="arial" font-size="22" font-weight="normal" id="3Uhn" text-anchor="start" text-decoration="normal" x="2360" y="3176">
MANAGEMENT POWER &amp; WATER SOLUTIONS, INC. IT IS SUBMITTED IN CONFIDENCE AND
</text>
<text baseline-shift="-100%" cb-classname="GraphicTextEntity" class="frame" fill="black" font-family="arial" font-size="22" font-weight="normal" id="3UhL" text-anchor="start" text-decoration="normal" x="2360" y="3212">
TRUST, IS TO BE USED BY YOU SOLELY FOR THE PURPOSES FOR WHICH IT IS
</text>
<text baseline-shift="-100%" cb-classname="GraphicTextEntity" class="frame" fill="black" font-family="arial" font-size="22" font-weight="normal" id="3UmS" text-anchor="start" text-decoration="normal" x="2360" y="3248">
FURNISHED AND IS TO BE RETURNED UPON REQUEST. THIS DOCUMENT AND ANY
</text>
<text baseline-shift="-100%" cb-classname="GraphicTextEntity" class="frame" fill="black" font-family="arial" font-size="22" font-weight="normal" id="3Uml" text-anchor="start" text-decoration="normal" x="2360" y="3284">
OTHER INFORMATION PROVIDED TO YOU IS NOT TO BE REPRODUCED, TRANSMITTED,
</text>
<text baseline-shift="-100%" cb-classname="GraphicTextEntity" class="frame" fill="black" font-family="arial" font-size="22" font-weight="normal" id="3Um0" text-anchor="start" text-decoration="normal" x="2360" y="3320">
DISCLOSED, OR USED OTHERWISE IN WHOLE OR IN PART WITHOUT THE PRIOR
</text>
<text baseline-shift="-100%" cb-classname="GraphicTextEntity" class="frame" fill="black" font-family="arial" font-size="22" font-weight="normal" id="3UmK" text-anchor="start" text-decoration="normal" x="2360" y="3356">
WRITTEN AUTHORIZATION OF EMERSON PROCESS MANAGEMENT POWER &amp; WATER
</text>
<text baseline-shift="-100%" cb-classname="GraphicTextEntity" class="frame" fill="black" font-family="arial" font-size="22" font-weight="normal" id="3Um1" text-anchor="start" text-decoration="normal" x="2360" y="3392">
SOLUTIONS,INC.
</text>
</g>
</g>
</svg>