<?xml version="1.0" ?><svg cb-auto-time="06/22/2008 17:45:24" cb-classname="ControlFunction" cb-create-time="03/12/2008" cb-drop-id="13" cb-engineer="Heczko" cb-filename="Z:\OVATION\NET0\UNIT0\CONTROLFUNCTIONS\042C.svg" cb-function-id="042C" cb-key="255112342443" cb-modified-timestamp="1489320078" cb-modify-id="00000002" cb-ortho-mode="enabled" cb-path="Z:/OVATION/NET0/UNIT0/CONTROLFUNCTIONS" cb-reviewer="Nemec" cb-revision="A" cb-revision-time="12/28/2010" cb-sheet-number="133" cb-sheet-title="BFPT GLND STM STRNR DRN VLV-B0201D13" cb-snap-grid="10" cb-task-id="4" height="3707" id="1" width="5450" xmlns="http://www.w3.org/2000/svg">
<style cb-classname="EntityStyle" id="2" type="text/css">
	.algorithm { fill: white; stroke: black; stroke-linecap: round; stroke-width: 2 }
	.algorithm-function { fill: none; stroke: black; stroke-linecap: round; stroke-width: 2 }
	.algorithm-functionline { fill: none; stroke: black; stroke-linecap: round; stroke-width: 2 }
	.algorithm-name { fill: none; stroke: black; stroke-linecap: round; stroke-width: 2 }
	.algorithm-nameline { fill: none; stroke: black; stroke-linecap: round; stroke-width: 2 }
	.algorithm-sequence { fill: none; stroke: black; stroke-linecap: round; stroke-width: 2 }
	.algorithm-sequenceline { fill: none; stroke: black; stroke-linecap: round; stroke-width: 2 }
	.algorithmline { fill: none; stroke: black; stroke-linecap: round; stroke-width: 2 }
	.annotation { fill: none; stroke: black; stroke-linecap: round; stroke-width: 2 }
	.annotationline { fill: none; stroke: black; stroke-linecap: round; stroke-width: 2 }
	.frame { fill: none; stroke: black; stroke-linecap: round; stroke-width: 2 }
	.frameline { fill: none; stroke: black; stroke-linecap: round; stroke-width: 2 }
	.signal { fill: black; stroke: black; stroke-linecap: round; stroke-width: 2 }
	.signalline { fill: none; stroke: black; stroke-linecap: round; stroke-width: 2 }
	text.algorithm { fill: black; font-family: MS Shell Dlg 2; font-size: 14; stroke: none }
	text.algorithm-function { fill: black; font-family: MS Shell Dlg 2; font-size: 16; stroke: none }
	text.algorithm-name { fill: black; font-family: MS Shell Dlg 2; font-size: 16; stroke: none }
	text.algorithm-sequence { fill: black; font-family: MS Shell Dlg 2; font-size: 16; stroke: none }
	text.annotation { fill: black; font-family: MS Shell Dlg 2; font-size: 16; stroke: none }
	text.frame { fill: black; font-family: MS Shell Dlg 2; font-size: 16; stroke: none }
	text.signal { fill: black; font-family: MS Shell Dlg 2; font-size: 12; stroke: none }
</style>
<g cb-classname="NamedObject" cb-objectname="Comments" id="3">
<text cb-classname="GraphicTextEntity" class="annotation" fill="#000000" font-family="MS Shell Dlg 2" font-size="72" id="6kF" x="2720" y="1510">
PCMS1
</text>
</g>
<g cb-classname="AlgorithmContainer" cb-objectname="Algorithms" id="4">
<g cb-alg-a6U="01B0201D13-KB" cb-alg-diVK="128" cb-alg-lz1K="5" cb-algorithm-id="002" cb-classname="ControlAlgorithm" cb-function-name="KEYBOARD" cb-modify-id="00000001" id="6f">
<rect cb-classname="GraphicRectangleEntity" class="annotation" height="200" id="6k" stroke-width="1" width="140" x="1410" y="540"/>
<g cb-classname="ControlPin" cb-pin-name="Rp-v3t-OfSx" id="62">
<line cb-classname="GraphicLineEntity" class="signalline" id="6E" x1="1550" x2="1560" y1="550" y2="550"/>
<g cb-classname="DynamicText" cb-source="UT-YDM-klk7" class="signal" id="6M" text-anchor="start">
<text cb-classname="GraphicTextEntity" class="signal" fill="black" font-style="normal" font-weight="normal" id="7W" text-anchor="start" text-decoration="normal" x="1564" y="547"/>
</g>
<g cb-classname="SignalSegment" id="7X">
<line cb-classname="GraphicLineEntity" class="signalline" id="7N" stroke="#1e12bf" stroke-dasharray="5,4" x1="1560" x2="2330" y1="550" y2="550"/>
<g cb-classname="SignalSegment" id="7B">
<line cb-classname="GraphicLineEntity" class="signalline" id="7p" stroke="#1e12bf" stroke-dasharray="5,4" x1="2330" x2="2330" y1="550" y2="620"/>
<g cb-classname="SignalSegment" id="7f">
<line cb-classname="GraphicLineEntity" class="signalline" id="7k" stroke="#1e12bf" stroke-dasharray="5,4" x1="2330" x2="2500" y1="620" y2="620"/>
<g cb-classname="SignalConnection" cb-graphic-line="$76$" cb-input-pin="$7bN$" id="72"/>
</g>
</g>
</g>
</g>
<g cb-classname="ControlPin" cb-pin-name="cD-sj9-U4Oh" id="7E">
<line cb-classname="GraphicLineEntity" class="signalline" id="7M" x1="1550" x2="1560" y1="570" y2="570"/>
<g cb-classname="DynamicText" cb-source="Rp-LWy-M7mj" class="signal" id="8W" text-anchor="start">
<text cb-classname="GraphicTextEntity" class="signal" fill="black" font-style="normal" font-weight="normal" id="8X" text-anchor="start" text-decoration="normal" x="1564" y="567"/>
</g>
<g cb-classname="SignalSegment" id="8N">
<line cb-classname="GraphicLineEntity" class="signalline" id="8B" stroke="#1e12bf" stroke-dasharray="5,4" x1="1560" x2="2310" y1="570" y2="570"/>
<g cb-classname="SignalSegment" id="8p">
<line cb-classname="GraphicLineEntity" class="signalline" id="8f" stroke="#1e12bf" stroke-dasharray="5,4" x1="2310" x2="2310" y1="570" y2="660"/>
<g cb-classname="SignalSegment" id="8k">
<line cb-classname="GraphicLineEntity" class="signalline" id="82" stroke="#1e12bf" stroke-dasharray="5,4" x1="2310" x2="2500" y1="660" y2="660"/>
<g cb-classname="SignalConnection" cb-graphic-line="$87$" cb-input-pin="$cyZ$" id="8E"/>
</g>
</g>
</g>
</g>
<g cb-classname="ControlPin" cb-pin-name="AC-YV4-KKn2" id="8M">
<line cb-classname="GraphicLineEntity" class="signalline" id="9W" x1="1550" x2="1560" y1="590" y2="590"/>
<g cb-classname="DynamicText" cb-source="cD-MDS-y6zC" class="signal" id="9X" text-anchor="start">
<text cb-classname="GraphicTextEntity" class="signal" fill="black" font-style="normal" font-weight="normal" id="9N" text-anchor="start" text-decoration="normal" x="1564" y="587"/>
</g>
</g>
<g cb-classname="ControlPin" cb-pin-name="N1-lzd-9AW" id="1WF">
<line cb-classname="GraphicLineEntity" class="signalline" id="1W4" x1="1550" x2="1560" y1="610" y2="610"/>
<g cb-classname="DynamicText" cb-source="AC-E5f-Wpgh" class="signal" id="1Wy" text-anchor="start">
<text cb-classname="GraphicTextEntity" class="signal" fill="black" font-style="normal" font-weight="normal" id="1WX" text-anchor="start" text-decoration="normal" x="1564" y="607"/>
</g>
</g>
<g cb-classname="ControlPin" cb-pin-name="Ug-7OO-ECw" id="1X4">
<line cb-classname="GraphicLineEntity" class="signalline" id="1Xy" x1="1550" x2="1560" y1="640" y2="640"/>
<g cb-classname="DynamicText" cb-source="N1-pSg-fAiS" class="signal" id="1XX" text-anchor="start">
<text cb-classname="GraphicTextEntity" class="signal" fill="black" font-style="normal" font-weight="normal" id="1XJ" text-anchor="start" text-decoration="normal" x="1564" y="637"/>
</g>
<g cb-classname="SignalSegment" id="1XD">
<line cb-classname="GraphicLineEntity" class="signalline" id="1XT" stroke="#1e12bf" stroke-dasharray="5,4" x1="1560" x2="2210" y1="640" y2="640"/>
<g cb-classname="SignalSegment" id="1XN">
<line cb-classname="GraphicLineEntity" class="signalline" id="1XH" stroke="#1e12bf" stroke-dasharray="5,4" x1="2210" x2="2210" y1="640" y2="780"/>
<g cb-classname="SignalSegment" id="1Xu">
<line cb-classname="GraphicLineEntity" class="signalline" id="1NF" stroke="#1e12bf" stroke-dasharray="5,4" x1="2210" x2="2500" y1="780" y2="780"/>
<g cb-classname="SignalConnection" cb-graphic-line="$120$" cb-input-pin="$Q54$" id="1N4"/>
</g>
</g>
</g>
</g>
<g cb-classname="ControlPin" cb-pin-name="At-6u8-p0n" id="1Ny">
<line cb-classname="GraphicLineEntity" class="signalline" id="1NX" x1="1550" x2="1560" y1="660" y2="660"/>
<g cb-classname="DynamicText" cb-source="Ug-f8x-gX9a" class="signal" id="1NJ" text-anchor="start">
<text cb-classname="GraphicTextEntity" class="signal" fill="black" font-style="normal" font-weight="normal" id="1ND" text-anchor="start" text-decoration="normal" x="1564" y="657"/>
</g>
<g cb-classname="SignalSegment" id="1NT">
<line cb-classname="GraphicLineEntity" class="signalline" id="1NN" stroke="#1e12bf" stroke-dasharray="5,4" x1="1560" x2="2170" y1="660" y2="660"/>
<g cb-classname="SignalSegment" id="1NH">
<line cb-classname="GraphicLineEntity" class="signalline" id="1Nu" stroke="#1e12bf" stroke-dasharray="5,4" x1="2170" x2="2170" y1="660" y2="820"/>
<g cb-classname="SignalSegment" id="1BF">
<line cb-classname="GraphicLineEntity" class="signalline" id="1B4" stroke="#1e12bf" stroke-dasharray="5,4" x1="2170" x2="2500" y1="820" y2="820"/>
<g cb-classname="SignalConnection" cb-graphic-line="$131$" cb-input-pin="$e7J$" id="1By"/>
</g>
</g>
</g>
</g>
<g cb-classname="ControlPin" cb-pin-name="C0-olp-fzu" id="1BX">
<line cb-classname="GraphicLineEntity" class="signalline" id="1BJ" x1="1550" x2="1560" y1="680" y2="680"/>
<g cb-classname="DynamicText" cb-source="At-hDT-xoae" class="signal" id="1BD" text-anchor="start">
<text cb-classname="GraphicTextEntity" class="signal" fill="black" font-style="normal" font-weight="normal" id="1BT" text-anchor="start" text-decoration="normal" x="1564" y="677"/>
</g>
</g>
<g cb-classname="ControlPin" cb-pin-name="Ug-7OO-ECW" id="1BN">
<line cb-classname="GraphicLineEntity" class="signalline" id="1BH" x1="1550" x2="1560" y1="700" y2="700"/>
<g cb-classname="DynamicText" cb-source="N1-pSg-fAiS" class="signal" id="1Bu" text-anchor="start">
<text cb-classname="GraphicTextEntity" class="signal" fill="black" font-style="normal" font-weight="normal" id="1pF" text-anchor="start" text-decoration="normal" x="1564" y="697"/>
</g>
</g>
<text cb-classname="GraphicTextEntity" class="annotation" fill="#000000" font-family="MS Shell Dlg 2" font-size="8" id="1p4" x="1450" y="630">
KEYBOARD
</text>
<g cb-classname="DynamicText" cb-labeled="false" cb-source="C0-olp-7OO" class="algorithm" id="1XTi" text-anchor="start">
<text cb-classname="GraphicTextEntity" class="algorithm" fill="black" font-style="normal" font-weight="normal" id="1XTl" text-anchor="start" text-decoration="normal" x="1410" y="520"/>
</g>
<g cb-classname="ControlPin" cb-pin-name="G7-cZZ-iN2" id="12Tl">
<line cb-classname="GraphicLineEntity" class="signalline" id="12To" x1="1550" x2="1560" y1="720" y2="720"/>
<g cb-classname="DynamicText" cb-source="8V-qSd-ubzZ" class="signal" id="12Tw" text-anchor="start">
<text cb-classname="GraphicTextEntity" class="signal" fill="black" font-style="normal" font-weight="normal" id="12Te" text-anchor="start" text-decoration="normal" x="1564" y="717"/>
</g>
<g cb-classname="SignalSegment" id="12TO">
<line cb-classname="GraphicLineEntity" class="signalline" id="12Tj" stroke="#1e12bf" stroke-dasharray="5,4" x1="1560" x2="2140" y1="720" y2="720"/>
<g cb-classname="SignalSegment" id="12T2">
<line cb-classname="GraphicLineEntity" class="signalline" id="12Tr" stroke="#1e12bf" stroke-dasharray="5,4" x1="2140" x2="2140" y1="720" y2="860"/>
<g cb-classname="SignalSegment" id="12TG">
<line cb-classname="GraphicLineEntity" class="signalline" id="12Ni" stroke="#1e12bf" stroke-dasharray="5,4" x1="2140" x2="2500" y1="860" y2="860"/>
<g cb-classname="SignalConnection" cb-graphic-line="$1770$" cb-input-pin="$7Ncd$" id="12Nl"/>
</g>
</g>
</g>
</g>
</g>
<g cb-alg-J46="01B0201D04-EPO" cb-alg-JngZ="NO" cb-algorithm-id="005" cb-classname="ExternalPointInterface" cb-function-name="INPUT" id="1MF">
<ellipse cb-classname="GraphicEllipseEntity" class="algorithm" cx="630" cy="1240" id="1M4" rx="50" ry="50"/>
<rect cb-classname="GraphicRectangleEntity" class="algorithm" height="100" id="1My" width="40" x="540" y="1190"/>
<line cb-classname="GraphicLineEntity" class="algorithm" id="1MX" x1="540" x2="580" y1="1240" y2="1240"/>
<g cb-classname="ControlPin" cb-pin-name="9e-XNy-jEn" id="1MJ">
<line cb-classname="GraphicLineEntity" class="signalline" id="1MD" x1="680" x2="710" y1="1240" y2="1240"/>
<g cb-classname="DynamicText" cb-source="9O-PcM-2cBS" class="signal" id="1MT" text-anchor="start">
<text cb-classname="GraphicTextEntity" class="signal" fill="black" font-style="normal" font-weight="normal" id="1MN" text-anchor="start" text-decoration="normal" x="694" y="1237"/>
</g>
<g cb-classname="SignalSegment" id="1MHl">
<line cb-classname="GraphicLineEntity" class="signalline" id="1MHj" stroke="#1e12bf" stroke-dasharray="5,4" x1="710" x2="1020" y1="1240" y2="1240"/>
<g cb-classname="SignalSegment" id="1MH2">
<line cb-classname="GraphicLineEntity" class="signalline" id="1MHr" stroke="#1e12bf" stroke-dasharray="5,4" x1="1020" x2="1020" y1="1240" y2="1260"/>
<g cb-classname="SignalSegment" id="1MHG">
<line cb-classname="GraphicLineEntity" class="signalline" id="1Mui" stroke="#1e12bf" stroke-dasharray="5,4" x1="1020" x2="1090" y1="1260" y2="1260"/>
<g cb-classname="SignalConnection" cb-graphic-line="$1990$" cb-input-pin="$lI38$" id="1Mul"/>
</g>
<line cb-classname="GraphicLineEntity" class="signalline" id="1MHe" stroke="#1e12bf" stroke-dasharray="5,4" x1="1020" x2="1090" y1="1240" y2="1240"/>
<g cb-classname="SignalConnection" cb-graphic-line="$1984$" cb-input-pin="$KXDG$" id="1MHO"/>
<ellipse cb-classname="GraphicEllipseEntity" class="signal" cx="1020" cy="1240" fill="#1e12bf" id="1Muo" rx="5" ry="5" stroke="#1e12bf" stroke-dasharray="5,4"/>
</g>
</g>
</g>
<g cb-classname="PointStatusIndicator" cb-indicator-type="Highway" cb-source="G7-cZZ-rCy" id="2W4" visibility="hidden">
<line cb-classname="GraphicLineEntity" class="algorithmline" id="2Wy" x1="580" x2="630" y1="1240" y2="1190"/>
<line cb-classname="GraphicLineEntity" class="algorithmline" id="2WX" x1="630" x2="680" y1="1190" y2="1240"/>
<line cb-classname="GraphicLineEntity" class="algorithmline" id="2WJ" x1="680" x2="630" y1="1240" y2="1290"/>
<line cb-classname="GraphicLineEntity" class="algorithmline" id="2WD" x1="630" x2="580" y1="1290" y2="1240"/>
</g>
<g cb-classname="PointStatusIndicator" cb-indicator-type="hardware" cb-source="AC-YV4-eKn" id="2WT" visibility="visible">
<line cb-classname="GraphicLineEntity" class="algorithmline" id="2WN" x1="580" x2="680" y1="1190" y2="1190"/>
<line cb-classname="GraphicLineEntity" class="algorithmline" id="2WH" x1="680" x2="680" y1="1190" y2="1290"/>
<line cb-classname="GraphicLineEntity" class="algorithmline" id="2Wu" x1="680" x2="580" y1="1290" y2="1290"/>
</g>
<g cb-classname="PointStatusIndicator" cb-indicator-type="alarm" cb-source="Rp-v3t-O9F" id="2XF" visibility="hidden">
<text cb-classname="GraphicTextEntity" class="algorithm" fill="#000000" font-family="arial" font-size="20" id="2X4" x="550" y="1225">
A
</text>
</g>
<g cb-classname="PointStatusIndicator" cb-indicator-type="ingraphic" cb-source="UT-p4g-NBA" id="2Xy" visibility="visible">
<text cb-classname="GraphicTextEntity" class="algorithm" fill="#000000" font-family="Arial" font-size="20" id="2XX" x="550" y="1275">
G
</text>
</g>
<g baseline-shift="-50%" cb-anchor-x="530" cb-anchor-y="1254" cb-classname="PointDescription" cb-content="extended" cb-labeled="false" cb-max-width="220" cb-source="G7-cZZ-rCy" class="algorithm" id="2XJ" text-anchor="end">
<text baseline-shift="-50%" cb-classname="GraphicTextEntity" class="algorithm" id="2XD" text-anchor="end" x="530" y="1229">
DESC: Point not found in
</text>
<text baseline-shift="-50%" cb-classname="GraphicTextEntity" class="algorithm" id="2NDe" text-anchor="end" x="530" y="1254">
database
</text>
<text baseline-shift="-50%" cb-classname="GraphicTextEntity" class="algorithm" id="2Eui" text-anchor="end" x="530" y="1279">
(01B0201D04-EPO)
</text>
</g>
<g cb-classname="DynamicText" cb-labeled="false" cb-pin-name="AGD" cb-source="8V-DJ4-GuZ" class="algorithm" id="2XT" text-anchor="start">
<text baseline-shift="0%" cb-classname="GraphicTextEntity" class="algorithm" fill="black" font-family="arial" font-size="20" font-style="normal" font-weight="normal" id="2XN" text-anchor="start" text-decoration="normal" x="700" y="1210"/>
</g>
<g baseline-shift="-100%" cb-anchor-x="700" cb-anchor-y="1250" cb-classname="PointReferences" cb-max-width="230" cb-originator="true" cb-source="p4-oHE-qa5" class="signal" id="2XH" text-anchor="start">
<text baseline-shift="-100%" cb-classname="GraphicTextEntity" class="algorithm" id="2Xu" text-anchor="start" x="700" y="1250">
REF: Point not found in
</text>
<text baseline-shift="-100%" cb-classname="GraphicTextEntity" class="algorithm" id="2Eul" text-anchor="start" x="700" y="1275">
database
</text>
<text baseline-shift="-100%" cb-classname="GraphicTextEntity" class="algorithm" id="2Euo" text-anchor="start" x="700" y="1300">
(01B0201D04-EPO)
</text>
</g>
</g>
<g cb-alg-0vFi="0.1" cb-alg-DSf="$190$cb-alg-out$" cb-alg-Gcot="96" cb-alg-nvNt="2.5" cb-alg-wStl="$190$cb-alg-out$" cb-algorithm-id="00C" cb-classname="ControlAlgorithm" cb-function-name="ONDELAY" cb-modify-id="00000002" id="1MDe">
<rect cb-classname="GraphicRectangleEntity" class="algorithm" height="60" id="1MDO" width="60" x="1110" y="1220"/>
<text baseline-shift="-50%" cb-classname="GraphicTextEntity" class="algorithm" font-size="18" id="1MDj" text-anchor="middle" x="1139" y="1232">
TD
</text>
<text cb-classname="GraphicTextEntity" class="algorithm" font-size="18" id="1MD2" text-anchor="middle" x="1139" y="1267">
ON
</text>
<g cb-classname="ControlPin" cb-pin-name="8V-DJ4-5fm" id="1MDr">
<line cb-classname="GraphicLineEntity" class="signalline" id="1MDG" x1="1090" x2="1110" y1="1240" y2="1240"/>
<polygon cb-classname="GraphicPolygonEntity" class="signal" id="1MTi" points="1110,1240 1099,1236 1099,1244"/>
<g cb-classname="DynamicText" cb-source="AC-E5f-Wpgh" class="signal" id="1MTl" text-anchor="end">
<text baseline-shift="5%" cb-classname="GraphicTextEntity" class="signal" fill="black" font-style="normal" font-weight="normal" id="1MTo" text-anchor="end" text-decoration="normal" x="1074" y="1236"/>
</g>
</g>
<g cb-classname="ControlPin" cb-pin-name="cD-sj9-eKy" id="1MTw">
<line cb-classname="GraphicLineEntity" class="signalline" id="1MTe" x1="1170" x2="1190" y1="1240" y2="1240"/>
<g cb-classname="DynamicText" cb-source="Rp-LWy-M7mj" class="signal" id="1MTO">
<text baseline-shift="5%" cb-classname="GraphicTextEntity" class="signal" fill="black" font-style="normal" font-weight="normal" id="1MTj" text-decoration="normal" x="1206" y="1236"/>
</g>
<g cb-classname="SignalSegment" id="1Muw">
<g cb-classname="SignalConnection" cb-graphic-line="$1996$" cb-input-pin="$eQJ$" id="1Mu2"/>
<line cb-classname="GraphicLineEntity" class="signalline" id="1Muj" stroke="#1e12bf" stroke-dasharray="5,4" x1="1190" x2="2500" y1="1240" y2="1240"/>
</g>
</g>
<g cb-classname="ControlPin" cb-pin-name="UT-p4g-SxeH" id="1MT2">
<line cb-classname="GraphicLineEntity" class="signalline" id="1MTr" x1="1090" x2="1110" y1="1260" y2="1260"/>
<polygon cb-classname="GraphicPolygonEntity" class="signal" id="1MTG" points="1110,1260 1099,1256 1099,1264"/>
<g cb-classname="DynamicText" cb-source="Ug-f8x-gX9a" class="signal" id="1MNi" text-anchor="end">
<text baseline-shift="5%" cb-classname="GraphicTextEntity" class="signal" fill="black" font-style="normal" font-weight="normal" id="1MNl" text-anchor="end" text-decoration="normal" x="1074" y="1256"/>
</g>
</g>
<g cb-classname="GraphicShape" id="1MNo">
<g cb-classname="DynamicText" cb-labeled="true" cb-source="p4-oHE-VK7D" id="1MNw">
<text cb-classname="GraphicTextEntity" class="algorithm" id="1MNe" text-anchor="start" x="1090" y="1190"/>
</g>
</g>
<g cb-classname="GraphicShape" id="1MNr">
<g cb-classname="DynamicText" cb-labeled="true" cb-source="C0-olp-6DR4" id="1MNG">
<text cb-classname="GraphicTextEntity" class="algorithm" id="1MHi" text-anchor="start" x="1090" y="1170"/>
</g>
</g>
</g>
<g cb-alg-AoHH="0" cb-alg-cSYE="69" cb-algorithm-id="006" cb-classname="ControlAlgorithm" cb-function-name="DVALGEN" cb-modify-id="00000001" id="2NF">
<rect cb-classname="GraphicRectangleEntity" class="algorithm" height="100" id="2N4" width="140" x="1410" y="1360"/>
<text baseline-shift="-50%" cb-classname="GraphicTextEntity" class="algorithm" fill="#000000" font-family="MS Shell Dlg" font-size="18" id="2Ny" text-anchor="middle" x="1480" y="1410">
DVALGEN
</text>
<g cb-classname="ControlPin" cb-pin-name="Rp-v3t-O9F" id="2NX">
<line cb-classname="GraphicLineEntity" class="signalline" id="2NJ" x1="1550" x2="1570" y1="1410" y2="1410"/>
<g cb-classname="DynamicText" cb-source="UT-YDM-klk7" class="signal" id="2ND" text-anchor="start">
<text cb-classname="GraphicTextEntity" class="signal" fill="black" font-style="normal" font-weight="normal" id="2NT" text-anchor="start" text-decoration="normal" x="1564" y="1407"/>
</g>
<g cb-classname="SignalSegment" id="2NN">
<line cb-classname="GraphicLineEntity" class="signalline" id="2NH" stroke="#1e12bf" stroke-dasharray="5,4" x1="1570" x2="2340" y1="1410" y2="1410"/>
<g cb-classname="SignalSegment" id="2Nu">
<line cb-classname="GraphicLineEntity" class="signalline" id="2BF" stroke="#1e12bf" stroke-dasharray="5,4" x1="2340" x2="2340" y1="1410" y2="1460"/>
<g cb-classname="SignalSegment" id="2B4">
<line cb-classname="GraphicLineEntity" class="signalline" id="2By" stroke="#1e12bf" stroke-dasharray="5,4" x1="2340" x2="2500" y1="1460" y2="1460"/>
<g cb-classname="SignalConnection" cb-graphic-line="$232$" cb-input-pin="$pZN$" id="2BX"/>
<line cb-classname="GraphicLineEntity" class="signalline" id="1Nu2" stroke="#1e12bf" stroke-dasharray="5,4" x1="2340" x2="2340" y1="1460" y2="1960"/>
<g cb-classname="SignalSegment" id="1Nur">
<line cb-classname="GraphicLineEntity" class="signalline" id="1NuG" stroke="#1e12bf" stroke-dasharray="5,4" x1="2340" x2="2500" y1="1960" y2="1960"/>
<g cb-classname="SignalConnection" cb-graphic-line="$1299$" cb-input-pin="$pDl$" id="1BFi"/>
</g>
<ellipse cb-classname="GraphicEllipseEntity" class="signal" cx="2340" cy="1460" fill="#1e12bf" id="1BFl" rx="5" ry="5" stroke="#1e12bf" stroke-dasharray="5,4"/>
</g>
<g cb-classname="SignalConnection" cb-graphic-line="$235$" cb-input-pin="$pXl$" id="2BJ"/>
<line cb-classname="GraphicLineEntity" class="signalline" id="2BD" stroke="#1e12bf" stroke-dasharray="5,4" x1="2340" x2="2500" y1="1410" y2="1410"/>
<ellipse cb-classname="GraphicEllipseEntity" class="signal" cx="2340" cy="1410" fill="#1e12bf" id="2BT" rx="5" ry="5" stroke="#1e12bf" stroke-dasharray="5,4"/>
<line cb-classname="GraphicLineEntity" class="signalline" id="1XJ2" stroke="#1e12bf" stroke-dasharray="5,4" x1="2340" x2="2340" y1="1410" y2="1190"/>
<g cb-classname="SignalSegment" id="1XJr">
<line cb-classname="GraphicLineEntity" class="signalline" id="1XJG" stroke="#1e12bf" stroke-dasharray="5,4" x1="2340" x2="2500" y1="1190" y2="1190"/>
<g cb-classname="SignalConnection" cb-graphic-line="$1149$" cb-input-pin="$O3o$" id="1XDi"/>
<line cb-classname="GraphicLineEntity" class="signalline" id="1XDl" stroke="#1e12bf" stroke-dasharray="5,4" x1="2340" x2="2340" y1="1190" y2="1150"/>
<g cb-classname="SignalSegment" id="1XDo">
<line cb-classname="GraphicLineEntity" class="signalline" id="1XDw" stroke="#1e12bf" stroke-dasharray="5,4" x1="2340" x2="2500" y1="1150" y2="1150"/>
<g cb-classname="SignalConnection" cb-graphic-line="$1153$" cb-input-pin="$6gH$" id="1XDe"/>
</g>
<ellipse cb-classname="GraphicEllipseEntity" class="signal" cx="2340" cy="1190" fill="#1e12bf" id="1XDO" rx="5" ry="5" stroke="#1e12bf" stroke-dasharray="5,4"/>
</g>
</g>
</g>
</g>
<g cb-classname="DynamicText" cb-labeled="true" cb-source="9e-XNy-ZzBy" class="algorithm" id="1XDj" text-anchor="start">
<text cb-classname="GraphicTextEntity" class="algorithm" fill="black" font-style="normal" font-weight="normal" id="1XD2" text-anchor="start" text-decoration="normal" x="1440" y="1350"/>
</g>
</g>
<g cb-alg-dDvz="69" cb-alg-nHRx="1" cb-algorithm-id="007" cb-classname="ControlAlgorithm" cb-function-name="DVALGEN" cb-modify-id="00000001" id="2BN">
<rect cb-classname="GraphicRectangleEntity" class="algorithm" height="100" id="2BH" width="140" x="1410" y="1570"/>
<text baseline-shift="-50%" cb-classname="GraphicTextEntity" class="algorithm" fill="#000000" font-family="MS Shell Dlg" font-size="18" id="2Bu" text-anchor="middle" x="1480" y="1620">
DVALGEN
</text>
<g cb-classname="ControlPin" cb-pin-name="G7-cZZ-rCy" id="2pF">
<line cb-classname="GraphicLineEntity" class="signalline" id="2p4" x1="1550" x2="1570" y1="1620" y2="1620"/>
<g cb-classname="DynamicText" cb-source="8V-qSd-ubzZ" class="signal" id="2py" text-anchor="start">
<text cb-classname="GraphicTextEntity" class="signal" fill="black" font-style="normal" font-weight="normal" id="2pX" text-anchor="start" text-decoration="normal" x="1564" y="1617"/>
</g>
<g cb-classname="SignalSegment" id="2pJ">
<line cb-classname="GraphicLineEntity" class="signalline" id="2pD" stroke="#1e12bf" stroke-dasharray="5,4" x1="1570" x2="2370" y1="1620" y2="1620"/>
<g cb-classname="SignalSegment" id="2pT">
<line cb-classname="GraphicLineEntity" class="signalline" id="2pN" stroke="#1e12bf" stroke-dasharray="5,4" x1="2370" x2="2370" y1="1620" y2="1670"/>
<g cb-classname="SignalSegment" id="2pH">
<line cb-classname="GraphicLineEntity" class="signalline" id="2pu" stroke="#1e12bf" stroke-dasharray="5,4" x1="2370" x2="2500" y1="1670" y2="1670"/>
<g cb-classname="SignalConnection" cb-graphic-line="$249$" cb-input-pin="$MQl$" id="2fF"/>
</g>
<line cb-classname="GraphicLineEntity" class="signalline" id="2f4" stroke="#1e12bf" stroke-dasharray="5,4" x1="2370" x2="2500" y1="1620" y2="1620"/>
<g cb-classname="SignalConnection" cb-graphic-line="$251$" cb-input-pin="$SOn$" id="2fy"/>
<ellipse cb-classname="GraphicEllipseEntity" class="signal" cx="2370" cy="1620" fill="#1e12bf" id="2fX" rx="5" ry="5" stroke="#1e12bf" stroke-dasharray="5,4"/>
</g>
</g>
</g>
<g cb-classname="DynamicText" cb-labeled="true" cb-source="9O-HRz-7cZV" class="algorithm" id="1XDr" text-anchor="start">
<text cb-classname="GraphicTextEntity" class="algorithm" fill="black" font-style="normal" font-weight="normal" id="1XDG" text-anchor="start" text-decoration="normal" x="1440" y="1560"/>
</g>
</g>
<g cb-alg-7kn="01B0201D13-EPO" cb-alg-7mD9="NO" cb-algorithm-id="009" cb-classname="ExternalPointInterface" cb-function-name="INPUT" id="2EH">
<ellipse cb-classname="GraphicEllipseEntity" class="algorithm" cx="620" cy="1940" id="2Eu" rx="50" ry="50"/>
<rect cb-classname="GraphicRectangleEntity" class="algorithm" height="100" id="2MF" width="40" x="530" y="1890"/>
<line cb-classname="GraphicLineEntity" class="algorithm" id="2M4" x1="530" x2="570" y1="1940" y2="1940"/>
<g cb-classname="ControlPin" cb-pin-name="G7-cZZ-rCy" id="2My">
<line cb-classname="GraphicLineEntity" class="signalline" id="2MX" x1="670" x2="700" y1="1940" y2="1940"/>
<g cb-classname="DynamicText" cb-source="8V-qSd-ubzZ" class="signal" id="2MJ" text-anchor="start">
<text cb-classname="GraphicTextEntity" class="signal" fill="black" font-style="normal" font-weight="normal" id="2MD" text-anchor="start" text-decoration="normal" x="684" y="1937"/>
</g>
<g cb-classname="SignalSegment" id="2MT">
<line cb-classname="GraphicLineEntity" class="signalline" id="2MN" stroke="#1e12bf" stroke-dasharray="5,4" x1="700" x2="2020" y1="1940" y2="1940"/>
<g cb-classname="SignalSegment" id="2MH">
<line cb-classname="GraphicLineEntity" class="signalline" id="2Mu" stroke="#1e12bf" stroke-dasharray="5,4" x1="2020" x2="2020" y1="1940" y2="2000"/>
<g cb-classname="SignalSegment" id="3WF">
<line cb-classname="GraphicLineEntity" class="signalline" id="3W4" stroke="#1e12bf" stroke-dasharray="5,4" x1="2020" x2="2510" y1="2000" y2="2000"/>
<g cb-classname="SignalConnection" cb-graphic-line="$301$" cb-input-pin="$MUl$" id="3Wy"/>
</g>
</g>
</g>
</g>
<g cb-classname="PointStatusIndicator" cb-indicator-type="Highway" cb-source="UT-p4g-NBA" id="3WX" visibility="hidden">
<line cb-classname="GraphicLineEntity" class="algorithmline" id="3WJ" x1="570" x2="620" y1="1940" y2="1890"/>
<line cb-classname="GraphicLineEntity" class="algorithmline" id="3WD" x1="620" x2="670" y1="1890" y2="1940"/>
<line cb-classname="GraphicLineEntity" class="algorithmline" id="3WT" x1="670" x2="620" y1="1940" y2="1990"/>
<line cb-classname="GraphicLineEntity" class="algorithmline" id="3WN" x1="620" x2="570" y1="1990" y2="1940"/>
</g>
<g cb-classname="PointStatusIndicator" cb-indicator-type="hardware" cb-source="N1-lzd-U0S" id="3WH" visibility="visible">
<line cb-classname="GraphicLineEntity" class="algorithmline" id="3Wu" x1="570" x2="670" y1="1890" y2="1890"/>
<line cb-classname="GraphicLineEntity" class="algorithmline" id="3XF" x1="670" x2="670" y1="1890" y2="1990"/>
<line cb-classname="GraphicLineEntity" class="algorithmline" id="3X4" x1="670" x2="570" y1="1990" y2="1990"/>
</g>
<g cb-classname="PointStatusIndicator" cb-indicator-type="alarm" cb-source="cD-sj9-eKy" id="3Xy" visibility="hidden">
<text cb-classname="GraphicTextEntity" class="algorithm" fill="#000000" font-family="arial" font-size="20" id="3XX" x="540" y="1925">
A
</text>
</g>
<g cb-classname="PointStatusIndicator" cb-indicator-type="ingraphic" cb-source="Rp-v3t-O9F" id="3XJ" visibility="visible">
<text cb-classname="GraphicTextEntity" class="algorithm" fill="#000000" font-family="Arial" font-size="20" id="3XD" x="540" y="1975">
G
</text>
</g>
<g baseline-shift="-50%" cb-anchor-x="520" cb-anchor-y="1954" cb-classname="PointDescription" cb-content="extended" cb-labeled="false" cb-max-width="220" cb-source="UT-p4g-NBA" class="algorithm" id="3XT" text-anchor="end">
<text baseline-shift="-50%" cb-classname="GraphicTextEntity" class="algorithm" id="3XN" text-anchor="end" x="520" y="1929">
DESC: Point not found in
</text>
<text baseline-shift="-50%" cb-classname="GraphicTextEntity" class="algorithm" id="12JG" text-anchor="end" x="520" y="1954">
database
</text>
<text baseline-shift="-50%" cb-classname="GraphicTextEntity" class="algorithm" id="2Euw" text-anchor="end" x="520" y="1979">
(01B0201D13-EPO)
</text>
</g>
<g cb-classname="DynamicText" cb-labeled="false" cb-pin-name="QGG" cb-source="G7-cZZ-rCy" class="algorithm" id="3XH" text-anchor="start">
<text baseline-shift="0%" cb-classname="GraphicTextEntity" class="algorithm" fill="black" font-family="arial" font-size="20" font-style="normal" font-weight="normal" id="3Xu" text-anchor="start" text-decoration="normal" x="690" y="1910"/>
</g>
<g baseline-shift="-100%" cb-anchor-x="690" cb-anchor-y="1950" cb-classname="PointReferences" cb-max-width="230" cb-originator="true" cb-source="8V-DJ4-GuZ" class="signal" id="3NF" text-anchor="start">
<text baseline-shift="-100%" cb-classname="GraphicTextEntity" class="algorithm" id="3N4" text-anchor="start" x="690" y="1950">
REF: Point not found in
</text>
<text baseline-shift="-100%" cb-classname="GraphicTextEntity" class="algorithm" id="2Eue" text-anchor="start" x="690" y="1975">
database
</text>
<text baseline-shift="-100%" cb-classname="GraphicTextEntity" class="algorithm" id="2EuO" text-anchor="start" x="690" y="2000">
(01B0201D13-EPO)
</text>
</g>
</g>
<g cb-alg-G3S4="NO" cb-alg-GV3="01B0201D13-EPZ" cb-algorithm-id="00a" cb-classname="ExternalPointInterface" cb-function-name="INPUT" id="3Ny">
<ellipse cb-classname="GraphicEllipseEntity" class="algorithm" cx="620" cy="2090" id="3NX" rx="50" ry="50"/>
<rect cb-classname="GraphicRectangleEntity" class="algorithm" height="100" id="3NJ" width="40" x="530" y="2040"/>
<line cb-classname="GraphicLineEntity" class="algorithm" id="3ND" x1="530" x2="570" y1="2090" y2="2090"/>
<g cb-classname="ControlPin" cb-pin-name="9O-HRz-J46" id="3NT">
<line cb-classname="GraphicLineEntity" class="signalline" id="3NN" x1="670" x2="700" y1="2090" y2="2090"/>
<g cb-classname="DynamicText" cb-source="C0-1D2-TD1f" class="signal" id="3NH" text-anchor="start">
<text cb-classname="GraphicTextEntity" class="signal" fill="black" font-style="normal" font-weight="normal" id="3Nu" text-anchor="start" text-decoration="normal" x="684" y="2087"/>
</g>
<g cb-classname="SignalSegment" id="3BF">
<line cb-classname="GraphicLineEntity" class="signalline" id="3B4" stroke="#1e12bf" stroke-dasharray="5,4" x1="700" x2="2070" y1="2090" y2="2090"/>
<g cb-classname="SignalSegment" id="3By">
<line cb-classname="GraphicLineEntity" class="signalline" id="3BX" stroke="#1e12bf" stroke-dasharray="5,4" x1="2070" x2="2070" y1="2090" y2="2040"/>
<g cb-classname="SignalSegment" id="3BJ">
<line cb-classname="GraphicLineEntity" class="signalline" id="3BD" stroke="#1e12bf" stroke-dasharray="5,4" x1="2070" x2="2490" y1="2040" y2="2040"/>
<g cb-classname="SignalConnection" cb-graphic-line="$335$" cb-input-pin="$qHq$" id="3BT"/>
</g>
</g>
</g>
</g>
<g cb-classname="PointStatusIndicator" cb-indicator-type="Highway" cb-source="9e-XNy-jEn" id="3BN" visibility="hidden">
<line cb-classname="GraphicLineEntity" class="algorithmline" id="3BH" x1="570" x2="620" y1="2090" y2="2040"/>
<line cb-classname="GraphicLineEntity" class="algorithmline" id="3Bu" x1="620" x2="670" y1="2040" y2="2090"/>
<line cb-classname="GraphicLineEntity" class="algorithmline" id="3pF" x1="670" x2="620" y1="2090" y2="2140"/>
<line cb-classname="GraphicLineEntity" class="algorithmline" id="3p4" x1="620" x2="570" y1="2140" y2="2090"/>
</g>
<g cb-classname="PointStatusIndicator" cb-indicator-type="hardware" cb-source="UT-p4g-NBA" id="3py" visibility="visible">
<line cb-classname="GraphicLineEntity" class="algorithmline" id="3pX" x1="570" x2="670" y1="2040" y2="2040"/>
<line cb-classname="GraphicLineEntity" class="algorithmline" id="3pJ" x1="670" x2="670" y1="2040" y2="2140"/>
<line cb-classname="GraphicLineEntity" class="algorithmline" id="3pD" x1="670" x2="570" y1="2140" y2="2140"/>
</g>
<g cb-classname="PointStatusIndicator" cb-indicator-type="alarm" cb-source="8V-DJ4-GuZ" id="3pT" visibility="hidden">
<text cb-classname="GraphicTextEntity" class="algorithm" fill="#000000" font-family="arial" font-size="20" id="3pN" x="540" y="2075">
A
</text>
</g>
<g cb-classname="PointStatusIndicator" cb-indicator-type="ingraphic" cb-source="p4-oHE-qa5" id="3pH" visibility="visible">
<text cb-classname="GraphicTextEntity" class="algorithm" fill="#000000" font-family="Arial" font-size="20" id="3pu" x="540" y="2125">
G
</text>
</g>
<g baseline-shift="-50%" cb-anchor-x="520" cb-anchor-y="2104" cb-classname="PointDescription" cb-content="extended" cb-labeled="false" cb-max-width="220" cb-source="9e-XNy-jEn" class="algorithm" id="3fF" text-anchor="end">
<text baseline-shift="-50%" cb-classname="GraphicTextEntity" class="algorithm" id="3f4" text-anchor="end" x="520" y="2079">
DESC: Point not found in
</text>
<text baseline-shift="-50%" cb-classname="GraphicTextEntity" class="algorithm" id="12Di" text-anchor="end" x="520" y="2104">
database
</text>
<text baseline-shift="-50%" cb-classname="GraphicTextEntity" class="algorithm" id="12Dl" text-anchor="end" x="520" y="2129">
(01B0201D13-EPZ)
</text>
</g>
<g cb-classname="DynamicText" cb-labeled="false" cb-pin-name="Gzt" cb-source="9O-HRz-J46" class="algorithm" id="3fy" text-anchor="start">
<text baseline-shift="0%" cb-classname="GraphicTextEntity" class="algorithm" fill="black" font-family="arial" font-size="20" font-style="normal" font-weight="normal" id="3fX" text-anchor="start" text-decoration="normal" x="690" y="2060"/>
</g>
<g baseline-shift="-100%" cb-anchor-x="690" cb-anchor-y="2100" cb-classname="PointReferences" cb-max-width="230" cb-originator="true" cb-source="C0-olp-GV3" class="signal" id="3fJ" text-anchor="start">
<text baseline-shift="-100%" cb-classname="GraphicTextEntity" class="algorithm" id="3fD" text-anchor="start" x="690" y="2100">
REF: Point not found in
</text>
<text baseline-shift="-100%" cb-classname="GraphicTextEntity" class="algorithm" id="2Euj" text-anchor="start" x="690" y="2125">
database
</text>
<text baseline-shift="-100%" cb-classname="GraphicTextEntity" class="algorithm" id="2Eu2" text-anchor="start" x="690" y="2150">
(01B0201D13-EPZ)
</text>
</g>
</g>
<g cb-alg-7cZV="60" cb-alg-qD7Z="65" cb-algorithm-id="003" cb-classname="ControlAlgorithm" cb-function-name="AVALGEN" cb-modify-id="00000001" id="1fFw">
<polygon cb-classname="GraphicPolygonEntity" class="algorithm" id="1fFe" points="2000,2120 1940,2180 2000,2240 2060,2180"/>
<line cb-classname="GraphicLineEntity" class="algorithm" id="1fFO" x1="2000" x2="1990" y1="2160" y2="2190"/>
<line cb-classname="GraphicLineEntity" class="algorithm" id="1fFj" x1="2000" x2="2010" y1="2160" y2="2190"/>
<line cb-classname="GraphicLineEntity" class="algorithm" id="1fF2" x1="1994" x2="2006" y1="2180" y2="2180"/>
<g cb-classname="ControlPin" cb-pin-name="cD-sj9-eKy" id="1fFr">
<line cb-classname="GraphicLineEntity" class="signalline" id="1fFG" x1="2000" x2="2000" y1="2240" y2="2260"/>
<g cb-classname="DynamicText" cb-source="Rp-LWy-M7mj" class="signal" id="1f4i" text-anchor="end">
<text cb-classname="GraphicTextEntity" class="signal" fill="black" font-style="normal" font-weight="normal" id="1f4l" text-anchor="end" text-decoration="normal" transform="translate(1997,2254)rotate(-90)"/>
</g>
<g cb-classname="SignalSegment" id="1fJo">
<line cb-classname="GraphicLineEntity" class="signalline" id="1fJw" x1="2000" x2="2000" y1="2260" y2="2380"/>
<g cb-classname="SignalSegment" id="1fJe">
<line cb-classname="GraphicLineEntity" class="signalline" id="1fJO" x1="2000" x2="2510" y1="2380" y2="2380"/>
<g cb-classname="SignalConnection" cb-graphic-line="$1545$" cb-input-pin="$Zes7$" id="1fJj"/>
</g>
</g>
</g>
<g cb-classname="DynamicText" cb-labeled="true" cb-source="UT-p4g-7lzC" class="algorithm" id="1f4o" text-anchor="start">
<text cb-classname="GraphicTextEntity" class="algorithm" fill="black" font-family="arial" font-size="20" font-style="normal" font-weight="normal" id="1f4w" text-anchor="start" text-decoration="normal" x="1860" y="2240"/>
</g>
</g>
<g cb-alg-Bp44="60" cb-alg-CD6g="65" cb-algorithm-id="004" cb-classname="ControlAlgorithm" cb-function-name="AVALGEN" cb-modify-id="00000001" id="1f4e">
<polygon cb-classname="GraphicPolygonEntity" class="algorithm" id="1f4O" points="2160,2120 2100,2180 2160,2240 2220,2180"/>
<line cb-classname="GraphicLineEntity" class="algorithm" id="1f4j" x1="2160" x2="2150" y1="2160" y2="2190"/>
<line cb-classname="GraphicLineEntity" class="algorithm" id="1f42" x1="2160" x2="2170" y1="2160" y2="2190"/>
<line cb-classname="GraphicLineEntity" class="algorithm" id="1f4r" x1="2154" x2="2166" y1="2180" y2="2180"/>
<g cb-classname="ControlPin" cb-pin-name="AC-YV4-eKn" id="1f4G">
<line cb-classname="GraphicLineEntity" class="signalline" id="1fyi" x1="2160" x2="2160" y1="2240" y2="2260"/>
<g cb-classname="DynamicText" cb-source="cD-MDS-y6zC" class="signal" id="1fyl" text-anchor="end">
<text cb-classname="GraphicTextEntity" class="signal" fill="black" font-style="normal" font-weight="normal" id="1fyo" text-anchor="end" text-decoration="normal" transform="translate(2157,2254)rotate(-90)"/>
</g>
<g cb-classname="SignalSegment" id="1fX2">
<line cb-classname="GraphicLineEntity" class="signalline" id="1fXr" x1="2160" x2="2160" y1="2260" y2="2330"/>
<g cb-classname="SignalSegment" id="1fXG">
<line cb-classname="GraphicLineEntity" class="signalline" id="1fJi" x1="2160" x2="2510" y1="2330" y2="2330"/>
<g cb-classname="SignalConnection" cb-graphic-line="$1540$" cb-input-pin="$nqQJ$" id="1fJl"/>
</g>
</g>
</g>
<g cb-classname="DynamicText" cb-labeled="true" cb-source="Rp-v3t-67OB" class="algorithm" id="1fyw" text-anchor="start">
<text cb-classname="GraphicTextEntity" class="algorithm" fill="black" font-family="arial" font-size="20" font-style="normal" font-weight="normal" id="1fye" text-anchor="start" text-decoration="normal" x="2190" y="2240"/>
</g>
</g>
<g cb-alg-G3S4="NO" cb-alg-GV3="01B02SG01-LLK" cb-algorithm-id="008" cb-classname="ExternalPointInterface" cb-function-name="INPUT" id="1EuO">
<ellipse cb-classname="GraphicEllipseEntity" class="algorithm" cx="630" cy="900" id="1Euj" rx="50" ry="50"/>
<rect cb-classname="GraphicRectangleEntity" class="algorithm" height="100" id="1Eu2" width="40" x="540" y="850"/>
<line cb-classname="GraphicLineEntity" class="algorithm" id="1Eur" x1="540" x2="580" y1="900" y2="900"/>
<g cb-classname="ControlPin" cb-pin-name="9O-HRz-J46" id="1EuG">
<line cb-classname="GraphicLineEntity" class="signalline" id="1MFi" x1="680" x2="710" y1="900" y2="900"/>
<g cb-classname="DynamicText" cb-source="C0-1D2-TD1f" class="signal" id="1MFl" text-anchor="start">
<text cb-classname="GraphicTextEntity" class="signal" fill="black" font-style="normal" font-weight="normal" id="1MFo" text-anchor="start" text-decoration="normal" x="694" y="897"/>
</g>
<g cb-classname="SignalSegment" id="1MXj">
<line cb-classname="GraphicLineEntity" class="signalline" id="1MJj" stroke="#1e12bf" stroke-dasharray="5,4" x1="710" x2="2140" y1="900" y2="900"/>
<g cb-classname="SignalSegment" id="1MJ2">
<line cb-classname="GraphicLineEntity" class="signalline" id="1MJr" stroke="#1e12bf" stroke-dasharray="5,4" x1="2140" x2="2140" y1="900" y2="940"/>
<g cb-classname="SignalSegment" id="1MJG">
<line cb-classname="GraphicLineEntity" class="signalline" id="1MDi" stroke="#1e12bf" stroke-dasharray="5,4" x1="2140" x2="2500" y1="940" y2="940"/>
<g cb-classname="SignalConnection" cb-graphic-line="$1950$" cb-input-pin="$Ji7$" id="1MDl"/>
</g>
<line cb-classname="GraphicLineEntity" class="signalline" id="1MXG" stroke="#1e12bf" stroke-dasharray="5,4" x1="2140" x2="2250" y1="900" y2="900"/>
<g cb-classname="SignalConnection" cb-graphic-line="$1939$" cb-input-pin="$7ssO$" id="1MJi"/>
<ellipse cb-classname="GraphicEllipseEntity" class="signal" cx="2140" cy="900" fill="#1e12bf" id="1MDo" rx="5" ry="5" stroke="#1e12bf" stroke-dasharray="5,4"/>
</g>
</g>
</g>
<g cb-classname="PointStatusIndicator" cb-indicator-type="Highway" cb-source="At-6u8-KNj" id="1MFw" visibility="hidden">
<line cb-classname="GraphicLineEntity" class="algorithmline" id="1MFe" x1="580" x2="630" y1="900" y2="850"/>
<line cb-classname="GraphicLineEntity" class="algorithmline" id="1MFO" x1="630" x2="680" y1="850" y2="900"/>
<line cb-classname="GraphicLineEntity" class="algorithmline" id="1MFj" x1="680" x2="630" y1="900" y2="950"/>
<line cb-classname="GraphicLineEntity" class="algorithmline" id="1MF2" x1="630" x2="580" y1="950" y2="900"/>
</g>
<g cb-classname="PointStatusIndicator" cb-indicator-type="hardware" cb-source="p4-oHE-qa5" id="1MFr" visibility="hidden">
<line cb-classname="GraphicLineEntity" class="algorithmline" id="1MFG" x1="580" x2="680" y1="850" y2="850"/>
<line cb-classname="GraphicLineEntity" class="algorithmline" id="1M4i" x1="680" x2="680" y1="850" y2="950"/>
<line cb-classname="GraphicLineEntity" class="algorithmline" id="1M4l" x1="680" x2="580" y1="950" y2="950"/>
</g>
<g cb-classname="PointStatusIndicator" cb-indicator-type="alarm" cb-source="9O-HRz-J46" id="1M4o" visibility="hidden">
<text cb-classname="GraphicTextEntity" class="algorithm" fill="#000000" font-family="arial" font-size="20" id="1M4w" x="550" y="885">
A
</text>
</g>
<g cb-classname="PointStatusIndicator" cb-indicator-type="ingraphic" cb-source="C0-olp-GV3" id="1M4e" visibility="visible">
<text cb-classname="GraphicTextEntity" class="algorithm" fill="#000000" font-family="Arial" font-size="20" id="1M4O" x="550" y="935">
G
</text>
</g>
<g baseline-shift="-50%" cb-anchor-x="530" cb-anchor-y="914" cb-classname="PointDescription" cb-content="extended" cb-labeled="false" cb-max-width="220" cb-source="At-6u8-KNj" class="algorithm" id="1M4j" text-anchor="end">
<text baseline-shift="-50%" cb-classname="GraphicTextEntity" class="algorithm" id="1M42" text-anchor="end" x="530" y="902">
DESC: Point not found in
</text>
<text baseline-shift="-50%" cb-classname="GraphicTextEntity" class="algorithm" id="1MDw" text-anchor="end" x="530" y="927">
database (01B02SG01-LLK)
</text>
</g>
<g cb-classname="DynamicText" cb-labeled="false" cb-pin-name="AWf" cb-source="Ug-7OO-wHx" class="algorithm" id="1M4r" text-anchor="start">
<text baseline-shift="0%" cb-classname="GraphicTextEntity" class="algorithm" fill="black" font-family="arial" font-size="20" font-style="normal" font-weight="normal" id="1M4G" text-anchor="start" text-decoration="normal" x="700" y="870"/>
</g>
<g baseline-shift="-100%" cb-anchor-x="700" cb-anchor-y="910" cb-classname="PointReferences" cb-max-width="230" cb-originator="true" cb-source="N1-lzd-U0S" class="signal" id="1Myi" text-anchor="start">
<text baseline-shift="-100%" cb-classname="GraphicTextEntity" class="algorithm" id="1Myl" text-anchor="start" x="700" y="910">
REF: Point not found in
</text>
<text baseline-shift="-100%" cb-classname="GraphicTextEntity" class="algorithm" id="2EuG" text-anchor="start" x="700" y="935">
database (01B02SG01-LLK)
</text>
</g>
</g>
<g cb-alg-8xZ="$1895$cb-alg-out$" cb-algorithm-id="00b" cb-classname="FastBooleanAlgorithm" cb-function-name="NOT" cb-modify-id="00000001" id="1Myo">
<rect cb-classname="GraphicRectangleEntity" class="algorithm" height="40" id="1Myw" width="40" x="2270" y="880"/>
<g cb-classname="ControlPin" cb-pin-name="cD-sj9-D2o" id="1Mye">
<line cb-classname="GraphicLineEntity" class="signalline" id="1MyO" x1="2250" x2="2270" y1="900" y2="900"/>
<polygon cb-classname="GraphicPolygonEntity" class="signal" id="1Myj" points="2270,900 2259,894 2259,905"/>
<g cb-classname="DynamicText" cb-source="C0-1D2-TD1f" class="signal" id="1My2" text-anchor="end">
<text cb-classname="GraphicTextEntity" class="signal" fill="black" font-style="normal" font-weight="normal" id="1Myr" text-anchor="end" text-decoration="normal" x="2255" y="897"/>
</g>
</g>
<g cb-classname="ControlPin" cb-pin-name="At-6u8-KNj" id="1MyG">
<line cb-classname="GraphicLineEntity" class="signalline" id="1MXi" x1="2310" x2="2330" y1="900" y2="900"/>
<g cb-classname="DynamicText" cb-source="Ug-f8x-gX9a" class="signal" id="1MXl" text-anchor="start">
<text cb-classname="GraphicTextEntity" class="signal" fill="black" font-style="normal" font-weight="normal" id="1MXo" text-anchor="start" text-decoration="normal" x="2324" y="897"/>
</g>
<g cb-classname="SignalSegment" id="1MJl">
<g cb-classname="SignalConnection" cb-graphic-line="$1944$" cb-input-pin="$hbJ$" id="1MJO"/>
<line cb-classname="GraphicLineEntity" class="signalline" id="1MJe" stroke="#1e12bf" stroke-dasharray="5,4" x1="2330" x2="2500" y1="900" y2="900"/>
</g>
</g>
<line cb-classname="GraphicLineEntity" class="algorithm" id="1MXw" x1="2280" x2="2280" y1="890" y2="910"/>
<line cb-classname="GraphicLineEntity" class="algorithm" id="1MXe" x1="2280" x2="2300" y1="890" y2="910"/>
<line cb-classname="GraphicLineEntity" class="algorithm" id="1MXO" x1="2300" x2="2300" y1="910" y2="890"/>
</g>
<g cb-alg-Byw="01B0201D13-STS" cb-alg-K2c="$1895$cb-alg-out$" cb-alg-K4n="$65$cb-alg-pk2$" cb-alg-K4s="$65$cb-alg-pk1$" cb-alg-K6="$1922$cb-alg-out$" cb-alg-K6s="$65$cb-alg-pk5$" cb-alg-KJ="$65$cb-alg-open$" cb-alg-Km="$65$cb-alg-clos$" cb-alg-RS="01B0201D13-TR" cb-alg-U4yB3="$1503$cb-alg-out$" cb-alg-Y8O="$237$cb-alg-out$" cb-alg-Y8Q="$237$cb-alg-out$" cb-alg-b8O="$220$cb-alg-out$" cb-alg-b8Q="$220$cb-alg-out$" cb-alg-ehyB3="$1514$cb-alg-out$" cb-alg-ihO="$288$cb-alg-out$" cb-alg-ihQ="$322$cb-alg-out$" cb-alg-ipV="$220$cb-alg-out$" cb-alg-lg="01B0201D13-LB" cb-alg-p4s="$220$cb-alg-out$" cb-alg-p4z="01B0201D13-ALM" cb-alg-pJ="$220$cb-alg-out$" cb-alg-pm="$1954$cb-alg-out$" cb-algorithm-id="001" cb-classname="ControlMacroReference" cb-function-name="PCMS1" cb-macro-crc="30660" cb-modify-id="00000001" id="3EJ">
<rect cb-classname="GraphicRectangleEntity" class="annotation" height="1850" id="3ED" width="750" x="2530" y="580"/>
<g cb-classname="ControlPin" cb-pin-name="N1-lzd-pq" id="3ET">
<line cb-classname="GraphicLineEntity" class="signalline" id="3EN" x1="2500" x2="2530" y1="620" y2="620"/>
<polygon cb-classname="GraphicPolygonEntity" class="signal" id="3EH" points="2530,620 2519,614 2519,625"/>
<g cb-classname="DynamicText" cb-source="9e-Weh-nzf8" class="signal" id="3Eu" text-anchor="end">
<text cb-classname="GraphicTextEntity" class="signal" fill="black" font-style="normal" font-weight="normal" id="3MF" text-anchor="end" text-decoration="normal" x="2515" y="617"/>
</g>
</g>
<g cb-classname="ControlPin" cb-pin-name="9O-HRz-iQ" id="3M4">
<line cb-classname="GraphicLineEntity" class="signalline" id="3My" x1="2500" x2="2530" y1="660" y2="660"/>
<polygon cb-classname="GraphicPolygonEntity" class="signal" id="3MX" points="2530,660 2519,654 2519,665"/>
<g cb-classname="DynamicText" cb-source="UT-YDM-klk7" class="signal" id="3MJ" text-anchor="end">
<text cb-classname="GraphicTextEntity" class="signal" fill="black" font-style="normal" font-weight="normal" id="3MD" text-anchor="end" text-decoration="normal" x="2515" y="657"/>
</g>
</g>
<g cb-classname="ControlPin" cb-pin-name="G7-cZZ-CY" id="3MT">
<line cb-classname="GraphicLineEntity" class="signalline" id="3MN" x1="2500" x2="2530" y1="900" y2="900"/>
<polygon cb-classname="GraphicPolygonEntity" class="signal" id="3MH" points="2530,900 2519,894 2519,905"/>
<g cb-classname="DynamicText" cb-source="N1-pSg-fAiS" class="signal" id="3Mu" text-anchor="end">
<text cb-classname="GraphicTextEntity" class="signal" fill="black" font-style="normal" font-weight="normal" id="4WF" text-anchor="end" text-decoration="normal" x="2515" y="897"/>
</g>
</g>
<g cb-classname="ControlPin" cb-pin-name="AC-YV4-ynz" id="4W4">
<line cb-classname="GraphicLineEntity" class="signalline" id="4Wy" x1="2500" x2="2530" y1="940" y2="940"/>
<polygon cb-classname="GraphicPolygonEntity" class="signal" id="4WX" points="2530,940 2519,934 2519,945"/>
<g cb-classname="DynamicText" cb-source="9O-PcM-2cBS" class="signal" id="4WJ" text-anchor="end">
<text cb-classname="GraphicTextEntity" class="signal" fill="black" font-style="normal" font-weight="normal" id="4WD" text-anchor="end" text-decoration="normal" x="2515" y="937"/>
</g>
</g>
<g cb-classname="ControlPin" cb-pin-name="C0-olp-VOH" id="4WT">
<line cb-classname="GraphicLineEntity" class="signalline" id="4WN" x1="2500" x2="2530" y1="780" y2="780"/>
<polygon cb-classname="GraphicPolygonEntity" class="signal" id="4WH" points="2530,780 2519,774 2519,785"/>
<g cb-classname="DynamicText" cb-source="G7-Cgk-dYFs" class="signal" id="4Wu" text-anchor="end">
<text cb-classname="GraphicTextEntity" class="signal" fill="black" font-style="normal" font-weight="normal" id="4XF" text-anchor="end" text-decoration="normal" x="2515" y="777"/>
</g>
</g>
<g cb-classname="ControlPin" cb-pin-name="8V-DJ4-ANk" id="4X4">
<line cb-classname="GraphicLineEntity" class="signalline" id="4Xy" x1="2500" x2="2530" y1="820" y2="820"/>
<polygon cb-classname="GraphicPolygonEntity" class="signal" id="4XX" points="2530,820 2519,814 2519,825"/>
<g cb-classname="DynamicText" cb-source="AC-E5f-Wpgh" class="signal" id="4XJ" text-anchor="end">
<text cb-classname="GraphicTextEntity" class="signal" fill="black" font-style="normal" font-weight="normal" id="4XD" text-anchor="end" text-decoration="normal" x="2515" y="817"/>
</g>
</g>
<g cb-classname="ControlPin" cb-pin-name="cD-sj9-pJ" id="4XT">
<line cb-classname="GraphicLineEntity" class="signalline" id="4XN" x1="2500" x2="2530" y1="1150" y2="1150"/>
<polygon cb-classname="GraphicPolygonEntity" class="signal" id="4XH" points="2530,1150 2519,1144 2519,1155"/>
<g cb-classname="DynamicText" cb-source="C0-1D2-TD1f" class="signal" id="4Xu" text-anchor="end">
<text cb-classname="GraphicTextEntity" class="signal" fill="black" font-style="normal" font-weight="normal" id="4NF" text-anchor="end" text-decoration="normal" x="2515" y="1147"/>
</g>
</g>
<g cb-classname="ControlPin" cb-pin-name="At-6u8-lzN" id="4N4">
<line cb-classname="GraphicLineEntity" class="signalline" id="4Ny" x1="2500" x2="2530" y1="1190" y2="1190"/>
<polygon cb-classname="GraphicPolygonEntity" class="signal" id="4NX" points="2530,1190 2519,1184 2519,1195"/>
<g cb-classname="DynamicText" cb-source="8V-qSd-ubzZ" class="signal" id="4NJ" text-anchor="end">
<text cb-classname="GraphicTextEntity" class="signal" fill="black" font-style="normal" font-weight="normal" id="4ND" text-anchor="end" text-decoration="normal" x="2515" y="1187"/>
</g>
</g>
<g cb-classname="ControlPin" cb-pin-name="p4-oHE-AL" id="4NT">
<line cb-classname="GraphicLineEntity" class="signalline" id="4NN" x1="2500" x2="2530" y1="1240" y2="1240"/>
<polygon cb-classname="GraphicPolygonEntity" class="signal" id="4NH" points="2530,1240 2519,1234 2519,1245"/>
<g cb-classname="DynamicText" cb-source="cD-MDS-y6zC" class="signal" id="4Nu" text-anchor="end">
<text cb-classname="GraphicTextEntity" class="signal" fill="black" font-style="normal" font-weight="normal" id="4BF" text-anchor="end" text-decoration="normal" x="2515" y="1237"/>
</g>
</g>
<g cb-classname="ControlPin" cb-pin-name="Rp-v3t-npN" id="4B4">
<line cb-classname="GraphicLineEntity" class="signalline" id="4By" x1="2500" x2="2530" y1="1410" y2="1410"/>
<polygon cb-classname="GraphicPolygonEntity" class="signal" id="4BX" points="2530,1410 2519,1404 2519,1415"/>
<g cb-classname="DynamicText" cb-source="At-hDT-xoae" class="signal" id="4BJ" text-anchor="end">
<text cb-classname="GraphicTextEntity" class="signal" fill="black" font-style="normal" font-weight="normal" id="4BD" text-anchor="end" text-decoration="normal" x="2515" y="1407"/>
</g>
</g>
<g cb-classname="ControlPin" cb-pin-name="Ug-7OO-T8I" id="4BT">
<line cb-classname="GraphicLineEntity" class="signalline" id="4BN" x1="2500" x2="2530" y1="1460" y2="1460"/>
<polygon cb-classname="GraphicPolygonEntity" class="signal" id="4BH" points="2530,1460 2519,1454 2519,1465"/>
<g cb-classname="DynamicText" cb-source="p4-i4u-hKND" class="signal" id="4Bu" text-anchor="end">
<text cb-classname="GraphicTextEntity" class="signal" fill="black" font-style="normal" font-weight="normal" id="4pF" text-anchor="end" text-decoration="normal" x="2515" y="1457"/>
</g>
</g>
<g cb-classname="ControlPin" cb-pin-name="9e-XNy-rT2" id="4p4">
<line cb-classname="GraphicLineEntity" class="signalline" id="4py" x1="2500" x2="2530" y1="1620" y2="1620"/>
<polygon cb-classname="GraphicPolygonEntity" class="signal" id="4pX" points="2530,1620 2519,1614 2519,1625"/>
<g cb-classname="DynamicText" cb-source="Rp-LWy-M7mj" class="signal" id="4pJ" text-anchor="end">
<text cb-classname="GraphicTextEntity" class="signal" fill="black" font-style="normal" font-weight="normal" id="4pD" text-anchor="end" text-decoration="normal" x="2515" y="1617"/>
</g>
</g>
<g cb-classname="ControlPin" cb-pin-name="UT-p4g-q9t" id="4pT">
<line cb-classname="GraphicLineEntity" class="signalline" id="4pN" x1="2500" x2="2530" y1="1670" y2="1670"/>
<polygon cb-classname="GraphicPolygonEntity" class="signal" id="4pH" points="2530,1670 2519,1664 2519,1675"/>
<g cb-classname="DynamicText" cb-source="Ug-f8x-gX9a" class="signal" id="4pu" text-anchor="end">
<text cb-classname="GraphicTextEntity" class="signal" fill="black" font-style="normal" font-weight="normal" id="4fF" text-anchor="end" text-decoration="normal" x="2515" y="1667"/>
</g>
</g>
<g cb-classname="ControlPin" cb-pin-name="N1-lzd-sy3" id="4f4">
<line cb-classname="GraphicLineEntity" class="signalline" id="4fy" x1="2500" x2="2530" y1="1960" y2="1960"/>
<polygon cb-classname="GraphicPolygonEntity" class="signal" id="4fX" points="2530,1960 2519,1954 2519,1965"/>
<g cb-classname="DynamicText" cb-source="9e-Weh-nzf8" class="signal" id="4fJ" text-anchor="end">
<text cb-classname="GraphicTextEntity" class="signal" fill="black" font-style="normal" font-weight="normal" id="4fD" text-anchor="end" text-decoration="normal" x="2515" y="1957"/>
</g>
</g>
<g cb-classname="ControlPin" cb-pin-name="9O-HRz-5CG" id="4fT">
<line cb-classname="GraphicLineEntity" class="signalline" id="4fN" x1="2510" x2="2530" y1="2000" y2="2000"/>
<polygon cb-classname="GraphicPolygonEntity" class="signal" id="4fH" points="2530,2000 2519,1994 2519,2005"/>
<g cb-classname="DynamicText" cb-source="UT-YDM-klk7" class="signal" id="4fu" text-anchor="end">
<text cb-classname="GraphicTextEntity" class="signal" fill="black" font-style="normal" font-weight="normal" id="4kF" text-anchor="end" text-decoration="normal" x="2515" y="1997"/>
</g>
</g>
<g cb-classname="ControlPin" cb-pin-name="G7-cZZ-fEz" id="4k4">
<line cb-classname="GraphicLineEntity" class="signalline" id="4ky" x1="2490" x2="2530" y1="2040" y2="2040"/>
<polygon cb-classname="GraphicPolygonEntity" class="signal" id="4kX" points="2530,2040 2519,2034 2519,2045"/>
<g cb-classname="DynamicText" cb-source="N1-pSg-fAiS" class="signal" id="4kJ" text-anchor="end">
<text cb-classname="GraphicTextEntity" class="signal" fill="black" font-style="normal" font-weight="normal" id="4kD" text-anchor="end" text-decoration="normal" x="2515" y="2037"/>
</g>
</g>
<g cb-classname="ControlPin" cb-pin-name="AC-YV4-M5C" id="4kT">
<line cb-classname="GraphicLineEntity" class="signalline" id="4kN" x1="3280" x2="3320" y1="1300" y2="1300"/>
<g cb-classname="DynamicText" cb-source="cD-MDS-y6zC" class="signal" id="4kH" text-anchor="start">
<text cb-classname="GraphicTextEntity" class="signal" fill="black" font-style="normal" font-weight="normal" id="4ku" text-anchor="start" text-decoration="normal" x="3294" y="1297"/>
</g>
<g cb-classname="SignalSegment" id="42F">
<line cb-classname="GraphicLineEntity" class="signalline" id="424" x1="3320" x2="4720" y1="1300" y2="1300"/>
<g cb-classname="SignalConnection" cb-graphic-line="$471$" cb-input-pin="$Ufv$" id="42y"/>
</g>
</g>
<g cb-classname="ControlPin" cb-pin-name="At-6u8-lza" id="42X">
<line cb-classname="GraphicLineEntity" class="signalline" id="42J" x1="3280" x2="3310" y1="1570" y2="1570"/>
<g cb-classname="DynamicText" cb-source="Ug-f8x-gX9a" class="signal" id="42D" text-anchor="start">
<text cb-classname="GraphicTextEntity" class="signal" fill="black" font-style="normal" font-weight="normal" id="42T" text-anchor="start" text-decoration="normal" x="3294" y="1567"/>
</g>
<g cb-classname="SignalSegment" id="42N">
<line cb-classname="GraphicLineEntity" class="signalline" id="42H" x1="3310" x2="4720" y1="1570" y2="1570"/>
<g cb-classname="SignalConnection" cb-graphic-line="$478$" cb-input-pin="$Dpn$" id="42u"/>
</g>
</g>
<g cb-classname="ControlPin" cb-pin-name="9e-XNy-JO" id="4EF">
<line cb-classname="GraphicLineEntity" class="signalline" id="4E4" x1="3280" x2="3300" y1="1890" y2="1890"/>
<g cb-classname="DynamicText" cb-source="9O-PcM-2cBS" class="signal" id="4Ey" text-anchor="start">
<text cb-classname="GraphicTextEntity" class="signal" fill="black" font-style="normal" font-weight="normal" id="4EX" text-anchor="start" text-decoration="normal" x="3294" y="1887"/>
</g>
<g cb-classname="SignalSegment" id="4EJ">
<line cb-classname="GraphicLineEntity" class="signalline" id="4ED" stroke="#1e12bf" stroke-dasharray="5,4" x1="3300" x2="4720" y1="1890" y2="1890"/>
<g cb-classname="SignalConnection" cb-graphic-line="$485$" cb-input-pin="$cS3$" id="4ET"/>
</g>
</g>
<g cb-classname="ControlPin" cb-pin-name="G7-cZZ-AT" id="4EN">
<line cb-classname="GraphicLineEntity" class="signalline" id="4EH" x1="3280" x2="3300" y1="1950" y2="1950"/>
<g cb-classname="DynamicText" cb-source="8V-qSd-ubzZ" class="signal" id="4Eu" text-anchor="start">
<text cb-classname="GraphicTextEntity" class="signal" fill="black" font-style="normal" font-weight="normal" id="4MF" text-anchor="start" text-decoration="normal" x="3294" y="1947"/>
</g>
<g cb-classname="SignalSegment" id="4M4">
<line cb-classname="GraphicLineEntity" class="signalline" id="4My" stroke="#1e12bf" stroke-dasharray="5,4" x1="3300" x2="4470" y1="1950" y2="1950"/>
<g cb-classname="SignalSegment" id="4MX">
<line cb-classname="GraphicLineEntity" class="signalline" id="4MJ" stroke="#1e12bf" stroke-dasharray="5,4" x1="4470" x2="4470" y1="1950" y2="2160"/>
<g cb-classname="SignalSegment" id="4MD">
<line cb-classname="GraphicLineEntity" class="signalline" id="4MT" stroke="#1e12bf" stroke-dasharray="5,4" x1="4470" x2="4720" y1="2160" y2="2160"/>
<g cb-classname="SignalConnection" cb-graphic-line="$496$" cb-input-pin="$RKf$" id="4MN"/>
</g>
</g>
</g>
</g>
<g cb-classname="ControlPin" cb-pin-name="At-6u8-KijFZ" id="1fyj">
<line cb-classname="GraphicLineEntity" class="signalline" id="1fy2" x1="2510" x2="2530" y1="2330" y2="2330"/>
<polygon cb-classname="GraphicPolygonEntity" class="signal" id="1fyr" points="2530,2330 2519,2324 2519,2335"/>
<g cb-classname="DynamicText" cb-source="8V-qSd-ubzZ" class="signal" id="1fyG" text-anchor="end">
<text cb-classname="GraphicTextEntity" class="signal" fill="black" font-style="normal" font-weight="normal" id="1fXi" text-anchor="end" text-decoration="normal" transform="translate(2515,2327)rotate(360)"/>
</g>
</g>
<g cb-classname="ControlPin" cb-pin-name="AC-YV4-PJnfR" id="1fXo">
<line cb-classname="GraphicLineEntity" class="signalline" id="1fXw" x1="2510" x2="2530" y1="2380" y2="2380"/>
<polygon cb-classname="GraphicPolygonEntity" class="signal" id="1fXe" points="2530,2380 2519,2374 2519,2385"/>
<g cb-classname="DynamicText" cb-source="9O-PcM-2cBS" class="signal" id="1fXO" text-anchor="end">
<text cb-classname="GraphicTextEntity" class="signal" fill="black" font-style="normal" font-weight="normal" id="1fXj" text-anchor="end" text-decoration="normal" transform="translate(2515,2377)rotate(360)"/>
</g>
</g>
<g cb-classname="ControlPin" cb-pin-name="cD-sj9-K6s" id="12DO">
<line cb-classname="GraphicLineEntity" class="signalline" id="12Dj" x1="2500" x2="2530" y1="860" y2="860"/>
<polygon cb-classname="GraphicPolygonEntity" class="signal" id="12D2" points="2530,860 2519,854 2519,865"/>
<g cb-classname="DynamicText" cb-source="C0-1D2-TD1f" class="signal" id="12Dr" text-anchor="end">
<text cb-classname="GraphicTextEntity" class="signal" fill="black" font-style="normal" font-weight="normal" id="12DG" text-anchor="end" text-decoration="normal" x="2515" y="857"/>
</g>
</g>
</g>
<g cb-alg-i1="$384$cb-alg-sts$" cb-algorithm-id="00d" cb-classname="ExternalPointInterface" cb-function-name="OUTPUT" id="5WH">
<ellipse cb-classname="GraphicEllipseEntity" class="algorithm" cx="4800" cy="1300" id="5Wu" rx="50" ry="50"/>
<rect cb-classname="GraphicRectangleEntity" class="algorithm" height="100" id="5XF" width="40" x="4850" y="1250"/>
<line cb-classname="GraphicLineEntity" class="algorithm" id="5X4" x1="4850" x2="4890" y1="1300" y2="1300"/>
<g cb-classname="ControlPin" cb-pin-name="At-6u8-Sd" id="5Xy">
<line cb-classname="GraphicLineEntity" class="signalline" id="5XX" x1="4720" x2="4750" y1="1300" y2="1300"/>
<polygon cb-classname="GraphicPolygonEntity" class="signal" id="5XJ" points="4750,1300 4739,1294 4739,1305"/>
<g cb-classname="DynamicText" cb-source="8V-qSd-ubzZ" class="signal" id="5XD" text-anchor="end">
<text cb-classname="GraphicTextEntity" class="signal" fill="black" font-style="normal" font-weight="normal" id="5XT" text-anchor="end" text-decoration="normal" x="4735" y="1297"/>
</g>
</g>
<g cb-classname="PointStatusIndicator" cb-indicator-type="highway" cb-source="p4-oHE-9W" id="5XN" visibility="hidden">
<line cb-classname="GraphicLineEntity" class="algorithmline" id="5XH" x1="4750" x2="4800" y1="1300" y2="1250"/>
<line cb-classname="GraphicLineEntity" class="algorithmline" id="5Xu" x1="4800" x2="4850" y1="1250" y2="1300"/>
<line cb-classname="GraphicLineEntity" class="algorithmline" id="5NF" x1="4850" x2="4800" y1="1300" y2="1350"/>
<line cb-classname="GraphicLineEntity" class="algorithmline" id="5N4" x1="4800" x2="4750" y1="1350" y2="1300"/>
</g>
<g cb-classname="PointStatusIndicator" cb-indicator-type="hardware" cb-source="Rp-v3t-DT" id="5Ny" visibility="hidden">
<line cb-classname="GraphicLineEntity" class="algorithmline" id="5NX" x1="4850" x2="4750" y1="1250" y2="1250"/>
<line cb-classname="GraphicLineEntity" class="algorithmline" id="5NJ" x1="4750" x2="4750" y1="1250" y2="1350"/>
<line cb-classname="GraphicLineEntity" class="algorithmline" id="5ND" x1="4750" x2="4850" y1="1350" y2="1350"/>
</g>
<g cb-classname="PointStatusIndicator" cb-indicator-type="alarm" cb-source="G7-cZZ-Sg" id="5NT" visibility="hidden">
<text cb-classname="GraphicTextEntity" class="algorithm" fill="#000000" font-family="Arial" font-size="20" id="5NN" x="4860" y="1335">
A
</text>
</g>
<g cb-classname="PointStatusIndicator" cb-indicator-type="ingraphic" cb-source="8V-DJ4-5f" id="5NH" visibility="visible">
<text cb-classname="GraphicTextEntity" class="algorithm" fill="#000000" font-family="Arial" font-size="20" id="5Nu" x="4860" y="1285">
G
</text>
</g>
<g cb-classname="DynamicText" cb-labeled="false" cb-pin-name="jg" cb-source="p4-oHE-9W" class="algorithm" id="5BF" text-anchor="end">
<text baseline-shift="0%" cb-classname="GraphicTextEntity" class="algorithm" fill="black" font-family="arial" font-size="20" font-style="normal" font-weight="normal" id="5B4" text-anchor="end" text-decoration="normal" x="4725" y="1275"/>
</g>
<g baseline-shift="-100%" cb-anchor-x="4725" cb-anchor-y="1310" cb-classname="PointReferences" cb-max-width="130" cb-originator="false" cb-source="9e-XNy-eL" class="signal" id="5By" text-anchor="end">
<text baseline-shift="-100%" cb-classname="GraphicTextEntity" class="algorithm" id="5BX" text-anchor="end" x="4725" y="1310">
REF: Point not
</text>
<text baseline-shift="-100%" cb-classname="GraphicTextEntity" class="algorithm" id="2MFl" text-anchor="end" x="4725" y="1335">
found in
</text>
<text baseline-shift="-100%" cb-classname="GraphicTextEntity" class="algorithm" id="2MFo" text-anchor="end" x="4725" y="1360">
database
</text>
<text baseline-shift="-100%" cb-classname="GraphicTextEntity" class="algorithm" id="2MFw" text-anchor="end" x="4725" y="1385">
(01B0201D13-STS)
</text>
</g>
<g baseline-shift="-50%" cb-anchor-x="4905" cb-anchor-y="1315" cb-classname="PointDescription" cb-content="extended" cb-labeled="false" cb-max-width="240" cb-source="C0-olp-gk" class="algorithm" id="5BT" text-anchor="start">
<text baseline-shift="-50%" cb-classname="GraphicTextEntity" class="algorithm" id="5BN" text-anchor="start" x="4905" y="1303">
DESC: Point not found in
</text>
<text baseline-shift="-50%" cb-classname="GraphicTextEntity" class="algorithm" id="1MuG" text-anchor="start" x="4905" y="1328">
database (01B0201D13-STS)
</text>
</g>
</g>
<g cb-alg-cM="$384$cb-alg-alm$" cb-algorithm-id="00e" cb-classname="ExternalPointInterface" cb-function-name="OUTPUT" id="5BH">
<ellipse cb-classname="GraphicEllipseEntity" class="algorithm" cx="4800" cy="1570" id="5Bu" rx="50" ry="50"/>
<rect cb-classname="GraphicRectangleEntity" class="algorithm" height="100" id="5pF" width="40" x="4850" y="1520"/>
<line cb-classname="GraphicLineEntity" class="algorithm" id="5p4" x1="4850" x2="4890" y1="1570" y2="1570"/>
<g cb-classname="ControlPin" cb-pin-name="N1-lzd-eh" id="5py">
<line cb-classname="GraphicLineEntity" class="signalline" id="5pX" x1="4720" x2="4750" y1="1570" y2="1570"/>
<polygon cb-classname="GraphicPolygonEntity" class="signal" id="5pJ" points="4750,1570 4739,1564 4739,1575"/>
<g cb-classname="DynamicText" cb-source="9e-Weh-nzf8" class="signal" id="5pD" text-anchor="end">
<text cb-classname="GraphicTextEntity" class="signal" fill="black" font-style="normal" font-weight="normal" id="5pT" text-anchor="end" text-decoration="normal" x="4735" y="1567"/>
</g>
</g>
<g cb-classname="PointStatusIndicator" cb-indicator-type="highway" cb-source="9O-HRz-DM" id="5pN" visibility="hidden">
<line cb-classname="GraphicLineEntity" class="algorithmline" id="5pH" x1="4750" x2="4800" y1="1570" y2="1520"/>
<line cb-classname="GraphicLineEntity" class="algorithmline" id="5pu" x1="4800" x2="4850" y1="1520" y2="1570"/>
<line cb-classname="GraphicLineEntity" class="algorithmline" id="5fF" x1="4850" x2="4800" y1="1570" y2="1620"/>
<line cb-classname="GraphicLineEntity" class="algorithmline" id="5f4" x1="4800" x2="4750" y1="1620" y2="1570"/>
</g>
<g cb-classname="PointStatusIndicator" cb-indicator-type="hardware" cb-source="G7-cZZ-Sg" id="5fy" visibility="hidden">
<line cb-classname="GraphicLineEntity" class="algorithmline" id="5fX" x1="4850" x2="4750" y1="1520" y2="1520"/>
<line cb-classname="GraphicLineEntity" class="algorithmline" id="5fJ" x1="4750" x2="4750" y1="1520" y2="1620"/>
<line cb-classname="GraphicLineEntity" class="algorithmline" id="5fD" x1="4750" x2="4850" y1="1620" y2="1620"/>
</g>
<g cb-classname="PointStatusIndicator" cb-indicator-type="alarm" cb-source="p4-oHE-9W" id="5fT" visibility="hidden">
<text cb-classname="GraphicTextEntity" class="algorithm" fill="#000000" font-family="Arial" font-size="20" id="5fN" x="4860" y="1605">
A
</text>
</g>
<g cb-classname="PointStatusIndicator" cb-indicator-type="ingraphic" cb-source="9e-XNy-eL" id="5fH" visibility="visible">
<text cb-classname="GraphicTextEntity" class="algorithm" fill="#000000" font-family="Arial" font-size="20" id="5fu" x="4860" y="1555">
G
</text>
</g>
<g cb-classname="DynamicText" cb-labeled="false" cb-pin-name="xC" cb-source="9O-HRz-DM" class="algorithm" id="5kF" text-anchor="end">
<text baseline-shift="0%" cb-classname="GraphicTextEntity" class="algorithm" fill="black" font-family="arial" font-size="20" font-style="normal" font-weight="normal" id="5k4" text-anchor="end" text-decoration="normal" x="4725" y="1545"/>
</g>
<g baseline-shift="-100%" cb-anchor-x="4725" cb-anchor-y="1580" cb-classname="PointReferences" cb-max-width="130" cb-originator="false" cb-source="C0-olp-gk" class="signal" id="5ky" text-anchor="end">
<text baseline-shift="-100%" cb-classname="GraphicTextEntity" class="algorithm" id="5kX" text-anchor="end" x="4725" y="1580">
REF: Point not
</text>
<text baseline-shift="-100%" cb-classname="GraphicTextEntity" class="algorithm" id="2MFO" text-anchor="end" x="4725" y="1605">
found in
</text>
<text baseline-shift="-100%" cb-classname="GraphicTextEntity" class="algorithm" id="2MFj" text-anchor="end" x="4725" y="1630">
database
</text>
<text baseline-shift="-100%" cb-classname="GraphicTextEntity" class="algorithm" id="2MF2" text-anchor="end" x="4725" y="1655">
(01B0201D13-ALM)
</text>
</g>
<g baseline-shift="-50%" cb-anchor-x="4905" cb-anchor-y="1585" cb-classname="PointDescription" cb-content="extended" cb-labeled="false" cb-max-width="240" cb-source="Ug-7OO-4u" class="algorithm" id="5kT" text-anchor="start">
<text baseline-shift="-50%" cb-classname="GraphicTextEntity" class="algorithm" id="5kN" text-anchor="start" x="4905" y="1573">
DESC: Point not found in
</text>
<text baseline-shift="-50%" cb-classname="GraphicTextEntity" class="algorithm" id="2WFi" text-anchor="start" x="4905" y="1598">
database (01B0201D13-ALM)
</text>
</g>
</g>
<g cb-alg-DT="$384$cb-alg-lb$" cb-algorithm-id="00f" cb-classname="ExternalPointInterface" cb-function-name="OUTPUT" id="5kH">
<ellipse cb-classname="GraphicEllipseEntity" class="algorithm" cx="4800" cy="1890" id="5ku" rx="50" ry="50"/>
<rect cb-classname="GraphicRectangleEntity" class="algorithm" height="100" id="52F" width="40" x="4850" y="1840"/>
<line cb-classname="GraphicLineEntity" class="algorithm" id="524" x1="4850" x2="4890" y1="1890" y2="1890"/>
<g cb-classname="ControlPin" cb-pin-name="cD-sj9-D2" id="52y">
<line cb-classname="GraphicLineEntity" class="signalline" id="52X" x1="4720" x2="4750" y1="1890" y2="1890"/>
<polygon cb-classname="GraphicPolygonEntity" class="signal" id="52J" points="4750,1890 4739,1884 4739,1895"/>
<g cb-classname="DynamicText" cb-source="C0-1D2-TD1f" class="signal" id="52D" text-anchor="end">
<text cb-classname="GraphicTextEntity" class="signal" fill="black" font-style="normal" font-weight="normal" id="52T" text-anchor="end" text-decoration="normal" x="4735" y="1887"/>
</g>
</g>
<g cb-classname="PointStatusIndicator" cb-indicator-type="highway" cb-source="At-6u8-Sd" id="52N" visibility="hidden">
<line cb-classname="GraphicLineEntity" class="algorithmline" id="52H" x1="4750" x2="4800" y1="1890" y2="1840"/>
<line cb-classname="GraphicLineEntity" class="algorithmline" id="52u" x1="4800" x2="4850" y1="1840" y2="1890"/>
<line cb-classname="GraphicLineEntity" class="algorithmline" id="5EF" x1="4850" x2="4800" y1="1890" y2="1940"/>
<line cb-classname="GraphicLineEntity" class="algorithmline" id="5E4" x1="4800" x2="4750" y1="1940" y2="1890"/>
</g>
<g cb-classname="PointStatusIndicator" cb-indicator-type="hardware" cb-source="p4-oHE-9W" id="5Ey" visibility="hidden">
<line cb-classname="GraphicLineEntity" class="algorithmline" id="5EX" x1="4850" x2="4750" y1="1840" y2="1840"/>
<line cb-classname="GraphicLineEntity" class="algorithmline" id="5EJ" x1="4750" x2="4750" y1="1840" y2="1940"/>
<line cb-classname="GraphicLineEntity" class="algorithmline" id="5ED" x1="4750" x2="4850" y1="1940" y2="1940"/>
</g>
<g cb-classname="PointStatusIndicator" cb-indicator-type="alarm" cb-source="9O-HRz-DM" id="5ET" visibility="hidden">
<text cb-classname="GraphicTextEntity" class="algorithm" fill="#000000" font-family="Arial" font-size="20" id="5EN" x="4860" y="1925">
A
</text>
</g>
<g cb-classname="PointStatusIndicator" cb-indicator-type="ingraphic" cb-source="C0-olp-gk" id="5EH" visibility="hidden">
<text cb-classname="GraphicTextEntity" class="algorithm" fill="#000000" font-family="Arial" font-size="20" id="5Eu" x="4860" y="1875">
G
</text>
</g>
<g cb-classname="DynamicText" cb-labeled="false" cb-pin-name="wT" cb-source="At-6u8-Sd" class="algorithm" id="5MF" text-anchor="end">
<text baseline-shift="0%" cb-classname="GraphicTextEntity" class="algorithm" fill="black" font-family="arial" font-size="20" font-style="normal" font-weight="normal" id="5M4" text-anchor="end" text-decoration="normal" x="4725" y="1865"/>
</g>
<g baseline-shift="-100%" cb-anchor-x="4725" cb-anchor-y="1900" cb-classname="PointReferences" cb-max-width="130" cb-originator="false" cb-source="Ug-7OO-4u" class="signal" id="5My" text-anchor="end">
<text baseline-shift="-100%" cb-classname="GraphicTextEntity" class="algorithm" id="5MX" text-anchor="end" x="4725" y="1900">
REF: Point not
</text>
<text baseline-shift="-100%" cb-classname="GraphicTextEntity" class="algorithm" id="2MFG" text-anchor="end" x="4725" y="1925">
found in
</text>
<text baseline-shift="-100%" cb-classname="GraphicTextEntity" class="algorithm" id="2M4i" text-anchor="end" x="4725" y="1950">
database
</text>
<text baseline-shift="-100%" cb-classname="GraphicTextEntity" class="algorithm" id="2M4l" text-anchor="end" x="4725" y="1975">
(01B0201D13-LB)
</text>
</g>
<g baseline-shift="-50%" cb-anchor-x="4905" cb-anchor-y="1905" cb-classname="PointDescription" cb-content="extended" cb-labeled="false" cb-max-width="240" cb-source="p4-oHE-9W" class="algorithm" id="5MD" text-anchor="start">
<text baseline-shift="-50%" cb-classname="GraphicTextEntity" class="algorithm" id="5MT" text-anchor="start" x="4905" y="1893">
DESC: Point not found in
</text>
<text baseline-shift="-50%" cb-classname="GraphicTextEntity" class="algorithm" id="12Do" text-anchor="start" x="4905" y="1918">
database (01B0201D13-LB)
</text>
</g>
</g>
<g cb-alg-Sd="$384$cb-alg-tr$" cb-algorithm-id="010" cb-classname="ExternalPointInterface" cb-function-name="OUTPUT" id="5MN">
<ellipse cb-classname="GraphicEllipseEntity" class="algorithm" cx="4800" cy="2160" id="5MH" rx="50" ry="50"/>
<rect cb-classname="GraphicRectangleEntity" class="algorithm" height="100" id="5Mu" width="40" x="4850" y="2110"/>
<line cb-classname="GraphicLineEntity" class="algorithm" id="6WF" x1="4850" x2="4890" y1="2160" y2="2160"/>
<g cb-classname="ControlPin" cb-pin-name="C0-olp-gk" id="6W4">
<line cb-classname="GraphicLineEntity" class="signalline" id="6Wy" x1="4720" x2="4750" y1="2160" y2="2160"/>
<polygon cb-classname="GraphicPolygonEntity" class="signal" id="6WX" points="4750,2160 4739,2154 4739,2165"/>
<g cb-classname="DynamicText" cb-source="G7-Cgk-dYFs" class="signal" id="6WJ" text-anchor="end">
<text cb-classname="GraphicTextEntity" class="signal" fill="black" font-style="normal" font-weight="normal" id="6WD" text-anchor="end" text-decoration="normal" x="4735" y="2157"/>
</g>
</g>
<g cb-classname="PointStatusIndicator" cb-indicator-type="highway" cb-source="8V-DJ4-5f" id="6WT" visibility="hidden">
<line cb-classname="GraphicLineEntity" class="algorithmline" id="6WN" x1="4750" x2="4800" y1="2160" y2="2110"/>
<line cb-classname="GraphicLineEntity" class="algorithmline" id="6WH" x1="4800" x2="4850" y1="2110" y2="2160"/>
<line cb-classname="GraphicLineEntity" class="algorithmline" id="6Wu" x1="4850" x2="4800" y1="2160" y2="2210"/>
<line cb-classname="GraphicLineEntity" class="algorithmline" id="6XF" x1="4800" x2="4750" y1="2210" y2="2160"/>
</g>
<g cb-classname="PointStatusIndicator" cb-indicator-type="hardware" cb-source="cD-sj9-D2" id="6X4" visibility="hidden">
<line cb-classname="GraphicLineEntity" class="algorithmline" id="6Xy" x1="4850" x2="4750" y1="2110" y2="2110"/>
<line cb-classname="GraphicLineEntity" class="algorithmline" id="6XX" x1="4750" x2="4750" y1="2110" y2="2210"/>
<line cb-classname="GraphicLineEntity" class="algorithmline" id="6XJ" x1="4750" x2="4850" y1="2210" y2="2210"/>
</g>
<g cb-classname="PointStatusIndicator" cb-indicator-type="alarm" cb-source="UT-p4g-8x" id="6XD" visibility="visible">
<text cb-classname="GraphicTextEntity" class="algorithm" fill="#000000" font-family="Arial" font-size="20" id="6XT" x="4860" y="2195">
A
</text>
</g>
<g cb-classname="PointStatusIndicator" cb-indicator-type="ingraphic" cb-source="G7-cZZ-Sg" id="6XN" visibility="hidden">
<text cb-classname="GraphicTextEntity" class="algorithm" fill="#000000" font-family="Arial" font-size="20" id="6XH" x="4860" y="2145">
G
</text>
</g>
<g cb-classname="DynamicText" cb-labeled="false" cb-pin-name="RK" cb-source="8V-DJ4-5f" class="algorithm" id="6Xu" text-anchor="end">
<text baseline-shift="0%" cb-classname="GraphicTextEntity" class="algorithm" fill="black" font-family="arial" font-size="20" font-style="normal" font-weight="normal" id="6NF" text-anchor="end" text-decoration="normal" x="4725" y="2135"/>
</g>
<g baseline-shift="-100%" cb-anchor-x="4725" cb-anchor-y="2170" cb-classname="PointReferences" cb-max-width="130" cb-originator="false" cb-source="p4-oHE-9W" class="signal" id="6N4" text-anchor="end">
<text baseline-shift="-100%" cb-classname="GraphicTextEntity" class="algorithm" id="6Ny" text-anchor="end" x="4725" y="2170">
REF: Point not
</text>
<text baseline-shift="-100%" cb-classname="GraphicTextEntity" class="algorithm" id="2M4w" text-anchor="end" x="4725" y="2195">
found in
</text>
<text baseline-shift="-100%" cb-classname="GraphicTextEntity" class="algorithm" id="2M4e" text-anchor="end" x="4725" y="2220">
database
</text>
<text baseline-shift="-100%" cb-classname="GraphicTextEntity" class="algorithm" id="2M4O" text-anchor="end" x="4725" y="2245">
(01B0201D13-TR)
</text>
</g>
<g baseline-shift="-50%" cb-anchor-x="4905" cb-anchor-y="2175" cb-classname="PointDescription" cb-content="extended" cb-labeled="false" cb-max-width="240" cb-source="cD-sj9-D2" class="algorithm" id="6NJ" text-anchor="start">
<text baseline-shift="-50%" cb-classname="GraphicTextEntity" class="algorithm" id="6ND" text-anchor="start" x="4905" y="2163">
DESC: Point not found in
</text>
<text baseline-shift="-50%" cb-classname="GraphicTextEntity" class="algorithm" id="12Dw" text-anchor="start" x="4905" y="2188">
database (01B0201D13-TR)
</text>
</g>
</g>
</g>
<g cb-classname="IncludeDocument" cb-modify-time="09/25/2018 01:40:30" cb-objectname="Frame" id="5">
<text cb-classname="GraphicTextEntity" class="frame" font-size="50" id="2MN2" x="3660" y="3146">
Project Title &lt;Edit in FRAME.SVG&gt;
</text>
<g baseline-shift="-50%" cb-classname="DynamicText" cb-source="9O-GIDY-Do" class="frame" id="2MNr">
<text cb-classname="GraphicTextEntity" class="frame" fill="black" font-family="arial" font-size="25" font-style="normal" font-weight="normal" id="2MNG" text-decoration="normal" x="4715" y="3325">
13
</text>
</g>
<g baseline-shift="-50%" cb-classname="DynamicText" cb-source="C0-CbJC-8c" class="frame" id="2MHi" text-anchor="middle">
<text cb-classname="GraphicTextEntity" class="frame" fill="black" font-family="arial" font-size="48" font-style="normal" font-weight="normal" id="2MHl" text-anchor="middle" text-decoration="normal" x="4900" y="3320">
13
</text>
</g>
<g baseline-shift="-50%" cb-classname="DynamicText" cb-source="At-ychz-Sx" class="frame" id="2MHo" text-anchor="middle">
<text cb-classname="GraphicTextEntity" class="frame" fill="black" font-family="arial" font-size="48" font-style="normal" font-weight="normal" id="2MHw" text-anchor="middle" text-decoration="normal" x="5067" y="3324">
4
</text>
</g>
<g cb-classname="DynamicText" cb-source="Ug-hojfj-x9SJD" class="frame" id="2MHe">
<text cb-classname="GraphicTextEntity" class="frame" fill="black" font-family="arial" font-size="48" font-style="normal" font-weight="normal" id="2MHO" text-decoration="normal" x="3660" y="3224">
BFPT GLND STM STRNR DRN VLV-B0201D13
</text>
</g>
<g baseline-shift="-50%" cb-classname="DynamicText" cb-source="N1-XC7ex-WKgY8u" class="frame" id="2MHj" text-anchor="middle">
<text cb-classname="GraphicTextEntity" class="frame" fill="black" font-family="arial" font-size="48" font-style="normal" font-weight="normal" id="2MH2" text-anchor="middle" text-decoration="normal" x="5270" y="3324">
133
</text>
</g>
<g baseline-shift="0%" cb-classname="DynamicText" cb-source="AC-Te89MemW" class="frame" id="2MHr" text-anchor="middle">
<text cb-classname="GraphicTextEntity" class="frame" fill="black" font-family="arial" font-size="36" font-style="normal" font-weight="normal" id="2MHG" text-anchor="middle" text-decoration="normal" x="5270" y="3150">
A
</text>
</g>
<g baseline-shift="0%" cb-classname="DynamicText" cb-source="cD-mwqWBDOT-3Sae" class="frame" id="2Mui" text-anchor="middle">
<text cb-classname="GraphicTextEntity" class="frame" fill="black" font-family="arial" font-size="20" font-style="normal" font-weight="normal" id="2Mul" text-anchor="middle" text-decoration="normal" x="5270" y="3230">
12/28/2010
</text>
</g>
<g baseline-shift="-50%" cb-classname="DynamicText" cb-source="Rp-xMtDMCSR" class="frame" id="2Muo" text-anchor="end">
<text cb-classname="GraphicTextEntity" class="frame" fill="black" font-family="arial" font-size="26" font-style="normal" font-weight="normal" id="2Muw" text-anchor="end" text-decoration="normal" x="4500" y="3420">
Heczko
</text>
</g>
<g baseline-shift="-50%" cb-classname="DynamicText" cb-source="UT-b56gSsfT" class="frame" id="2Mue" text-anchor="end">
<text cb-classname="GraphicTextEntity" class="frame" fill="black" font-family="arial" font-size="26" font-style="normal" font-weight="normal" id="2MuO" text-anchor="end" text-decoration="normal" x="5353" y="3420">
Nemec
</text>
</g>
<g cb-classname="GraphicShape" cb-tag="BORDER" id="2Muj">
<line cb-classname="GraphicLineEntity" class="frameline" id="2Mu2" x1="40" x2="40" y1="40" y2="3460"/>
<line cb-classname="GraphicLineEntity" class="frameline" id="2Mur" x1="40" x2="5380" y1="3460" y2="3460"/>
<line cb-classname="GraphicLineEntity" class="frameline" id="2MuG" x1="5380" x2="5380" y1="3460" y2="40"/>
<line cb-classname="GraphicLineEntity" class="frameline" id="3WFi" x1="5380" x2="40" y1="40" y2="40"/>
<line cb-classname="GraphicLineEntity" class="frame" id="3WFl" x1="5430" x2="5440" y1="3510" y2="3510"/>
</g>
<g cb-classname="GraphicShape" cb-tag="TITLE BOX" id="3WFo">
<line cb-classname="GraphicLineEntity" class="frameline" id="3WFw" x1="2340" x2="2340" y1="3080" y2="3460"/>
<line cb-classname="GraphicLineEntity" class="frameline" id="3WFe" x1="2340" x2="5380" y1="3080" y2="3080"/>
<line cb-classname="GraphicLineEntity" class="frameline" id="3WFO" x1="3650" x2="3650" y1="3460" y2="3080"/>
<line cb-classname="GraphicLineEntity" class="frameline" id="3WFj" x1="3650" x2="5380" y1="3240" y2="3240"/>
<line cb-classname="GraphicLineEntity" class="frameline" id="3WF2" x1="3650" x2="5380" y1="3390" y2="3390"/>
<line cb-classname="GraphicLineEntity" class="frameline" id="3WFr" x1="3650" x2="5380" y1="3160" y2="3160"/>
<line cb-classname="GraphicLineEntity" class="frameline" id="3WFG" x1="3650" x2="4520" y1="3320" y2="3320"/>
<line cb-classname="GraphicLineEntity" class="frameline" id="3W4i" x1="4520" x2="5380" y1="3290" y2="3290"/>
<line cb-classname="GraphicLineEntity" class="frameline" id="3W4l" x1="4520" x2="5380" y1="3240" y2="3240"/>
<line cb-classname="GraphicLineEntity" class="frameline" id="3W4o" x1="4520" x2="4520" y1="3240" y2="3460"/>
<line cb-classname="GraphicLineEntity" class="frameline" id="3W4w" x1="4810" x2="4810" y1="3240" y2="3390"/>
<line cb-classname="GraphicLineEntity" class="frameline" id="3W4e" x1="4990" x2="4990" y1="3240" y2="3390"/>
<line cb-classname="GraphicLineEntity" class="frameline" id="3W4O" x1="5150" x2="5150" y1="3080" y2="3390"/>
</g>
<g cb-classname="GraphicShape" cb-tag="TEXT LABELS" id="3W4j">
<text baseline-shift="-50%" cb-classname="GraphicTextEntity" class="frame" font-size="25" id="3W42" text-anchor="middle" x="4890" y="3252">
Drop
</text>
<text baseline-shift="-50%" cb-classname="GraphicTextEntity" class="frame" font-size="25" id="3W4r" text-anchor="middle" x="5075" y="3252">
Task
</text>
<text baseline-shift="-50%" cb-classname="GraphicTextEntity" class="frame" font-size="25" id="3W4G" text-anchor="middle" x="5265" y="3252">
Sheet
</text>
<text cb-classname="GraphicTextEntity" class="frame" font-size="25" id="3Wyi" x="5152" y="3107">
Rev.
</text>
<text cb-classname="GraphicTextEntity" class="frame" font-size="25" id="3Wyl" x="3653" y="3418">
Engineer
</text>
<text cb-classname="GraphicTextEntity" class="frame" font-size="25" id="3Wyo" x="4528" y="3419">
Approved
</text>
<text cb-classname="GraphicTextEntity" class="frame" font-size="25" id="3Wyw" x="5152" y="3187">
Date
</text>
<text baseline-shift="-50%" cb-classname="GraphicTextEntity" class="frame" font-size="25" id="3Wye" text-anchor="middle" x="4660" y="3252">
Drawing Number
</text>
<text baseline-shift="-50%" cb-classname="GraphicTextEntity" class="frame" font-size="25" id="3WyO" text-anchor="middle" x="4680" y="3325">
CTL
</text>
</g>
<text baseline-shift="-50%" cb-classname="GraphicTextEntity" class="frame" font-size="48" id="3Wyj" text-anchor="middle" x="3000" y="3100">
EMERSON PROCESS MANAGEMENT
</text>
<g baseline-shift="-100%" cb-anchor-x="2360" cb-anchor-y="3140" cb-classname="GroupText" cb-max-width="1260" fill="black" id="3Wy2">
<text baseline-shift="-100%" cb-classname="GraphicTextEntity" class="frame" fill="black" font-family="arial" font-size="22" font-weight="normal" id="3Wyr" text-anchor="start" text-decoration="normal" x="2360" y="3140">
THIS DOCUMENT CONTAINS INFORMATION PROPRIETARY TO EMERSON PROCESS
</text>
<text baseline-shift="-100%" cb-classname="GraphicTextEntity" class="frame" fill="black" font-family="arial" font-size="22" font-weight="normal" id="3WyG" text-anchor="start" text-decoration="normal" x="2360" y="3176">
MANAGEMENT POWER &amp; WATER SOLUTIONS, INC. IT IS SUBMITTED IN CONFIDENCE AND
</text>
<text baseline-shift="-100%" cb-classname="GraphicTextEntity" class="frame" fill="black" font-family="arial" font-size="22" font-weight="normal" id="3WXi" text-anchor="start" text-decoration="normal" x="2360" y="3212">
TRUST, IS TO BE USED BY YOU SOLELY FOR THE PURPOSES FOR WHICH IT IS
</text>
<text baseline-shift="-100%" cb-classname="GraphicTextEntity" class="frame" fill="black" font-family="arial" font-size="22" font-weight="normal" id="3WXl" text-anchor="start" text-decoration="normal" x="2360" y="3248">
FURNISHED AND IS TO BE RETURNED UPON REQUEST. THIS DOCUMENT AND ANY
</text>
<text baseline-shift="-100%" cb-classname="GraphicTextEntity" class="frame" fill="black" font-family="arial" font-size="22" font-weight="normal" id="3WXo" text-anchor="start" text-decoration="normal" x="2360" y="3284">
OTHER INFORMATION PROVIDED TO YOU IS NOT TO BE REPRODUCED, TRANSMITTED,
</text>
<text baseline-shift="-100%" cb-classname="GraphicTextEntity" class="frame" fill="black" font-family="arial" font-size="22" font-weight="normal" id="3WXw" text-anchor="start" text-decoration="normal" x="2360" y="3320">
DISCLOSED, OR USED OTHERWISE IN WHOLE OR IN PART WITHOUT THE PRIOR
</text>
<text baseline-shift="-100%" cb-classname="GraphicTextEntity" class="frame" fill="black" font-family="arial" font-size="22" font-weight="normal" id="3WXe" text-anchor="start" text-decoration="normal" x="2360" y="3356">
WRITTEN AUTHORIZATION OF EMERSON PROCESS MANAGEMENT POWER &amp; WATER
</text>
<text baseline-shift="-100%" cb-classname="GraphicTextEntity" class="frame" fill="black" font-family="arial" font-size="22" font-weight="normal" id="3WXO" text-anchor="start" text-decoration="normal" x="2360" y="3392">
SOLUTIONS,INC.
</text>
</g>
</g>
</svg>