<?xml version="1.0" ?><svg cb-auto-time="03/01/2008 17:53:00" cb-classname="ControlFunction" cb-create-time="03/12/2008" cb-drop-id="13" cb-engineer="Heczko" cb-filename="Z:\OVATION\NET0\UNIT0\CONTROLFUNCTIONS\044C.svg" cb-function-id="044C" cb-key="433215255112" cb-modified-timestamp="1489320140" cb-modify-id="00000002" cb-ortho-mode="enabled" cb-path="Z:/OVATION/NET0/UNIT0/CONTROLFUNCTIONS" cb-reviewer="Nemec" cb-revision="A" cb-revision-time="12/28/2010" cb-sheet-number="198" cb-sheet-title="A COLD REHEAT STM DRN VLV-T0200D08A" cb-snap-grid="10" cb-task-id="4" height="3707" id="1" width="5450" xmlns="http://www.w3.org/2000/svg">
<style cb-classname="EntityStyle" id="2" type="text/css">
	.algorithm { fill: white; stroke: black; stroke-linecap: round; stroke-width: 2 }
	.algorithm-function { fill: none; stroke: black; stroke-linecap: round; stroke-width: 2 }
	.algorithm-functionline { fill: none; stroke: black; stroke-linecap: round; stroke-width: 2 }
	.algorithm-name { fill: none; stroke: black; stroke-linecap: round; stroke-width: 2 }
	.algorithm-nameline { fill: none; stroke: black; stroke-linecap: round; stroke-width: 2 }
	.algorithm-sequence { fill: none; stroke: black; stroke-linecap: round; stroke-width: 2 }
	.algorithm-sequenceline { fill: none; stroke: black; stroke-linecap: round; stroke-width: 2 }
	.algorithmline { fill: none; stroke: black; stroke-linecap: round; stroke-width: 2 }
	.annotation { fill: none; stroke: black; stroke-linecap: round; stroke-width: 2 }
	.annotationline { fill: none; stroke: black; stroke-linecap: round; stroke-width: 2 }
	.frame { fill: none; stroke: black; stroke-linecap: round; stroke-width: 2 }
	.frameline { fill: none; stroke: black; stroke-linecap: round; stroke-width: 2 }
	.signal { fill: black; stroke: black; stroke-linecap: round; stroke-width: 2 }
	.signalline { fill: none; stroke: black; stroke-linecap: round; stroke-width: 2 }
	text.algorithm { fill: black; font-family: MS Shell Dlg 2; font-size: 14; stroke: none }
	text.algorithm-function { fill: black; font-family: MS Shell Dlg 2; font-size: 16; stroke: none }
	text.algorithm-name { fill: black; font-family: MS Shell Dlg 2; font-size: 16; stroke: none }
	text.algorithm-sequence { fill: black; font-family: MS Shell Dlg 2; font-size: 16; stroke: none }
	text.annotation { fill: black; font-family: MS Shell Dlg 2; font-size: 16; stroke: none }
	text.frame { fill: black; font-family: MS Shell Dlg 2; font-size: 16; stroke: none }
	text.signal { fill: black; font-family: MS Shell Dlg 2; font-size: 12; stroke: none }
</style>
<g cb-classname="NamedObject" cb-objectname="Comments" id="3">
<text cb-classname="GraphicTextEntity" class="annotation" fill="#000000" font-family="MS Shell Dlg 2" font-size="72" id="6b" x="3080" y="1480">
PCMS1
</text>
</g>
<g cb-classname="AlgorithmContainer" cb-objectname="Algorithms" id="4">
<g cb-alg-2Q8Y="5" cb-alg-Bz4Y="128" cb-alg-TRT="01T0200D08A-KB" cb-algorithm-id="002" cb-classname="ControlAlgorithm" cb-function-name="KEYBOARD" cb-modify-id="00000001" id="6g">
<rect cb-classname="GraphicRectangleEntity" class="annotation" height="200" id="6o" stroke-width="1" width="140" x="1420" y="570"/>
<g cb-classname="ControlPin" cb-pin-name="0t-5gg-03Sv" id="6y">
<line cb-classname="GraphicLineEntity" class="signalline" id="6G" x1="1560" x2="1570" y1="580" y2="580"/>
<g cb-classname="DynamicText" cb-source="x3-IH2-MjUR" class="signal" id="7K" text-anchor="start">
<text cb-classname="GraphicTextEntity" class="signal" fill="black" font-style="normal" font-weight="normal" id="7Q" text-anchor="start" text-decoration="normal" x="1574" y="577"/>
</g>
<g cb-classname="SignalSegment" id="7R">
<line cb-classname="GraphicLineEntity" class="signalline" id="7H" stroke="#1e12bf" stroke-dasharray="5,4" x1="1570" x2="2670" y1="580" y2="580"/>
<g cb-classname="SignalSegment" id="7x">
<line cb-classname="GraphicLineEntity" class="signalline" id="7b" stroke="#1e12bf" stroke-dasharray="5,4" x1="2670" x2="2670" y1="580" y2="650"/>
<g cb-classname="SignalSegment" id="7g">
<line cb-classname="GraphicLineEntity" class="signalline" id="7o" stroke="#1e12bf" stroke-dasharray="5,4" x1="2670" x2="2820" y1="650" y2="650"/>
<g cb-classname="SignalConnection" cb-graphic-line="$77$" cb-input-pin="$xem$" id="7y"/>
</g>
</g>
</g>
</g>
<g cb-classname="ControlPin" cb-pin-name="Fv-d6D-FT0w" id="7G">
<line cb-classname="GraphicLineEntity" class="signalline" id="8K" x1="1560" x2="1570" y1="600" y2="600"/>
<g cb-classname="DynamicText" cb-source="0t-VDE-2jbK" class="signal" id="8Q" text-anchor="start">
<text cb-classname="GraphicTextEntity" class="signal" fill="black" font-style="normal" font-weight="normal" id="8R" text-anchor="start" text-decoration="normal" x="1574" y="597"/>
</g>
<g cb-classname="SignalSegment" id="8H">
<line cb-classname="GraphicLineEntity" class="signalline" id="8x" stroke="#1e12bf" stroke-dasharray="5,4" x1="1570" x2="2640" y1="600" y2="600"/>
<g cb-classname="SignalSegment" id="8b">
<line cb-classname="GraphicLineEntity" class="signalline" id="8g" stroke="#1e12bf" stroke-dasharray="5,4" x1="2640" x2="2640" y1="600" y2="690"/>
<g cb-classname="SignalSegment" id="8o">
<line cb-classname="GraphicLineEntity" class="signalline" id="8y" stroke="#1e12bf" stroke-dasharray="5,4" x1="2640" x2="2820" y1="690" y2="690"/>
<g cb-classname="SignalConnection" cb-graphic-line="$88$" cb-input-pin="$khc$" id="8G"/>
</g>
</g>
</g>
</g>
<g cb-classname="ControlPin" cb-pin-name="Jl-knc-IMZP" id="9K">
<line cb-classname="GraphicLineEntity" class="signalline" id="9Q" x1="1560" x2="1570" y1="620" y2="620"/>
<g cb-classname="DynamicText" cb-source="Fv-ABv-ELQW" class="signal" id="9R" text-anchor="start">
<text cb-classname="GraphicTextEntity" class="signal" fill="black" font-style="normal" font-weight="normal" id="9H" text-anchor="start" text-decoration="normal" x="1574" y="617"/>
</g>
</g>
<g cb-classname="ControlPin" cb-pin-name="Cq-jNj-peC" id="1K7">
<line cb-classname="GraphicLineEntity" class="signalline" id="1Kw" x1="1560" x2="1570" y1="640" y2="640"/>
<g cb-classname="DynamicText" cb-source="Jl-ejy-CV0T" class="signal" id="1KP" text-anchor="start">
<text cb-classname="GraphicTextEntity" class="signal" fill="black" font-style="normal" font-weight="normal" id="1KI" text-anchor="start" text-decoration="normal" x="1574" y="637"/>
</g>
</g>
<g cb-classname="ControlPin" cb-pin-name="FK-jdT-euD" id="1Qw">
<line cb-classname="GraphicLineEntity" class="signalline" id="1QP" x1="1560" x2="1570" y1="670" y2="670"/>
<g cb-classname="DynamicText" cb-source="Cq-OKZ-yeYa" class="signal" id="1QI" text-anchor="start">
<text cb-classname="GraphicTextEntity" class="signal" fill="black" font-style="normal" font-weight="normal" id="1Qe" text-anchor="start" text-decoration="normal" x="1574" y="667"/>
</g>
<g cb-classname="SignalSegment" id="1QL">
<line cb-classname="GraphicLineEntity" class="signalline" id="1QA" stroke="#1e12bf" stroke-dasharray="5,4" x1="1570" x2="2550" y1="670" y2="670"/>
<g cb-classname="SignalSegment" id="1Qx">
<line cb-classname="GraphicLineEntity" class="signalline" id="1QZ" stroke="#1e12bf" stroke-dasharray="5,4" x1="2550" x2="2550" y1="670" y2="810"/>
<g cb-classname="SignalSegment" id="1Rd">
<line cb-classname="GraphicLineEntity" class="signalline" id="1R7" stroke="#1e12bf" stroke-dasharray="5,4" x1="2550" x2="2820" y1="810" y2="810"/>
<g cb-classname="SignalConnection" cb-graphic-line="$121$" cb-input-pin="$8ZC$" id="1Rw"/>
</g>
</g>
</g>
</g>
<g cb-classname="ControlPin" cb-pin-name="rX-Lmp-Odn" id="1RP">
<line cb-classname="GraphicLineEntity" class="signalline" id="1RI" x1="1560" x2="1570" y1="690" y2="690"/>
<g cb-classname="DynamicText" cb-source="FK-3fv-Z1pL" class="signal" id="1Re" text-anchor="start">
<text cb-classname="GraphicTextEntity" class="signal" fill="black" font-style="normal" font-weight="normal" id="1RL" text-anchor="start" text-decoration="normal" x="1574" y="687"/>
</g>
<g cb-classname="SignalSegment" id="1RA">
<line cb-classname="GraphicLineEntity" class="signalline" id="1Rx" stroke="#1e12bf" stroke-dasharray="5,4" x1="1570" x2="2520" y1="690" y2="690"/>
<g cb-classname="SignalSegment" id="1RZ">
<line cb-classname="GraphicLineEntity" class="signalline" id="1Hd" stroke="#1e12bf" stroke-dasharray="5,4" x1="2520" x2="2520" y1="690" y2="850"/>
<g cb-classname="SignalSegment" id="1H7">
<line cb-classname="GraphicLineEntity" class="signalline" id="1Hw" stroke="#1e12bf" stroke-dasharray="5,4" x1="2520" x2="2820" y1="850" y2="850"/>
<g cb-classname="SignalConnection" cb-graphic-line="$132$" cb-input-pin="$Wrq$" id="1HP"/>
</g>
</g>
</g>
</g>
<g cb-classname="ControlPin" cb-pin-name="Xw-AjP-395" id="1HI">
<line cb-classname="GraphicLineEntity" class="signalline" id="1He" x1="1560" x2="1570" y1="710" y2="710"/>
<g cb-classname="DynamicText" cb-source="rX-vLD-vQow" class="signal" id="1HL" text-anchor="start">
<text cb-classname="GraphicTextEntity" class="signal" fill="black" font-style="normal" font-weight="normal" id="1HA" text-anchor="start" text-decoration="normal" x="1574" y="707"/>
</g>
</g>
<g cb-classname="ControlPin" cb-pin-name="FK-jdT-eua" id="1Hx">
<line cb-classname="GraphicLineEntity" class="signalline" id="1HZ" x1="1560" x2="1570" y1="730" y2="730"/>
<g cb-classname="DynamicText" cb-source="Cq-OKZ-yeYa" class="signal" id="1xd" text-anchor="start">
<text cb-classname="GraphicTextEntity" class="signal" fill="black" font-style="normal" font-weight="normal" id="1x7" text-anchor="start" text-decoration="normal" x="1574" y="727"/>
</g>
</g>
<text cb-classname="GraphicTextEntity" class="annotation" fill="#000000" font-family="MS Shell Dlg 2" font-size="8" id="1xw" x="1460" y="660">
KEYBOARD
</text>
<g cb-classname="DynamicText" cb-labeled="false" cb-source="Th-QWU-e88" class="algorithm" id="1xd3" text-anchor="start">
<text cb-classname="GraphicTextEntity" class="algorithm" fill="black" font-style="normal" font-weight="normal" id="1xdP" text-anchor="start" text-decoration="normal" x="1420" y="550"/>
</g>
<g cb-classname="ControlPin" cb-pin-name="x3-6T9-0mS" id="1yLm">
<line cb-classname="GraphicLineEntity" class="signalline" id="1yLW" x1="1560" x2="1570" y1="750" y2="750"/>
<g cb-classname="DynamicText" cb-source="qH-rLM-GkqY" class="signal" id="1yLv" text-anchor="start">
<text cb-classname="GraphicTextEntity" class="signal" fill="black" font-style="normal" font-weight="normal" id="1yLc" text-anchor="start" text-decoration="normal" x="1574" y="747"/>
</g>
<g cb-classname="SignalSegment" id="1yLL">
<line cb-classname="GraphicLineEntity" class="signalline" id="1yLD" stroke="#1e12bf" stroke-dasharray="5,4" x1="1570" x2="2480" y1="750" y2="750"/>
<g cb-classname="SignalSegment" id="1yAi">
<line cb-classname="GraphicLineEntity" class="signalline" id="1yAG" stroke="#1e12bf" stroke-dasharray="5,4" x1="2480" x2="2480" y1="750" y2="890"/>
<g cb-classname="SignalSegment" id="1yA3">
<line cb-classname="GraphicLineEntity" class="signalline" id="1yAm" stroke="#1e12bf" stroke-dasharray="5,4" x1="2480" x2="2830" y1="890" y2="890"/>
<g cb-classname="SignalConnection" cb-graphic-line="$1874$" cb-input-pin="$EHKO$" id="1yAv"/>
</g>
</g>
</g>
</g>
</g>
<g cb-alg-oNzT="NO" cb-alg-olf="01T02G01-P05" cb-algorithm-id="003" cb-classname="ExternalPointInterface" cb-function-name="INPUT" id="1xP">
<ellipse cb-classname="GraphicEllipseEntity" class="algorithm" cx="630" cy="1150" id="1xI" rx="50" ry="50"/>
<rect cb-classname="GraphicRectangleEntity" class="algorithm" height="100" id="1xe" width="40" x="540" y="1100"/>
<line cb-classname="GraphicLineEntity" class="algorithm" id="1xL" x1="540" x2="580" y1="1150" y2="1150"/>
<g cb-classname="ControlPin" cb-pin-name="Xw-AjP-fY0" id="1xA">
<line cb-classname="GraphicLineEntity" class="signalline" id="1xx" x1="680" x2="710" y1="1150" y2="1150"/>
<g cb-classname="DynamicText" cb-source="rX-vLD-vQow" class="signal" id="1xZ" text-anchor="start">
<text cb-classname="GraphicTextEntity" class="signal" fill="black" font-style="normal" font-weight="normal" id="1bd" text-anchor="start" text-decoration="normal" x="694" y="1147"/>
</g>
<g cb-classname="SignalSegment" id="7KP">
<line cb-classname="GraphicLineEntity" class="signalline" id="7KI" stroke="#1e12bf" stroke-dasharray="5,4" x1="710" x2="2660" y1="1150" y2="1150"/>
<g cb-classname="SignalSegment" id="7Ke">
<line cb-classname="GraphicLineEntity" class="signalline" id="7KL" stroke="#1e12bf" stroke-dasharray="5,4" x1="2660" x2="2660" y1="1150" y2="1190"/>
<g cb-classname="SignalSegment" id="7KA">
<line cb-classname="GraphicLineEntity" class="signalline" id="7Kx" stroke="#1e12bf" stroke-dasharray="5,4" x1="2660" x2="2820" y1="1190" y2="1190"/>
<g cb-classname="SignalConnection" cb-graphic-line="$708$" cb-input-pin="$C7s$" id="7KZ"/>
</g>
</g>
</g>
</g>
<g cb-classname="PointStatusIndicator" cb-indicator-type="Highway" cb-source="Th-QWU-MFG" id="1bI" visibility="hidden">
<line cb-classname="GraphicLineEntity" class="algorithmline" id="1be" x1="580" x2="630" y1="1150" y2="1100"/>
<line cb-classname="GraphicLineEntity" class="algorithmline" id="1bL" x1="630" x2="680" y1="1100" y2="1150"/>
<line cb-classname="GraphicLineEntity" class="algorithmline" id="1bA" x1="680" x2="630" y1="1150" y2="1200"/>
<line cb-classname="GraphicLineEntity" class="algorithmline" id="1bx" x1="630" x2="580" y1="1200" y2="1150"/>
</g>
<g cb-classname="PointStatusIndicator" cb-indicator-type="hardware" cb-source="0t-5gg-02C" id="1bZ" visibility="hidden">
<line cb-classname="GraphicLineEntity" class="algorithmline" id="1gd" x1="580" x2="680" y1="1100" y2="1100"/>
<line cb-classname="GraphicLineEntity" class="algorithmline" id="1g7" x1="680" x2="680" y1="1100" y2="1200"/>
<line cb-classname="GraphicLineEntity" class="algorithmline" id="1gw" x1="680" x2="580" y1="1200" y2="1200"/>
</g>
<g cb-classname="PointStatusIndicator" cb-indicator-type="alarm" cb-source="qH-le8-J3E" id="1gP" visibility="hidden">
<text cb-classname="GraphicTextEntity" class="algorithm" fill="#000000" font-family="arial" font-size="20" id="1gI" x="550" y="1135">
A
</text>
</g>
<g cb-classname="PointStatusIndicator" cb-indicator-type="ingraphic" cb-source="AF-tzu-K5K" id="1ge" visibility="hidden">
<text cb-classname="GraphicTextEntity" class="algorithm" fill="#000000" font-family="Arial" font-size="20" id="1gL" x="550" y="1185">
G
</text>
</g>
<g baseline-shift="-50%" cb-anchor-x="530" cb-anchor-y="1164" cb-classname="PointDescription" cb-content="extended" cb-labeled="false" cb-max-width="220" cb-source="Th-QWU-MFG" class="algorithm" id="1gA" text-anchor="end">
<text baseline-shift="-50%" cb-classname="GraphicTextEntity" class="algorithm" id="1gx" text-anchor="end" x="530" y="1152">
DESC: Point not found in
</text>
<text baseline-shift="-50%" cb-classname="GraphicTextEntity" class="algorithm" id="1yID" text-anchor="end" x="530" y="1177">
database (01T02G01-P05)
</text>
</g>
<g cb-classname="DynamicText" cb-labeled="false" cb-pin-name="O72" cb-source="cL-43Z-Sn8" class="algorithm" id="1gZ" text-anchor="start">
<text baseline-shift="0%" cb-classname="GraphicTextEntity" class="algorithm" fill="black" font-family="arial" font-size="20" font-style="normal" font-weight="normal" id="1od" text-anchor="start" text-decoration="normal" x="700" y="1120"/>
</g>
<g baseline-shift="-100%" cb-anchor-x="700" cb-anchor-y="1160" cb-classname="PointReferences" cb-max-width="230" cb-originator="true" cb-source="rF-Qhw-b8X" class="signal" id="1o7" text-anchor="start">
<text baseline-shift="-100%" cb-classname="GraphicTextEntity" class="algorithm" id="1ow" text-anchor="start" x="700" y="1160">
REF: Point not found in
</text>
<text baseline-shift="-100%" cb-classname="GraphicTextEntity" class="algorithm" id="2GL3" text-anchor="start" x="700" y="1185">
database (01T02G01-P05)
</text>
</g>
</g>
<g cb-alg-Bd3="01LS323-NO" cb-alg-ByKj="NO" cb-algorithm-id="005" cb-classname="ExternalPointInterface" cb-function-name="INPUT" id="1GI">
<ellipse cb-classname="GraphicEllipseEntity" class="algorithm" cx="630" cy="1400" id="1Ge" rx="50" ry="50"/>
<rect cb-classname="GraphicRectangleEntity" class="algorithm" height="100" id="1GL" width="40" x="540" y="1350"/>
<line cb-classname="GraphicLineEntity" class="algorithm" id="1GA" x1="540" x2="580" y1="1400" y2="1400"/>
<g cb-classname="ControlPin" cb-pin-name="0t-5gg-02C" id="1Gx">
<line cb-classname="GraphicLineEntity" class="signalline" id="1GZ" x1="680" x2="710" y1="1400" y2="1400"/>
<g cb-classname="DynamicText" cb-source="x3-IH2-MjUR" class="signal" id="2Kd" text-anchor="start">
<text cb-classname="GraphicTextEntity" class="signal" fill="black" font-style="normal" font-weight="normal" id="2K7" text-anchor="start" text-decoration="normal" x="694" y="1397"/>
</g>
<g cb-classname="SignalSegment" id="7QA">
<line cb-classname="GraphicLineEntity" class="signalline" id="7Qx" stroke="#1e12bf" stroke-dasharray="5,4" x1="710" x2="2690" y1="1400" y2="1400"/>
<g cb-classname="SignalSegment" id="7QZ">
<line cb-classname="GraphicLineEntity" class="signalline" id="7Rd" stroke="#1e12bf" stroke-dasharray="5,4" x1="2690" x2="2690" y1="1400" y2="1450"/>
<g cb-classname="SignalSegment" id="7R7">
<line cb-classname="GraphicLineEntity" class="signalline" id="7Rw" stroke="#1e12bf" stroke-dasharray="5,4" x1="2690" x2="2820" y1="1450" y2="1450"/>
<g cb-classname="SignalConnection" cb-graphic-line="$722$" cb-input-pin="$WgU$" id="7RP"/>
</g>
</g>
</g>
</g>
<g cb-classname="PointStatusIndicator" cb-indicator-type="Highway" cb-source="x3-6T9-Bd3" id="2QP" visibility="visible">
<line cb-classname="GraphicLineEntity" class="algorithmline" id="2QI" x1="580" x2="630" y1="1400" y2="1350"/>
<line cb-classname="GraphicLineEntity" class="algorithmline" id="2Qe" x1="630" x2="680" y1="1350" y2="1400"/>
<line cb-classname="GraphicLineEntity" class="algorithmline" id="2QL" x1="680" x2="630" y1="1400" y2="1450"/>
<line cb-classname="GraphicLineEntity" class="algorithmline" id="2QA" x1="630" x2="580" y1="1450" y2="1400"/>
</g>
<g cb-classname="PointStatusIndicator" cb-indicator-type="hardware" cb-source="Cq-jNj-vyd" id="2Qx" visibility="visible">
<line cb-classname="GraphicLineEntity" class="algorithmline" id="2QZ" x1="580" x2="680" y1="1350" y2="1350"/>
<line cb-classname="GraphicLineEntity" class="algorithmline" id="2Rd" x1="680" x2="680" y1="1350" y2="1450"/>
<line cb-classname="GraphicLineEntity" class="algorithmline" id="2R7" x1="680" x2="580" y1="1450" y2="1450"/>
</g>
<g cb-classname="PointStatusIndicator" cb-indicator-type="alarm" cb-source="Fv-d6D-doG" id="2Rw" visibility="visible">
<text cb-classname="GraphicTextEntity" class="algorithm" fill="#000000" font-family="arial" font-size="20" id="2RP" x="550" y="1385">
A
</text>
</g>
<g cb-classname="PointStatusIndicator" cb-indicator-type="ingraphic" cb-source="0t-5gg-02C" id="2RI" visibility="visible">
<text cb-classname="GraphicTextEntity" class="algorithm" fill="#000000" font-family="Arial" font-size="20" id="2Re" x="550" y="1435">
G
</text>
</g>
<g baseline-shift="-50%" cb-anchor-x="530" cb-anchor-y="1414" cb-classname="PointDescription" cb-content="extended" cb-labeled="false" cb-max-width="220" cb-source="x3-6T9-Bd3" class="algorithm" id="2RL" text-anchor="end">
<text baseline-shift="-50%" cb-classname="GraphicTextEntity" class="algorithm" id="2RA" text-anchor="end" x="530" y="1402">
DESC: Point not found in
</text>
<text baseline-shift="-50%" cb-classname="GraphicTextEntity" class="algorithm" id="1yei" text-anchor="end" x="530" y="1427">
database (01LS323-NO)
</text>
</g>
<g cb-classname="DynamicText" cb-labeled="false" cb-pin-name="xse" cb-source="qH-le8-J3E" class="algorithm" id="2Rx" text-anchor="start">
<text baseline-shift="0%" cb-classname="GraphicTextEntity" class="algorithm" fill="black" font-family="arial" font-size="20" font-style="normal" font-weight="normal" id="2RZ" text-anchor="start" text-decoration="normal" x="700" y="1370"/>
</g>
<g baseline-shift="-100%" cb-anchor-x="700" cb-anchor-y="1410" cb-classname="PointReferences" cb-max-width="230" cb-originator="true" cb-source="AF-tzu-K5K" class="signal" id="2Hd" text-anchor="start">
<text baseline-shift="-100%" cb-classname="GraphicTextEntity" class="algorithm" id="2H7" text-anchor="start" x="700" y="1410">
REF: Point not found in
</text>
<text baseline-shift="-100%" cb-classname="GraphicTextEntity" class="algorithm" id="2GLm" text-anchor="start" x="700" y="1435">
database (01LS323-NO)
</text>
</g>
</g>
<g cb-alg-Ctzy="0" cb-alg-afju="69" cb-algorithm-id="006" cb-classname="ControlAlgorithm" cb-function-name="DVALGEN" cb-modify-id="00000001" id="2Hw">
<rect cb-classname="GraphicRectangleEntity" class="algorithm" height="100" id="2HP" width="140" x="1420" y="1450"/>
<text baseline-shift="-50%" cb-classname="GraphicTextEntity" class="algorithm" fill="#000000" font-family="MS Shell Dlg" font-size="18" id="2HI" text-anchor="middle" x="1490" y="1500">
DVALGEN
</text>
<g cb-classname="ControlPin" cb-pin-name="Fv-d6D-doG" id="2He">
<line cb-classname="GraphicLineEntity" class="signalline" id="2HL" x1="1560" x2="1580" y1="1500" y2="1500"/>
<g cb-classname="DynamicText" cb-source="0t-VDE-2jbK" class="signal" id="2HA" text-anchor="start">
<text cb-classname="GraphicTextEntity" class="signal" fill="black" font-style="normal" font-weight="normal" id="2Hx" text-anchor="start" text-decoration="normal" x="1574" y="1497"/>
</g>
<g cb-classname="SignalSegment" id="2HZ">
<line cb-classname="GraphicLineEntity" class="signalline" id="7Qd" stroke="#1e12bf" stroke-dasharray="5,4" x1="1580" x2="2660" y1="1500" y2="1500"/>
<g cb-classname="SignalSegment" id="7Q7">
<line cb-classname="GraphicLineEntity" class="signalline" id="7Qw" stroke="#1e12bf" stroke-dasharray="5,4" x1="2660" x2="2660" y1="1500" y2="1230"/>
<g cb-classname="SignalSegment" id="7QP">
<line cb-classname="GraphicLineEntity" class="signalline" id="7QI" stroke="#1e12bf" stroke-dasharray="5,4" x1="2660" x2="2820" y1="1230" y2="1230"/>
<g cb-classname="SignalConnection" cb-graphic-line="$714$" cb-input-pin="$xxD$" id="7Qe"/>
</g>
<line cb-classname="GraphicLineEntity" class="signalline" id="2xd" stroke="#1e12bf" stroke-dasharray="5,4" x1="2660" x2="2820" y1="1500" y2="1500"/>
<g cb-classname="SignalConnection" cb-graphic-line="$240$" cb-input-pin="$UOs$" id="2x7"/>
<ellipse cb-classname="GraphicEllipseEntity" class="signal" cx="2660" cy="1500" fill="#1e12bf" id="7QL" rx="5" ry="5" stroke="#1e12bf" stroke-dasharray="5,4"/>
<line cb-classname="GraphicLineEntity" class="signalline" id="1HZm" stroke="#1e12bf" stroke-dasharray="5,4" x1="2660" x2="2660" y1="1500" y2="2000"/>
<g cb-classname="SignalSegment" id="1HZW">
<line cb-classname="GraphicLineEntity" class="signalline" id="1HZv" stroke="#1e12bf" stroke-dasharray="5,4" x1="2660" x2="2820" y1="2000" y2="2000"/>
<g cb-classname="SignalConnection" cb-graphic-line="$1396$" cb-input-pin="$KkN$" id="1HZc"/>
</g>
</g>
</g>
</g>
<g cb-classname="DynamicText" cb-labeled="true" cb-source="qH-le8-bkn5" class="algorithm" id="1HZL" text-anchor="start">
<text cb-classname="GraphicTextEntity" class="algorithm" fill="black" font-style="normal" font-weight="normal" id="1HZD" text-anchor="start" text-decoration="normal" x="1440" y="1440"/>
</g>
</g>
<g cb-alg-NLtT="69" cb-alg-Yjdd="1" cb-algorithm-id="007" cb-classname="ControlAlgorithm" cb-function-name="DVALGEN" cb-modify-id="00000001" id="2xI">
<rect cb-classname="GraphicRectangleEntity" class="algorithm" height="100" id="2xe" width="140" x="1420" y="1610"/>
<text baseline-shift="-50%" cb-classname="GraphicTextEntity" class="algorithm" fill="#000000" font-family="MS Shell Dlg" font-size="18" id="2xL" text-anchor="middle" x="1490" y="1660">
DVALGEN
</text>
<g cb-classname="ControlPin" cb-pin-name="cL-43Z-Sn8" id="2xA">
<line cb-classname="GraphicLineEntity" class="signalline" id="2xx" x1="1560" x2="1580" y1="1660" y2="1660"/>
<g cb-classname="DynamicText" cb-source="rF-iZt-alVS" class="signal" id="2xZ" text-anchor="start">
<text cb-classname="GraphicTextEntity" class="signal" fill="black" font-style="normal" font-weight="normal" id="2bd" text-anchor="start" text-decoration="normal" x="1574" y="1657"/>
</g>
<g cb-classname="SignalSegment" id="2b7">
<line cb-classname="GraphicLineEntity" class="signalline" id="2bw" stroke="#1e12bf" stroke-dasharray="5,4" x1="1580" x2="2690" y1="1660" y2="1660"/>
<g cb-classname="SignalSegment" id="2bP">
<line cb-classname="GraphicLineEntity" class="signalline" id="2bI" stroke="#1e12bf" stroke-dasharray="5,4" x1="2690" x2="2690" y1="1660" y2="1710"/>
<g cb-classname="SignalSegment" id="2be">
<line cb-classname="GraphicLineEntity" class="signalline" id="2bL" stroke="#1e12bf" stroke-dasharray="5,4" x1="2690" x2="2820" y1="1710" y2="1710"/>
<g cb-classname="SignalConnection" cb-graphic-line="$256$" cb-input-pin="$1Ho$" id="2bA"/>
</g>
<line cb-classname="GraphicLineEntity" class="signalline" id="2bx" stroke="#1e12bf" stroke-dasharray="5,4" x1="2690" x2="2820" y1="1660" y2="1660"/>
<g cb-classname="SignalConnection" cb-graphic-line="$258$" cb-input-pin="$h1X$" id="2bZ"/>
<ellipse cb-classname="GraphicEllipseEntity" class="signal" cx="2690" cy="1660" fill="#1e12bf" id="2gd" rx="5" ry="5" stroke="#1e12bf" stroke-dasharray="5,4"/>
</g>
</g>
</g>
<g cb-classname="DynamicText" cb-labeled="true" cb-source="AF-tzu-A6TF" class="algorithm" id="1xdi" text-anchor="start">
<text cb-classname="GraphicTextEntity" class="algorithm" fill="black" font-style="normal" font-weight="normal" id="1xdG" text-anchor="start" text-decoration="normal" x="1450" y="1600"/>
</g>
</g>
<g cb-alg-fY0="01T0200D08A-EPO" cb-alg-fsfu="NO" cb-algorithm-id="009" cb-classname="ExternalPointInterface" cb-function-name="INPUT" id="2GA">
<ellipse cb-classname="GraphicEllipseEntity" class="algorithm" cx="630" cy="1960" id="2Gx" rx="50" ry="50"/>
<rect cb-classname="GraphicRectangleEntity" class="algorithm" height="100" id="2GZ" width="40" x="540" y="1910"/>
<line cb-classname="GraphicLineEntity" class="algorithm" id="3Kd" x1="540" x2="580" y1="1960" y2="1960"/>
<g cb-classname="ControlPin" cb-pin-name="rF-Qhw-b8X" id="3K7">
<line cb-classname="GraphicLineEntity" class="signalline" id="3Kw" x1="680" x2="710" y1="1960" y2="1960"/>
<g cb-classname="DynamicText" cb-source="Xw-UXa-DtI6" class="signal" id="3KP" text-anchor="start">
<text cb-classname="GraphicTextEntity" class="signal" fill="black" font-style="normal" font-weight="normal" id="3KI" text-anchor="start" text-decoration="normal" x="694" y="1957"/>
</g>
<g cb-classname="SignalSegment" id="7RA">
<line cb-classname="GraphicLineEntity" class="signalline" id="7Rx" stroke="#1e12bf" stroke-dasharray="5,4" x1="710" x2="2430" y1="1960" y2="1960"/>
<g cb-classname="SignalSegment" id="7RZ">
<line cb-classname="GraphicLineEntity" class="signalline" id="7Hd" stroke="#1e12bf" stroke-dasharray="5,4" x1="2430" x2="2430" y1="1960" y2="2040"/>
<g cb-classname="SignalSegment" id="7H7">
<line cb-classname="GraphicLineEntity" class="signalline" id="7Hw" stroke="#1e12bf" stroke-dasharray="5,4" x1="2430" x2="2830" y1="2040" y2="2040"/>
<g cb-classname="SignalConnection" cb-graphic-line="$732$" cb-input-pin="$ijC$" id="7HP"/>
</g>
</g>
</g>
</g>
<g cb-classname="PointStatusIndicator" cb-indicator-type="Highway" cb-source="cL-43Z-Sn8" id="3Qw" visibility="hidden">
<line cb-classname="GraphicLineEntity" class="algorithmline" id="3QP" x1="580" x2="630" y1="1960" y2="1910"/>
<line cb-classname="GraphicLineEntity" class="algorithmline" id="3QI" x1="630" x2="680" y1="1910" y2="1960"/>
<line cb-classname="GraphicLineEntity" class="algorithmline" id="3Qe" x1="680" x2="630" y1="1960" y2="2010"/>
<line cb-classname="GraphicLineEntity" class="algorithmline" id="3QL" x1="630" x2="580" y1="2010" y2="1960"/>
</g>
<g cb-classname="PointStatusIndicator" cb-indicator-type="hardware" cb-source="x3-6T9-Bd3" id="3QA" visibility="visible">
<line cb-classname="GraphicLineEntity" class="algorithmline" id="3Qx" x1="580" x2="680" y1="1910" y2="1910"/>
<line cb-classname="GraphicLineEntity" class="algorithmline" id="3QZ" x1="680" x2="680" y1="1910" y2="2010"/>
<line cb-classname="GraphicLineEntity" class="algorithmline" id="3Rd" x1="680" x2="580" y1="2010" y2="2010"/>
</g>
<g cb-classname="PointStatusIndicator" cb-indicator-type="alarm" cb-source="AF-tzu-K5K" id="3R7" visibility="hidden">
<text cb-classname="GraphicTextEntity" class="algorithm" fill="#000000" font-family="arial" font-size="20" id="3Rw" x="550" y="1945">
A
</text>
</g>
<g cb-classname="PointStatusIndicator" cb-indicator-type="ingraphic" cb-source="Th-QWU-MFG" id="3RP" visibility="visible">
<text cb-classname="GraphicTextEntity" class="algorithm" fill="#000000" font-family="Arial" font-size="20" id="3RI" x="550" y="1995">
G
</text>
</g>
<g baseline-shift="-50%" cb-anchor-x="530" cb-anchor-y="1974" cb-classname="PointDescription" cb-content="extended" cb-labeled="false" cb-max-width="220" cb-source="cL-43Z-Sn8" class="algorithm" id="3Re" text-anchor="end">
<text baseline-shift="-50%" cb-classname="GraphicTextEntity" class="algorithm" id="3RL" text-anchor="end" x="530" y="1949">
DESC: Point not found in
</text>
<text baseline-shift="-50%" cb-classname="GraphicTextEntity" class="algorithm" id="1yeG" text-anchor="end" x="530" y="1974">
database
</text>
<text baseline-shift="-50%" cb-classname="GraphicTextEntity" class="algorithm" id="2GLv" text-anchor="end" x="530" y="1999">
(01T0200D08A-EPO)
</text>
</g>
<g cb-classname="DynamicText" cb-labeled="false" cb-pin-name="HhE" cb-source="rF-Qhw-b8X" class="algorithm" id="3RA" text-anchor="start">
<text baseline-shift="0%" cb-classname="GraphicTextEntity" class="algorithm" fill="black" font-family="arial" font-size="20" font-style="normal" font-weight="normal" id="3Rx" text-anchor="start" text-decoration="normal" x="700" y="1930"/>
</g>
<g baseline-shift="-100%" cb-anchor-x="700" cb-anchor-y="1970" cb-classname="PointReferences" cb-max-width="230" cb-originator="true" cb-source="Xw-AjP-fY0" class="signal" id="3RZ" text-anchor="start">
<text baseline-shift="-100%" cb-classname="GraphicTextEntity" class="algorithm" id="3Hd" text-anchor="start" x="700" y="1970">
REF: Point not found in
</text>
<text baseline-shift="-100%" cb-classname="GraphicTextEntity" class="algorithm" id="2GLc" text-anchor="start" x="700" y="1995">
database
</text>
<text baseline-shift="-100%" cb-classname="GraphicTextEntity" class="algorithm" id="2GLL" text-anchor="start" x="700" y="2020">
(01T0200D08A-EPO)
</text>
</g>
</g>
<g cb-alg-n9M="01T0200D08A-EPZ" cb-alg-nYXP="NO" cb-algorithm-id="00a" cb-classname="ExternalPointInterface" cb-function-name="INPUT" id="3H7">
<ellipse cb-classname="GraphicEllipseEntity" class="algorithm" cx="630" cy="2080" id="3Hw" rx="50" ry="50"/>
<rect cb-classname="GraphicRectangleEntity" class="algorithm" height="100" id="3HP" width="40" x="540" y="2030"/>
<line cb-classname="GraphicLineEntity" class="algorithm" id="3HI" x1="540" x2="580" y1="2080" y2="2080"/>
<g cb-classname="ControlPin" cb-pin-name="Cq-jNj-vyd" id="3He">
<line cb-classname="GraphicLineEntity" class="signalline" id="3HL" x1="680" x2="710" y1="2080" y2="2080"/>
<g cb-classname="DynamicText" cb-source="Jl-ejy-CV0T" class="signal" id="3HA" text-anchor="start">
<text cb-classname="GraphicTextEntity" class="signal" fill="black" font-style="normal" font-weight="normal" id="3Hx" text-anchor="start" text-decoration="normal" x="694" y="2077"/>
</g>
<g cb-classname="SignalSegment" id="7RI">
<line cb-classname="GraphicLineEntity" class="signalline" id="7Re" stroke="#1e12bf" stroke-dasharray="5,4" x1="710" x2="2810" y1="2080" y2="2080"/>
<g cb-classname="SignalConnection" cb-graphic-line="$725$" cb-input-pin="$eNc$" id="7RL"/>
</g>
</g>
<g cb-classname="PointStatusIndicator" cb-indicator-type="Highway" cb-source="FK-jdT-5et" id="3xL" visibility="hidden">
<line cb-classname="GraphicLineEntity" class="algorithmline" id="3xA" x1="580" x2="630" y1="2080" y2="2030"/>
<line cb-classname="GraphicLineEntity" class="algorithmline" id="3xx" x1="630" x2="680" y1="2030" y2="2080"/>
<line cb-classname="GraphicLineEntity" class="algorithmline" id="3xZ" x1="680" x2="630" y1="2080" y2="2130"/>
<line cb-classname="GraphicLineEntity" class="algorithmline" id="3bd" x1="630" x2="580" y1="2130" y2="2080"/>
</g>
<g cb-classname="PointStatusIndicator" cb-indicator-type="hardware" cb-source="cL-43Z-Sn8" id="3b7" visibility="visible">
<line cb-classname="GraphicLineEntity" class="algorithmline" id="3bw" x1="580" x2="680" y1="2030" y2="2030"/>
<line cb-classname="GraphicLineEntity" class="algorithmline" id="3bP" x1="680" x2="680" y1="2030" y2="2130"/>
<line cb-classname="GraphicLineEntity" class="algorithmline" id="3bI" x1="680" x2="580" y1="2130" y2="2130"/>
</g>
<g cb-classname="PointStatusIndicator" cb-indicator-type="alarm" cb-source="Xw-AjP-fY0" id="3be" visibility="hidden">
<text cb-classname="GraphicTextEntity" class="algorithm" fill="#000000" font-family="arial" font-size="20" id="3bL" x="550" y="2065">
A
</text>
</g>
<g cb-classname="PointStatusIndicator" cb-indicator-type="ingraphic" cb-source="rX-Lmp-Ly2" id="3bA" visibility="visible">
<text cb-classname="GraphicTextEntity" class="algorithm" fill="#000000" font-family="Arial" font-size="20" id="3bx" x="550" y="2115">
G
</text>
</g>
<g baseline-shift="-50%" cb-anchor-x="530" cb-anchor-y="2094" cb-classname="PointDescription" cb-content="extended" cb-labeled="false" cb-max-width="220" cb-source="FK-jdT-5et" class="algorithm" id="3bZ" text-anchor="end">
<text baseline-shift="-50%" cb-classname="GraphicTextEntity" class="algorithm" id="3gd" text-anchor="end" x="530" y="2069">
DESC: Point not found in
</text>
<text baseline-shift="-50%" cb-classname="GraphicTextEntity" class="algorithm" id="1ye3" text-anchor="end" x="530" y="2094">
database
</text>
<text baseline-shift="-50%" cb-classname="GraphicTextEntity" class="algorithm" id="1yeP" text-anchor="end" x="530" y="2119">
(01T0200D08A-EPZ)
</text>
</g>
<g cb-classname="DynamicText" cb-labeled="false" cb-pin-name="KHj" cb-source="Cq-jNj-vyd" class="algorithm" id="3g7" text-anchor="start">
<text baseline-shift="0%" cb-classname="GraphicTextEntity" class="algorithm" fill="black" font-family="arial" font-size="20" font-style="normal" font-weight="normal" id="3gw" text-anchor="start" text-decoration="normal" x="700" y="2050"/>
</g>
<g baseline-shift="-100%" cb-anchor-x="700" cb-anchor-y="2090" cb-classname="PointReferences" cb-max-width="230" cb-originator="true" cb-source="Jl-knc-OMZ" class="signal" id="3gP" text-anchor="start">
<text baseline-shift="-100%" cb-classname="GraphicTextEntity" class="algorithm" id="3gI" text-anchor="start" x="700" y="2090">
REF: Point not found in
</text>
<text baseline-shift="-100%" cb-classname="GraphicTextEntity" class="algorithm" id="2GLD" text-anchor="start" x="700" y="2115">
database
</text>
<text baseline-shift="-100%" cb-classname="GraphicTextEntity" class="algorithm" id="2GAi" text-anchor="start" x="700" y="2140">
(01T0200D08A-EPZ)
</text>
</g>
</g>
<g cb-alg-Bz4Y="65" cb-alg-fUw5="60" cb-algorithm-id="00b" cb-classname="ControlAlgorithm" cb-function-name="AVALGEN" cb-modify-id="00000001" id="3ge">
<polygon cb-classname="GraphicPolygonEntity" class="algorithm" id="3gL" points="1420,2160 1360,2220 1420,2280 1480,2220"/>
<line cb-classname="GraphicLineEntity" class="algorithm" id="3gA" x1="1420" x2="1410" y1="2200" y2="2230"/>
<line cb-classname="GraphicLineEntity" class="algorithm" id="3gx" x1="1420" x2="1430" y1="2200" y2="2230"/>
<line cb-classname="GraphicLineEntity" class="algorithm" id="3gZ" x1="1414" x2="1426" y1="2220" y2="2220"/>
<g cb-classname="ControlPin" cb-pin-name="rX-Lmp-Ly2" id="3od">
<line cb-classname="GraphicLineEntity" class="signalline" id="3o7" x1="1420" x2="1420" y1="2280" y2="2300"/>
<g cb-classname="DynamicText" cb-source="FK-3fv-Z1pL" class="signal" id="3ow" text-anchor="end">
<text cb-classname="GraphicTextEntity" class="signal" fill="black" font-style="normal" font-weight="normal" id="3oP" text-anchor="end" text-decoration="normal" transform="translate(1417,2294)rotate(-90)"/>
</g>
<g cb-classname="SignalSegment" id="1gPP">
<line cb-classname="GraphicLineEntity" class="signalline" id="1gPm" x1="1420" x2="1420" y1="2300" y2="2430"/>
<g cb-classname="SignalSegment" id="1gPW">
<line cb-classname="GraphicLineEntity" class="signalline" id="1gPv" x1="1420" x2="2830" y1="2430" y2="2430"/>
<g cb-classname="SignalConnection" cb-graphic-line="$1636$" cb-input-pin="$6lnF$" id="1gPc"/>
</g>
</g>
</g>
<g cb-classname="DynamicText" cb-labeled="true" cb-source="rF-Qhw-IleY" class="algorithm" id="3oZ" text-anchor="start">
<text cb-classname="GraphicTextEntity" class="algorithm" fill="black" font-family="arial" font-size="20" font-style="normal" font-weight="normal" id="3yd" text-anchor="start" text-decoration="normal" x="1280" y="2280"/>
</g>
</g>
<g cb-alg-FQh9="60" cb-alg-PB5w="65" cb-algorithm-id="00c" cb-classname="ControlAlgorithm" cb-function-name="AVALGEN" cb-modify-id="00000001" id="3y7">
<polygon cb-classname="GraphicPolygonEntity" class="algorithm" id="3yw" points="1590,2160 1530,2220 1590,2280 1650,2220"/>
<line cb-classname="GraphicLineEntity" class="algorithm" id="3yP" x1="1590" x2="1580" y1="2200" y2="2230"/>
<line cb-classname="GraphicLineEntity" class="algorithm" id="3yI" x1="1590" x2="1600" y1="2200" y2="2230"/>
<line cb-classname="GraphicLineEntity" class="algorithm" id="3ye" x1="1584" x2="1596" y1="2220" y2="2220"/>
<g cb-classname="ControlPin" cb-pin-name="AF-tzu-K5K" id="3yL">
<line cb-classname="GraphicLineEntity" class="signalline" id="3yA" x1="1590" x2="1590" y1="2280" y2="2300"/>
<g cb-classname="DynamicText" cb-source="Th-ish-qIsQ" class="signal" id="3yx" text-anchor="end">
<text cb-classname="GraphicTextEntity" class="signal" fill="black" font-style="normal" font-weight="normal" id="3yZ" text-anchor="end" text-decoration="normal" transform="translate(1587,2294)rotate(-90)"/>
</g>
<g cb-classname="SignalSegment" id="1gwL">
<line cb-classname="GraphicLineEntity" class="signalline" id="1gwD" x1="1590" x2="1590" y1="2300" y2="2400"/>
<g cb-classname="SignalSegment" id="1gPi">
<line cb-classname="GraphicLineEntity" class="signalline" id="1gPG" x1="1590" x2="2830" y1="2400" y2="2400"/>
<g cb-classname="SignalConnection" cb-graphic-line="$1631$" cb-input-pin="$kQZx$" id="1gP3"/>
</g>
</g>
</g>
<g cb-classname="DynamicText" cb-labeled="true" cb-source="x3-6T9-qjN3" class="algorithm" id="3Ge" text-anchor="start">
<text cb-classname="GraphicTextEntity" class="algorithm" fill="black" font-family="arial" font-size="20" font-style="normal" font-weight="normal" id="3GL" text-anchor="start" text-decoration="normal" x="1610" y="2290"/>
</g>
</g>
<g cb-alg-SPH9="NO" cb-alg-Sn8="01T02G01-P02" cb-algorithm-id="011" cb-classname="ExternalPointInterface" cb-function-name="INPUT" id="3GA">
<ellipse cb-classname="GraphicEllipseEntity" class="algorithm" cx="630" cy="1280" id="3Gx" rx="50" ry="50"/>
<rect cb-classname="GraphicRectangleEntity" class="algorithm" height="100" id="3GZ" width="40" x="540" y="1230"/>
<line cb-classname="GraphicLineEntity" class="algorithm" id="4Kd" x1="540" x2="580" y1="1280" y2="1280"/>
<g cb-classname="ControlPin" cb-pin-name="Th-QWU-MFG" id="4K7">
<line cb-classname="GraphicLineEntity" class="signalline" id="4Kw" x1="680" x2="710" y1="1280" y2="1280"/>
<g cb-classname="DynamicText" cb-source="cL-5TN-t6ph" class="signal" id="4KP" text-anchor="start">
<text cb-classname="GraphicTextEntity" class="signal" fill="black" font-style="normal" font-weight="normal" id="4KI" text-anchor="start" text-decoration="normal" x="694" y="1277"/>
</g>
<g cb-classname="SignalSegment" id="7Kd">
<line cb-classname="GraphicLineEntity" class="signalline" id="7K7" stroke="#1e12bf" stroke-dasharray="5,4" x1="710" x2="2820" y1="1280" y2="1280"/>
<g cb-classname="SignalConnection" cb-graphic-line="$701$" cb-input-pin="$xZm$" id="7Kw"/>
</g>
</g>
<g cb-classname="PointStatusIndicator" cb-indicator-type="Highway" cb-source="AF-tzu-K5K" id="4Qw" visibility="hidden">
<line cb-classname="GraphicLineEntity" class="algorithmline" id="4QP" x1="580" x2="630" y1="1280" y2="1230"/>
<line cb-classname="GraphicLineEntity" class="algorithmline" id="4QI" x1="630" x2="680" y1="1230" y2="1280"/>
<line cb-classname="GraphicLineEntity" class="algorithmline" id="4Qe" x1="680" x2="630" y1="1280" y2="1330"/>
<line cb-classname="GraphicLineEntity" class="algorithmline" id="4QL" x1="630" x2="580" y1="1330" y2="1280"/>
</g>
<g cb-classname="PointStatusIndicator" cb-indicator-type="hardware" cb-source="Fv-d6D-doG" id="4QA" visibility="hidden">
<line cb-classname="GraphicLineEntity" class="algorithmline" id="4Qx" x1="580" x2="680" y1="1230" y2="1230"/>
<line cb-classname="GraphicLineEntity" class="algorithmline" id="4QZ" x1="680" x2="680" y1="1230" y2="1330"/>
<line cb-classname="GraphicLineEntity" class="algorithmline" id="4Rd" x1="680" x2="580" y1="1330" y2="1330"/>
</g>
<g cb-classname="PointStatusIndicator" cb-indicator-type="alarm" cb-source="x3-6T9-Bd3" id="4R7" visibility="hidden">
<text cb-classname="GraphicTextEntity" class="algorithm" fill="#000000" font-family="arial" font-size="20" id="4Rw" x="550" y="1265">
A
</text>
</g>
<g cb-classname="PointStatusIndicator" cb-indicator-type="ingraphic" cb-source="qH-le8-J3E" id="4RP" visibility="hidden">
<text cb-classname="GraphicTextEntity" class="algorithm" fill="#000000" font-family="Arial" font-size="20" id="4RI" x="550" y="1315">
G
</text>
</g>
<g baseline-shift="-50%" cb-anchor-x="530" cb-anchor-y="1294" cb-classname="PointDescription" cb-content="extended" cb-labeled="false" cb-max-width="220" cb-source="AF-tzu-K5K" class="algorithm" id="4Re" text-anchor="end">
<text baseline-shift="-50%" cb-classname="GraphicTextEntity" class="algorithm" id="4RL" text-anchor="end" x="530" y="1282">
DESC: Point not found in
</text>
<text baseline-shift="-50%" cb-classname="GraphicTextEntity" class="algorithm" id="1yem" text-anchor="end" x="530" y="1307">
database (01T02G01-P02)
</text>
</g>
<g cb-classname="DynamicText" cb-labeled="false" cb-pin-name="RQQ" cb-source="Th-QWU-MFG" class="algorithm" id="4RA" text-anchor="start">
<text baseline-shift="0%" cb-classname="GraphicTextEntity" class="algorithm" fill="black" font-family="arial" font-size="20" font-style="normal" font-weight="normal" id="4Rx" text-anchor="start" text-decoration="normal" x="700" y="1250"/>
</g>
<g baseline-shift="-100%" cb-anchor-x="700" cb-anchor-y="1290" cb-classname="PointReferences" cb-max-width="230" cb-originator="true" cb-source="cL-43Z-Sn8" class="signal" id="4RZ" text-anchor="start">
<text baseline-shift="-100%" cb-classname="GraphicTextEntity" class="algorithm" id="4Hd" text-anchor="start" x="700" y="1290">
REF: Point not found in
</text>
<text baseline-shift="-100%" cb-classname="GraphicTextEntity" class="algorithm" id="2GA3" text-anchor="start" x="700" y="1315">
database (01T02G01-P02)
</text>
</g>
</g>
<g cb-alg-oNzT="NO" cb-alg-olf="01T02G01-LLK" cb-algorithm-id="004" cb-classname="ExternalPointInterface" cb-function-name="INPUT" id="2Kd3">
<ellipse cb-classname="GraphicEllipseEntity" class="algorithm" cx="630" cy="930" id="2KdP" rx="50" ry="50"/>
<rect cb-classname="GraphicRectangleEntity" class="algorithm" height="100" id="2Kdm" width="40" x="540" y="880"/>
<line cb-classname="GraphicLineEntity" class="algorithm" id="2KdW" x1="540" x2="580" y1="930" y2="930"/>
<g cb-classname="ControlPin" cb-pin-name="Xw-AjP-fY0" id="2Kdv">
<line cb-classname="GraphicLineEntity" class="signalline" id="2Kdc" x1="680" x2="710" y1="930" y2="930"/>
<g cb-classname="DynamicText" cb-source="rX-vLD-vQow" class="signal" id="2KdL" text-anchor="start">
<text cb-classname="GraphicTextEntity" class="signal" fill="black" font-style="normal" font-weight="normal" id="2KdD" text-anchor="start" text-decoration="normal" x="694" y="927"/>
</g>
<g cb-classname="SignalSegment" id="2KIP">
<line cb-classname="GraphicLineEntity" class="signalline" id="2KIL" stroke="#1e12bf" stroke-dasharray="5,4" x1="710" x2="2480" y1="930" y2="930"/>
<g cb-classname="SignalSegment" id="2KID">
<line cb-classname="GraphicLineEntity" class="signalline" id="2Kei" stroke="#1e12bf" stroke-dasharray="5,4" x1="2480" x2="2480" y1="930" y2="970"/>
<g cb-classname="SignalSegment" id="2KeG">
<line cb-classname="GraphicLineEntity" class="signalline" id="2Ke3" stroke="#1e12bf" stroke-dasharray="5,4" x1="2480" x2="2820" y1="970" y2="970"/>
<g cb-classname="SignalConnection" cb-graphic-line="$2052$" cb-input-pin="$olX$" id="2KeP"/>
</g>
<line cb-classname="GraphicLineEntity" class="signalline" id="2KIv" stroke="#1e12bf" stroke-dasharray="5,4" x1="2480" x2="2550" y1="930" y2="930"/>
<g cb-classname="SignalConnection" cb-graphic-line="$2046$" cb-input-pin="$jcGZ$" id="2KIc"/>
<ellipse cb-classname="GraphicEllipseEntity" class="signal" cx="2480" cy="930" fill="#1e12bf" id="2Kem" rx="5" ry="5" stroke="#1e12bf" stroke-dasharray="5,4"/>
</g>
</g>
</g>
<g cb-classname="PointStatusIndicator" cb-indicator-type="Highway" cb-source="FK-jdT-5et" id="2K7i" visibility="hidden">
<line cb-classname="GraphicLineEntity" class="algorithmline" id="2K7G" x1="580" x2="630" y1="930" y2="880"/>
<line cb-classname="GraphicLineEntity" class="algorithmline" id="2K73" x1="630" x2="680" y1="880" y2="930"/>
<line cb-classname="GraphicLineEntity" class="algorithmline" id="2K7P" x1="680" x2="630" y1="930" y2="980"/>
<line cb-classname="GraphicLineEntity" class="algorithmline" id="2K7m" x1="630" x2="580" y1="980" y2="930"/>
</g>
<g cb-classname="PointStatusIndicator" cb-indicator-type="hardware" cb-source="cL-43Z-Sn8" id="2K7W" visibility="hidden">
<line cb-classname="GraphicLineEntity" class="algorithmline" id="2K7v" x1="580" x2="680" y1="880" y2="880"/>
<line cb-classname="GraphicLineEntity" class="algorithmline" id="2K7c" x1="680" x2="680" y1="880" y2="980"/>
<line cb-classname="GraphicLineEntity" class="algorithmline" id="2K7L" x1="680" x2="580" y1="980" y2="980"/>
</g>
<g cb-classname="PointStatusIndicator" cb-indicator-type="alarm" cb-source="Xw-AjP-fY0" id="2K7D" visibility="hidden">
<text cb-classname="GraphicTextEntity" class="algorithm" fill="#000000" font-family="arial" font-size="20" id="2Kwi" x="550" y="915">
A
</text>
</g>
<g cb-classname="PointStatusIndicator" cb-indicator-type="ingraphic" cb-source="rX-Lmp-Ly2" id="2KwG" visibility="visible">
<text cb-classname="GraphicTextEntity" class="algorithm" fill="#000000" font-family="Arial" font-size="20" id="2Kw3" x="550" y="965">
G
</text>
</g>
<g baseline-shift="-50%" cb-anchor-x="530" cb-anchor-y="944" cb-classname="PointDescription" cb-content="extended" cb-labeled="false" cb-max-width="220" cb-source="FK-jdT-5et" class="algorithm" id="2KwP" text-anchor="end">
<text baseline-shift="-50%" cb-classname="GraphicTextEntity" class="algorithm" id="2Kwm" text-anchor="end" x="530" y="932">
DESC: Point not found in
</text>
<text baseline-shift="-50%" cb-classname="GraphicTextEntity" class="algorithm" id="2GAm" text-anchor="end" x="530" y="957">
database (01T02G01-LLK)
</text>
</g>
<g cb-classname="DynamicText" cb-labeled="false" cb-pin-name="KHj" cb-source="Cq-jNj-vyd" class="algorithm" id="2KwW" text-anchor="start">
<text baseline-shift="0%" cb-classname="GraphicTextEntity" class="algorithm" fill="black" font-family="arial" font-size="20" font-style="normal" font-weight="normal" id="2Kwv" text-anchor="start" text-decoration="normal" x="700" y="900"/>
</g>
<g baseline-shift="-100%" cb-anchor-x="700" cb-anchor-y="940" cb-classname="PointReferences" cb-max-width="230" cb-originator="true" cb-source="Jl-knc-OMZ" class="signal" id="2Kwc" text-anchor="start">
<text baseline-shift="-100%" cb-classname="GraphicTextEntity" class="algorithm" id="2KwL" text-anchor="start" x="700" y="940">
REF: Point not found in
</text>
<text baseline-shift="-100%" cb-classname="GraphicTextEntity" class="algorithm" id="2GAv" text-anchor="start" x="700" y="965">
database (01T02G01-LLK)
</text>
</g>
</g>
<g cb-alg-iMG="$2002$cb-alg-out$" cb-algorithm-id="008" cb-classname="FastBooleanAlgorithm" cb-function-name="NOT" cb-modify-id="00000002" id="2KwD">
<rect cb-classname="GraphicRectangleEntity" class="algorithm" height="40" id="2KPi" width="40" x="2570" y="910"/>
<g cb-classname="ControlPin" cb-pin-name="0t-5gg-LDH" id="2KPG">
<line cb-classname="GraphicLineEntity" class="signalline" id="2KP3" x1="2550" x2="2570" y1="930" y2="930"/>
<polygon cb-classname="GraphicPolygonEntity" class="signal" id="2KPP" points="2570,930 2559,924 2559,935"/>
<g cb-classname="DynamicText" cb-source="rX-vLD-vQow" class="signal" id="2KPm" text-anchor="end">
<text cb-classname="GraphicTextEntity" class="signal" fill="black" font-style="normal" font-weight="normal" id="2KPW" text-anchor="end" text-decoration="normal" x="2555" y="927"/>
</g>
</g>
<g cb-classname="ControlPin" cb-pin-name="FK-jdT-5et" id="2KPv">
<line cb-classname="GraphicLineEntity" class="signalline" id="2KPc" x1="2610" x2="2630" y1="930" y2="930"/>
<g cb-classname="DynamicText" cb-source="Cq-OKZ-yeYa" class="signal" id="2KPL" text-anchor="start">
<text cb-classname="GraphicTextEntity" class="signal" fill="black" font-style="normal" font-weight="normal" id="2KPD" text-anchor="start" text-decoration="normal" x="2624" y="927"/>
</g>
<g cb-classname="SignalSegment" id="2KeW">
<g cb-classname="SignalConnection" cb-graphic-line="$2058$" cb-input-pin="$83C$" id="2KeD"/>
<line cb-classname="GraphicLineEntity" class="signalline" id="2KeL" stroke="#1e12bf" stroke-dasharray="5,4" x1="2630" x2="2820" y1="930" y2="930"/>
</g>
</g>
<line cb-classname="GraphicLineEntity" class="algorithm" id="2KIi" x1="2580" x2="2580" y1="920" y2="940"/>
<line cb-classname="GraphicLineEntity" class="algorithm" id="2KIG" x1="2580" x2="2600" y1="920" y2="940"/>
<line cb-classname="GraphicLineEntity" class="algorithm" id="2KI3" x1="2600" x2="2600" y1="940" y2="920"/>
</g>
<g cb-alg-03CIY="$381$cb-alg-out$" cb-alg-1TB="$194$cb-alg-out$" cb-alg-1TK="$232$cb-alg-out$" cb-alg-4Xm="01T0200D08A-STS" cb-alg-CeCIY="$365$cb-alg-out$" cb-alg-Gv="01T0200D08A-TR" cb-alg-RDt="$2002$cb-alg-out$" cb-alg-Re9="$66$cb-alg-pk1$" cb-alg-Res="$66$cb-alg-pk2$" cb-alg-Rf="$66$cb-alg-open$" cb-alg-Rj="$2029$cb-alg-out$" cb-alg-Rj9="$66$cb-alg-pk5$" cb-alg-Ry="$66$cb-alg-clos$" cb-alg-h3B="$297$cb-alg-out$" cb-alg-h3K="$331$cb-alg-out$" cb-alg-hph="$232$cb-alg-out$" cb-alg-le9="$232$cb-alg-out$" cb-alg-leb="01T0200D08A-ALM" cb-alg-lf="$143$cb-alg-out$" cb-alg-ly="$397$cb-alg-out$" cb-alg-mq="01T0200D08A-LB" cb-alg-rTB="$244$cb-alg-out$" cb-alg-rTK="$244$cb-alg-out$" cb-algorithm-id="001" cb-classname="ControlMacroReference" cb-function-name="PCMS1" cb-macro-crc="30660" cb-modify-id="00000001" id="4bw">
<rect cb-classname="GraphicRectangleEntity" class="annotation" height="1850" id="4bP" width="750" x="2850" y="620"/>
<g cb-classname="ControlPin" cb-pin-name="Jl-knc-e1" id="4bI">
<line cb-classname="GraphicLineEntity" class="signalline" id="4be" x1="2820" x2="2850" y1="650" y2="650"/>
<polygon cb-classname="GraphicPolygonEntity" class="signal" id="4bL" points="2850,650 2839,644 2839,655"/>
<g cb-classname="DynamicText" cb-source="rF-iZt-alVS" class="signal" id="4bA" text-anchor="end">
<text cb-classname="GraphicTextEntity" class="signal" fill="black" font-style="normal" font-weight="normal" id="4bx" text-anchor="end" text-decoration="normal" x="2835" y="647"/>
</g>
</g>
<g cb-classname="ControlPin" cb-pin-name="Xw-AjP-NK" id="4bZ">
<line cb-classname="GraphicLineEntity" class="signalline" id="4gd" x1="2820" x2="2850" y1="690" y2="690"/>
<polygon cb-classname="GraphicPolygonEntity" class="signal" id="4g7" points="2850,690 2839,684 2839,695"/>
<g cb-classname="DynamicText" cb-source="qH-rLM-GkqY" class="signal" id="4gw" text-anchor="end">
<text cb-classname="GraphicTextEntity" class="signal" fill="black" font-style="normal" font-weight="normal" id="4gP" text-anchor="end" text-decoration="normal" x="2835" y="687"/>
</g>
</g>
<g cb-classname="ControlPin" cb-pin-name="AF-tzu-c6" id="4gI">
<line cb-classname="GraphicLineEntity" class="signalline" id="4ge" x1="2820" x2="2850" y1="930" y2="930"/>
<polygon cb-classname="GraphicPolygonEntity" class="signal" id="4gL" points="2850,930 2839,924 2839,935"/>
<g cb-classname="DynamicText" cb-source="Jl-ejy-CV0T" class="signal" id="4gA" text-anchor="end">
<text cb-classname="GraphicTextEntity" class="signal" fill="black" font-style="normal" font-weight="normal" id="4gx" text-anchor="end" text-decoration="normal" x="2835" y="927"/>
</g>
</g>
<g cb-classname="ControlPin" cb-pin-name="Fv-d6D-Val" id="4gZ">
<line cb-classname="GraphicLineEntity" class="signalline" id="4od" x1="2820" x2="2850" y1="970" y2="970"/>
<polygon cb-classname="GraphicPolygonEntity" class="signal" id="4o7" points="2850,970 2839,964 2839,975"/>
<g cb-classname="DynamicText" cb-source="Xw-UXa-DtI6" class="signal" id="4ow" text-anchor="end">
<text cb-classname="GraphicTextEntity" class="signal" fill="black" font-style="normal" font-weight="normal" id="4oP" text-anchor="end" text-decoration="normal" x="2835" y="967"/>
</g>
</g>
<g cb-classname="ControlPin" cb-pin-name="rX-Lmp-SNy" id="4oI">
<line cb-classname="GraphicLineEntity" class="signalline" id="4oe" x1="2820" x2="2850" y1="810" y2="810"/>
<polygon cb-classname="GraphicPolygonEntity" class="signal" id="4oL" points="2850,810 2839,804 2839,815"/>
<g cb-classname="DynamicText" cb-source="AF-0fG-h6bm" class="signal" id="4oA" text-anchor="end">
<text cb-classname="GraphicTextEntity" class="signal" fill="black" font-style="normal" font-weight="normal" id="4ox" text-anchor="end" text-decoration="normal" x="2835" y="807"/>
</g>
</g>
<g cb-classname="ControlPin" cb-pin-name="Th-QWU-W8g" id="4oZ">
<line cb-classname="GraphicLineEntity" class="signalline" id="4yd" x1="2820" x2="2850" y1="850" y2="850"/>
<polygon cb-classname="GraphicPolygonEntity" class="signal" id="4y7" points="2850,850 2839,844 2839,855"/>
<g cb-classname="DynamicText" cb-source="Fv-ABv-ELQW" class="signal" id="4yw" text-anchor="end">
<text cb-classname="GraphicTextEntity" class="signal" fill="black" font-style="normal" font-weight="normal" id="4yP" text-anchor="end" text-decoration="normal" x="2835" y="847"/>
</g>
</g>
<g cb-classname="ControlPin" cb-pin-name="0t-5gg-lf" id="4yI">
<line cb-classname="GraphicLineEntity" class="signalline" id="4ye" x1="2820" x2="2850" y1="1190" y2="1190"/>
<polygon cb-classname="GraphicPolygonEntity" class="signal" id="4yL" points="2850,1190 2839,1184 2839,1195"/>
<g cb-classname="DynamicText" cb-source="rX-vLD-vQow" class="signal" id="4yA" text-anchor="end">
<text cb-classname="GraphicTextEntity" class="signal" fill="black" font-style="normal" font-weight="normal" id="4yx" text-anchor="end" text-decoration="normal" x="2835" y="1187"/>
</g>
</g>
<g cb-classname="ControlPin" cb-pin-name="FK-jdT-kn3" id="4yZ">
<line cb-classname="GraphicLineEntity" class="signalline" id="4Gd" x1="2820" x2="2850" y1="1230" y2="1230"/>
<polygon cb-classname="GraphicPolygonEntity" class="signal" id="4G7" points="2850,1230 2839,1224 2839,1235"/>
<g cb-classname="DynamicText" cb-source="Th-ish-qIsQ" class="signal" id="4Gw" text-anchor="end">
<text cb-classname="GraphicTextEntity" class="signal" fill="black" font-style="normal" font-weight="normal" id="4GP" text-anchor="end" text-decoration="normal" x="2835" y="1227"/>
</g>
</g>
<g cb-classname="ControlPin" cb-pin-name="cL-43Z-Ao" id="4GI">
<line cb-classname="GraphicLineEntity" class="signalline" id="4Ge" x1="2820" x2="2850" y1="1280" y2="1280"/>
<polygon cb-classname="GraphicPolygonEntity" class="signal" id="4GL" points="2850,1280 2839,1274 2839,1285"/>
<g cb-classname="DynamicText" cb-source="0t-VDE-2jbK" class="signal" id="4GA" text-anchor="end">
<text cb-classname="GraphicTextEntity" class="signal" fill="black" font-style="normal" font-weight="normal" id="4Gx" text-anchor="end" text-decoration="normal" x="2835" y="1277"/>
</g>
</g>
<g cb-classname="ControlPin" cb-pin-name="x3-6T9-sAJ" id="4GZ">
<line cb-classname="GraphicLineEntity" class="signalline" id="5Kd" x1="2820" x2="2850" y1="1450" y2="1450"/>
<polygon cb-classname="GraphicPolygonEntity" class="signal" id="5K7" points="2850,1450 2839,1444 2839,1455"/>
<g cb-classname="DynamicText" cb-source="FK-3fv-Z1pL" class="signal" id="5Kw" text-anchor="end">
<text cb-classname="GraphicTextEntity" class="signal" fill="black" font-style="normal" font-weight="normal" id="5KP" text-anchor="end" text-decoration="normal" x="2835" y="1447"/>
</g>
</g>
<g cb-classname="ControlPin" cb-pin-name="Cq-jNj-lsx" id="5KI">
<line cb-classname="GraphicLineEntity" class="signalline" id="5Ke" x1="2820" x2="2850" y1="1500" y2="1500"/>
<polygon cb-classname="GraphicPolygonEntity" class="signal" id="5KL" points="2850,1500 2839,1494 2839,1505"/>
<g cb-classname="DynamicText" cb-source="cL-5TN-t6ph" class="signal" id="5KA" text-anchor="end">
<text cb-classname="GraphicTextEntity" class="signal" fill="black" font-style="normal" font-weight="normal" id="5Kx" text-anchor="end" text-decoration="normal" x="2835" y="1497"/>
</g>
</g>
<g cb-classname="ControlPin" cb-pin-name="rF-Qhw-vCf" id="5KZ">
<line cb-classname="GraphicLineEntity" class="signalline" id="5Qd" x1="2820" x2="2850" y1="1660" y2="1660"/>
<polygon cb-classname="GraphicPolygonEntity" class="signal" id="5Q7" points="2850,1660 2839,1654 2839,1665"/>
<g cb-classname="DynamicText" cb-source="x3-IH2-MjUR" class="signal" id="5Qw" text-anchor="end">
<text cb-classname="GraphicTextEntity" class="signal" fill="black" font-style="normal" font-weight="normal" id="5QP" text-anchor="end" text-decoration="normal" x="2835" y="1657"/>
</g>
</g>
<g cb-classname="ControlPin" cb-pin-name="qH-le8-iPr" id="5QI">
<line cb-classname="GraphicLineEntity" class="signalline" id="5Qe" x1="2820" x2="2850" y1="1710" y2="1710"/>
<polygon cb-classname="GraphicPolygonEntity" class="signal" id="5QL" points="2850,1710 2839,1704 2839,1715"/>
<g cb-classname="DynamicText" cb-source="Cq-OKZ-yeYa" class="signal" id="5QA" text-anchor="end">
<text cb-classname="GraphicTextEntity" class="signal" fill="black" font-style="normal" font-weight="normal" id="5Qx" text-anchor="end" text-decoration="normal" x="2835" y="1707"/>
</g>
</g>
<g cb-classname="ControlPin" cb-pin-name="Jl-knc-m8p" id="5QZ">
<line cb-classname="GraphicLineEntity" class="signalline" id="5Rd" x1="2820" x2="2850" y1="2000" y2="2000"/>
<polygon cb-classname="GraphicPolygonEntity" class="signal" id="5R7" points="2850,2000 2839,1994 2839,2005"/>
<g cb-classname="DynamicText" cb-source="rF-iZt-alVS" class="signal" id="5Rw" text-anchor="end">
<text cb-classname="GraphicTextEntity" class="signal" fill="black" font-style="normal" font-weight="normal" id="5RP" text-anchor="end" text-decoration="normal" x="2835" y="1997"/>
</g>
</g>
<g cb-classname="ControlPin" cb-pin-name="Xw-AjP-W0L" id="5RI">
<line cb-classname="GraphicLineEntity" class="signalline" id="5Re" x1="2830" x2="2850" y1="2040" y2="2040"/>
<polygon cb-classname="GraphicPolygonEntity" class="signal" id="5RL" points="2850,2040 2839,2034 2839,2045"/>
<g cb-classname="DynamicText" cb-source="qH-rLM-GkqY" class="signal" id="5RA" text-anchor="end">
<text cb-classname="GraphicTextEntity" class="signal" fill="black" font-style="normal" font-weight="normal" id="5Rx" text-anchor="end" text-decoration="normal" x="2835" y="2037"/>
</g>
</g>
<g cb-classname="ControlPin" cb-pin-name="AF-tzu-wfm" id="5RZ">
<line cb-classname="GraphicLineEntity" class="signalline" id="5Hd" x1="2810" x2="2850" y1="2080" y2="2080"/>
<polygon cb-classname="GraphicPolygonEntity" class="signal" id="5H7" points="2850,2080 2839,2074 2839,2085"/>
<g cb-classname="DynamicText" cb-source="Jl-ejy-CV0T" class="signal" id="5Hw" text-anchor="end">
<text cb-classname="GraphicTextEntity" class="signal" fill="black" font-style="normal" font-weight="normal" id="5HP" text-anchor="end" text-decoration="normal" x="2835" y="2077"/>
</g>
</g>
<g cb-classname="ControlPin" cb-pin-name="Fv-d6D-784" id="5HI">
<line cb-classname="GraphicLineEntity" class="signalline" id="5He" x1="3600" x2="3640" y1="1340" y2="1340"/>
<g cb-classname="DynamicText" cb-source="0t-VDE-2jbK" class="signal" id="5HL" text-anchor="start">
<text cb-classname="GraphicTextEntity" class="signal" fill="black" font-style="normal" font-weight="normal" id="5HA" text-anchor="start" text-decoration="normal" x="3614" y="1337"/>
</g>
<g cb-classname="SignalSegment" id="5Hx">
<line cb-classname="GraphicLineEntity" class="signalline" id="5HZ" x1="3640" x2="4730" y1="1340" y2="1340"/>
<g cb-classname="SignalConnection" cb-graphic-line="$539$" cb-input-pin="$U7x$" id="5xd"/>
</g>
</g>
<g cb-classname="ControlPin" cb-pin-name="FK-jdT-knp" id="5x7">
<line cb-classname="GraphicLineEntity" class="signalline" id="5xw" x1="3600" x2="3630" y1="1610" y2="1610"/>
<g cb-classname="DynamicText" cb-source="Cq-OKZ-yeYa" class="signal" id="5xP" text-anchor="start">
<text cb-classname="GraphicTextEntity" class="signal" fill="black" font-style="normal" font-weight="normal" id="5xI" text-anchor="start" text-decoration="normal" x="3614" y="1607"/>
</g>
<g cb-classname="SignalSegment" id="5xe">
<line cb-classname="GraphicLineEntity" class="signalline" id="5xL" x1="3630" x2="4730" y1="1610" y2="1610"/>
<g cb-classname="SignalConnection" cb-graphic-line="$546$" cb-input-pin="$LGC$" id="5xA"/>
</g>
</g>
<g cb-classname="ControlPin" cb-pin-name="rF-Qhw-TF" id="5xx">
<line cb-classname="GraphicLineEntity" class="signalline" id="5xZ" x1="3600" x2="3620" y1="1930" y2="1930"/>
<g cb-classname="DynamicText" cb-source="Xw-UXa-DtI6" class="signal" id="5bd" text-anchor="start">
<text cb-classname="GraphicTextEntity" class="signal" fill="black" font-style="normal" font-weight="normal" id="5b7" text-anchor="start" text-decoration="normal" x="3614" y="1927"/>
</g>
<g cb-classname="SignalSegment" id="5bw">
<line cb-classname="GraphicLineEntity" class="signalline" id="5bP" stroke="#1e12bf" stroke-dasharray="5,4" x1="3620" x2="4730" y1="1930" y2="1930"/>
<g cb-classname="SignalConnection" cb-graphic-line="$553$" cb-input-pin="$Qs7$" id="5bI"/>
</g>
</g>
<g cb-classname="ControlPin" cb-pin-name="AF-tzu-El" id="5be">
<line cb-classname="GraphicLineEntity" class="signalline" id="5bL" x1="3600" x2="3620" y1="1990" y2="1990"/>
<g cb-classname="DynamicText" cb-source="Th-ish-qIsQ" class="signal" id="5bA" text-anchor="start">
<text cb-classname="GraphicTextEntity" class="signal" fill="black" font-style="normal" font-weight="normal" id="5bx" text-anchor="start" text-decoration="normal" x="3614" y="1987"/>
</g>
<g cb-classname="SignalSegment" id="5bZ">
<line cb-classname="GraphicLineEntity" class="signalline" id="5gd" stroke="#1e12bf" stroke-dasharray="5,4" x1="3620" x2="4400" y1="1990" y2="1990"/>
<g cb-classname="SignalSegment" id="5g7">
<line cb-classname="GraphicLineEntity" class="signalline" id="5gw" stroke="#1e12bf" stroke-dasharray="5,4" x1="4400" x2="4400" y1="1990" y2="2200"/>
<g cb-classname="SignalSegment" id="5gP">
<line cb-classname="GraphicLineEntity" class="signalline" id="5gI" stroke="#1e12bf" stroke-dasharray="5,4" x1="4400" x2="4730" y1="2200" y2="2200"/>
<g cb-classname="SignalConnection" cb-graphic-line="$564$" cb-input-pin="$3pN$" id="5ge"/>
</g>
</g>
</g>
</g>
<g cb-classname="ControlPin" cb-pin-name="x3-6T9-BO3oY" id="1g7c">
<line cb-classname="GraphicLineEntity" class="signalline" id="1g7L" x1="2830" x2="2850" y1="2400" y2="2400"/>
<polygon cb-classname="GraphicPolygonEntity" class="signal" id="1g7D" points="2850,2400 2839,2394 2839,2405"/>
<g cb-classname="DynamicText" cb-source="FK-3fv-Z1pL" class="signal" id="1gwi" text-anchor="end">
<text cb-classname="GraphicTextEntity" class="signal" fill="black" font-style="normal" font-weight="normal" id="1gwG" text-anchor="end" text-decoration="normal" transform="translate(2835,2397)rotate(360)"/>
</g>
</g>
<g cb-classname="ControlPin" cb-pin-name="Th-QWU-s8G0H" id="1gwP">
<line cb-classname="GraphicLineEntity" class="signalline" id="1gwm" x1="2830" x2="2850" y1="2430" y2="2430"/>
<polygon cb-classname="GraphicPolygonEntity" class="signal" id="1gwW" points="2850,2430 2839,2424 2839,2435"/>
<g cb-classname="DynamicText" cb-source="Fv-ABv-ELQW" class="signal" id="1gwv" text-anchor="end">
<text cb-classname="GraphicTextEntity" class="signal" fill="black" font-style="normal" font-weight="normal" id="1gwc" text-anchor="end" text-decoration="normal" transform="translate(2835,2427)rotate(360)"/>
</g>
</g>
<g cb-classname="ControlPin" cb-pin-name="Jl-knc-eVK" id="1yeL">
<line cb-classname="GraphicLineEntity" class="signalline" id="1yeD" x1="2830" x2="2850" y1="890" y2="890"/>
<polygon cb-classname="GraphicPolygonEntity" class="signal" id="1yLi" points="2850,890 2839,884 2839,895"/>
<g cb-classname="DynamicText" cb-source="rF-iZt-alVS" class="signal" id="1yLG" text-anchor="end">
<text cb-classname="GraphicTextEntity" class="signal" fill="black" font-style="normal" font-weight="normal" id="1yL3" text-anchor="end" text-decoration="normal" x="2835" y="887"/>
</g>
</g>
</g>
<g cb-alg-TN="$452$cb-alg-sts$" cb-algorithm-id="00d" cb-classname="ExternalPointInterface" cb-function-name="OUTPUT" id="5oL">
<ellipse cb-classname="GraphicEllipseEntity" class="algorithm" cx="4810" cy="1340" id="5oA" rx="50" ry="50"/>
<rect cb-classname="GraphicRectangleEntity" class="algorithm" height="100" id="5ox" width="40" x="4860" y="1290"/>
<line cb-classname="GraphicLineEntity" class="algorithm" id="5oZ" x1="4860" x2="4900" y1="1340" y2="1340"/>
<g cb-classname="ControlPin" cb-pin-name="FK-jdT-sh" id="5yd">
<line cb-classname="GraphicLineEntity" class="signalline" id="5y7" x1="4730" x2="4760" y1="1340" y2="1340"/>
<polygon cb-classname="GraphicPolygonEntity" class="signal" id="5yw" points="4760,1340 4749,1334 4749,1345"/>
<g cb-classname="DynamicText" cb-source="Th-ish-qIsQ" class="signal" id="5yP" text-anchor="end">
<text cb-classname="GraphicTextEntity" class="signal" fill="black" font-style="normal" font-weight="normal" id="5yI" text-anchor="end" text-decoration="normal" x="4745" y="1337"/>
</g>
</g>
<g cb-classname="PointStatusIndicator" cb-indicator-type="highway" cb-source="cL-43Z-DE" id="5ye" visibility="hidden">
<line cb-classname="GraphicLineEntity" class="algorithmline" id="5yL" x1="4760" x2="4810" y1="1340" y2="1290"/>
<line cb-classname="GraphicLineEntity" class="algorithmline" id="5yA" x1="4810" x2="4860" y1="1290" y2="1340"/>
<line cb-classname="GraphicLineEntity" class="algorithmline" id="5yx" x1="4860" x2="4810" y1="1340" y2="1390"/>
<line cb-classname="GraphicLineEntity" class="algorithmline" id="5yZ" x1="4810" x2="4760" y1="1390" y2="1340"/>
</g>
<g cb-classname="PointStatusIndicator" cb-indicator-type="hardware" cb-source="x3-6T9-fv" id="5Gd" visibility="hidden">
<line cb-classname="GraphicLineEntity" class="algorithmline" id="5G7" x1="4860" x2="4760" y1="1290" y2="1290"/>
<line cb-classname="GraphicLineEntity" class="algorithmline" id="5Gw" x1="4760" x2="4760" y1="1290" y2="1390"/>
<line cb-classname="GraphicLineEntity" class="algorithmline" id="5GP" x1="4760" x2="4860" y1="1390" y2="1390"/>
</g>
<g cb-classname="PointStatusIndicator" cb-indicator-type="alarm" cb-source="AF-tzu-jy" id="5GI" visibility="hidden">
<text cb-classname="GraphicTextEntity" class="algorithm" fill="#000000" font-family="Arial" font-size="20" id="5Ge" x="4870" y="1375">
A
</text>
</g>
<g cb-classname="PointStatusIndicator" cb-indicator-type="ingraphic" cb-source="Th-QWU-cC" id="5GL" visibility="visible">
<text cb-classname="GraphicTextEntity" class="algorithm" fill="#000000" font-family="Arial" font-size="20" id="5GA" x="4870" y="1325">
G
</text>
</g>
<g cb-classname="DynamicText" cb-labeled="false" cb-pin-name="Iv" cb-source="cL-43Z-DE" class="algorithm" id="5Gx" text-anchor="end">
<text baseline-shift="0%" cb-classname="GraphicTextEntity" class="algorithm" fill="black" font-family="arial" font-size="20" font-style="normal" font-weight="normal" id="5GZ" text-anchor="end" text-decoration="normal" x="4735" y="1315"/>
</g>
<g baseline-shift="-100%" cb-anchor-x="4735" cb-anchor-y="1350" cb-classname="PointReferences" cb-max-width="130" cb-originator="false" cb-source="rF-Qhw-H2" class="signal" id="6Kd" text-anchor="end">
<text baseline-shift="-100%" cb-classname="GraphicTextEntity" class="algorithm" id="6K7" text-anchor="end" x="4735" y="1350">
REF: Point not
</text>
<text baseline-shift="-100%" cb-classname="GraphicTextEntity" class="algorithm" id="2GAL" text-anchor="end" x="4735" y="1375">
found in
</text>
<text baseline-shift="-100%" cb-classname="GraphicTextEntity" class="algorithm" id="2GAD" text-anchor="end" x="4735" y="1400">
database
</text>
<text baseline-shift="-100%" cb-classname="GraphicTextEntity" class="algorithm" id="2Gxi" text-anchor="end" x="4735" y="1425">
(01T0200D08A-STS)
</text>
</g>
<g baseline-shift="-50%" cb-anchor-x="4915" cb-anchor-y="1355" cb-classname="PointDescription" cb-content="extended" cb-labeled="false" cb-max-width="240" cb-source="rX-Lmp-fG" class="algorithm" id="6KI" text-anchor="start">
<text baseline-shift="-50%" cb-classname="GraphicTextEntity" class="algorithm" id="6Ke" text-anchor="start" x="4915" y="1330">
DESC: Point not found in
</text>
<text baseline-shift="-50%" cb-classname="GraphicTextEntity" class="algorithm" id="2KLm" text-anchor="start" x="4915" y="1355">
database
</text>
<text baseline-shift="-50%" cb-classname="GraphicTextEntity" class="algorithm" id="2GxG" text-anchor="start" x="4915" y="1380">
(01T0200D08A-STS)
</text>
</g>
</g>
<g cb-alg-Xa="$452$cb-alg-alm$" cb-algorithm-id="00e" cb-classname="ExternalPointInterface" cb-function-name="OUTPUT" id="6KL">
<ellipse cb-classname="GraphicEllipseEntity" class="algorithm" cx="4810" cy="1610" id="6KA" rx="50" ry="50"/>
<rect cb-classname="GraphicRectangleEntity" class="algorithm" height="100" id="6Kx" width="40" x="4860" y="1560"/>
<line cb-classname="GraphicLineEntity" class="algorithm" id="6KZ" x1="4860" x2="4900" y1="1610" y2="1610"/>
<g cb-classname="ControlPin" cb-pin-name="Jl-knc-XD" id="6Qd">
<line cb-classname="GraphicLineEntity" class="signalline" id="6Q7" x1="4730" x2="4760" y1="1610" y2="1610"/>
<polygon cb-classname="GraphicPolygonEntity" class="signal" id="6Qw" points="4760,1610 4749,1604 4749,1615"/>
<g cb-classname="DynamicText" cb-source="rF-iZt-alVS" class="signal" id="6QP" text-anchor="end">
<text cb-classname="GraphicTextEntity" class="signal" fill="black" font-style="normal" font-weight="normal" id="6QI" text-anchor="end" text-decoration="normal" x="4745" y="1607"/>
</g>
</g>
<g cb-classname="PointStatusIndicator" cb-indicator-type="highway" cb-source="Xw-AjP-LM" id="6Qe" visibility="hidden">
<line cb-classname="GraphicLineEntity" class="algorithmline" id="6QL" x1="4760" x2="4810" y1="1610" y2="1560"/>
<line cb-classname="GraphicLineEntity" class="algorithmline" id="6QA" x1="4810" x2="4860" y1="1560" y2="1610"/>
<line cb-classname="GraphicLineEntity" class="algorithmline" id="6Qx" x1="4860" x2="4810" y1="1610" y2="1660"/>
<line cb-classname="GraphicLineEntity" class="algorithmline" id="6QZ" x1="4810" x2="4760" y1="1660" y2="1610"/>
</g>
<g cb-classname="PointStatusIndicator" cb-indicator-type="hardware" cb-source="AF-tzu-jy" id="6Rd" visibility="hidden">
<line cb-classname="GraphicLineEntity" class="algorithmline" id="6R7" x1="4860" x2="4760" y1="1560" y2="1560"/>
<line cb-classname="GraphicLineEntity" class="algorithmline" id="6Rw" x1="4760" x2="4760" y1="1560" y2="1660"/>
<line cb-classname="GraphicLineEntity" class="algorithmline" id="6RP" x1="4760" x2="4860" y1="1660" y2="1660"/>
</g>
<g cb-classname="PointStatusIndicator" cb-indicator-type="alarm" cb-source="cL-43Z-DE" id="6RI" visibility="hidden">
<text cb-classname="GraphicTextEntity" class="algorithm" fill="#000000" font-family="Arial" font-size="20" id="6Re" x="4870" y="1645">
A
</text>
</g>
<g cb-classname="PointStatusIndicator" cb-indicator-type="ingraphic" cb-source="rF-Qhw-H2" id="6RL" visibility="visible">
<text cb-classname="GraphicTextEntity" class="algorithm" fill="#000000" font-family="Arial" font-size="20" id="6RA" x="4870" y="1595">
G
</text>
</g>
<g cb-classname="DynamicText" cb-labeled="false" cb-pin-name="c9" cb-source="Xw-AjP-LM" class="algorithm" id="6Rx" text-anchor="end">
<text baseline-shift="0%" cb-classname="GraphicTextEntity" class="algorithm" fill="black" font-family="arial" font-size="20" font-style="normal" font-weight="normal" id="6RZ" text-anchor="end" text-decoration="normal" x="4735" y="1585"/>
</g>
<g baseline-shift="-100%" cb-anchor-x="4735" cb-anchor-y="1620" cb-classname="PointReferences" cb-max-width="130" cb-originator="false" cb-source="rX-Lmp-fG" class="signal" id="6Hd" text-anchor="end">
<text baseline-shift="-100%" cb-classname="GraphicTextEntity" class="algorithm" id="6H7" text-anchor="end" x="4735" y="1620">
REF: Point not
</text>
<text baseline-shift="-100%" cb-classname="GraphicTextEntity" class="algorithm" id="2Gx3" text-anchor="end" x="4735" y="1645">
found in
</text>
<text baseline-shift="-100%" cb-classname="GraphicTextEntity" class="algorithm" id="2GxP" text-anchor="end" x="4735" y="1670">
database
</text>
<text baseline-shift="-100%" cb-classname="GraphicTextEntity" class="algorithm" id="2Gxm" text-anchor="end" x="4735" y="1695">
(01T0200D08A-ALM)
</text>
</g>
<g baseline-shift="-50%" cb-anchor-x="4915" cb-anchor-y="1625" cb-classname="PointDescription" cb-content="extended" cb-labeled="false" cb-max-width="240" cb-source="Cq-jNj-uq" class="algorithm" id="6HI" text-anchor="start">
<text baseline-shift="-50%" cb-classname="GraphicTextEntity" class="algorithm" id="6He" text-anchor="start" x="4915" y="1600">
DESC: Point not found in
</text>
<text baseline-shift="-50%" cb-classname="GraphicTextEntity" class="algorithm" id="2KLW" text-anchor="start" x="4915" y="1625">
database
</text>
<text baseline-shift="-50%" cb-classname="GraphicTextEntity" class="algorithm" id="2GxW" text-anchor="start" x="4915" y="1650">
(01T0200D08A-ALM)
</text>
</g>
</g>
<g cb-alg-fv="$452$cb-alg-lb$" cb-algorithm-id="00f" cb-classname="ExternalPointInterface" cb-function-name="OUTPUT" id="6HL">
<ellipse cb-classname="GraphicEllipseEntity" class="algorithm" cx="4810" cy="1930" id="6HA" rx="50" ry="50"/>
<rect cb-classname="GraphicRectangleEntity" class="algorithm" height="100" id="6Hx" width="40" x="4860" y="1880"/>
<line cb-classname="GraphicLineEntity" class="algorithm" id="6HZ" x1="4860" x2="4900" y1="1930" y2="1930"/>
<g cb-classname="ControlPin" cb-pin-name="0t-5gg-LD" id="6xd">
<line cb-classname="GraphicLineEntity" class="signalline" id="6x7" x1="4730" x2="4760" y1="1930" y2="1930"/>
<polygon cb-classname="GraphicPolygonEntity" class="signal" id="6xw" points="4760,1930 4749,1924 4749,1935"/>
<g cb-classname="DynamicText" cb-source="rX-vLD-vQow" class="signal" id="6xP" text-anchor="end">
<text cb-classname="GraphicTextEntity" class="signal" fill="black" font-style="normal" font-weight="normal" id="6xI" text-anchor="end" text-decoration="normal" x="4745" y="1927"/>
</g>
</g>
<g cb-classname="PointStatusIndicator" cb-indicator-type="highway" cb-source="FK-jdT-sh" id="6xe" visibility="hidden">
<line cb-classname="GraphicLineEntity" class="algorithmline" id="6xL" x1="4760" x2="4810" y1="1930" y2="1880"/>
<line cb-classname="GraphicLineEntity" class="algorithmline" id="6xA" x1="4810" x2="4860" y1="1880" y2="1930"/>
<line cb-classname="GraphicLineEntity" class="algorithmline" id="6xx" x1="4860" x2="4810" y1="1930" y2="1980"/>
<line cb-classname="GraphicLineEntity" class="algorithmline" id="6xZ" x1="4810" x2="4760" y1="1980" y2="1930"/>
</g>
<g cb-classname="PointStatusIndicator" cb-indicator-type="hardware" cb-source="cL-43Z-DE" id="6bd" visibility="hidden">
<line cb-classname="GraphicLineEntity" class="algorithmline" id="6b7" x1="4860" x2="4760" y1="1880" y2="1880"/>
<line cb-classname="GraphicLineEntity" class="algorithmline" id="6bw" x1="4760" x2="4760" y1="1880" y2="1980"/>
<line cb-classname="GraphicLineEntity" class="algorithmline" id="6bP" x1="4760" x2="4860" y1="1980" y2="1980"/>
</g>
<g cb-classname="PointStatusIndicator" cb-indicator-type="alarm" cb-source="Xw-AjP-LM" id="6bI" visibility="hidden">
<text cb-classname="GraphicTextEntity" class="algorithm" fill="#000000" font-family="Arial" font-size="20" id="6be" x="4870" y="1965">
A
</text>
</g>
<g cb-classname="PointStatusIndicator" cb-indicator-type="ingraphic" cb-source="rX-Lmp-fG" id="6bL" visibility="hidden">
<text cb-classname="GraphicTextEntity" class="algorithm" fill="#000000" font-family="Arial" font-size="20" id="6bA" x="4870" y="1915">
G
</text>
</g>
<g cb-classname="DynamicText" cb-labeled="false" cb-pin-name="N1" cb-source="FK-jdT-sh" class="algorithm" id="6bx" text-anchor="end">
<text baseline-shift="0%" cb-classname="GraphicTextEntity" class="algorithm" fill="black" font-family="arial" font-size="20" font-style="normal" font-weight="normal" id="6bZ" text-anchor="end" text-decoration="normal" x="4735" y="1905"/>
</g>
<g baseline-shift="-100%" cb-anchor-x="4735" cb-anchor-y="1940" cb-classname="PointReferences" cb-max-width="130" cb-originator="false" cb-source="Cq-jNj-uq" class="signal" id="6gd" text-anchor="end">
<text baseline-shift="-100%" cb-classname="GraphicTextEntity" class="algorithm" id="6g7" text-anchor="end" x="4735" y="1940">
REF: Point not
</text>
<text baseline-shift="-100%" cb-classname="GraphicTextEntity" class="algorithm" id="2Gxv" text-anchor="end" x="4735" y="1965">
found in
</text>
<text baseline-shift="-100%" cb-classname="GraphicTextEntity" class="algorithm" id="2Gxc" text-anchor="end" x="4735" y="1990">
database
</text>
<text baseline-shift="-100%" cb-classname="GraphicTextEntity" class="algorithm" id="2GxL" text-anchor="end" x="4735" y="2015">
(01T0200D08A-LB)
</text>
</g>
<g baseline-shift="-50%" cb-anchor-x="4915" cb-anchor-y="1945" cb-classname="PointDescription" cb-content="extended" cb-labeled="false" cb-max-width="240" cb-source="cL-43Z-DE" class="algorithm" id="6gP" text-anchor="start">
<text baseline-shift="-50%" cb-classname="GraphicTextEntity" class="algorithm" id="6gI" text-anchor="start" x="4915" y="1933">
DESC: Point not found in
</text>
<text baseline-shift="-50%" cb-classname="GraphicTextEntity" class="algorithm" id="1yeW" text-anchor="start" x="4915" y="1958">
database (01T0200D08A-LB)
</text>
</g>
</g>
<g cb-alg-z8="$452$cb-alg-tr$" cb-algorithm-id="010" cb-classname="ExternalPointInterface" cb-function-name="OUTPUT" id="6ge">
<ellipse cb-classname="GraphicEllipseEntity" class="algorithm" cx="4810" cy="2200" id="6gL" rx="50" ry="50"/>
<rect cb-classname="GraphicRectangleEntity" class="algorithm" height="100" id="6gA" width="40" x="4860" y="2150"/>
<line cb-classname="GraphicLineEntity" class="algorithm" id="6gx" x1="4860" x2="4900" y1="2200" y2="2200"/>
<g cb-classname="ControlPin" cb-pin-name="rX-Lmp-fG" id="6gZ">
<line cb-classname="GraphicLineEntity" class="signalline" id="6od" x1="4730" x2="4760" y1="2200" y2="2200"/>
<polygon cb-classname="GraphicPolygonEntity" class="signal" id="6o7" points="4760,2200 4749,2194 4749,2205"/>
<g cb-classname="DynamicText" cb-source="AF-0fG-h6bm" class="signal" id="6ow" text-anchor="end">
<text cb-classname="GraphicTextEntity" class="signal" fill="black" font-style="normal" font-weight="normal" id="6oP" text-anchor="end" text-decoration="normal" x="4745" y="2197"/>
</g>
</g>
<g cb-classname="PointStatusIndicator" cb-indicator-type="highway" cb-source="Th-QWU-cC" id="6oI" visibility="hidden">
<line cb-classname="GraphicLineEntity" class="algorithmline" id="6oe" x1="4760" x2="4810" y1="2200" y2="2150"/>
<line cb-classname="GraphicLineEntity" class="algorithmline" id="6oL" x1="4810" x2="4860" y1="2150" y2="2200"/>
<line cb-classname="GraphicLineEntity" class="algorithmline" id="6oA" x1="4860" x2="4810" y1="2200" y2="2250"/>
<line cb-classname="GraphicLineEntity" class="algorithmline" id="6ox" x1="4810" x2="4760" y1="2250" y2="2200"/>
</g>
<g cb-classname="PointStatusIndicator" cb-indicator-type="hardware" cb-source="0t-5gg-LD" id="6oZ" visibility="hidden">
<line cb-classname="GraphicLineEntity" class="algorithmline" id="6yd" x1="4860" x2="4760" y1="2150" y2="2150"/>
<line cb-classname="GraphicLineEntity" class="algorithmline" id="6y7" x1="4760" x2="4760" y1="2150" y2="2250"/>
<line cb-classname="GraphicLineEntity" class="algorithmline" id="6yw" x1="4760" x2="4860" y1="2250" y2="2250"/>
</g>
<g cb-classname="PointStatusIndicator" cb-indicator-type="alarm" cb-source="qH-le8-KZ" id="6yP" visibility="visible">
<text cb-classname="GraphicTextEntity" class="algorithm" fill="#000000" font-family="Arial" font-size="20" id="6yI" x="4870" y="2235">
A
</text>
</g>
<g cb-classname="PointStatusIndicator" cb-indicator-type="ingraphic" cb-source="AF-tzu-jy" id="6ye" visibility="hidden">
<text cb-classname="GraphicTextEntity" class="algorithm" fill="#000000" font-family="Arial" font-size="20" id="6yL" x="4870" y="2185">
G
</text>
</g>
<g cb-classname="DynamicText" cb-labeled="false" cb-pin-name="gy" cb-source="Th-QWU-cC" class="algorithm" id="6yA" text-anchor="end">
<text baseline-shift="0%" cb-classname="GraphicTextEntity" class="algorithm" fill="black" font-family="arial" font-size="20" font-style="normal" font-weight="normal" id="6yx" text-anchor="end" text-decoration="normal" x="4735" y="2175"/>
</g>
<g baseline-shift="-100%" cb-anchor-x="4735" cb-anchor-y="2210" cb-classname="PointReferences" cb-max-width="130" cb-originator="false" cb-source="cL-43Z-DE" class="signal" id="6yZ" text-anchor="end">
<text baseline-shift="-100%" cb-classname="GraphicTextEntity" class="algorithm" id="6Gd" text-anchor="end" x="4735" y="2210">
REF: Point not
</text>
<text baseline-shift="-100%" cb-classname="GraphicTextEntity" class="algorithm" id="2GZi" text-anchor="end" x="4735" y="2235">
found in
</text>
<text baseline-shift="-100%" cb-classname="GraphicTextEntity" class="algorithm" id="2GZG" text-anchor="end" x="4735" y="2260">
database
</text>
<text baseline-shift="-100%" cb-classname="GraphicTextEntity" class="algorithm" id="2GZ3" text-anchor="end" x="4735" y="2285">
(01T0200D08A-TR)
</text>
</g>
<g baseline-shift="-50%" cb-anchor-x="4915" cb-anchor-y="2215" cb-classname="PointDescription" cb-content="extended" cb-labeled="false" cb-max-width="240" cb-source="0t-5gg-LD" class="algorithm" id="6Gw" text-anchor="start">
<text baseline-shift="-50%" cb-classname="GraphicTextEntity" class="algorithm" id="6GP" text-anchor="start" x="4915" y="2203">
DESC: Point not found in
</text>
<text baseline-shift="-50%" cb-classname="GraphicTextEntity" class="algorithm" id="1yev" text-anchor="start" x="4915" y="2228">
database (01T0200D08A-TR)
</text>
</g>
</g>
</g>
<g cb-classname="IncludeDocument" cb-modify-time="09/25/2018 01:40:30" cb-objectname="Frame" id="5">
<text cb-classname="GraphicTextEntity" class="frame" font-size="50" id="3Kem" x="3660" y="3146">
Project Title &lt;Edit in FRAME.SVG&gt;
</text>
<g baseline-shift="-50%" cb-classname="DynamicText" cb-source="cL-ZuIV-XY" class="frame" id="3KeW">
<text cb-classname="GraphicTextEntity" class="frame" fill="black" font-family="arial" font-size="25" font-style="normal" font-weight="normal" id="3Kev" text-decoration="normal" x="4715" y="3325">
13
</text>
</g>
<g baseline-shift="-50%" cb-classname="DynamicText" cb-source="rF-F9SI-La" class="frame" id="3Kec" text-anchor="middle">
<text cb-classname="GraphicTextEntity" class="frame" fill="black" font-family="arial" font-size="48" font-style="normal" font-weight="normal" id="3KeL" text-anchor="middle" text-decoration="normal" x="4900" y="3320">
13
</text>
</g>
<g baseline-shift="-50%" cb-classname="DynamicText" cb-source="Xw-l6in-fu" class="frame" id="3KeD" text-anchor="middle">
<text cb-classname="GraphicTextEntity" class="frame" fill="black" font-family="arial" font-size="48" font-style="normal" font-weight="normal" id="3KLi" text-anchor="middle" text-decoration="normal" x="5067" y="3324">
4
</text>
</g>
<g cb-classname="DynamicText" cb-source="rX-iRWS0-2jtTm" class="frame" id="3KLG">
<text cb-classname="GraphicTextEntity" class="frame" fill="black" font-family="arial" font-size="48" font-style="normal" font-weight="normal" id="3KL3" text-decoration="normal" x="3660" y="3224">
A COLD REHEAT STM DRN VLV-T0200D08A
</text>
</g>
<g baseline-shift="-50%" cb-classname="DynamicText" cb-source="FK-wTK62-yyY5QH" class="frame" id="3KLP" text-anchor="middle">
<text cb-classname="GraphicTextEntity" class="frame" fill="black" font-family="arial" font-size="48" font-style="normal" font-weight="normal" id="3KLm" text-anchor="middle" text-decoration="normal" x="5270" y="3324">
198
</text>
</g>
<g baseline-shift="0%" cb-classname="DynamicText" cb-source="Cq-y6OjdcOD" class="frame" id="3KLW" text-anchor="middle">
<text cb-classname="GraphicTextEntity" class="frame" fill="black" font-family="arial" font-size="36" font-style="normal" font-weight="normal" id="3KLv" text-anchor="middle" text-decoration="normal" x="5270" y="3150">
A
</text>
</g>
<g baseline-shift="0%" cb-classname="DynamicText" cb-source="Jl-ww1cN4hz-x3QN" class="frame" id="3KLc" text-anchor="middle">
<text cb-classname="GraphicTextEntity" class="frame" fill="black" font-family="arial" font-size="20" font-style="normal" font-weight="normal" id="3KLL" text-anchor="middle" text-decoration="normal" x="5270" y="3230">
12/28/2010
</text>
</g>
<g baseline-shift="-50%" cb-classname="DynamicText" cb-source="Fv-jNDDEUhv" class="frame" id="3KLD" text-anchor="end">
<text cb-classname="GraphicTextEntity" class="frame" fill="black" font-family="arial" font-size="26" font-style="normal" font-weight="normal" id="3KAi" text-anchor="end" text-decoration="normal" x="4500" y="3420">
Heczko
</text>
</g>
<g baseline-shift="-50%" cb-classname="DynamicText" cb-source="0t-9s5Hh9Sy" class="frame" id="3KAG" text-anchor="end">
<text cb-classname="GraphicTextEntity" class="frame" fill="black" font-family="arial" font-size="26" font-style="normal" font-weight="normal" id="3KA3" text-anchor="end" text-decoration="normal" x="5353" y="3420">
Nemec
</text>
</g>
<g cb-classname="GraphicShape" cb-tag="BORDER" id="3KAP">
<line cb-classname="GraphicLineEntity" class="frameline" id="3KAm" x1="40" x2="40" y1="40" y2="3460"/>
<line cb-classname="GraphicLineEntity" class="frameline" id="3KAW" x1="40" x2="5380" y1="3460" y2="3460"/>
<line cb-classname="GraphicLineEntity" class="frameline" id="3KAv" x1="5380" x2="5380" y1="3460" y2="40"/>
<line cb-classname="GraphicLineEntity" class="frameline" id="3KAc" x1="5380" x2="40" y1="40" y2="40"/>
<line cb-classname="GraphicLineEntity" class="frame" id="3KAL" x1="5430" x2="5440" y1="3510" y2="3510"/>
</g>
<g cb-classname="GraphicShape" cb-tag="TITLE BOX" id="3KAD">
<line cb-classname="GraphicLineEntity" class="frameline" id="3Kxi" x1="2340" x2="2340" y1="3080" y2="3460"/>
<line cb-classname="GraphicLineEntity" class="frameline" id="3KxG" x1="2340" x2="5380" y1="3080" y2="3080"/>
<line cb-classname="GraphicLineEntity" class="frameline" id="3Kx3" x1="3650" x2="3650" y1="3460" y2="3080"/>
<line cb-classname="GraphicLineEntity" class="frameline" id="3KxP" x1="3650" x2="5380" y1="3240" y2="3240"/>
<line cb-classname="GraphicLineEntity" class="frameline" id="3Kxm" x1="3650" x2="5380" y1="3390" y2="3390"/>
<line cb-classname="GraphicLineEntity" class="frameline" id="3KxW" x1="3650" x2="5380" y1="3160" y2="3160"/>
<line cb-classname="GraphicLineEntity" class="frameline" id="3Kxv" x1="3650" x2="4520" y1="3320" y2="3320"/>
<line cb-classname="GraphicLineEntity" class="frameline" id="3Kxc" x1="4520" x2="5380" y1="3290" y2="3290"/>
<line cb-classname="GraphicLineEntity" class="frameline" id="3KxL" x1="4520" x2="5380" y1="3240" y2="3240"/>
<line cb-classname="GraphicLineEntity" class="frameline" id="3KxD" x1="4520" x2="4520" y1="3240" y2="3460"/>
<line cb-classname="GraphicLineEntity" class="frameline" id="3KZi" x1="4810" x2="4810" y1="3240" y2="3390"/>
<line cb-classname="GraphicLineEntity" class="frameline" id="3KZG" x1="4990" x2="4990" y1="3240" y2="3390"/>
<line cb-classname="GraphicLineEntity" class="frameline" id="3KZ3" x1="5150" x2="5150" y1="3080" y2="3390"/>
</g>
<g cb-classname="GraphicShape" cb-tag="TEXT LABELS" id="3KZP">
<text baseline-shift="-50%" cb-classname="GraphicTextEntity" class="frame" font-size="25" id="3KZm" text-anchor="middle" x="4890" y="3252">
Drop
</text>
<text baseline-shift="-50%" cb-classname="GraphicTextEntity" class="frame" font-size="25" id="3KZW" text-anchor="middle" x="5075" y="3252">
Task
</text>
<text baseline-shift="-50%" cb-classname="GraphicTextEntity" class="frame" font-size="25" id="3KZv" text-anchor="middle" x="5265" y="3252">
Sheet
</text>
<text cb-classname="GraphicTextEntity" class="frame" font-size="25" id="3KZc" x="5152" y="3107">
Rev.
</text>
<text cb-classname="GraphicTextEntity" class="frame" font-size="25" id="3KZL" x="3653" y="3418">
Engineer
</text>
<text cb-classname="GraphicTextEntity" class="frame" font-size="25" id="3KZD" x="4528" y="3419">
Approved
</text>
<text cb-classname="GraphicTextEntity" class="frame" font-size="25" id="3Qdi" x="5152" y="3187">
Date
</text>
<text baseline-shift="-50%" cb-classname="GraphicTextEntity" class="frame" font-size="25" id="3QdG" text-anchor="middle" x="4660" y="3252">
Drawing Number
</text>
<text baseline-shift="-50%" cb-classname="GraphicTextEntity" class="frame" font-size="25" id="3Qd3" text-anchor="middle" x="4680" y="3325">
CTL
</text>
</g>
<text baseline-shift="-50%" cb-classname="GraphicTextEntity" class="frame" font-size="48" id="3QdP" text-anchor="middle" x="3000" y="3100">
EMERSON PROCESS MANAGEMENT
</text>
<g baseline-shift="-100%" cb-anchor-x="2360" cb-anchor-y="3140" cb-classname="GroupText" cb-max-width="1260" fill="black" id="3Qdm">
<text baseline-shift="-100%" cb-classname="GraphicTextEntity" class="frame" fill="black" font-family="arial" font-size="22" font-weight="normal" id="3QdW" text-anchor="start" text-decoration="normal" x="2360" y="3140">
THIS DOCUMENT CONTAINS INFORMATION PROPRIETARY TO EMERSON PROCESS
</text>
<text baseline-shift="-100%" cb-classname="GraphicTextEntity" class="frame" fill="black" font-family="arial" font-size="22" font-weight="normal" id="3Qdv" text-anchor="start" text-decoration="normal" x="2360" y="3176">
MANAGEMENT POWER &amp; WATER SOLUTIONS, INC. IT IS SUBMITTED IN CONFIDENCE AND
</text>
<text baseline-shift="-100%" cb-classname="GraphicTextEntity" class="frame" fill="black" font-family="arial" font-size="22" font-weight="normal" id="3Qdc" text-anchor="start" text-decoration="normal" x="2360" y="3212">
TRUST, IS TO BE USED BY YOU SOLELY FOR THE PURPOSES FOR WHICH IT IS
</text>
<text baseline-shift="-100%" cb-classname="GraphicTextEntity" class="frame" fill="black" font-family="arial" font-size="22" font-weight="normal" id="3QdL" text-anchor="start" text-decoration="normal" x="2360" y="3248">
FURNISHED AND IS TO BE RETURNED UPON REQUEST. THIS DOCUMENT AND ANY
</text>
<text baseline-shift="-100%" cb-classname="GraphicTextEntity" class="frame" fill="black" font-family="arial" font-size="22" font-weight="normal" id="3QdD" text-anchor="start" text-decoration="normal" x="2360" y="3284">
OTHER INFORMATION PROVIDED TO YOU IS NOT TO BE REPRODUCED, TRANSMITTED,
</text>
<text baseline-shift="-100%" cb-classname="GraphicTextEntity" class="frame" fill="black" font-family="arial" font-size="22" font-weight="normal" id="3Q7i" text-anchor="start" text-decoration="normal" x="2360" y="3320">
DISCLOSED, OR USED OTHERWISE IN WHOLE OR IN PART WITHOUT THE PRIOR
</text>
<text baseline-shift="-100%" cb-classname="GraphicTextEntity" class="frame" fill="black" font-family="arial" font-size="22" font-weight="normal" id="3Q7G" text-anchor="start" text-decoration="normal" x="2360" y="3356">
WRITTEN AUTHORIZATION OF EMERSON PROCESS MANAGEMENT POWER &amp; WATER
</text>
<text baseline-shift="-100%" cb-classname="GraphicTextEntity" class="frame" fill="black" font-family="arial" font-size="22" font-weight="normal" id="3Q73" text-anchor="start" text-decoration="normal" x="2360" y="3392">
SOLUTIONS,INC.
</text>
</g>
</g>
</svg>