<?xml version="1.0" ?><svg cb-auto-time="01/16/2008 12:57:32" cb-classname="ControlFunction" cb-create-time="03/12/2008" cb-drop-id="14" cb-engineer="Dufek" cb-filename="Z:\OVATION\NET0\UNIT0\CONTROLFUNCTIONS\0470.svg" cb-function-id="0470" cb-key="111111111111" cb-modified-timestamp="1489319242" cb-modify-id="00000002" cb-ortho-mode="enabled" cb-path="Z:/OVATION/NET0/UNIT0/CONTROLFUNCTIONS" cb-reviewer="Nemec" cb-revision="A" cb-revision-time="12/28/2010" cb-sheet-number="001" cb-sheet-title="BFPM FLOW LIMITS" cb-snap-grid="10" cb-task-id="3" height="3606" id="1" width="5450" xmlns="http://www.w3.org/2000/svg">
<style cb-classname="EntityStyle" id="2" type="text/css">
	.algorithm { fill: white; stroke: black; stroke-linecap: round; stroke-width: 2 }
	.algorithm-function { fill: none; stroke: black; stroke-linecap: round; stroke-width: 2 }
	.algorithm-functionline { fill: none; stroke: black; stroke-linecap: round; stroke-width: 2 }
	.algorithm-name { fill: none; stroke: black; stroke-linecap: round; stroke-width: 2 }
	.algorithm-nameline { fill: none; stroke: black; stroke-linecap: round; stroke-width: 2 }
	.algorithm-sequence { fill: none; stroke: black; stroke-linecap: round; stroke-width: 2 }
	.algorithm-sequenceline { fill: none; stroke: black; stroke-linecap: round; stroke-width: 2 }
	.algorithmline { fill: none; stroke: black; stroke-linecap: round; stroke-width: 2 }
	.annotation { fill: none; stroke: black; stroke-linecap: round; stroke-width: 2 }
	.annotationline { fill: none; stroke: black; stroke-linecap: round; stroke-width: 2 }
	.frame { fill: none; stroke: black; stroke-linecap: round; stroke-width: 2 }
	.frameline { fill: none; stroke: black; stroke-linecap: round; stroke-width: 2 }
	.signal { fill: black; stroke: black; stroke-linecap: round; stroke-width: 2 }
	.signalline { fill: none; stroke: black; stroke-linecap: round; stroke-width: 2 }
	text.algorithm { fill: black; font-family: MS Shell Dlg 2; font-size: 14; stroke: none }
	text.algorithm-function { fill: black; font-family: MS Shell Dlg 2; font-size: 16; stroke: none }
	text.algorithm-name { fill: black; font-family: MS Shell Dlg 2; font-size: 16; stroke: none }
	text.algorithm-sequence { fill: black; font-family: MS Shell Dlg 2; font-size: 16; stroke: none }
	text.annotation { fill: black; font-family: MS Shell Dlg 2; font-size: 16; stroke: none }
	text.frame { fill: black; font-family: MS Shell Dlg 2; font-size: 16; stroke: none }
	text.signal { fill: black; font-family: MS Shell Dlg 2; font-size: 12; stroke: none }
</style>
<g cb-classname="NamedObject" cb-objectname="Comments" id="3"/>
<g cb-classname="AlgorithmContainer" cb-objectname="Algorithms" id="4">
<g cb-alg-oOx7="NO" cb-alg-ouE="01FT102" cb-algorithm-id="001" cb-classname="ExternalPointInterface" cb-function-name="INPUT" id="6Y">
<ellipse cb-classname="GraphicEllipseEntity" class="algorithm" cx="670" cy="520" id="6Z" rx="50" ry="50"/>
<rect cb-classname="GraphicRectangleEntity" class="algorithm" height="40" id="6R" width="100" x="620" y="430"/>
<line cb-classname="GraphicLineEntity" class="algorithm" id="6J" x1="670" x2="670" y1="470" y2="430"/>
<g cb-classname="ControlPin" cb-pin-name="9E-xjF-LuN" id="6B">
<line cb-classname="GraphicLineEntity" class="signalline" id="63" x1="670" x2="670" y1="570" y2="600"/>
<g cb-classname="DynamicText" cb-source="Ut-6Xt-ePDq" class="signal" id="7I" text-anchor="end">
<text cb-classname="GraphicTextEntity" class="signal" fill="black" font-style="normal" font-weight="normal" id="7M" text-anchor="end" text-decoration="normal" transform="translate(662,587)rotate(-90)"/>
</g>
<g cb-classname="SignalSegment" id="2UC">
<line cb-classname="GraphicLineEntity" class="signalline" id="2UO" x1="670" x2="670" y1="600" y2="870"/>
<g cb-classname="SignalSegment" id="2Un">
<line cb-classname="GraphicLineEntity" class="signalline" id="4QU" x1="670" x2="1090" y1="870" y2="870"/>
<g cb-classname="SignalConnection" cb-graphic-line="$429$" cb-input-pin="$rrm$" id="4UG"/>
<line cb-classname="GraphicLineEntity" class="signalline" id="4UF" x1="670" x2="670" y1="870" y2="1050"/>
<g cb-classname="SignalSegment" id="4Uw">
<line cb-classname="GraphicLineEntity" class="signalline" id="4Ur" x1="670" x2="1090" y1="1050" y2="1050"/>
<g cb-classname="SignalConnection" cb-graphic-line="$433$" cb-input-pin="$4It$" id="4U4"/>
</g>
<ellipse cb-classname="GraphicEllipseEntity" class="signal" cx="670" cy="870" id="4Ub" rx="5" ry="5"/>
</g>
</g>
</g>
<g cb-classname="PointStatusIndicator" cb-indicator-type="Highway" cb-source="ie-fCp-Lut" id="7Q" visibility="hidden">
<line cb-classname="GraphicLineEntity" class="algorithmline" id="7U" x1="670" x2="620" y1="470" y2="520"/>
<line cb-classname="GraphicLineEntity" class="algorithmline" id="7Y" x1="620" x2="670" y1="520" y2="570"/>
<line cb-classname="GraphicLineEntity" class="algorithmline" id="7Z" x1="670" x2="720" y1="570" y2="520"/>
<line cb-classname="GraphicLineEntity" class="algorithmline" id="7R" x1="720" x2="670" y1="520" y2="470"/>
</g>
<g cb-classname="PointStatusIndicator" cb-indicator-type="hardware" cb-source="mh-9gO-VuB" id="7J" visibility="visible">
<line cb-classname="GraphicLineEntity" class="algorithmline" id="7B" x1="620" x2="620" y1="470" y2="570"/>
<line cb-classname="GraphicLineEntity" class="algorithmline" id="73" x1="620" x2="720" y1="570" y2="570"/>
<line cb-classname="GraphicLineEntity" class="algorithmline" id="8I" x1="720" x2="720" y1="570" y2="470"/>
</g>
<g cb-classname="PointStatusIndicator" cb-indicator-type="alarm" cb-source="9E-xjF-LuN" id="8M" visibility="hidden">
<text baseline-shift="-50%" cb-classname="GraphicTextEntity" class="algorithm" fill="#000000" font-family="MS Shell Dlg" font-size="20" id="8Q" text-anchor="middle" x="645" y="440">
A
</text>
</g>
<g cb-classname="PointStatusIndicator" cb-indicator-type="ingraphic" cb-source="Ut-R6m-ouE" id="8U" visibility="visible">
<text baseline-shift="-50%" cb-classname="GraphicTextEntity" class="algorithm" fill="#000000" font-family="MS Shell Dlg" font-size="20" id="8Y" text-anchor="middle" x="695" y="440">
G
</text>
</g>
<g cb-classname="DynamicText" cb-labeled="false" cb-pin-name="Dl8" cb-source="ie-fCp-Lut" class="algorithm" id="8Z" text-anchor="middle">
<text cb-classname="GraphicTextEntity" class="algorithm" fill="black" font-family="arial" font-size="20" font-style="normal" font-weight="normal" id="8R" text-anchor="middle" text-decoration="normal" x="670" y="410"/>
</g>
<g baseline-shift="-100%" cb-anchor-x="690" cb-anchor-y="590" cb-classname="PointReferences" cb-max-width="160" cb-originator="true" cb-source="M8-cDX-oue" class="signal" id="8J" text-anchor="start">
<text baseline-shift="-100%" cb-classname="GraphicTextEntity" class="algorithm" id="8B" text-anchor="start" x="690" y="590">
REF: Point not
</text>
<text baseline-shift="-100%" cb-classname="GraphicTextEntity" class="algorithm" id="1QwY" text-anchor="start" x="690" y="615">
found in database
</text>
<text baseline-shift="-100%" cb-classname="GraphicTextEntity" class="algorithm" id="1QwT" text-anchor="start" x="690" y="640">
(01FT102)
</text>
</g>
<g baseline-shift="0%" cb-anchor-x="670" cb-anchor-y="370" cb-classname="PointDescription" cb-content="extended" cb-labeled="false" cb-max-width="240" cb-source="sn-gPJ-Lu8" class="algorithm" id="83" text-anchor="middle">
<text baseline-shift="0%" cb-classname="GraphicTextEntity" class="algorithm" id="9I" text-anchor="middle" x="670" y="345">
DESC: Point not found in
</text>
<text baseline-shift="0%" cb-classname="GraphicTextEntity" class="algorithm" id="1BF" text-anchor="middle" x="670" y="370">
database (01FT102)
</text>
</g>
</g>
<g cb-alg-d17U="63" cb-alg-h1Vz="5" cb-alg-h1l7="300" cb-alg-ihF="$64$cb-alg-out$" cb-alg-oue="01FT102-H01" cb-algorithm-id="00b" cb-classname="ControlAlgorithm" cb-function-name="HIGHMON" cb-modify-id="00000002" id="33G">
<g cb-classname="ControlPin" cb-pin-name="PN-OJ1-akJ" id="33F">
<line cb-classname="GraphicLineEntity" class="signalline" id="33w" x1="1090" x2="1110" y1="870" y2="870"/>
<polygon cb-classname="GraphicPolygonEntity" class="signal" id="33r" points="1110,870 1099,866 1099,874"/>
<g cb-classname="DynamicText" cb-source="3k-xak-qcft" class="signal" id="334" text-anchor="end">
<text baseline-shift="5%" cb-classname="GraphicTextEntity" class="signal" fill="black" font-style="normal" font-weight="normal" id="33b" text-anchor="end" text-decoration="normal" x="1110" y="862"/>
</g>
</g>
<g cb-classname="ControlPin" cb-pin-name="rq-CRl-duk" id="33C">
<line cb-classname="GraphicLineEntity" class="signalline" id="33O" x1="1190" x2="1210" y1="870" y2="870"/>
<g cb-classname="DynamicText" cb-source="1H-fOH-B3g8" class="signal" id="33n">
<text baseline-shift="5%" cb-classname="GraphicTextEntity" class="signal" fill="black" font-style="normal" font-weight="normal" id="33U" text-decoration="normal" x="1205" y="862"/>
</g>
<g cb-classname="SignalSegment" id="4UC">
<g cb-classname="SignalConnection" cb-graphic-line="$439$" cb-input-pin="$jBw$" id="4YG"/>
<line cb-classname="GraphicLineEntity" class="signalline" id="4UU" stroke="#1e12bf" stroke-dasharray="5,4" x1="1210" x2="1620" y1="870" y2="870"/>
</g>
</g>
<rect cb-classname="GraphicRectangleEntity" class="algorithm" height="40" id="4IG" width="80" x="1110" y="850"/>
<line cb-classname="GraphicLineEntity" class="algorithmline" id="4IF" x1="1158" x2="1138" y1="850" y2="890"/>
<line cb-classname="GraphicLineEntity" class="algorithmline" id="4Iw" x1="1162" x2="1142" y1="850" y2="890"/>
<text baseline-shift="-50%" cb-classname="GraphicTextEntity" class="algorithm" id="4Ir" text-anchor="middle" x="1126" y="869">
H
</text>
<g cb-classname="DynamicText" cb-labeled="true" cb-source="gz-jOM-t7on" class="algorithm" id="4Mn" text-anchor="start">
<text cb-classname="GraphicTextEntity" class="algorithm" fill="black" font-style="normal" font-weight="normal" id="4MU" text-anchor="start" text-decoration="normal" x="1110" y="840"/>
</g>
<g cb-classname="DynamicText" cb-labeled="true" cb-source="3k-6xs-eOCP" class="algorithm" id="4QG" text-anchor="start">
<text cb-classname="GraphicTextEntity" class="algorithm" fill="black" font-style="normal" font-weight="normal" id="4QF" text-anchor="start" text-decoration="normal" x="1110" y="820"/>
</g>
</g>
<g cb-alg-mN="$390$cb-alg-out$" cb-algorithm-id="004" cb-classname="ExternalPointInterface" cb-function-name="OUTPUT" id="1Yn">
<ellipse cb-classname="GraphicEllipseEntity" class="algorithm" cx="1700" cy="870" id="1YU" rx="50" ry="50"/>
<rect cb-classname="GraphicRectangleEntity" class="algorithm" height="100" id="1ZG" width="40" x="1750" y="820"/>
<line cb-classname="GraphicLineEntity" class="algorithm" id="1ZF" x1="1750" x2="1790" y1="870" y2="870"/>
<g cb-classname="ControlPin" cb-pin-name="M8-cDX-Rh" id="1Zw">
<line cb-classname="GraphicLineEntity" class="signalline" id="1Zr" x1="1620" x2="1650" y1="870" y2="870"/>
<polygon cb-classname="GraphicPolygonEntity" class="signal" id="1Z4" points="1650,870 1639,864 1639,875"/>
<g cb-classname="DynamicText" cb-source="mh-gRh-Z1r5" class="signal" id="1Zb" text-anchor="end">
<text cb-classname="GraphicTextEntity" class="signal" fill="black" font-style="normal" font-weight="normal" id="1ZC" text-anchor="end" text-decoration="normal" x="1635" y="867"/>
</g>
</g>
<g cb-classname="PointStatusIndicator" cb-indicator-type="highway" cb-source="PN-OJ1-ak" id="1ZO" visibility="hidden">
<line cb-classname="GraphicLineEntity" class="algorithmline" id="1Zn" x1="1650" x2="1700" y1="870" y2="820"/>
<line cb-classname="GraphicLineEntity" class="algorithmline" id="1ZU" x1="1700" x2="1750" y1="820" y2="870"/>
<line cb-classname="GraphicLineEntity" class="algorithmline" id="1RG" x1="1750" x2="1700" y1="870" y2="920"/>
<line cb-classname="GraphicLineEntity" class="algorithmline" id="1RF" x1="1700" x2="1650" y1="920" y2="870"/>
</g>
<g cb-classname="PointStatusIndicator" cb-indicator-type="hardware" cb-source="rq-CRl-j8" id="1Rw" visibility="hidden">
<line cb-classname="GraphicLineEntity" class="algorithmline" id="1Rr" x1="1750" x2="1650" y1="820" y2="820"/>
<line cb-classname="GraphicLineEntity" class="algorithmline" id="1R4" x1="1650" x2="1650" y1="820" y2="920"/>
<line cb-classname="GraphicLineEntity" class="algorithmline" id="1Rb" x1="1650" x2="1750" y1="920" y2="920"/>
</g>
<g cb-classname="PointStatusIndicator" cb-indicator-type="alarm" cb-source="FB-Pc7-C5" id="1RC" visibility="hidden">
<text cb-classname="GraphicTextEntity" class="algorithm" fill="#000000" font-family="Arial" font-size="20" id="1RO" x="1760" y="905">
A
</text>
</g>
<g cb-classname="PointStatusIndicator" cb-indicator-type="ingraphic" cb-source="mh-9gO-Db" id="1Rn" visibility="hidden">
<text cb-classname="GraphicTextEntity" class="algorithm" fill="#000000" font-family="Arial" font-size="20" id="1RU" x="1760" y="855">
G
</text>
</g>
<g cb-classname="DynamicText" cb-labeled="false" cb-pin-name="GE" cb-source="PN-OJ1-ak" class="algorithm" id="1JG" text-anchor="end">
<text baseline-shift="0%" cb-classname="GraphicTextEntity" class="algorithm" fill="black" font-family="arial" font-size="20" font-style="normal" font-weight="normal" id="1JF" text-anchor="end" text-decoration="normal" x="1625" y="845"/>
</g>
<g baseline-shift="-100%" cb-anchor-x="1625" cb-anchor-y="880" cb-classname="PointReferences" cb-max-width="130" cb-originator="false" cb-source="9E-xjF-7q" class="signal" id="1Jw" text-anchor="end">
<text baseline-shift="-100%" cb-classname="GraphicTextEntity" class="algorithm" id="1Jr" text-anchor="end" x="1625" y="880">
REF: Point not
</text>
<text baseline-shift="-100%" cb-classname="GraphicTextEntity" class="algorithm" id="1Qwj" text-anchor="end" x="1625" y="905">
found in
</text>
<text baseline-shift="-100%" cb-classname="GraphicTextEntity" class="algorithm" id="1Qwh" text-anchor="end" x="1625" y="930">
database
</text>
<text baseline-shift="-100%" cb-classname="GraphicTextEntity" class="algorithm" id="1Qwr" text-anchor="end" x="1625" y="955">
(01FT102-H01)
</text>
</g>
<g baseline-shift="-50%" cb-anchor-x="1805" cb-anchor-y="885" cb-classname="PointDescription" cb-content="extended" cb-labeled="false" cb-max-width="240" cb-source="Ut-R6m-OH" class="algorithm" id="1J4" text-anchor="start">
<text baseline-shift="-50%" cb-classname="GraphicTextEntity" class="algorithm" id="1Jb" text-anchor="start" x="1805" y="873">
DESC: Point not found in
</text>
<text baseline-shift="-50%" cb-classname="GraphicTextEntity" class="algorithm" id="2YC" text-anchor="start" x="1805" y="898">
database (01FT102-H01)
</text>
</g>
</g>
<g cb-alg-15s="$64$cb-alg-out$" cb-alg-LMJr="60" cb-alg-duH="01FT102-L01" cb-alg-pLoE="3" cb-alg-pLpJ="90" cb-algorithm-id="00c" cb-classname="ControlAlgorithm" cb-function-name="LOWMON" cb-modify-id="00000002" id="4I4">
<g cb-classname="ControlPin" cb-pin-name="gz-jOM-XtO" id="4Ib">
<line cb-classname="GraphicLineEntity" class="signalline" id="4IC" x1="1090" x2="1110" y1="1050" y2="1050"/>
<polygon cb-classname="GraphicPolygonEntity" class="signal" id="4IO" points="1110,1050 1099,1046 1099,1054"/>
<g cb-classname="DynamicText" cb-source="Ut-6Xt-ePDq" class="signal" id="4In" text-anchor="end">
<text baseline-shift="5%" cb-classname="GraphicTextEntity" class="signal" fill="black" font-style="normal" font-weight="normal" id="4IU" text-anchor="end" text-decoration="normal" x="1107" y="1042"/>
</g>
</g>
<g cb-classname="ControlPin" cb-pin-name="ie-fCp-Lut" id="4MG">
<line cb-classname="GraphicLineEntity" class="signalline" id="4MF" x1="1190" x2="1210" y1="1050" y2="1050"/>
<g cb-classname="DynamicText" cb-source="M8-Dj8-nU9B" class="signal" id="4Mw">
<text baseline-shift="5%" cb-classname="GraphicTextEntity" class="signal" fill="black" font-style="normal" font-weight="normal" id="4Mr" text-decoration="normal" x="1205" y="1042"/>
</g>
<g cb-classname="SignalSegment" id="4YF">
<g cb-classname="SignalConnection" cb-graphic-line="$444$" cb-input-pin="$QGP$" id="4Yb"/>
<line cb-classname="GraphicLineEntity" class="signalline" id="4Y4" stroke="#1e12bf" stroke-dasharray="5,4" x1="1210" x2="1620" y1="1050" y2="1050"/>
</g>
</g>
<rect cb-classname="GraphicRectangleEntity" class="algorithm" height="40" id="4M4" width="80" x="1110" y="1030"/>
<line cb-classname="GraphicLineEntity" class="algorithmline" id="4Mb" x1="1158" x2="1138" y1="1030" y2="1070"/>
<line cb-classname="GraphicLineEntity" class="algorithmline" id="4MC" x1="1162" x2="1142" y1="1030" y2="1070"/>
<text baseline-shift="-50%" cb-classname="GraphicTextEntity" class="algorithm" id="4MO" text-anchor="middle" x="1175" y="1049">
L
</text>
<g cb-classname="DynamicText" cb-labeled="true" cb-source="rq-CRl-DLob" class="algorithm" id="4Qw" text-anchor="start">
<text cb-classname="GraphicTextEntity" class="algorithm" fill="black" font-style="normal" font-weight="normal" id="4Qr" text-anchor="start" text-decoration="normal" x="1110" y="1020"/>
</g>
<g cb-classname="DynamicText" cb-labeled="true" cb-source="1H-Dfa-PoPU" class="algorithm" id="4Q4" text-anchor="start">
<text cb-classname="GraphicTextEntity" class="algorithm" fill="black" font-style="normal" font-weight="normal" id="4Qb" text-anchor="start" text-decoration="normal" x="1110" y="1000"/>
</g>
</g>
<g cb-alg-pE="$404$cb-alg-out$" cb-algorithm-id="006" cb-classname="ExternalPointInterface" cb-function-name="OUTPUT" id="2Iw">
<ellipse cb-classname="GraphicEllipseEntity" class="algorithm" cx="1700" cy="1050" id="2Ir" rx="50" ry="50"/>
<rect cb-classname="GraphicRectangleEntity" class="algorithm" height="100" id="2I4" width="40" x="1750" y="1000"/>
<line cb-classname="GraphicLineEntity" class="algorithm" id="2Ib" x1="1750" x2="1790" y1="1050" y2="1050"/>
<g cb-classname="ControlPin" cb-pin-name="sn-gPJ-fZ" id="2IC">
<line cb-classname="GraphicLineEntity" class="signalline" id="2IO" x1="1620" x2="1650" y1="1050" y2="1050"/>
<polygon cb-classname="GraphicPolygonEntity" class="signal" id="2In" points="1650,1050 1639,1044 1639,1055"/>
<g cb-classname="DynamicText" cb-source="PN-JmN-EC6z" class="signal" id="2IU" text-anchor="end">
<text cb-classname="GraphicTextEntity" class="signal" fill="black" font-style="normal" font-weight="normal" id="2MG" text-anchor="end" text-decoration="normal" x="1635" y="1047"/>
</g>
</g>
<g cb-classname="PointStatusIndicator" cb-indicator-type="highway" cb-source="9E-xjF-7q" id="2MF" visibility="hidden">
<line cb-classname="GraphicLineEntity" class="algorithmline" id="2Mw" x1="1650" x2="1700" y1="1050" y2="1000"/>
<line cb-classname="GraphicLineEntity" class="algorithmline" id="2Mr" x1="1700" x2="1750" y1="1000" y2="1050"/>
<line cb-classname="GraphicLineEntity" class="algorithmline" id="2M4" x1="1750" x2="1700" y1="1050" y2="1100"/>
<line cb-classname="GraphicLineEntity" class="algorithmline" id="2Mb" x1="1700" x2="1650" y1="1100" y2="1050"/>
</g>
<g cb-classname="PointStatusIndicator" cb-indicator-type="hardware" cb-source="1H-Dfa-6n" id="2MC" visibility="hidden">
<line cb-classname="GraphicLineEntity" class="algorithmline" id="2MO" x1="1750" x2="1650" y1="1000" y2="1000"/>
<line cb-classname="GraphicLineEntity" class="algorithmline" id="2Mn" x1="1650" x2="1650" y1="1000" y2="1100"/>
<line cb-classname="GraphicLineEntity" class="algorithmline" id="2MU" x1="1650" x2="1750" y1="1100" y2="1100"/>
</g>
<g cb-classname="PointStatusIndicator" cb-indicator-type="alarm" cb-source="mh-9gO-Db" id="2QG" visibility="hidden">
<text cb-classname="GraphicTextEntity" class="algorithm" fill="#000000" font-family="Arial" font-size="20" id="2QF" x="1760" y="1085">
A
</text>
</g>
<g cb-classname="PointStatusIndicator" cb-indicator-type="ingraphic" cb-source="PN-OJ1-ak" id="2Qw" visibility="visible">
<text cb-classname="GraphicTextEntity" class="algorithm" fill="#000000" font-family="Arial" font-size="20" id="2Qr" x="1760" y="1035">
G
</text>
</g>
<g cb-classname="DynamicText" cb-labeled="false" cb-pin-name="It" cb-source="9E-xjF-7q" class="algorithm" id="2Q4" text-anchor="end">
<text baseline-shift="0%" cb-classname="GraphicTextEntity" class="algorithm" fill="black" font-family="arial" font-size="20" font-style="normal" font-weight="normal" id="2Qb" text-anchor="end" text-decoration="normal" x="1625" y="1025"/>
</g>
<g baseline-shift="-100%" cb-anchor-x="1625" cb-anchor-y="1060" cb-classname="PointReferences" cb-max-width="130" cb-originator="false" cb-source="Ut-R6m-OH" class="signal" id="2QC" text-anchor="end">
<text baseline-shift="-100%" cb-classname="GraphicTextEntity" class="algorithm" id="2QO" text-anchor="end" x="1625" y="1060">
REF: Point not
</text>
<text baseline-shift="-100%" cb-classname="GraphicTextEntity" class="algorithm" id="1Qrs" text-anchor="end" x="1625" y="1085">
found in
</text>
<text baseline-shift="-100%" cb-classname="GraphicTextEntity" class="algorithm" id="1Qr2" text-anchor="end" x="1625" y="1110">
database
</text>
<text baseline-shift="-100%" cb-classname="GraphicTextEntity" class="algorithm" id="1Qri" text-anchor="end" x="1625" y="1135">
(01FT102-L01)
</text>
</g>
<g baseline-shift="-50%" cb-anchor-x="1805" cb-anchor-y="1065" cb-classname="PointDescription" cb-content="extended" cb-labeled="false" cb-max-width="240" cb-source="M8-cDX-Rh" class="algorithm" id="2UG" text-anchor="start">
<text baseline-shift="-50%" cb-classname="GraphicTextEntity" class="algorithm" id="2UF" text-anchor="start" x="1805" y="1053">
DESC: Point not found in
</text>
<text baseline-shift="-50%" cb-classname="GraphicTextEntity" class="algorithm" id="2YO" text-anchor="start" x="1805" y="1078">
database (01FT102-L01)
</text>
</g>
</g>
<g cb-alg-d1Fr="NO" cb-alg-duH="01FT103" cb-algorithm-id="002" cb-classname="ExternalPointInterface" cb-function-name="INPUT" id="2Yn">
<ellipse cb-classname="GraphicEllipseEntity" class="algorithm" cx="670" cy="1580" id="2YU" rx="50" ry="50"/>
<rect cb-classname="GraphicRectangleEntity" class="algorithm" height="40" id="2ZG" width="100" x="620" y="1490"/>
<line cb-classname="GraphicLineEntity" class="algorithm" id="2ZF" x1="670" x2="670" y1="1530" y2="1490"/>
<g cb-classname="ControlPin" cb-pin-name="Ut-R6m-ouE" id="2Zw">
<line cb-classname="GraphicLineEntity" class="signalline" id="2Zr" x1="670" x2="670" y1="1630" y2="1660"/>
<g cb-classname="DynamicText" cb-source="ie-CJe-89PH" class="signal" id="2Z4" text-anchor="end">
<text cb-classname="GraphicTextEntity" class="signal" fill="black" font-style="normal" font-weight="normal" id="2Zb" text-anchor="end" text-decoration="normal" transform="translate(662,1647)rotate(-90)"/>
</g>
<g cb-classname="SignalSegment" id="2ZC">
<line cb-classname="GraphicLineEntity" class="signalline" id="2ZO" x1="670" x2="670" y1="1660" y2="1930"/>
<g cb-classname="SignalSegment" id="2Zn">
<line cb-classname="GraphicLineEntity" class="signalline" id="4Bb" x1="670" x2="1090" y1="1930" y2="1930"/>
<g cb-classname="SignalConnection" cb-graphic-line="$485$" cb-input-pin="$4Yf$" id="4BC"/>
<line cb-classname="GraphicLineEntity" class="signalline" id="4BO" x1="670" x2="670" y1="1930" y2="2110"/>
<g cb-classname="SignalSegment" id="4Bn">
<line cb-classname="GraphicLineEntity" class="signalline" id="4BU" x1="670" x2="1090" y1="2110" y2="2110"/>
<g cb-classname="SignalConnection" cb-graphic-line="$489$" cb-input-pin="$4r8$" id="43G"/>
</g>
<ellipse cb-classname="GraphicEllipseEntity" class="signal" cx="670" cy="1930" id="43F" rx="5" ry="5"/>
</g>
</g>
</g>
<g cb-classname="PointStatusIndicator" cb-indicator-type="Highway" cb-source="rq-CRl-duk" id="2RC" visibility="hidden">
<line cb-classname="GraphicLineEntity" class="algorithmline" id="2RO" x1="670" x2="620" y1="1530" y2="1580"/>
<line cb-classname="GraphicLineEntity" class="algorithmline" id="2Rn" x1="620" x2="670" y1="1580" y2="1630"/>
<line cb-classname="GraphicLineEntity" class="algorithmline" id="2RU" x1="670" x2="720" y1="1630" y2="1580"/>
<line cb-classname="GraphicLineEntity" class="algorithmline" id="2JG" x1="720" x2="670" y1="1580" y2="1530"/>
</g>
<g cb-classname="PointStatusIndicator" cb-indicator-type="hardware" cb-source="sn-gPJ-Lu8" id="2JF" visibility="visible">
<line cb-classname="GraphicLineEntity" class="algorithmline" id="2Jw" x1="620" x2="620" y1="1530" y2="1630"/>
<line cb-classname="GraphicLineEntity" class="algorithmline" id="2Jr" x1="620" x2="720" y1="1630" y2="1630"/>
<line cb-classname="GraphicLineEntity" class="algorithmline" id="2J4" x1="720" x2="720" y1="1630" y2="1530"/>
</g>
<g cb-classname="PointStatusIndicator" cb-indicator-type="alarm" cb-source="gz-jOM-duT" id="2Jb" visibility="hidden">
<text baseline-shift="-50%" cb-classname="GraphicTextEntity" class="algorithm" fill="#000000" font-family="MS Shell Dlg" font-size="20" id="2JC" text-anchor="middle" x="645" y="1500">
A
</text>
</g>
<g cb-classname="PointStatusIndicator" cb-indicator-type="ingraphic" cb-source="3k-6xs-Vuz" id="2JO" visibility="visible">
<text baseline-shift="-50%" cb-classname="GraphicTextEntity" class="algorithm" fill="#000000" font-family="MS Shell Dlg" font-size="20" id="2Jn" text-anchor="middle" x="695" y="1500">
G
</text>
</g>
<g cb-classname="DynamicText" cb-labeled="false" cb-pin-name="fmH" cb-source="rq-CRl-duk" class="algorithm" id="2JU" text-anchor="middle">
<text cb-classname="GraphicTextEntity" class="algorithm" fill="black" font-family="arial" font-size="20" font-style="normal" font-weight="normal" id="2BG" text-anchor="middle" text-decoration="normal" x="670" y="1470"/>
</g>
<g baseline-shift="-100%" cb-anchor-x="690" cb-anchor-y="1650" cb-classname="PointReferences" cb-max-width="160" cb-originator="true" cb-source="1H-Dfa-Vuq" class="signal" id="2BF" text-anchor="start">
<text baseline-shift="-100%" cb-classname="GraphicTextEntity" class="algorithm" id="2Bw" text-anchor="start" x="690" y="1650">
REF: Point not
</text>
<text baseline-shift="-100%" cb-classname="GraphicTextEntity" class="algorithm" id="1QrT" text-anchor="start" x="690" y="1675">
found in database
</text>
<text baseline-shift="-100%" cb-classname="GraphicTextEntity" class="algorithm" id="1Qrf" text-anchor="start" x="690" y="1700">
(01FT103)
</text>
</g>
<g baseline-shift="0%" cb-anchor-x="670" cb-anchor-y="1430" cb-classname="PointDescription" cb-content="extended" cb-labeled="false" cb-max-width="240" cb-source="FB-Pc7-duH" class="algorithm" id="2Br" text-anchor="middle">
<text baseline-shift="0%" cb-classname="GraphicTextEntity" class="algorithm" id="2B4" text-anchor="middle" x="670" y="1405">
DESC: Point not found in
</text>
<text baseline-shift="0%" cb-classname="GraphicTextEntity" class="algorithm" id="3Br" text-anchor="middle" x="670" y="1430">
database (01FT103)
</text>
</g>
</g>
<g cb-alg-Tm7x="300" cb-alg-TmVq="5" cb-alg-dmxM="63" cb-alg-oun="01FT103-H01" cb-alg-sTp="$248$cb-alg-out$" cb-algorithm-id="003" cb-classname="ControlAlgorithm" cb-function-name="HIGHMON" cb-modify-id="00000002" id="4YC">
<g cb-classname="ControlPin" cb-pin-name="Ut-R6m-OH6" id="4YO">
<line cb-classname="GraphicLineEntity" class="signalline" id="4Yn" x1="1090" x2="1110" y1="1930" y2="1930"/>
<polygon cb-classname="GraphicPolygonEntity" class="signal" id="4YU" points="1110,1930 1099,1926 1099,1934"/>
<g cb-classname="DynamicText" cb-source="1H-fOH-B3g8" class="signal" id="4ZG" text-anchor="end">
<text baseline-shift="5%" cb-classname="GraphicTextEntity" class="signal" fill="black" font-style="normal" font-weight="normal" id="4ZF" text-anchor="end" text-decoration="normal" x="1110" y="1922"/>
</g>
</g>
<g cb-classname="ControlPin" cb-pin-name="FB-Pc7-duH" id="4Zw">
<line cb-classname="GraphicLineEntity" class="signalline" id="4Zr" x1="1190" x2="1210" y1="1930" y2="1930"/>
<g cb-classname="DynamicText" cb-source="mh-gRh-Z1r5" class="signal" id="4Z4">
<text baseline-shift="5%" cb-classname="GraphicTextEntity" class="signal" fill="black" font-style="normal" font-weight="normal" id="4Zb" text-decoration="normal" x="1205" y="1922"/>
</g>
<g cb-classname="SignalSegment" id="43w">
<g cb-classname="SignalConnection" cb-graphic-line="$495$" cb-input-pin="$iI1$" id="43C"/>
<line cb-classname="GraphicLineEntity" class="signalline" id="43b" stroke="#1e12bf" stroke-dasharray="5,4" x1="1210" x2="1620" y1="1930" y2="1930"/>
</g>
</g>
<rect cb-classname="GraphicRectangleEntity" class="algorithm" height="40" id="4ZC" width="80" x="1110" y="1910"/>
<line cb-classname="GraphicLineEntity" class="algorithmline" id="4ZO" x1="1158" x2="1138" y1="1910" y2="1950"/>
<line cb-classname="GraphicLineEntity" class="algorithmline" id="4Zn" x1="1162" x2="1142" y1="1910" y2="1950"/>
<text baseline-shift="-50%" cb-classname="GraphicTextEntity" class="algorithm" id="4ZU" text-anchor="middle" x="1126" y="1929">
H
</text>
<g cb-classname="DynamicText" cb-labeled="true" cb-source="Ut-R6m-HjVZ" class="algorithm" id="4RG" text-anchor="start">
<text cb-classname="GraphicTextEntity" class="algorithm" fill="black" font-style="normal" font-weight="normal" id="4RF" text-anchor="start" text-decoration="normal" x="1110" y="1900"/>
</g>
<g cb-classname="DynamicText" cb-labeled="true" cb-source="ie-fCp-B6c3" class="algorithm" id="4Rw" text-anchor="start">
<text cb-classname="GraphicTextEntity" class="algorithm" fill="black" font-style="normal" font-weight="normal" id="4Rr" text-anchor="start" text-decoration="normal" x="1110" y="1880"/>
</g>
</g>
<g cb-alg-lz="$446$cb-alg-out$" cb-algorithm-id="008" cb-classname="ExternalPointInterface" cb-function-name="OUTPUT" id="3Ib">
<ellipse cb-classname="GraphicEllipseEntity" class="algorithm" cx="1700" cy="1930" id="3IC" rx="50" ry="50"/>
<rect cb-classname="GraphicRectangleEntity" class="algorithm" height="100" id="3IO" width="40" x="1750" y="1880"/>
<line cb-classname="GraphicLineEntity" class="algorithm" id="3In" x1="1750" x2="1790" y1="1930" y2="1930"/>
<g cb-classname="ControlPin" cb-pin-name="FB-Pc7-C5" id="3IU">
<line cb-classname="GraphicLineEntity" class="signalline" id="3MG" x1="1620" x2="1650" y1="1930" y2="1930"/>
<polygon cb-classname="GraphicPolygonEntity" class="signal" id="3MF" points="1650,1930 1639,1924 1639,1935"/>
<g cb-classname="DynamicText" cb-source="cT-7sT-zRxN" class="signal" id="3Mw" text-anchor="end">
<text cb-classname="GraphicTextEntity" class="signal" fill="black" font-style="normal" font-weight="normal" id="3Mr" text-anchor="end" text-decoration="normal" x="1635" y="1927"/>
</g>
</g>
<g cb-classname="PointStatusIndicator" cb-indicator-type="highway" cb-source="gz-jOM-Xt" id="3M4" visibility="hidden">
<line cb-classname="GraphicLineEntity" class="algorithmline" id="3Mb" x1="1650" x2="1700" y1="1930" y2="1880"/>
<line cb-classname="GraphicLineEntity" class="algorithmline" id="3MC" x1="1700" x2="1750" y1="1880" y2="1930"/>
<line cb-classname="GraphicLineEntity" class="algorithmline" id="3MO" x1="1750" x2="1700" y1="1930" y2="1980"/>
<line cb-classname="GraphicLineEntity" class="algorithmline" id="3Mn" x1="1700" x2="1650" y1="1980" y2="1930"/>
</g>
<g cb-classname="PointStatusIndicator" cb-indicator-type="hardware" cb-source="ie-fCp-xB" id="3MU" visibility="hidden">
<line cb-classname="GraphicLineEntity" class="algorithmline" id="3QG" x1="1750" x2="1650" y1="1880" y2="1880"/>
<line cb-classname="GraphicLineEntity" class="algorithmline" id="3QF" x1="1650" x2="1650" y1="1880" y2="1980"/>
<line cb-classname="GraphicLineEntity" class="algorithmline" id="3Qw" x1="1650" x2="1750" y1="1980" y2="1980"/>
</g>
<g cb-classname="PointStatusIndicator" cb-indicator-type="alarm" cb-source="sn-gPJ-fZ" id="3Qr" visibility="hidden">
<text cb-classname="GraphicTextEntity" class="algorithm" fill="#000000" font-family="Arial" font-size="20" id="3Q4" x="1760" y="1965">
A
</text>
</g>
<g cb-classname="PointStatusIndicator" cb-indicator-type="ingraphic" cb-source="cT-J7i-pE" id="3Qb" visibility="hidden">
<text cb-classname="GraphicTextEntity" class="algorithm" fill="#000000" font-family="Arial" font-size="20" id="3QC" x="1760" y="1915">
G
</text>
</g>
<g cb-classname="DynamicText" cb-labeled="false" cb-pin-name="0k" cb-source="gz-jOM-Xt" class="algorithm" id="3QO" text-anchor="end">
<text baseline-shift="0%" cb-classname="GraphicTextEntity" class="algorithm" fill="black" font-family="arial" font-size="20" font-style="normal" font-weight="normal" id="3Qn" text-anchor="end" text-decoration="normal" x="1625" y="1905"/>
</g>
<g baseline-shift="-100%" cb-anchor-x="1625" cb-anchor-y="1940" cb-classname="PointReferences" cb-max-width="130" cb-originator="false" cb-source="3k-6xs-Je" class="signal" id="3QU" text-anchor="end">
<text baseline-shift="-100%" cb-classname="GraphicTextEntity" class="algorithm" id="3UG" text-anchor="end" x="1625" y="1940">
REF: Point not
</text>
<text baseline-shift="-100%" cb-classname="GraphicTextEntity" class="algorithm" id="1Qrh" text-anchor="end" x="1625" y="1965">
found in
</text>
<text baseline-shift="-100%" cb-classname="GraphicTextEntity" class="algorithm" id="1Qrr" text-anchor="end" x="1625" y="1990">
database
</text>
<text baseline-shift="-100%" cb-classname="GraphicTextEntity" class="algorithm" id="1Q40" text-anchor="end" x="1625" y="2015">
(01FT103-H01)
</text>
</g>
<g baseline-shift="-50%" cb-anchor-x="1805" cb-anchor-y="1945" cb-classname="PointDescription" cb-content="extended" cb-labeled="false" cb-max-width="240" cb-source="ie-fCp-xB" class="algorithm" id="3Uw" text-anchor="start">
<text baseline-shift="-50%" cb-classname="GraphicTextEntity" class="algorithm" id="3Ur" text-anchor="start" x="1805" y="1933">
DESC: Point not found in
</text>
<text baseline-shift="-50%" cb-classname="GraphicTextEntity" class="algorithm" id="3Bn" text-anchor="start" x="1805" y="1958">
database (01FT103-H01)
</text>
</g>
</g>
<g cb-alg-6L6D="90" cb-alg-6Lon="3" cb-alg-L7Dp="60" cb-alg-XtO="$248$cb-alg-out$" cb-alg-duT="01FT103-L01" cb-algorithm-id="005" cb-classname="ControlAlgorithm" cb-function-name="LOWMON" cb-modify-id="00000002" id="4R4">
<g cb-classname="ControlPin" cb-pin-name="FB-Pc7-C5c" id="4Rb">
<line cb-classname="GraphicLineEntity" class="signalline" id="4RC" x1="1090" x2="1110" y1="2110" y2="2110"/>
<polygon cb-classname="GraphicPolygonEntity" class="signal" id="4RO" points="1110,2110 1099,2106 1099,2114"/>
<g cb-classname="DynamicText" cb-source="cT-7sT-zRxN" class="signal" id="4Rn" text-anchor="end">
<text baseline-shift="5%" cb-classname="GraphicTextEntity" class="signal" fill="black" font-style="normal" font-weight="normal" id="4RU" text-anchor="end" text-decoration="normal" x="1107" y="2102"/>
</g>
</g>
<g cb-classname="ControlPin" cb-pin-name="gz-jOM-duT" id="4JG">
<line cb-classname="GraphicLineEntity" class="signalline" id="4JF" x1="1190" x2="1210" y1="2110" y2="2110"/>
<g cb-classname="DynamicText" cb-source="3k-xak-qcft" class="signal" id="4Jw">
<text baseline-shift="5%" cb-classname="GraphicTextEntity" class="signal" fill="black" font-style="normal" font-weight="normal" id="4Jr" text-decoration="normal" x="1205" y="2102"/>
</g>
<g cb-classname="SignalSegment" id="43O">
<g cb-classname="SignalConnection" cb-graphic-line="$500$" cb-input-pin="$mqE$" id="5IF"/>
<line cb-classname="GraphicLineEntity" class="signalline" id="5IG" stroke="#1e12bf" stroke-dasharray="5,4" x1="1210" x2="1620" y1="2110" y2="2110"/>
</g>
</g>
<rect cb-classname="GraphicRectangleEntity" class="algorithm" height="40" id="4J4" width="80" x="1110" y="2090"/>
<line cb-classname="GraphicLineEntity" class="algorithmline" id="4Jb" x1="1158" x2="1138" y1="2090" y2="2130"/>
<line cb-classname="GraphicLineEntity" class="algorithmline" id="4JC" x1="1162" x2="1142" y1="2090" y2="2130"/>
<text baseline-shift="-50%" cb-classname="GraphicTextEntity" class="algorithm" id="4JO" text-anchor="middle" x="1175" y="2109">
L
</text>
<g cb-classname="DynamicText" cb-labeled="true" cb-source="FB-Pc7-9LoE" class="algorithm" id="4Jn" text-anchor="start">
<text cb-classname="GraphicTextEntity" class="algorithm" fill="black" font-style="normal" font-weight="normal" id="4JU" text-anchor="start" text-decoration="normal" x="1110" y="2080"/>
</g>
<g cb-classname="DynamicText" cb-labeled="true" cb-source="mh-9gO-UoUM" class="algorithm" id="4BG" text-anchor="start">
<text cb-classname="GraphicTextEntity" class="algorithm" fill="black" font-style="normal" font-weight="normal" id="4BF" text-anchor="start" text-decoration="normal" x="1110" y="2060"/>
</g>
</g>
<g cb-alg-Fb="$464$cb-alg-out$" cb-algorithm-id="00a" cb-classname="ExternalPointInterface" cb-function-name="OUTPUT" id="3Z4">
<ellipse cb-classname="GraphicEllipseEntity" class="algorithm" cx="1700" cy="2110" id="3Zb" rx="50" ry="50"/>
<rect cb-classname="GraphicRectangleEntity" class="algorithm" height="100" id="3ZC" width="40" x="1750" y="2060"/>
<line cb-classname="GraphicLineEntity" class="algorithm" id="3ZO" x1="1750" x2="1790" y1="2110" y2="2110"/>
<g cb-classname="ControlPin" cb-pin-name="ie-fCp-xB" id="3Zn">
<line cb-classname="GraphicLineEntity" class="signalline" id="3ZU" x1="1620" x2="1650" y1="2110" y2="2110"/>
<polygon cb-classname="GraphicPolygonEntity" class="signal" id="3RG" points="1650,2110 1639,2104 1639,2115"/>
<g cb-classname="DynamicText" cb-source="FB-cxB-hr3n" class="signal" id="3RF" text-anchor="end">
<text cb-classname="GraphicTextEntity" class="signal" fill="black" font-style="normal" font-weight="normal" id="3Rw" text-anchor="end" text-decoration="normal" x="1635" y="2107"/>
</g>
</g>
<g cb-classname="PointStatusIndicator" cb-indicator-type="highway" cb-source="mh-9gO-Db" id="3Rr" visibility="hidden">
<line cb-classname="GraphicLineEntity" class="algorithmline" id="3R4" x1="1650" x2="1700" y1="2110" y2="2060"/>
<line cb-classname="GraphicLineEntity" class="algorithmline" id="3Rb" x1="1700" x2="1750" y1="2060" y2="2110"/>
<line cb-classname="GraphicLineEntity" class="algorithmline" id="3RC" x1="1750" x2="1700" y1="2110" y2="2160"/>
<line cb-classname="GraphicLineEntity" class="algorithmline" id="3RO" x1="1700" x2="1650" y1="2160" y2="2110"/>
</g>
<g cb-classname="PointStatusIndicator" cb-indicator-type="hardware" cb-source="3k-6xs-Je" id="3Rn" visibility="hidden">
<line cb-classname="GraphicLineEntity" class="algorithmline" id="3RU" x1="1750" x2="1650" y1="2060" y2="2060"/>
<line cb-classname="GraphicLineEntity" class="algorithmline" id="3JG" x1="1650" x2="1650" y1="2060" y2="2160"/>
<line cb-classname="GraphicLineEntity" class="algorithmline" id="3JF" x1="1650" x2="1750" y1="2160" y2="2160"/>
</g>
<g cb-classname="PointStatusIndicator" cb-indicator-type="alarm" cb-source="1H-Dfa-6n" id="3Jw" visibility="hidden">
<text cb-classname="GraphicTextEntity" class="algorithm" fill="#000000" font-family="Arial" font-size="20" id="3Jr" x="1760" y="2145">
A
</text>
</g>
<g cb-classname="PointStatusIndicator" cb-indicator-type="ingraphic" cb-source="FB-Pc7-C5" id="3J4" visibility="visible">
<text cb-classname="GraphicTextEntity" class="algorithm" fill="#000000" font-family="Arial" font-size="20" id="3Jb" x="1760" y="2095">
G
</text>
</g>
<g cb-classname="DynamicText" cb-labeled="false" cb-pin-name="IZ" cb-source="mh-9gO-Db" class="algorithm" id="3JC" text-anchor="end">
<text baseline-shift="0%" cb-classname="GraphicTextEntity" class="algorithm" fill="black" font-family="arial" font-size="20" font-style="normal" font-weight="normal" id="3JO" text-anchor="end" text-decoration="normal" x="1625" y="2085"/>
</g>
<g baseline-shift="-100%" cb-anchor-x="1625" cb-anchor-y="2120" cb-classname="PointReferences" cb-max-width="130" cb-originator="false" cb-source="PN-OJ1-ak" class="signal" id="3Jn" text-anchor="end">
<text baseline-shift="-100%" cb-classname="GraphicTextEntity" class="algorithm" id="3JU" text-anchor="end" x="1625" y="2120">
REF: Point not
</text>
<text baseline-shift="-100%" cb-classname="GraphicTextEntity" class="algorithm" id="1Q42" text-anchor="end" x="1625" y="2145">
found in
</text>
<text baseline-shift="-100%" cb-classname="GraphicTextEntity" class="algorithm" id="1Q4i" text-anchor="end" x="1625" y="2170">
database
</text>
<text baseline-shift="-100%" cb-classname="GraphicTextEntity" class="algorithm" id="1Q4Y" text-anchor="end" x="1625" y="2195">
(01FT103-L01)
</text>
</g>
<g baseline-shift="-50%" cb-anchor-x="1805" cb-anchor-y="2125" cb-classname="PointDescription" cb-content="extended" cb-labeled="false" cb-max-width="240" cb-source="3k-6xs-Je" class="algorithm" id="3BF" text-anchor="start">
<text baseline-shift="-50%" cb-classname="GraphicTextEntity" class="algorithm" id="3Bw" text-anchor="start" x="1805" y="2113">
DESC: Point not found in
</text>
<text baseline-shift="-50%" cb-classname="GraphicTextEntity" class="algorithm" id="3BU" text-anchor="start" x="1805" y="2138">
database (01FT103-L01)
</text>
</g>
</g>
</g>
<g cb-classname="IncludeDocument" cb-modify-time="09/25/2018 01:40:30" cb-objectname="Frame" id="5">
<text cb-classname="GraphicTextEntity" class="frame" font-size="50" id="1UGj" x="3660" y="3146">
Project Title &lt;Edit in FRAME.SVG&gt;
</text>
<g baseline-shift="-50%" cb-classname="DynamicText" cb-source="1H-oJdP-RL" class="frame" id="1UGh">
<text cb-classname="GraphicTextEntity" class="frame" fill="black" font-family="arial" font-size="25" font-style="normal" font-weight="normal" id="1UGr" text-decoration="normal" x="4715" y="3325">
14
</text>
</g>
<g baseline-shift="-50%" cb-classname="DynamicText" cb-source="FB-LjV9-fo" class="frame" id="1UF0" text-anchor="middle">
<text cb-classname="GraphicTextEntity" class="frame" fill="black" font-family="arial" font-size="48" font-style="normal" font-weight="normal" id="1UFs" text-anchor="middle" text-decoration="normal" x="4900" y="3320">
14
</text>
</g>
<g baseline-shift="-50%" cb-classname="DynamicText" cb-source="mh-k3Pq-cL" class="frame" id="1UF2" text-anchor="middle">
<text cb-classname="GraphicTextEntity" class="frame" fill="black" font-family="arial" font-size="48" font-style="normal" font-weight="normal" id="1UFi" text-anchor="middle" text-decoration="normal" x="5067" y="3324">
3
</text>
</g>
<g cb-classname="DynamicText" cb-source="PN-aN5Z5-bJNDt" class="frame" id="1UFY">
<text cb-classname="GraphicTextEntity" class="frame" fill="black" font-family="arial" font-size="48" font-style="normal" font-weight="normal" id="1UFT" text-decoration="normal" x="3660" y="3224">
BFPM FLOW LIMITS
</text>
</g>
<g baseline-shift="-50%" cb-classname="DynamicText" cb-source="9E-7EbTb-euDZeR" class="frame" id="1UFf" text-anchor="middle">
<text cb-classname="GraphicTextEntity" class="frame" fill="black" font-family="arial" font-size="48" font-style="normal" font-weight="normal" id="1UFj" text-anchor="middle" text-decoration="normal" x="5270" y="3324">
001
</text>
</g>
<g baseline-shift="0%" cb-classname="DynamicText" cb-source="Ut-pTyJRjLB" class="frame" id="1UFh" text-anchor="middle">
<text cb-classname="GraphicTextEntity" class="frame" fill="black" font-family="arial" font-size="36" font-style="normal" font-weight="normal" id="1UFr" text-anchor="middle" text-decoration="normal" x="5270" y="3150">
A
</text>
</g>
<g baseline-shift="0%" cb-classname="DynamicText" cb-source="ie-Xzvjf6oh-Hcr5" class="frame" id="1Uw0" text-anchor="middle">
<text cb-classname="GraphicTextEntity" class="frame" fill="black" font-family="arial" font-size="20" font-style="normal" font-weight="normal" id="1Uws" text-anchor="middle" text-decoration="normal" x="5270" y="3230">
12/28/2010
</text>
</g>
<g baseline-shift="-50%" cb-classname="DynamicText" cb-source="M8-EHX6nH8f" class="frame" id="1Uw2" text-anchor="end">
<text cb-classname="GraphicTextEntity" class="frame" fill="black" font-family="arial" font-size="26" font-style="normal" font-weight="normal" id="1Uwi" text-anchor="end" text-decoration="normal" x="4500" y="3420">
Dufek
</text>
</g>
<g baseline-shift="-50%" cb-classname="DynamicText" cb-source="sn-jqyC82nc" class="frame" id="1UwY" text-anchor="end">
<text cb-classname="GraphicTextEntity" class="frame" fill="black" font-family="arial" font-size="26" font-style="normal" font-weight="normal" id="1UwT" text-anchor="end" text-decoration="normal" x="5353" y="3420">
Nemec
</text>
</g>
<g cb-classname="GraphicShape" cb-tag="BORDER" id="1Uwf">
<line cb-classname="GraphicLineEntity" class="frameline" id="1Uwj" x1="40" x2="40" y1="40" y2="3460"/>
<line cb-classname="GraphicLineEntity" class="frameline" id="1Uwh" x1="40" x2="5380" y1="3460" y2="3460"/>
<line cb-classname="GraphicLineEntity" class="frameline" id="1Uwr" x1="5380" x2="5380" y1="3460" y2="40"/>
<line cb-classname="GraphicLineEntity" class="frameline" id="1Ur0" x1="5380" x2="40" y1="40" y2="40"/>
<line cb-classname="GraphicLineEntity" class="frame" id="1Urs" x1="5430" x2="5440" y1="3510" y2="3510"/>
</g>
<g cb-classname="GraphicShape" cb-tag="TITLE BOX" id="1Ur2">
<line cb-classname="GraphicLineEntity" class="frameline" id="1Uri" x1="2340" x2="2340" y1="3080" y2="3460"/>
<line cb-classname="GraphicLineEntity" class="frameline" id="1UrY" x1="2340" x2="5380" y1="3080" y2="3080"/>
<line cb-classname="GraphicLineEntity" class="frameline" id="1UrT" x1="3650" x2="3650" y1="3460" y2="3080"/>
<line cb-classname="GraphicLineEntity" class="frameline" id="1Urf" x1="3650" x2="5380" y1="3240" y2="3240"/>
<line cb-classname="GraphicLineEntity" class="frameline" id="1Urj" x1="3650" x2="5380" y1="3390" y2="3390"/>
<line cb-classname="GraphicLineEntity" class="frameline" id="1Urh" x1="3650" x2="5380" y1="3160" y2="3160"/>
<line cb-classname="GraphicLineEntity" class="frameline" id="1Urr" x1="3650" x2="4520" y1="3320" y2="3320"/>
<line cb-classname="GraphicLineEntity" class="frameline" id="1U40" x1="4520" x2="5380" y1="3290" y2="3290"/>
<line cb-classname="GraphicLineEntity" class="frameline" id="1U4s" x1="4520" x2="5380" y1="3240" y2="3240"/>
<line cb-classname="GraphicLineEntity" class="frameline" id="1U42" x1="4520" x2="4520" y1="3240" y2="3460"/>
<line cb-classname="GraphicLineEntity" class="frameline" id="1U4i" x1="4810" x2="4810" y1="3240" y2="3390"/>
<line cb-classname="GraphicLineEntity" class="frameline" id="1U4Y" x1="4990" x2="4990" y1="3240" y2="3390"/>
<line cb-classname="GraphicLineEntity" class="frameline" id="1U4T" x1="5150" x2="5150" y1="3080" y2="3390"/>
</g>
<g cb-classname="GraphicShape" cb-tag="TEXT LABELS" id="1U4f">
<text baseline-shift="-50%" cb-classname="GraphicTextEntity" class="frame" font-size="25" id="1U4j" text-anchor="middle" x="4890" y="3252">
Drop
</text>
<text baseline-shift="-50%" cb-classname="GraphicTextEntity" class="frame" font-size="25" id="1U4h" text-anchor="middle" x="5075" y="3252">
Task
</text>
<text baseline-shift="-50%" cb-classname="GraphicTextEntity" class="frame" font-size="25" id="1U4r" text-anchor="middle" x="5265" y="3252">
Sheet
</text>
<text cb-classname="GraphicTextEntity" class="frame" font-size="25" id="1Ub0" x="5152" y="3107">
Rev.
</text>
<text cb-classname="GraphicTextEntity" class="frame" font-size="25" id="1Ubs" x="3653" y="3418">
Engineer
</text>
<text cb-classname="GraphicTextEntity" class="frame" font-size="25" id="1Ub2" x="4528" y="3419">
Approved
</text>
<text cb-classname="GraphicTextEntity" class="frame" font-size="25" id="1Ubi" x="5152" y="3187">
Date
</text>
<text baseline-shift="-50%" cb-classname="GraphicTextEntity" class="frame" font-size="25" id="1UbY" text-anchor="middle" x="4660" y="3252">
Drawing Number
</text>
<text baseline-shift="-50%" cb-classname="GraphicTextEntity" class="frame" font-size="25" id="1UbT" text-anchor="middle" x="4680" y="3325">
CTL
</text>
</g>
<text baseline-shift="-50%" cb-classname="GraphicTextEntity" class="frame" font-size="48" id="1Ubf" text-anchor="middle" x="3000" y="3100">
EMERSON PROCESS MANAGEMENT
</text>
<g baseline-shift="-100%" cb-anchor-x="2360" cb-anchor-y="3140" cb-classname="GroupText" cb-max-width="1260" fill="black" id="1Ubj">
<text baseline-shift="-100%" cb-classname="GraphicTextEntity" class="frame" fill="black" font-family="arial" font-size="22" font-weight="normal" id="1Ubh" text-anchor="start" text-decoration="normal" x="2360" y="3140">
THIS DOCUMENT CONTAINS INFORMATION PROPRIETARY TO EMERSON PROCESS
</text>
<text baseline-shift="-100%" cb-classname="GraphicTextEntity" class="frame" fill="black" font-family="arial" font-size="22" font-weight="normal" id="1Ubr" text-anchor="start" text-decoration="normal" x="2360" y="3176">
MANAGEMENT POWER &amp; WATER SOLUTIONS, INC. IT IS SUBMITTED IN CONFIDENCE AND
</text>
<text baseline-shift="-100%" cb-classname="GraphicTextEntity" class="frame" fill="black" font-family="arial" font-size="22" font-weight="normal" id="1UC0" text-anchor="start" text-decoration="normal" x="2360" y="3212">
TRUST, IS TO BE USED BY YOU SOLELY FOR THE PURPOSES FOR WHICH IT IS
</text>
<text baseline-shift="-100%" cb-classname="GraphicTextEntity" class="frame" fill="black" font-family="arial" font-size="22" font-weight="normal" id="1UCs" text-anchor="start" text-decoration="normal" x="2360" y="3248">
FURNISHED AND IS TO BE RETURNED UPON REQUEST. THIS DOCUMENT AND ANY
</text>
<text baseline-shift="-100%" cb-classname="GraphicTextEntity" class="frame" fill="black" font-family="arial" font-size="22" font-weight="normal" id="1UC2" text-anchor="start" text-decoration="normal" x="2360" y="3284">
OTHER INFORMATION PROVIDED TO YOU IS NOT TO BE REPRODUCED, TRANSMITTED,
</text>
<text baseline-shift="-100%" cb-classname="GraphicTextEntity" class="frame" fill="black" font-family="arial" font-size="22" font-weight="normal" id="1UCi" text-anchor="start" text-decoration="normal" x="2360" y="3320">
DISCLOSED, OR USED OTHERWISE IN WHOLE OR IN PART WITHOUT THE PRIOR
</text>
<text baseline-shift="-100%" cb-classname="GraphicTextEntity" class="frame" fill="black" font-family="arial" font-size="22" font-weight="normal" id="1UCY" text-anchor="start" text-decoration="normal" x="2360" y="3356">
WRITTEN AUTHORIZATION OF EMERSON PROCESS MANAGEMENT POWER &amp; WATER
</text>
<text baseline-shift="-100%" cb-classname="GraphicTextEntity" class="frame" fill="black" font-family="arial" font-size="22" font-weight="normal" id="1UCT" text-anchor="start" text-decoration="normal" x="2360" y="3392">
SOLUTIONS,INC.
</text>
</g>
</g>
</svg>