<?xml version="1.0" ?><svg cb-auto-time="01/20/2009 15:26:37" cb-classname="ControlFunction" cb-create-time="03/12/2008" cb-drop-id="15" cb-engineer="Dufek" cb-filename="Z:\OVATION\NET0\UNIT0\CONTROLFUNCTIONS\04D8.svg" cb-function-id="04D8" cb-key="443321525511" cb-modified-timestamp="1489319401" cb-modify-id="00000005" cb-path="Z:/OVATION/NET0/UNIT0/CONTROLFUNCTIONS" cb-reviewer="Nemec" cb-revision="A" cb-revision-time="12/28/2010" cb-sheet-number="103" cb-sheet-title="Generator H2 Gas Temp Control" cb-snap-grid="10" cb-task-id="3" height="3606" id="1" width="5450" xmlns="http://www.w3.org/2000/svg">
<style cb-classname="EntityStyle" id="2" type="text/css">
	.algorithm { fill: white; stroke: black; stroke-linecap: round; stroke-width: 2 }
	.algorithm-function { fill: none; stroke: black; stroke-linecap: round; stroke-width: 2 }
	.algorithm-functionline { fill: none; stroke: black; stroke-linecap: round; stroke-width: 2 }
	.algorithm-name { fill: none; stroke: black; stroke-linecap: round; stroke-width: 2 }
	.algorithm-nameline { fill: none; stroke: black; stroke-linecap: round; stroke-width: 2 }
	.algorithm-sequence { fill: none; stroke: black; stroke-linecap: round; stroke-width: 2 }
	.algorithm-sequenceline { fill: none; stroke: black; stroke-linecap: round; stroke-width: 2 }
	.algorithmline { fill: none; stroke: black; stroke-linecap: round; stroke-width: 2 }
	.annotation { fill: none; stroke: black; stroke-linecap: round; stroke-width: 2 }
	.annotationline { fill: none; stroke: black; stroke-linecap: round; stroke-width: 2 }
	.frame { fill: none; stroke: black; stroke-linecap: round; stroke-width: 2 }
	.frameline { fill: none; stroke: black; stroke-linecap: round; stroke-width: 2 }
	.signal { fill: black; stroke: black; stroke-linecap: round; stroke-width: 2 }
	.signalline { fill: none; stroke: black; stroke-linecap: round; stroke-width: 2 }
	text.algorithm { fill: black; font-family: MS Shell Dlg 2; font-size: 14; stroke: none }
	text.algorithm-function { fill: black; font-family: MS Shell Dlg 2; font-size: 16; stroke: none }
	text.algorithm-name { fill: black; font-family: MS Shell Dlg 2; font-size: 16; stroke: none }
	text.algorithm-sequence { fill: black; font-family: MS Shell Dlg 2; font-size: 16; stroke: none }
	text.annotation { fill: black; font-family: MS Shell Dlg 2; font-size: 16; stroke: none }
	text.frame { fill: black; font-family: MS Shell Dlg 2; font-size: 16; stroke: none }
	text.signal { fill: black; font-family: MS Shell Dlg 2; font-size: 12; stroke: none }
</style>
<g cb-classname="NamedObject" cb-objectname="Comments" id="3"/>
<g cb-classname="AlgorithmContainer" cb-objectname="Algorithms" id="4">
<g cb-alg-d1Vj="TE-337" cb-alg-nRmr="03TE337-SEL" cb-alg-oDox="NO" cb-alg-oa6="01TE337-SEL" cb-algorithm-id="001" cb-classname="ExternalPointInterface" cb-function-name="INPUT" id="6b">
<ellipse cb-classname="GraphicEllipseEntity" class="algorithm" cx="1470" cy="440" id="6y" rx="50" ry="50"/>
<rect cb-classname="GraphicRectangleEntity" class="algorithm" height="40" id="64" width="100" x="1420" y="350"/>
<line cb-classname="GraphicLineEntity" class="algorithm" id="6A" x1="1470" x2="1470" y1="390" y2="350"/>
<g cb-classname="ControlPin" cb-pin-name="Ef-mlF-NfC" id="6S">
<line cb-classname="GraphicLineEntity" class="signalline" id="7Y" x1="1470" x2="1470" y1="490" y2="520"/>
<g cb-classname="DynamicText" cb-source="IT-47Z-IFRf" class="signal" id="7V" text-anchor="end">
<text cb-classname="GraphicTextEntity" class="signal" fill="black" font-style="normal" font-weight="normal" id="7N" text-anchor="end" text-decoration="normal" transform="translate(1462,507)rotate(-90)"/>
</g>
<g cb-classname="SignalSegment" id="1Nb">
<line cb-classname="GraphicLineEntity" class="signalline" id="4ye" x1="1470" x2="1470" y1="520" y2="720"/>
<g cb-classname="SignalConnection" cb-graphic-line="$462$" cb-input-pin="$Hf8$" id="4yb"/>
</g>
</g>
<g cb-classname="PointStatusIndicator" cb-indicator-type="Highway" cb-source="JP-vdU-5h1" id="7z" visibility="hidden">
<line cb-classname="GraphicLineEntity" class="algorithmline" id="7t" x1="1470" x2="1420" y1="390" y2="440"/>
<line cb-classname="GraphicLineEntity" class="algorithmline" id="7b" x1="1420" x2="1470" y1="440" y2="490"/>
<line cb-classname="GraphicLineEntity" class="algorithmline" id="7y" x1="1470" x2="1520" y1="490" y2="440"/>
<line cb-classname="GraphicLineEntity" class="algorithmline" id="74" x1="1520" x2="1470" y1="440" y2="390"/>
</g>
<g cb-classname="PointStatusIndicator" cb-indicator-type="hardware" cb-source="cJ-Skt-HIs" id="7A" visibility="hidden">
<line cb-classname="GraphicLineEntity" class="algorithmline" id="7S" x1="1420" x2="1420" y1="390" y2="490"/>
<line cb-classname="GraphicLineEntity" class="algorithmline" id="8Y" x1="1420" x2="1520" y1="490" y2="490"/>
<line cb-classname="GraphicLineEntity" class="algorithmline" id="8V" x1="1520" x2="1520" y1="490" y2="390"/>
</g>
<g cb-classname="PointStatusIndicator" cb-indicator-type="alarm" cb-source="Ef-mlF-NfC" id="8N" visibility="visible">
<text baseline-shift="-50%" cb-classname="GraphicTextEntity" class="algorithm" fill="#000000" font-family="MS Shell Dlg" font-size="20" id="8z" text-anchor="middle" x="1445" y="360">
A
</text>
</g>
<g cb-classname="PointStatusIndicator" cb-indicator-type="ingraphic" cb-source="IT-e6D-tgk" id="8t" visibility="visible">
<text baseline-shift="-50%" cb-classname="GraphicTextEntity" class="algorithm" fill="#000000" font-family="MS Shell Dlg" font-size="20" id="8b" text-anchor="middle" x="1495" y="360">
G
</text>
</g>
<g cb-classname="DynamicText" cb-labeled="false" cb-pin-name="iSP" cb-source="JP-vdU-5h1" class="algorithm" id="8y" text-anchor="middle">
<text cb-classname="GraphicTextEntity" class="algorithm" fill="black" font-family="arial" font-size="20" font-style="normal" font-weight="normal" id="84" text-anchor="middle" text-decoration="normal" x="1470" y="330"/>
</g>
<g baseline-shift="-100%" cb-anchor-x="1490" cb-anchor-y="510" cb-classname="PointReferences" cb-max-width="160" cb-originator="true" cb-source="CO-1pJ-2NR" class="signal" id="8A" text-anchor="start">
<text baseline-shift="-100%" cb-classname="GraphicTextEntity" class="algorithm" id="8S" text-anchor="start" x="1490" y="510">
REF: Point not
</text>
<text baseline-shift="-100%" cb-classname="GraphicTextEntity" class="algorithm" id="14ek" text-anchor="start" x="1490" y="535">
found in database
</text>
<text baseline-shift="-100%" cb-classname="GraphicTextEntity" class="algorithm" id="14ee" text-anchor="start" x="1490" y="560">
(01TE337-SEL)
</text>
</g>
<g baseline-shift="0%" cb-anchor-x="1470" cb-anchor-y="290" cb-classname="PointDescription" cb-content="extended" cb-labeled="false" cb-max-width="240" cb-source="YA-mnX-7O8" class="algorithm" id="9Y" text-anchor="middle">
<text baseline-shift="0%" cb-classname="GraphicTextEntity" class="algorithm" id="9V" text-anchor="middle" x="1470" y="265">
DESC: Point not found in
</text>
<text baseline-shift="0%" cb-classname="GraphicTextEntity" class="algorithm" id="9Vw" text-anchor="middle" x="1470" y="290">
database (01TE337-SEL)
</text>
</g>
</g>
<g cb-alg-6x8="$65$cb-alg-out$" cb-alg-9JLD="67" cb-alg-nYX0="10.000000" cb-algorithm-id="007" cb-classname="ControlAlgorithm" cb-function-name="SMOOTH" cb-modify-id="00000002" id="4bu">
<rect cb-classname="GraphicRectangleEntity" class="algorithm" height="100" id="4br" width="140" x="1400" y="740"/>
<text baseline-shift="-50%" cb-classname="GraphicTextEntity" class="algorithm" fill="#000000" font-family="MS Shell Dlg" font-size="18" id="4be" text-anchor="middle" x="1470" y="790">
SMOOTH
</text>
<g cb-classname="ControlPin" cb-pin-name="eS-FoF-2g5" id="4bb">
<line cb-classname="GraphicLineEntity" class="signalline" id="4bO" x1="1470" x2="1470" y1="720" y2="740"/>
<polygon cb-classname="GraphicPolygonEntity" class="signal" id="4bw" points="1470,740 1475,729 1464,729"/>
<g cb-classname="DynamicText" cb-source="BZ-YqN-deBR" class="signal" id="4b3" text-anchor="start">
<text cb-classname="GraphicTextEntity" class="signal" fill="black" font-style="normal" font-weight="normal" id="4bC" text-anchor="start" text-decoration="normal" transform="translate(1467,725)rotate(-90)"/>
</g>
</g>
<g cb-classname="ControlPin" cb-pin-name="jB-D85-yJX" id="4bU">
<line cb-classname="GraphicLineEntity" class="signalline" id="4b8" x1="1470" x2="1470" y1="840" y2="860"/>
<g cb-classname="DynamicText" cb-source="Wb-bJD-C1Vy" class="signal" id="4yu" text-anchor="end">
<text cb-classname="GraphicTextEntity" class="signal" fill="black" font-style="normal" font-weight="normal" id="4yr" text-anchor="end" text-decoration="normal" transform="translate(1467,854)rotate(-90)"/>
</g>
<g cb-classname="SignalSegment" id="4yO">
<line cb-classname="GraphicLineEntity" class="signalline" id="4yw" x1="1470" x2="1470" y1="860" y2="1200"/>
<g cb-classname="SignalConnection" cb-graphic-line="$465$" cb-input-pin="$Bry$" id="4y3"/>
</g>
</g>
<g cb-classname="DynamicText" cb-labeled="true" cb-source="JP-vdU-AS1X" class="algorithm" id="9zr" text-anchor="start">
<text cb-classname="GraphicTextEntity" class="algorithm" fill="black" font-style="normal" font-weight="normal" id="9ze" text-anchor="start" text-decoration="normal" x="1570" y="770"/>
</g>
</g>
<g cb-alg-4CZX="4" cb-alg-7DJV="1" cb-alg-7LTh="SOFT" cb-alg-7cZh="TRUN" cb-alg-JD1X="NO" cb-alg-Jbvd="0.000000" cb-alg-N1e6="NO" cb-alg-OIvh="0" cb-alg-PXGY="0.000000" cb-alg-Q7vc="9" cb-alg-e6D="01TE337SP" cb-alg-s7ix="25" cb-alg-sMGY="150.000000" cb-alg-syJX="01TE337SP-TOUT" cb-alg-v4X="01TE337-SP" cb-algorithm-id="003" cb-classname="ControlAlgorithm" cb-function-name="SETPOINT" cb-modify-id="00000001" id="1N3">
<polygon cb-classname="GraphicPolygonEntity" class="algorithm" id="1NC" points="940,1250 880,1310 940,1370 1000,1310"/>
<ellipse cb-classname="GraphicEllipseEntity" class="algorithm" cx="820" cy="1310" id="1NU" rx="60" ry="60"/>
<line cb-classname="GraphicLineEntity" class="algorithm" id="1N8" x1="940" x2="930" y1="1290" y2="1320"/>
<line cb-classname="GraphicLineEntity" class="algorithm" id="1zu" x1="940" x2="950" y1="1290" y2="1320"/>
<line cb-classname="GraphicLineEntity" class="algorithm" id="1zr" x1="934" x2="946" y1="1310" y2="1310"/>
<line cb-classname="GraphicLineEntity" class="algorithm" id="1ze" x1="820" x2="820" y1="1290" y2="1320"/>
<line cb-classname="GraphicLineEntity" class="algorithm" id="1zb" x1="940" x2="940" y1="1250" y2="1220"/>
<line cb-classname="GraphicLineEntity" class="algorithm" id="1zO" x1="940" x2="820" y1="1220" y2="1220"/>
<line cb-classname="GraphicLineEntity" class="algorithm" id="1zw" x1="820" x2="820" y1="1220" y2="1250"/>
<polygon cb-classname="GraphicPolygonEntity" class="signal" id="1z3" points="820,1250 825,1239 814,1239"/>
<ellipse cb-classname="GraphicEllipseEntity" class="algorithm" cx="940" cy="1220" fill="black" id="1zC" rx="2" ry="2"/>
<g cb-classname="ControlPin" cb-pin-name="JP-vdU-5h1" id="1zU">
<line cb-classname="GraphicLineEntity" class="signalline" id="1z8" x1="940" x2="940" y1="1220" y2="1200"/>
<g cb-classname="DynamicText" cb-source="CO-H6h-YDTe" class="signal" id="1tu" text-anchor="start">
<text cb-classname="GraphicTextEntity" class="signal" fill="black" font-style="normal" font-weight="normal" id="1tr" text-anchor="start" text-decoration="normal" transform="translate(937,1205)rotate(-90)"/>
</g>
<g cb-classname="SignalSegment" id="1te">
<line cb-classname="GraphicLineEntity" class="signalline" id="1tb" x1="940" x2="940" y1="1200" y2="1130"/>
<g cb-classname="SignalSegment" id="1tO">
<line cb-classname="GraphicLineEntity" class="signalline" id="1tw" x1="940" x2="1410" y1="1130" y2="1130"/>
<g cb-classname="SignalSegment" id="1t3">
<line cb-classname="GraphicLineEntity" class="signalline" id="1tC" x1="1410" x2="1410" y1="1130" y2="1200"/>
<g cb-classname="SignalConnection" cb-graphic-line="$147$" cb-input-pin="$kl$" id="1tU"/>
</g>
</g>
</g>
</g>
<g cb-classname="DynamicText" cb-labeled="false" cb-source="IT-e6D-tgk" class="algorithm" id="9N8" text-anchor="start">
<text cb-classname="GraphicTextEntity" class="algorithm" fill="black" font-style="normal" font-weight="normal" id="9zu" text-anchor="start" text-decoration="normal" x="1000" y="1120"/>
</g>
<g cb-classname="DynamicText" cb-labeled="false" cb-source="jB-D85-LFc" class="algorithm" id="9z8" text-anchor="start">
<text cb-classname="GraphicTextEntity" class="algorithm" fill="black" font-style="normal" font-weight="normal" id="9tu" text-anchor="start" text-decoration="normal" x="830" y="1400"/>
</g>
<g cb-classname="DynamicText" cb-labeled="true" cb-source="Wb-Xfx-XHlU" class="algorithm" id="9tr" text-anchor="start">
<text cb-classname="GraphicTextEntity" class="algorithm" fill="black" font-style="normal" font-weight="normal" id="9te" text-anchor="start" text-decoration="normal" x="790" y="1430"/>
</g>
<g cb-classname="DynamicText" cb-labeled="true" cb-source="jO-LFc-PkKt" class="algorithm" id="9tb" text-anchor="start">
<text cb-classname="GraphicTextEntity" class="algorithm" fill="black" font-style="normal" font-weight="normal" id="9tO" text-anchor="start" text-decoration="normal" x="790" y="1450"/>
</g>
</g>
<g cb-alg-190T="0.000000" cb-alg-1lI3H2="DISABLED" cb-alg-1vCkqC="DISABLE" cb-alg-364R="$126$cb-alg-out$" cb-alg-3l92="100.000000" cb-alg-3l9B="0.000000" cb-alg-3l9Q="0.66666667" cb-alg-3la2="0.000000" cb-alg-59SR="0.15" cb-alg-5F4R="SINGLE" cb-alg-5F4R1="SINGLE" cb-alg-5QjR="NORMAL" cb-alg-5ZdT="0.000000" cb-alg-5c9nMU="PURE GAIN" cb-alg-5cSxc="0.000000" cb-alg-5oSQ="38" cb-alg-5yMb="100.000000" cb-alg-BQJE="NORMAL" cb-alg-J6JE="0.000000" cb-alg-RI9h="DIRECT" cb-alg-RpJE="NONE" cb-alg-RpJEM="INT" cb-alg-Wxah9="0.000000" cb-alg-XJ="$450$cb-alg-out$" cb-alg-XJ92="100.000000" cb-alg-XJ97T="0.000000" cb-alg-XJa="0.000000" cb-alg-XJa2="0.000000" cb-alg-XJx="0.6666667" cb-alg-XQjR="NORMAL" cb-alg-XcSxc="0.5" cb-alg-n9Mh="$152$cb-alg-tout$" cb-alg-n9SR="2.500000" cb-alg-nH4u="NORMAL" cb-alg-nlJE="100.000000" cb-alg-oQjR="NORMAL" cb-alg-ov9Q="20" cb-alg-ovQB="ENABLE" cb-alg-pna="0.000000" cb-alg-pnx="1.000000" cb-algorithm-id="002" cb-classname="ControlAlgorithm" cb-function-name="PID" cb-modify-id="00000001" id="9N">
<rect cb-classname="GraphicRectangleEntity" class="algorithm" height="150" id="9z" width="140" x="1370" y="1220"/>
<path cb-classname="GraphicCurveEntity" class="algorithm" d="M 1452 1306 C 1426 1312, 1457 1349, 1428 1357" id="9t"/>
<polygon cb-classname="GraphicPolygonEntity" class="algorithm" id="9b" points="1440,1230 1410,1280 1470,1280"/>
<g cb-classname="ControlPin" cb-pin-name="Wb-Xfx-8Cdk" id="9y">
<line cb-classname="GraphicLineEntity" class="signalline" id="94" x1="1410" x2="1410" y1="1200" y2="1220"/>
<polygon cb-classname="GraphicPolygonEntity" class="signal" id="9A" points="1410,1220 1415,1209 1404,1209"/>
<g cb-classname="DynamicText" cb-source="JP-HiI-hEQe" class="signal" id="9S" text-anchor="start">
<text cb-classname="GraphicTextEntity" class="signal" fill="black" font-style="normal" font-weight="normal" id="1Yu" text-anchor="start" text-decoration="normal" transform="translate(1407,1205)rotate(-90)"/>
</g>
</g>
<g cb-classname="ControlPin" cb-pin-name="CO-1pJ-Lj" id="1Yr">
<line cb-classname="GraphicLineEntity" class="signalline" id="1Ye" x1="1470" x2="1470" y1="1200" y2="1220"/>
<polygon cb-classname="GraphicPolygonEntity" class="signal" id="1Yb" points="1470,1220 1475,1209 1464,1209"/>
<g cb-classname="DynamicText" cb-source="cJ-4xc-pXY1" class="signal" id="1YO" text-anchor="start">
<text cb-classname="GraphicTextEntity" class="signal" fill="black" font-style="normal" font-weight="normal" id="1Yw" text-anchor="start" text-decoration="normal" transform="translate(1467,1205)rotate(-90)"/>
</g>
</g>
<g cb-classname="ControlPin" cb-pin-name="Ia-6dc-v4X" id="1Y3">
<line cb-classname="GraphicLineEntity" class="signalline" id="1YC" x1="1440" x2="1440" y1="1370" y2="1390"/>
<g cb-classname="DynamicText" cb-source="Ef-s6x-Z9jL" class="signal" id="1YU" text-anchor="end">
<text cb-classname="GraphicTextEntity" class="signal" fill="black" font-style="normal" font-weight="normal" id="1Y8" text-anchor="end" text-decoration="normal" transform="translate(1437,1384)rotate(-90)"/>
</g>
<g cb-classname="SignalSegment" id="1Se">
<line cb-classname="GraphicLineEntity" class="signalline" id="1Sb" stroke="green" stroke-dasharray="5,4" x1="1440" x2="1440" y1="1390" y2="1850"/>
<g cb-classname="SignalConnection" cb-graphic-line="$193$" cb-input-pin="$loD$" id="1SO"/>
</g>
</g>
<g cb-classname="ControlPin" cb-pin-name="IT-e6D-0LOE" id="1Vu">
<line cb-classname="GraphicLineEntity" class="signalline" id="1Vr" x1="1510" x2="1530" y1="1290" y2="1290"/>
<g cb-classname="DynamicText" cb-source="JP-HiI-hEQe" class="signal" id="1Ve" text-anchor="start">
<text cb-classname="GraphicTextEntity" class="signal" fill="black" font-style="normal" font-weight="normal" id="1Vb" text-anchor="start" text-decoration="normal" x="1524" y="1287"/>
</g>
</g>
<text baseline-shift="-50%" cb-classname="GraphicTextEntity" class="algorithm" fill="#000000" font-family="MS Shell Dlg" font-size="18" id="1VO" text-anchor="middle" x="1488" y="1309">
d
</text>
<text baseline-shift="-50%" cb-classname="GraphicTextEntity" class="algorithm" fill="#000000" font-family="MS Shell Dlg" font-size="18" id="1Vw" text-anchor="middle" x="1488" y="1336">
dt
</text>
<line cb-classname="GraphicLineEntity" class="algorithm" id="1V3" x1="1478" x2="1500" y1="1328" y2="1328"/>
<line cb-classname="GraphicLineEntity" class="algorithm" id="1VC" x1="1370" x2="1510" y1="1290" y2="1290"/>
<line cb-classname="GraphicLineEntity" class="algorithm" id="1VU" stroke-dasharray="solid line" x1="1415" x2="1415" y1="1290" y2="1370"/>
<line cb-classname="GraphicLineEntity" class="algorithm" id="1V8" x1="1465" x2="1465" y1="1290" y2="1369"/>
<line cb-classname="GraphicLineEntity" class="algorithm" id="1Nu" x1="1382" x2="1402" y1="1334" y2="1314"/>
<line cb-classname="GraphicLineEntity" class="algorithm" id="1Nr" x1="1389" x2="1402" y1="1328" y2="1344"/>
<line cb-classname="GraphicLineEntity" class="algorithm" id="1Ne" x1="1382" x2="1382" y1="1313" y2="1344"/>
<g cb-classname="DynamicText" cb-labeled="true" cb-source="CO-1pJ-NORh" class="algorithm" id="9zb" text-anchor="start">
<text cb-classname="GraphicTextEntity" class="algorithm" fill="black" font-style="normal" font-weight="normal" id="9zO" text-anchor="start" text-decoration="normal" x="1600" y="1250"/>
</g>
<g cb-classname="DynamicText" cb-labeled="true" cb-source="YA-mnX-80xEP" class="algorithm" id="9zw" text-anchor="start">
<text cb-classname="GraphicTextEntity" class="algorithm" fill="black" font-style="normal" font-weight="normal" id="9z3" text-anchor="start" text-decoration="normal" x="1600" y="1270"/>
</g>
<g cb-classname="DynamicText" cb-labeled="true" cb-source="BZ-7H9-6xXD" class="algorithm" id="9zC" text-anchor="start">
<text cb-classname="GraphicTextEntity" class="algorithm" fill="black" font-style="normal" font-weight="normal" id="9zU" text-anchor="start" text-decoration="normal" x="1600" y="1290"/>
</g>
</g>
<g cb-alg-OT2="01LC2-T5ARE" cb-alg-OUAc="NO" cb-algorithm-id="009" cb-classname="ExternalPointInterface" cb-function-name="INPUT" id="7AO">
<ellipse cb-classname="GraphicEllipseEntity" class="algorithm" cx="520" cy="1770" id="7Aw" rx="50" ry="50"/>
<rect cb-classname="GraphicRectangleEntity" class="algorithm" height="100" id="7A3" width="40" x="430" y="1720"/>
<line cb-classname="GraphicLineEntity" class="algorithm" id="7AC" x1="430" x2="470" y1="1770" y2="1770"/>
<g cb-classname="ControlPin" cb-pin-name="JP-vdU-5h1" id="7AU">
<line cb-classname="GraphicLineEntity" class="signalline" id="7A8" x1="570" x2="600" y1="1770" y2="1770"/>
<g cb-classname="DynamicText" cb-source="CO-H6h-YDTe" class="signal" id="7Su" text-anchor="start">
<text cb-classname="GraphicTextEntity" class="signal" fill="black" font-style="normal" font-weight="normal" id="7Sr" text-anchor="start" text-decoration="normal" x="584" y="1767"/>
</g>
<g cb-classname="SignalSegment" id="9SO">
<g cb-classname="SignalConnection" cb-graphic-line="$997$" cb-input-pin="$YEm$" id="9SU"/>
<line cb-classname="GraphicLineEntity" class="signalline" id="9SC" stroke="#1e12bf" stroke-dasharray="5,4" x1="600" x2="660" y1="1770" y2="1770"/>
</g>
</g>
<g cb-classname="PointStatusIndicator" cb-indicator-type="Highway" cb-source="YA-mnX-7O8" id="7Se" visibility="hidden">
<line cb-classname="GraphicLineEntity" class="algorithmline" id="7Sb" x1="470" x2="520" y1="1770" y2="1720"/>
<line cb-classname="GraphicLineEntity" class="algorithmline" id="7SO" x1="520" x2="570" y1="1720" y2="1770"/>
<line cb-classname="GraphicLineEntity" class="algorithmline" id="7Sw" x1="570" x2="520" y1="1770" y2="1820"/>
<line cb-classname="GraphicLineEntity" class="algorithmline" id="7S3" x1="520" x2="470" y1="1820" y2="1770"/>
</g>
<g cb-classname="PointStatusIndicator" cb-indicator-type="hardware" cb-source="Ef-mlF-NfC" id="7SC" visibility="hidden">
<line cb-classname="GraphicLineEntity" class="algorithmline" id="7SU" x1="470" x2="570" y1="1720" y2="1720"/>
<line cb-classname="GraphicLineEntity" class="algorithmline" id="7S8" x1="570" x2="570" y1="1720" y2="1820"/>
<line cb-classname="GraphicLineEntity" class="algorithmline" id="8Yu" x1="570" x2="470" y1="1820" y2="1820"/>
</g>
<g cb-classname="PointStatusIndicator" cb-indicator-type="alarm" cb-source="JP-vdU-5h1" id="8Yr" visibility="hidden">
<text cb-classname="GraphicTextEntity" class="algorithm" fill="#000000" font-family="arial" font-size="20" id="8Ye" text-anchor="end" x="440" y="1755">
A
</text>
</g>
<g cb-classname="PointStatusIndicator" cb-indicator-type="ingraphic" cb-source="CO-1pJ-2NR" id="8Yb" visibility="hidden">
<text cb-classname="GraphicTextEntity" class="algorithm" fill="#000000" font-family="Arial" font-size="20" id="8YO" text-anchor="end" x="440" y="1805">
G
</text>
</g>
<g baseline-shift="-50%" cb-anchor-x="420" cb-anchor-y="1784" cb-classname="PointDescription" cb-content="extended" cb-labeled="false" cb-max-width="220" cb-source="YA-mnX-7O8" class="algorithm" id="8Yw" text-anchor="end">
<text baseline-shift="-50%" cb-classname="GraphicTextEntity" class="algorithm" id="8Y3" text-anchor="end" x="420" y="1772">
DESC: Point not found in
</text>
<text baseline-shift="-50%" cb-classname="GraphicTextEntity" class="algorithm" id="9V3" text-anchor="end" x="420" y="1797">
database (01LC2-T5ARE)
</text>
</g>
<g cb-classname="DynamicText" cb-labeled="false" cb-pin-name="KBz" cb-source="BZ-7H9-EdX" class="algorithm" id="8YC" text-anchor="start">
<text baseline-shift="0%" cb-classname="GraphicTextEntity" class="algorithm" fill="black" font-family="arial" font-size="20" font-style="normal" font-weight="normal" id="8YU" text-anchor="start" text-decoration="normal" x="590" y="1740"/>
</g>
</g>
<g cb-alg-0RAvN="RETRIGGABLE" cb-alg-3Yl="0" cb-alg-97U9="2" cb-alg-Cx69="98" cb-alg-Mh5="$784$cb-alg-out$" cb-alg-a7lU="1.000000" cb-alg-rTe2="POSITIVE" cb-algorithm-id="00b" cb-classname="ControlAlgorithm" cb-function-name="ONESHOT" cb-modify-id="00000005" id="94U">
<g cb-classname="ControlPin" cb-pin-name="Ef-mlF-1Cl" id="948">
<line cb-classname="GraphicLineEntity" class="signalline" id="9Au" x1="660" x2="680" y1="1770" y2="1770"/>
<polygon cb-classname="GraphicPolygonEntity" class="signal" id="9Ar" points="680,1770 669,1766 669,1774"/>
<g cb-classname="DynamicText" cb-source="jO-M1C-wmSx" class="signal" id="9Ae" text-anchor="end">
<text baseline-shift="5%" cb-classname="GraphicTextEntity" class="signal" fill="black" font-style="normal" font-weight="normal" id="9Ab" text-anchor="end" text-decoration="normal" x="681" y="1757"/>
</g>
</g>
<g cb-classname="ControlPin" cb-pin-name="70-9NY-IGK" id="9AO">
<line cb-classname="GraphicLineEntity" class="signalline" id="9Aw" x1="720" x2="740" y1="1770" y2="1770"/>
<g cb-classname="DynamicText" cb-source="eS-dLv-RVX2" class="signal" id="9A3">
<text baseline-shift="5%" cb-classname="GraphicTextEntity" class="signal" fill="black" font-style="normal" font-weight="normal" id="9AC" text-decoration="normal" x="732" y="1759"/>
</g>
<g cb-classname="SignalSegment" id="9S8">
<g cb-classname="SignalConnection" cb-graphic-line="$1002$" cb-input-pin="$e1g$" id="1Yu2"/>
<line cb-classname="GraphicLineEntity" class="signalline" id="1YuD" stroke="#1e12bf" stroke-dasharray="5,4" x1="740" x2="850" y1="1770" y2="1770"/>
</g>
</g>
<rect cb-classname="GraphicRectangleEntity" class="algorithm" height="40" id="9AU" width="40" x="680" y="1750"/>
<line cb-classname="GraphicLineEntity" class="algorithmline" id="9A8" x1="683" x2="693" y1="1780" y2="1780"/>
<line cb-classname="GraphicLineEntity" class="algorithmline" id="9Su" x1="693" x2="693" y1="1780" y2="1760"/>
<line cb-classname="GraphicLineEntity" class="algorithmline" id="9Sr" x1="693" x2="707" y1="1760" y2="1760"/>
<line cb-classname="GraphicLineEntity" class="algorithmline" id="9Se" x1="707" x2="707" y1="1760" y2="1780"/>
<line cb-classname="GraphicLineEntity" class="algorithmline" id="9Sb" x1="707" x2="717" y1="1780" y2="1780"/>
<g cb-classname="DynamicText" cb-labeled="true" cb-source="jB-D85-XvyU" class="algorithm" id="1Yun" text-anchor="start">
<text cb-classname="GraphicTextEntity" class="algorithm" fill="black" font-style="normal" font-weight="normal" id="1Yuc" text-anchor="start" text-decoration="normal" x="670" y="1810"/>
</g>
</g>
<g cb-alg-BNhB="01CV326-MODE" cb-alg-LJXt="01LC2-T5A" cb-alg-LTx="$978$cb-alg-out$" cb-algorithm-id="004" cb-classname="ControlAlgorithm" cb-function-name="MAMODE" cb-modify-id="00000003" id="7Ve">
<g cb-classname="ControlPin" cb-pin-name="eS-FoF-qre" id="7Vb">
<line cb-classname="GraphicLineEntity" class="signalline" id="7VO" x1="850" x2="870" y1="1750" y2="1750"/>
<polygon cb-classname="GraphicPolygonEntity" class="signal" id="7Vw" points="870,1750 859,1746 859,1754"/>
<g cb-classname="DynamicText" cb-source="BZ-YqN-deBR" class="signal" id="7V3" text-anchor="end">
<text baseline-shift="5%" cb-classname="GraphicTextEntity" class="signal" fill="black" font-style="normal" font-weight="normal" id="7VC" text-anchor="end" text-decoration="normal" x="851" y="1746"/>
</g>
</g>
<g cb-classname="ControlPin" cb-pin-name="jB-D85-LTx" id="7VU">
<line cb-classname="GraphicLineEntity" class="signalline" id="7V8" x1="850" x2="870" y1="1770" y2="1770"/>
<polygon cb-classname="GraphicPolygonEntity" class="signal" id="7Nu" points="870,1770 859,1766 859,1774"/>
<g cb-classname="DynamicText" cb-source="IT-47Z-IFRf" class="signal" id="7Nr" text-anchor="end">
<text baseline-shift="5%" cb-classname="GraphicTextEntity" class="signal" fill="black" font-style="normal" font-weight="normal" id="7Ne" text-anchor="end" text-decoration="normal" x="851" y="1766"/>
</g>
</g>
<g cb-classname="ControlPin" cb-pin-name="70-9NY-EGK7" id="7zC">
<line cb-classname="GraphicLineEntity" class="signalline" id="7zU" x1="970" x2="990" y1="1770" y2="1770"/>
<g cb-classname="DynamicText" cb-source="eS-dLv-RVX2" class="signal" id="7z8">
<text baseline-shift="5%" cb-classname="GraphicTextEntity" class="signal" fill="black" font-style="normal" font-weight="normal" id="7tu" text-decoration="normal" x="997" y="1766"/>
</g>
<g cb-classname="SignalSegment" id="7Ar">
<line cb-classname="GraphicLineEntity" class="signalline" id="7Ae" stroke="#1e12bf" stroke-dasharray="5,4" x1="990" x2="2370" y1="1770" y2="1770"/>
<g cb-classname="SignalConnection" cb-graphic-line="$782$" cb-input-pin="$DEj$" id="7Ab"/>
</g>
</g>
<g cb-classname="ControlPin" cb-pin-name="cJ-Skt-fEQ1" id="7tr">
<line cb-classname="GraphicLineEntity" class="signalline" id="7te" x1="970" x2="990" y1="1810" y2="1810"/>
<g cb-classname="DynamicText" cb-source="Ia-MAp-xLix" class="signal" id="7tb">
<text baseline-shift="5%" cb-classname="GraphicTextEntity" class="signal" fill="black" font-style="normal" font-weight="normal" id="7tO" text-decoration="normal" x="997" y="1806"/>
</g>
<g cb-classname="SignalSegment" id="7tU">
<line cb-classname="GraphicLineEntity" class="signalline" id="7t8" x1="990" x2="1190" y1="1810" y2="1810"/>
<g cb-classname="SignalSegment" id="7bu">
<line cb-classname="GraphicLineEntity" class="signalline" id="7br" x1="1190" x2="1260" y1="1810" y2="1880"/>
<g cb-classname="SignalConnection" cb-graphic-line="$751$" cb-input-pin="$B2x$" id="7be"/>
</g>
</g>
</g>
<rect cb-classname="GraphicRectangleEntity" class="algorithm" height="100" id="7tw" width="100" x="870" y="1730"/>
<text baseline-shift="-50%" cb-classname="GraphicTextEntity" class="algorithm" font-size="18" id="7t3" text-anchor="middle" x="920" y="1769">
M/A
</text>
<text baseline-shift="-50%" cb-classname="GraphicTextEntity" class="algorithm" font-size="18" id="7tC" text-anchor="middle" x="920" y="1793">
MODE
</text>
</g>
<g cb-alg-464X="0.000000" cb-alg-464y="2.500000" cb-alg-4CZX="4" cb-alg-4cFi="YES" cb-alg-4cvX="100.000000" cb-alg-4cvy="2.500000" cb-alg-7Dcc="NORMAL" cb-alg-7LTh="1" cb-alg-JDh="$92$cb-alg-out$" cb-alg-JDhS="0.000000" cb-alg-JDhc="1.000000" cb-alg-N1qu="BAD" cb-alg-NuZX="NO" cb-alg-OIvK="0" cb-alg-OIvh="0" cb-alg-PXGY="0.000000" cb-alg-PXO8="0.000000" cb-alg-Q7vc="10" cb-alg-Qcxx="NO" cb-alg-YcRX="5" cb-alg-Yyfx="$712$cb-alg-mode$" cb-alg-bM="MANUAL" cb-alg-e6D="01CV326-MA" cb-alg-s7ix="25" cb-alg-sMGY="100.000000" cb-alg-sMO8="0.000000" cb-alg-scvX="2.500000" cb-alg-smHx="SOFT" cb-alg-v4X="01CV326-CMD" cb-algorithm-id="005" cb-classname="ControlAlgorithm" cb-function-name="MASTATION" cb-modify-id="00000001" id="1be">
<polygon cb-classname="GraphicPolygonEntity" class="algorithm" id="1bb" points="1320,1880 1260,1940 1320,2000 1380,1940"/>
<line cb-classname="GraphicLineEntity" class="algorithm" id="1bO" x1="1320" x2="1310" y1="1920" y2="1950"/>
<line cb-classname="GraphicLineEntity" class="algorithm" id="1bw" x1="1320" x2="1330" y1="1920" y2="1950"/>
<line cb-classname="GraphicLineEntity" class="algorithm" id="1b3" x1="1314" x2="1326" y1="1940" y2="1940"/>
<polygon cb-classname="GraphicPolygonEntity" class="algorithm" id="1bC" points="1440,1880 1380,1940 1440,2000 1500,1940"/>
<line cb-classname="GraphicLineEntity" class="algorithm" id="1bU" x1="1425" x2="1455" y1="1926" y2="1926"/>
<line cb-classname="GraphicLineEntity" class="algorithm" id="1b8" x1="1440" x2="1440" y1="1926" y2="1956"/>
<ellipse cb-classname="GraphicEllipseEntity" class="algorithm" cx="1200" cy="1940" id="1yu" rx="60" ry="60"/>
<line cb-classname="GraphicLineEntity" class="algorithm" id="1yr" x1="1200" x2="1200" y1="1920" y2="1950"/>
<g cb-classname="ControlPin" cb-pin-name="IT-e6D-6w2" id="1ye">
<line cb-classname="GraphicLineEntity" class="signalline" id="1yb" x1="1440" x2="1440" y1="1850" y2="1880"/>
<polygon cb-classname="GraphicPolygonEntity" class="signal" id="1yO" points="1440,1880 1445,1869 1434,1869"/>
<g cb-classname="DynamicText" cb-source="70-g6w-vNqb" class="signal" id="1yw" text-anchor="start">
<text cb-classname="GraphicTextEntity" class="signal" fill="black" font-style="normal" font-weight="normal" id="1y3" text-anchor="start" text-decoration="normal" transform="translate(1437,1865)rotate(-90)"/>
</g>
</g>
<line cb-classname="GraphicLineEntity" class="signalline" id="1yC" x1="1200" x2="1200" y1="2030" y2="2000"/>
<polygon cb-classname="GraphicPolygonEntity" class="signal" id="1yU" points="1200,2000 1194,2010 1205,2010"/>
<line cb-classname="GraphicLineEntity" class="algorithm" id="1y8" x1="1440" x2="1440" y1="2000" y2="2030"/>
<line cb-classname="GraphicLineEntity" class="algorithm" id="14u" x1="1440" x2="1200" y1="2030" y2="2030"/>
<g cb-classname="ControlPin" cb-pin-name="Ia-6dc-v4X" id="14r">
<line cb-classname="GraphicLineEntity" class="signalline" id="14e" x1="1440" x2="1440" y1="2030" y2="2050"/>
<g cb-classname="DynamicText" cb-source="Ef-s6x-Z9jL" class="signal" id="14b" text-anchor="end">
<text cb-classname="GraphicTextEntity" class="signal" fill="black" font-style="normal" font-weight="normal" id="14O" text-anchor="end" text-decoration="normal" transform="translate(1437,2044)rotate(-90)"/>
</g>
<g cb-classname="SignalSegment" id="9y8">
<g cb-classname="SignalConnection" cb-graphic-line="$972$" cb-input-pin="$kSS$" id="94b"/>
<line cb-classname="GraphicLineEntity" class="signalline" id="94e" x1="1440" x2="1440" y1="2050" y2="2310"/>
</g>
</g>
<ellipse cb-classname="GraphicEllipseEntity" class="algorithm" cx="1440" cy="2030" fill="black" id="14w" rx="2" ry="2"/>
<g cb-classname="ControlPin" cb-pin-name="cJ-Skt-fEQ1" id="1Ae">
<line cb-classname="GraphicLineEntity" class="signalline" id="1Ab" x1="1260" x2="1290" y1="1880" y2="1910"/>
<polygon cb-classname="GraphicPolygonEntity" class="signal" id="1AO" points="1290,1910 1285,1898 1278,1905"/>
<g cb-classname="DynamicText" cb-source="jB-v1d-DvVB" class="signal" id="1Aw" text-anchor="end">
<text cb-classname="GraphicTextEntity" class="signal" fill="black" font-style="normal" font-weight="normal" id="1A3" text-anchor="end" text-decoration="normal" transform="translate(1281,1897)rotate(45)"/>
</g>
</g>
<g cb-classname="DynamicText" cb-labeled="false" cb-source="Ef-mlF-NfC" class="algorithm" id="44e" text-anchor="start">
<text cb-classname="GraphicTextEntity" class="algorithm" fill="black" font-family="arial" font-size="12" font-style="normal" font-weight="normal" id="44b" text-anchor="start" text-decoration="normal" x="1490" y="2060"/>
</g>
<g cb-classname="DynamicText" cb-labeled="false" cb-source="70-9NY-E7k" class="algorithm" id="9tw" text-anchor="start">
<text cb-classname="GraphicTextEntity" class="algorithm" fill="black" font-style="normal" font-weight="normal" id="9t3" text-anchor="start" text-decoration="normal" x="1490" y="1980"/>
</g>
</g>
<g cb-alg-4eA0="ON" cb-alg-9BH1="ON" cb-alg-9YlI="100.000000" cb-alg-9e62="2.500000" cb-alg-Cx69="76" cb-alg-Mh5="$152$cb-alg-out$" cb-alg-aRlI="0.000000" cb-alg-ax6V="100" cb-alg-x7qN="-1" cb-algorithm-id="00a" cb-classname="ControlAlgorithm" cb-function-name="GAINBIAS" cb-modify-id="00000004" id="9be">
<g cb-classname="ControlPin" cb-pin-name="Ef-mlF-1Cl" id="9bb">
<line cb-classname="GraphicLineEntity" class="signalline" id="9bO" x1="1440" x2="1440" y1="2310" y2="2330"/>
<polygon cb-classname="GraphicPolygonEntity" class="signal" id="9bw" points="1440,2330 1444,2319 1436,2319"/>
<g cb-classname="DynamicText" cb-source="jO-M1C-wmSx" class="signal" id="9b3">
<text baseline-shift="5%" cb-classname="GraphicTextEntity" class="signal" fill="black" font-style="normal" font-weight="normal" id="9bC" text-decoration="normal" transform="translate(1430,2310)rotate(-90)"/>
</g>
</g>
<g cb-classname="ControlPin" cb-pin-name="70-9NY-IGK" id="9bU">
<line cb-classname="GraphicLineEntity" class="signalline" id="9b8" x1="1440" x2="1440" y1="2390" y2="2410"/>
<g cb-classname="DynamicText" cb-source="eS-dLv-RVX2" class="signal" id="9yu" text-anchor="end">
<text baseline-shift="5%" cb-classname="GraphicTextEntity" class="signal" fill="black" font-style="normal" font-weight="normal" id="9yr" text-anchor="end" text-decoration="normal" transform="translate(1432,2402)rotate(-90)"/>
</g>
<g cb-classname="SignalSegment" id="9yO">
<g cb-classname="SignalConnection" cb-graphic-line="$967$" cb-input-pin="$hLV$" id="9yU"/>
<line cb-classname="GraphicLineEntity" class="signalline" id="9yC" x1="1440" x2="1440" y1="2410" y2="2470"/>
</g>
</g>
<rect cb-classname="GraphicRectangleEntity" class="algorithm" height="60" id="9ye" width="100" x="1390" y="2330"/>
<text baseline-shift="-50%" cb-classname="GraphicTextEntity" class="algorithm" font-size="33" id="9yb" text-anchor="middle" x="1440" y="2355">
K
</text>
<g cb-classname="DynamicText" cb-labeled="true" cb-source="YA-mnX-YHAD" class="algorithm" id="94O" text-anchor="start">
<text cb-classname="GraphicTextEntity" class="algorithm" fill="black" font-style="normal" font-weight="normal" id="94w" text-anchor="start" text-decoration="normal" x="1520" y="2340"/>
</g>
<g cb-classname="DynamicText" cb-labeled="true" cb-source="BZ-7H9-OJLG" class="algorithm" id="943" text-anchor="start">
<text cb-classname="GraphicTextEntity" class="algorithm" fill="black" font-style="normal" font-weight="normal" id="94C" text-anchor="start" text-decoration="normal" x="1520" y="2360"/>
</g>
</g>
<g cb-alg-doQx="0" cb-alg-hkl9="01CV326" cb-alg-iOr="$952$cb-alg-out$" cb-algorithm-id="006" cb-classname="ControlAlgorithm" cb-function-name="FIELD" cb-modify-id="00000001" id="1Sw">
<polygon cb-classname="GraphicPolygonEntity" class="algorithm" id="1S3" points="1360,2530 1400,2490 1480,2490 1520,2530"/>
<g cb-classname="ControlPin" cb-pin-name="Ia-6dc-JDh" id="1SC">
<line cb-classname="GraphicLineEntity" class="signalline" id="1SU" x1="1440" x2="1440" y1="2470" y2="2490"/>
<polygon cb-classname="GraphicPolygonEntity" class="signal" id="1S8" points="1440,2490 1445,2479 1434,2479"/>
<g cb-classname="DynamicText" cb-source="Wb-bJD-C1Vy" class="signal" id="2Yu" text-anchor="start">
<text cb-classname="GraphicTextEntity" class="signal" fill="black" font-style="normal" font-weight="normal" id="2Yr" text-anchor="start" text-decoration="normal" transform="translate(1437,2475)rotate(-90)"/>
</g>
</g>
<g cb-classname="DynamicText" cb-labeled="false" cb-source="Ia-6dc-OIHX" class="algorithm" id="44u" text-anchor="start">
<text cb-classname="GraphicTextEntity" class="algorithm" fill="black" font-family="arial" font-size="12" font-style="normal" font-weight="normal" id="44r" text-anchor="start" text-decoration="normal" x="1390" y="2550"/>
</g>
<g baseline-shift="0%" cb-anchor-x="1440" cb-anchor-y="2700" cb-classname="PointDescription" cb-content="extended" cb-labeled="false" cb-max-width="140" cb-source="eS-FoF-X2S8" class="algorithm" id="9tC" text-anchor="middle">
<text baseline-shift="0%" cb-classname="GraphicTextEntity" class="algorithm" id="9tU" text-anchor="middle" x="1440" y="2625">
DESC: Point not
</text>
<text baseline-shift="0%" cb-classname="GraphicTextEntity" class="algorithm" id="9t8" text-anchor="middle" x="1440" y="2650">
found in
</text>
<text baseline-shift="0%" cb-classname="GraphicTextEntity" class="algorithm" id="9bu" text-anchor="middle" x="1440" y="2675">
database
</text>
<text baseline-shift="0%" cb-classname="GraphicTextEntity" class="algorithm" id="9br" text-anchor="middle" x="1440" y="2700">
(01CV326)
</text>
</g>
</g>
<g cb-alg-iI="$712$cb-alg-auto$" cb-algorithm-id="008" cb-classname="ExternalPointInterface" cb-function-name="OUTPUT" id="7bb">
<ellipse cb-classname="GraphicEllipseEntity" class="algorithm" cx="2450" cy="1770" id="7bO" rx="50" ry="50"/>
<rect cb-classname="GraphicRectangleEntity" class="algorithm" height="100" id="7bw" width="40" x="2500" y="1720"/>
<line cb-classname="GraphicLineEntity" class="algorithm" id="7b3" x1="2500" x2="2540" y1="1770" y2="1770"/>
<g cb-classname="ControlPin" cb-pin-name="jB-D85-7Z" id="7bC">
<line cb-classname="GraphicLineEntity" class="signalline" id="7bU" x1="2370" x2="2400" y1="1770" y2="1770"/>
<polygon cb-classname="GraphicPolygonEntity" class="signal" id="7b8" points="2400,1770 2389,1764 2389,1775"/>
<g cb-classname="DynamicText" cb-source="IT-47Z-IFRf" class="signal" id="7yu" text-anchor="end">
<text cb-classname="GraphicTextEntity" class="signal" fill="black" font-style="normal" font-weight="normal" id="7yr" text-anchor="end" text-decoration="normal" x="2385" y="1767"/>
</g>
</g>
<g cb-classname="PointStatusIndicator" cb-indicator-type="highway" cb-source="JP-vdU-Lv" id="7ye" visibility="hidden">
<line cb-classname="GraphicLineEntity" class="algorithmline" id="7yb" x1="2400" x2="2450" y1="1770" y2="1720"/>
<line cb-classname="GraphicLineEntity" class="algorithmline" id="7yO" x1="2450" x2="2500" y1="1720" y2="1770"/>
<line cb-classname="GraphicLineEntity" class="algorithmline" id="7yw" x1="2500" x2="2450" y1="1770" y2="1820"/>
<line cb-classname="GraphicLineEntity" class="algorithmline" id="7y3" x1="2450" x2="2400" y1="1820" y2="1770"/>
</g>
<g cb-classname="PointStatusIndicator" cb-indicator-type="hardware" cb-source="cJ-Skt-1d" id="7yC" visibility="hidden">
<line cb-classname="GraphicLineEntity" class="algorithmline" id="7yU" x1="2500" x2="2400" y1="1720" y2="1720"/>
<line cb-classname="GraphicLineEntity" class="algorithmline" id="7y8" x1="2400" x2="2400" y1="1720" y2="1820"/>
<line cb-classname="GraphicLineEntity" class="algorithmline" id="74u" x1="2400" x2="2500" y1="1820" y2="1820"/>
</g>
<g cb-classname="PointStatusIndicator" cb-indicator-type="alarm" cb-source="Ef-mlF-1C" id="74r" visibility="visible">
<text cb-classname="GraphicTextEntity" class="algorithm" fill="#000000" font-family="Arial" font-size="20" id="74e" x="2510" y="1805">
A
</text>
</g>
<g cb-classname="PointStatusIndicator" cb-indicator-type="ingraphic" cb-source="IT-e6D-6w" id="74b" visibility="hidden">
<text cb-classname="GraphicTextEntity" class="algorithm" fill="#000000" font-family="Arial" font-size="20" id="74O" x="2510" y="1755">
G
</text>
</g>
<g cb-classname="DynamicText" cb-labeled="false" cb-pin-name="Yn" cb-source="JP-vdU-Lv" class="algorithm" id="74w" text-anchor="end">
<text baseline-shift="0%" cb-classname="GraphicTextEntity" class="algorithm" fill="black" font-family="arial" font-size="20" font-style="normal" font-weight="normal" id="743" text-anchor="end" text-decoration="normal" x="2375" y="1745"/>
</g>
<g baseline-shift="-100%" cb-anchor-x="2375" cb-anchor-y="1780" cb-classname="PointReferences" cb-max-width="130" cb-originator="false" cb-source="CO-1pJ-uR" class="signal" id="74C" text-anchor="end">
<text baseline-shift="-100%" cb-classname="GraphicTextEntity" class="algorithm" id="74U" text-anchor="end" x="2375" y="1780">
REF: Point not
</text>
<text baseline-shift="-100%" cb-classname="GraphicTextEntity" class="algorithm" id="14bs" text-anchor="end" x="2375" y="1805">
found in
</text>
<text baseline-shift="-100%" cb-classname="GraphicTextEntity" class="algorithm" id="14bA" text-anchor="end" x="2375" y="1830">
database
</text>
<text baseline-shift="-100%" cb-classname="GraphicTextEntity" class="algorithm" id="14bD" text-anchor="end" x="2375" y="1855">
(01LC2-T5A)
</text>
</g>
<g baseline-shift="-50%" cb-anchor-x="2555" cb-anchor-y="1785" cb-classname="PointDescription" cb-content="extended" cb-labeled="false" cb-max-width="240" cb-source="YA-mnX-Bh" class="algorithm" id="748" text-anchor="start">
<text baseline-shift="-50%" cb-classname="GraphicTextEntity" class="algorithm" id="7Au" text-anchor="start" x="2555" y="1773">
DESC: Point not found in
</text>
<text baseline-shift="-50%" cb-classname="GraphicTextEntity" class="algorithm" id="9VU" text-anchor="start" x="2555" y="1798">
database (01LC2-T5A)
</text>
</g>
</g>
</g>
<g cb-classname="IncludeDocument" cb-modify-time="09/25/2018 01:40:30" cb-objectname="Frame" id="5">
<text cb-classname="GraphicTextEntity" class="frame" font-size="50" id="148n" x="3660" y="3146">
Project Title &lt;Edit in FRAME.SVG&gt;
</text>
<g baseline-shift="-50%" cb-classname="DynamicText" cb-source="BZ-TUOs-Ju" class="frame" id="148c">
<text cb-classname="GraphicTextEntity" class="frame" fill="black" font-family="arial" font-size="25" font-style="normal" font-weight="normal" id="148k" text-decoration="normal" x="4715" y="3325">
15
</text>
</g>
<g baseline-shift="-50%" cb-classname="DynamicText" cb-source="jB-QYE4-1h" class="frame" id="148e" text-anchor="middle">
<text cb-classname="GraphicTextEntity" class="frame" fill="black" font-family="arial" font-size="48" font-style="normal" font-weight="normal" id="148g" text-anchor="middle" text-decoration="normal" x="4900" y="3320">
15
</text>
</g>
<g baseline-shift="-50%" cb-classname="DynamicText" cb-source="Wb-sejw-6J" class="frame" id="148T" text-anchor="middle">
<text cb-classname="GraphicTextEntity" class="frame" fill="black" font-family="arial" font-size="48" font-style="normal" font-weight="normal" id="1Aus" text-anchor="middle" text-decoration="normal" x="5067" y="3324">
3
</text>
</g>
<g cb-classname="DynamicText" cb-source="jO-j0xBN-1uKMe" class="frame" id="1AuA">
<text cb-classname="GraphicTextEntity" class="frame" fill="black" font-family="arial" font-size="48" font-style="normal" font-weight="normal" id="1AuD" text-decoration="normal" x="3660" y="3224">
Generator H2 Gas Temp Control
</text>
</g>
<g baseline-shift="-50%" cb-classname="DynamicText" cb-source="70-8YLy1-RFX3BG" class="frame" id="1Au2" text-anchor="middle">
<text cb-classname="GraphicTextEntity" class="frame" fill="black" font-family="arial" font-size="48" font-style="normal" font-weight="normal" id="1Aun" text-anchor="middle" text-decoration="normal" x="5270" y="3324">
103
</text>
</g>
<g baseline-shift="0%" cb-classname="DynamicText" cb-source="eS-kyUulB4J" class="frame" id="1Auc" text-anchor="middle">
<text cb-classname="GraphicTextEntity" class="frame" fill="black" font-family="arial" font-size="36" font-style="normal" font-weight="normal" id="1Auk" text-anchor="middle" text-decoration="normal" x="5270" y="3150">
A
</text>
</g>
<g baseline-shift="0%" cb-classname="DynamicText" cb-source="cJ-0uQA46vD-X6Vy" class="frame" id="1Aue" text-anchor="middle">
<text cb-classname="GraphicTextEntity" class="frame" fill="black" font-family="arial" font-size="20" font-style="normal" font-weight="normal" id="1Aug" text-anchor="middle" text-decoration="normal" x="5270" y="3230">
12/28/2010
</text>
</g>
<g baseline-shift="-50%" cb-classname="DynamicText" cb-source="Ia-eNc6x1Ry" class="frame" id="1AuT" text-anchor="end">
<text cb-classname="GraphicTextEntity" class="frame" fill="black" font-family="arial" font-size="26" font-style="normal" font-weight="normal" id="1Ars" text-anchor="end" text-decoration="normal" x="4500" y="3420">
Dufek
</text>
</g>
<g baseline-shift="-50%" cb-classname="DynamicText" cb-source="Ef-YUU7RWBk" class="frame" id="1ArA" text-anchor="end">
<text cb-classname="GraphicTextEntity" class="frame" fill="black" font-family="arial" font-size="26" font-style="normal" font-weight="normal" id="1ArD" text-anchor="end" text-decoration="normal" x="5353" y="3420">
Nemec
</text>
</g>
<g cb-classname="GraphicShape" cb-tag="BORDER" id="1Ar2">
<line cb-classname="GraphicLineEntity" class="frameline" id="1Arn" x1="40" x2="40" y1="40" y2="3460"/>
<line cb-classname="GraphicLineEntity" class="frameline" id="1Arc" x1="40" x2="5380" y1="3460" y2="3460"/>
<line cb-classname="GraphicLineEntity" class="frameline" id="1Ark" x1="5380" x2="5380" y1="3460" y2="40"/>
<line cb-classname="GraphicLineEntity" class="frameline" id="1Are" x1="5380" x2="40" y1="40" y2="40"/>
<line cb-classname="GraphicLineEntity" class="frame" id="1Arg" x1="5430" x2="5440" y1="3510" y2="3510"/>
</g>
<g cb-classname="GraphicShape" cb-tag="TITLE BOX" id="1ArT">
<line cb-classname="GraphicLineEntity" class="frameline" id="1Aes" x1="2340" x2="2340" y1="3080" y2="3460"/>
<line cb-classname="GraphicLineEntity" class="frameline" id="1AeA" x1="2340" x2="5380" y1="3080" y2="3080"/>
<line cb-classname="GraphicLineEntity" class="frameline" id="1AeD" x1="3650" x2="3650" y1="3460" y2="3080"/>
<line cb-classname="GraphicLineEntity" class="frameline" id="1Ae2" x1="3650" x2="5380" y1="3240" y2="3240"/>
<line cb-classname="GraphicLineEntity" class="frameline" id="1Aen" x1="3650" x2="5380" y1="3390" y2="3390"/>
<line cb-classname="GraphicLineEntity" class="frameline" id="1Aec" x1="3650" x2="5380" y1="3160" y2="3160"/>
<line cb-classname="GraphicLineEntity" class="frameline" id="1Aek" x1="3650" x2="4520" y1="3320" y2="3320"/>
<line cb-classname="GraphicLineEntity" class="frameline" id="1Aee" x1="4520" x2="5380" y1="3290" y2="3290"/>
<line cb-classname="GraphicLineEntity" class="frameline" id="1Aeg" x1="4520" x2="5380" y1="3240" y2="3240"/>
<line cb-classname="GraphicLineEntity" class="frameline" id="1AeT" x1="4520" x2="4520" y1="3240" y2="3460"/>
<line cb-classname="GraphicLineEntity" class="frameline" id="1Abs" x1="4810" x2="4810" y1="3240" y2="3390"/>
<line cb-classname="GraphicLineEntity" class="frameline" id="1AbA" x1="4990" x2="4990" y1="3240" y2="3390"/>
<line cb-classname="GraphicLineEntity" class="frameline" id="1AbD" x1="5150" x2="5150" y1="3080" y2="3390"/>
</g>
<g cb-classname="GraphicShape" cb-tag="TEXT LABELS" id="1Ab2">
<text baseline-shift="-50%" cb-classname="GraphicTextEntity" class="frame" font-size="25" id="1Abn" text-anchor="middle" x="4890" y="3252">
Drop
</text>
<text baseline-shift="-50%" cb-classname="GraphicTextEntity" class="frame" font-size="25" id="1Abc" text-anchor="middle" x="5075" y="3252">
Task
</text>
<text baseline-shift="-50%" cb-classname="GraphicTextEntity" class="frame" font-size="25" id="1Abk" text-anchor="middle" x="5265" y="3252">
Sheet
</text>
<text cb-classname="GraphicTextEntity" class="frame" font-size="25" id="1Abe" x="5152" y="3107">
Rev.
</text>
<text cb-classname="GraphicTextEntity" class="frame" font-size="25" id="1Abg" x="3653" y="3418">
Engineer
</text>
<text cb-classname="GraphicTextEntity" class="frame" font-size="25" id="1AbT" x="4528" y="3419">
Approved
</text>
<text cb-classname="GraphicTextEntity" class="frame" font-size="25" id="1AOs" x="5152" y="3187">
Date
</text>
<text baseline-shift="-50%" cb-classname="GraphicTextEntity" class="frame" font-size="25" id="1AOA" text-anchor="middle" x="4660" y="3252">
Drawing Number
</text>
<text baseline-shift="-50%" cb-classname="GraphicTextEntity" class="frame" font-size="25" id="1AOD" text-anchor="middle" x="4680" y="3325">
CTL
</text>
</g>
<text baseline-shift="-50%" cb-classname="GraphicTextEntity" class="frame" font-size="48" id="1AO2" text-anchor="middle" x="3000" y="3100">
EMERSON PROCESS MANAGEMENT
</text>
<g baseline-shift="-100%" cb-anchor-x="2360" cb-anchor-y="3140" cb-classname="GroupText" cb-max-width="1260" fill="black" id="1AOn">
<text baseline-shift="-100%" cb-classname="GraphicTextEntity" class="frame" fill="black" font-family="arial" font-size="22" font-weight="normal" id="1AOc" text-anchor="start" text-decoration="normal" x="2360" y="3140">
THIS DOCUMENT CONTAINS INFORMATION PROPRIETARY TO EMERSON PROCESS
</text>
<text baseline-shift="-100%" cb-classname="GraphicTextEntity" class="frame" fill="black" font-family="arial" font-size="22" font-weight="normal" id="1AOk" text-anchor="start" text-decoration="normal" x="2360" y="3176">
MANAGEMENT POWER &amp; WATER SOLUTIONS, INC. IT IS SUBMITTED IN CONFIDENCE AND
</text>
<text baseline-shift="-100%" cb-classname="GraphicTextEntity" class="frame" fill="black" font-family="arial" font-size="22" font-weight="normal" id="1AOe" text-anchor="start" text-decoration="normal" x="2360" y="3212">
TRUST, IS TO BE USED BY YOU SOLELY FOR THE PURPOSES FOR WHICH IT IS
</text>
<text baseline-shift="-100%" cb-classname="GraphicTextEntity" class="frame" fill="black" font-family="arial" font-size="22" font-weight="normal" id="1AOg" text-anchor="start" text-decoration="normal" x="2360" y="3248">
FURNISHED AND IS TO BE RETURNED UPON REQUEST. THIS DOCUMENT AND ANY
</text>
<text baseline-shift="-100%" cb-classname="GraphicTextEntity" class="frame" fill="black" font-family="arial" font-size="22" font-weight="normal" id="1AOT" text-anchor="start" text-decoration="normal" x="2360" y="3284">
OTHER INFORMATION PROVIDED TO YOU IS NOT TO BE REPRODUCED, TRANSMITTED,
</text>
<text baseline-shift="-100%" cb-classname="GraphicTextEntity" class="frame" fill="black" font-family="arial" font-size="22" font-weight="normal" id="1Aws" text-anchor="start" text-decoration="normal" x="2360" y="3320">
DISCLOSED, OR USED OTHERWISE IN WHOLE OR IN PART WITHOUT THE PRIOR
</text>
<text baseline-shift="-100%" cb-classname="GraphicTextEntity" class="frame" fill="black" font-family="arial" font-size="22" font-weight="normal" id="1AwA" text-anchor="start" text-decoration="normal" x="2360" y="3356">
WRITTEN AUTHORIZATION OF EMERSON PROCESS MANAGEMENT POWER &amp; WATER
</text>
<text baseline-shift="-100%" cb-classname="GraphicTextEntity" class="frame" fill="black" font-family="arial" font-size="22" font-weight="normal" id="1AwD" text-anchor="start" text-decoration="normal" x="2360" y="3392">
SOLUTIONS,INC.
</text>
</g>
</g>
</svg>