<?xml version="1.0" ?><svg cb-auto-time="03/12/2020 01:39:55" cb-classname="SISControlFunction" cb-create-time="02/27/2020" cb-drop-id="2" cb-filename="C:\OvPtSvr\OVATION\NET0\UNIT0\ControlFunctions\c029.svg" cb-function-id="C029" cb-key="234244332152" cb-modified-timestamp="1584704985" cb-modify-id="00000002" cb-path="C:/OvPtSvr/OVATION/NET0/UNIT0/ControlFunctions" cb-revision="A" cb-sheet-number="H-SIS-AVTR" cb-sheet-title="SIS AVTR Test sheet" cb-sis-module="4" cb-sis-secure-parameter-0="SIM-AVTR-OUT" cb-sis-solver="CLS01" cb-snap-grid="10" cb-task-id="2" height="3522" id="1" width="5458" xmlns="http://www.w3.org/2000/svg">
<style cb-classname="EntityStyle" id="2" type="text/css">
	.algorithm { fill: white; stroke: black; stroke-width: 3 }
	.algorithm-function { fill: black; stroke: none }
	.algorithm-functionline { fill: none; stroke: black; stroke-linecap: round; stroke-width: 3 }
	.algorithm-name { fill: black; stroke: none }
	.algorithm-nameline { fill: none; stroke: black; stroke-linecap: round; stroke-width: 3 }
	.algorithm-sequence { fill: black; stroke: none; visibility: hidden }
	.algorithm-sequenceline { fill: none; stroke: black; stroke-linecap: round; stroke-width: 3; visibility: hidden }
	.algorithmline { fill: none; stroke: black; stroke-linecap: round; stroke-width: 3 }
	.annotation { fill: black; stroke: none }
	.annotationline { fill: none; stroke: black; stroke-linecap: round; stroke-width: 3 }
	.frame { fill: black; stroke: none }
	.frameline { fill: none; stroke: black; stroke-linecap: round; stroke-width: 3 }
	.signal { fill: black; stroke: none }
	.signalline { fill: none; stroke: black; stroke-linecap: round; stroke-width: 3 }
	text.algorithm { fill: black; font-family: Arial; font-size: 22; stroke: none }
	text.algorithm-function { fill: black; font-family: Arial; font-size: 22; stroke: none }
	text.algorithm-name { fill: black; font-family: Arial; font-size: 22; stroke: none }
	text.algorithm-sequence { fill: black; font-family: Arial; font-size: 22; stroke: none; visibility: hidden }
	text.annotation { fill: black; font-family: Arial; font-size: 22; stroke: none }
	text.frame { fill: black; font-family: Arial; font-size: 18; stroke: none }
	text.signal { fill: black; font-family: Arial; font-size: 12; stroke: none }
</style>
<g cb-classname="NamedObject" cb-objectname="Comments" id="3"/>
<g cb-classname="SISAlgorithmContainer" cb-objectname="Algorithms" id="4">
<g cb-alg-onu="SIM-AVTR-BYP" cb-alg-rtDzn="546750167" cb-alg-x3U="2147681792" cb-algorithm-id="011" cb-classname="SISAlgorithm" cb-function-name="NONSECPARAM" cb-modify-id="00000002" cb-sis-algorithm-id="0" cb-sis-template-rev="2" id="9EZ">
<rect cb-classname="GraphicRectangleEntity" class="algorithm" fill="yellow" height="90" id="9Ew" width="160" x="1050" y="830"/>
<g cb-classname="ControlPin" cb-pin-name="B5-MuP-tjn" id="9Op">
<line cb-classname="GraphicLineEntity" class="signalline" id="9OA" x1="1210" x2="1240" y1="870" y2="870"/>
<g cb-classname="DynamicText" cb-source="iW-CNv-CSIZ" id="9OK">
<text cb-classname="GraphicTextEntity" class="signal" id="9OI" text-anchor="start" x="1224" y="867"/>
</g>
<g cb-classname="SignalSegment" id="9OX">
<line cb-classname="GraphicLineEntity" class="signalline" id="9Os" stroke="#1e12bf" stroke-dasharray="5,4" x1="1240" x2="1840" y1="870" y2="870"/>
<g cb-classname="SignalSegment" id="9OS">
<line cb-classname="GraphicLineEntity" class="signalline" id="9OQ" stroke="#1e12bf" stroke-dasharray="5,4" x1="1840" x2="1840" y1="870" y2="800"/>
<g cb-classname="SignalSegment" id="9OZ">
<line cb-classname="GraphicLineEntity" class="signalline" id="9Ow" stroke="#1e12bf" stroke-dasharray="5,4" x1="1840" x2="1870" y1="800" y2="780"/>
<g cb-classname="SignalConnection" cb-graphic-line="$999$" cb-input-pin="$sbXp$" id="1Qp2"/>
</g>
</g>
</g>
</g>
<g cb-classname="GraphicShape" id="1Qp3">
<g cb-classname="DynamicText" cb-labeled="false" cb-source="DU-SzB-xIv" id="1Qph">
<text cb-classname="GraphicTextEntity" class="algorithm" id="1Qps" text-anchor="middle" x="1130" y="950"/>
</g>
</g>
<g cb-classname="GraphicShape" id="1QpR">
<text baseline-shift="0%" cb-classname="GraphicTextEntity" class="algorithm" fill="#000000" font-family="Arial" font-size="12" id="1QpU" text-anchor="middle" x="1130" y="870">
NON SECURE
</text>
<text baseline-shift="0%" cb-classname="GraphicTextEntity" class="algorithm" fill="#000000" font-family="Arial" font-size="12" id="1Qpm" text-anchor="middle" x="1130" y="890">
PARAMETER
</text>
</g>
<g baseline-shift="-50%" cb-anchor-x="1040" cb-anchor-y="860" cb-classname="PointDescription" cb-content="extended" cb-labeled="false" cb-max-width="280" cb-source="02-ybJ-Mci" class="algorithm" id="1Qp1" text-anchor="end">
<text baseline-shift="-50%" cb-classname="GraphicTextEntity" class="algorithm" id="1QpZ" text-anchor="end" x="1040" y="843">
@ Ovation Control
</text>
<text baseline-shift="-50%" cb-classname="GraphicTextEntity" class="algorithm" id="1Qpi" text-anchor="end" x="1040" y="879">
Builder @
</text>
</g>
<g baseline-shift="-100%" cb-anchor-x="1220" cb-anchor-y="880" cb-classname="PointReferences" cb-max-width="500" cb-originator="true" cb-source="4h-ST3-9Aa" class="algorithm" id="1QA2" text-anchor="start">
<text baseline-shift="-100%" cb-classname="GraphicTextEntity" class="algorithm" id="1QA3" text-anchor="start" x="1220" y="880">
-
</text>
</g>
</g>
<g cb-alg-EiZ="SIM-AVTR-RST" cb-alg-Njj5V="546750167" cb-alg-jBG="2147682048" cb-algorithm-id="01C" cb-classname="SISAlgorithm" cb-function-name="NONSECPARAM" cb-modify-id="00000002" cb-sis-algorithm-id="1" cb-sis-template-rev="2" id="1QAh">
<rect cb-classname="GraphicRectangleEntity" class="algorithm" fill="yellow" height="90" id="1QAs" width="160" x="1050" y="1000"/>
<g cb-classname="ControlPin" cb-pin-name="cJ-xRb-TSU" id="1QAR">
<line cb-classname="GraphicLineEntity" class="signalline" id="1QAU" x1="1210" x2="1240" y1="1040" y2="1040"/>
<g cb-classname="DynamicText" cb-source="B5-QYS-vgxj" id="1QAm">
<text cb-classname="GraphicTextEntity" class="signal" id="1QA1" text-anchor="start" x="1224" y="1037"/>
</g>
<g cb-classname="SignalSegment" id="1QAZ">
<line cb-classname="GraphicLineEntity" class="signalline" id="1QAi" stroke="#1e12bf" stroke-dasharray="5,4" x1="1240" x2="3520" y1="1040" y2="1040"/>
<g cb-classname="SignalSegment" id="1QK2">
<line cb-classname="GraphicLineEntity" class="signalline" id="1QK3" stroke="#1e12bf" stroke-dasharray="5,4" x1="3520" x2="3520" y1="1040" y2="750"/>
<g cb-classname="SignalSegment" id="1QKh">
<g cb-classname="SignalConnection" cb-graphic-line="$1024$" cb-input-pin="$L3LJ$" id="1QKs"/>
<line cb-classname="GraphicLineEntity" class="signalline" id="1QKR" stroke="#1e12bf" stroke-dasharray="5,4" x1="3520" x2="3650" y1="750" y2="750"/>
</g>
</g>
</g>
</g>
<g cb-classname="GraphicShape" id="1QKU">
<g cb-classname="DynamicText" cb-labeled="false" cb-source="cG-yOV-lMo" id="1QKm">
<text cb-classname="GraphicTextEntity" class="algorithm" id="1QK1" text-anchor="middle" x="1130" y="1120"/>
</g>
</g>
<g cb-classname="GraphicShape" id="1QKZ">
<text baseline-shift="0%" cb-classname="GraphicTextEntity" class="algorithm" fill="#000000" font-family="Arial" font-size="12" id="1QKi" text-anchor="middle" x="1130" y="1040">
NON SECURE
</text>
<text baseline-shift="0%" cb-classname="GraphicTextEntity" class="algorithm" fill="#000000" font-family="Arial" font-size="12" id="1QI2" text-anchor="middle" x="1130" y="1060">
PARAMETER
</text>
</g>
<g baseline-shift="-50%" cb-anchor-x="1040" cb-anchor-y="1030" cb-classname="PointDescription" cb-content="extended" cb-labeled="false" cb-max-width="280" cb-source="iW-Unn-EiZ" class="algorithm" id="1QI3" text-anchor="end">
<text baseline-shift="-50%" cb-classname="GraphicTextEntity" class="algorithm" id="1QIh" text-anchor="end" x="1040" y="1013">
@ Ovation Control
</text>
<text baseline-shift="-50%" cb-classname="GraphicTextEntity" class="algorithm" id="1QIs" text-anchor="end" x="1040" y="1049">
Builder @
</text>
</g>
<g baseline-shift="-100%" cb-anchor-x="1220" cb-anchor-y="1050" cb-classname="PointReferences" cb-max-width="500" cb-originator="true" cb-source="M1-gia-uhi" class="algorithm" id="1QIR" text-anchor="start">
<text baseline-shift="-100%" cb-classname="GraphicTextEntity" class="algorithm" id="1QIU" text-anchor="start" x="1220" y="1050">
99/S11201
</text>
</g>
</g>
<g cb-alg-STs="2147682304" cb-alg-izT9M="546750167" cb-alg-tjn="MEDSEL-A" cb-algorithm-id="00C" cb-classname="SISAlgorithm" cb-function-name="NONSECPARAM" cb-modify-id="00000002" cb-sis-algorithm-id="2" cb-sis-template-rev="2" id="1QIm">
<rect cb-classname="GraphicRectangleEntity" class="algorithm" fill="yellow" height="90" id="1QI1" width="160" x="390" y="410"/>
<g cb-classname="ControlPin" cb-pin-name="0V-rq6-cbw" id="1QIZ">
<line cb-classname="GraphicLineEntity" class="signalline" id="1QIi" x1="550" x2="580" y1="450" y2="450"/>
<g cb-classname="DynamicText" cb-source="cJ-6jB-SGdz" id="1QX2">
<text cb-classname="GraphicTextEntity" class="signal" id="1QX3" text-anchor="start" x="564" y="447"/>
</g>
<g cb-classname="SignalSegment" id="1QXh">
<line cb-classname="GraphicLineEntity" class="signalline" id="1QXs" x1="580" x2="1250" y1="450" y2="450"/>
<g cb-classname="SignalSegment" id="1QXR">
<line cb-classname="GraphicLineEntity" class="signalline" id="1QXU" x1="1250" x2="1250" y1="450" y2="630"/>
<g cb-classname="SignalSegment" id="1QXm">
<line cb-classname="GraphicLineEntity" class="signalline" id="1QX1" x1="1250" x2="1860" y1="630" y2="630"/>
<g cb-classname="SignalConnection" cb-graphic-line="$1047$" cb-input-pin="$mLOT$" id="1QXZ"/>
</g>
</g>
</g>
</g>
<g cb-classname="GraphicShape" id="1QXi">
<g cb-classname="DynamicText" cb-labeled="false" cb-source="ls-lxx-I8L" id="1Qs2">
<text cb-classname="GraphicTextEntity" class="algorithm" id="1Qs3" text-anchor="middle" x="470" y="530"/>
</g>
</g>
<g cb-classname="GraphicShape" id="1Qsh">
<text baseline-shift="0%" cb-classname="GraphicTextEntity" class="algorithm" fill="#000000" font-family="Arial" font-size="12" id="1Qss" text-anchor="middle" x="470" y="450">
NON SECURE
</text>
<text baseline-shift="0%" cb-classname="GraphicTextEntity" class="algorithm" fill="#000000" font-family="Arial" font-size="12" id="1QsR" text-anchor="middle" x="470" y="470">
PARAMETER
</text>
</g>
<g baseline-shift="-50%" cb-anchor-x="380" cb-anchor-y="440" cb-classname="PointDescription" cb-content="extended" cb-labeled="false" cb-max-width="280" cb-source="B5-MuP-tjn" class="algorithm" id="1QsU" text-anchor="end">
<text baseline-shift="-50%" cb-classname="GraphicTextEntity" class="algorithm" id="1Qsm" text-anchor="end" x="380" y="405">
@ Ovation Control
</text>
<text baseline-shift="-50%" cb-classname="GraphicTextEntity" class="algorithm" id="1Qs1" text-anchor="end" x="380" y="441">
Builder @
</text>
<text baseline-shift="-50%" cb-classname="GraphicTextEntity" class="algorithm" id="1QsZ" text-anchor="end" x="380" y="477">
0.00 - 100.0
</text>
</g>
<g baseline-shift="-100%" cb-anchor-x="560" cb-anchor-y="460" cb-classname="PointReferences" cb-max-width="500" cb-originator="true" cb-source="02-ybJ-Mci" class="algorithm" id="1Qsi" text-anchor="start">
<text baseline-shift="-100%" cb-classname="GraphicTextEntity" class="algorithm" id="1QS2" text-anchor="start" x="560" y="460">
99/S11200
</text>
</g>
</g>
<g cb-alg-AJnCY="546750167" cb-alg-Kjh="2147682560" cb-alg-xIv="MEDSEL-B" cb-algorithm-id="005" cb-classname="SISAlgorithm" cb-function-name="NONSECPARAM" cb-modify-id="00000002" cb-sis-algorithm-id="3" cb-sis-template-rev="2" id="1QS3">
<rect cb-classname="GraphicRectangleEntity" class="algorithm" fill="yellow" height="90" id="1QSh" width="160" x="390" y="570"/>
<g cb-classname="ControlPin" cb-pin-name="ls-lxx-I8L" id="1QSs">
<line cb-classname="GraphicLineEntity" class="signalline" id="1QSR" x1="550" x2="580" y1="610" y2="610"/>
<g cb-classname="DynamicText" cb-source="cG-LxH-M6B8" id="1QSU">
<text cb-classname="GraphicTextEntity" class="signal" id="1QSm" text-anchor="start" x="564" y="607"/>
</g>
<g cb-classname="SignalSegment" id="1QS1">
<line cb-classname="GraphicLineEntity" class="signalline" id="1QSZ" x1="580" x2="1220" y1="610" y2="610"/>
<g cb-classname="SignalSegment" id="1QSi">
<line cb-classname="GraphicLineEntity" class="signalline" id="1QQ2" x1="1220" x2="1220" y1="610" y2="680"/>
<g cb-classname="SignalSegment" id="1QQ3">
<line cb-classname="GraphicLineEntity" class="signalline" id="1QQh" x1="1220" x2="1860" y1="680" y2="680"/>
<g cb-classname="SignalConnection" cb-graphic-line="$1072$" cb-input-pin="$Jmi2$" id="1QQs"/>
</g>
</g>
</g>
</g>
<g cb-classname="GraphicShape" id="1QQR">
<g cb-classname="DynamicText" cb-labeled="false" cb-source="4h-ST3-9Aa" id="1QQU">
<text cb-classname="GraphicTextEntity" class="algorithm" id="1QQm" text-anchor="middle" x="470" y="690"/>
</g>
</g>
<g cb-classname="GraphicShape" id="1QQ1">
<text baseline-shift="0%" cb-classname="GraphicTextEntity" class="algorithm" fill="#000000" font-family="Arial" font-size="12" id="1QQZ" text-anchor="middle" x="470" y="610">
NON SECURE
</text>
<text baseline-shift="0%" cb-classname="GraphicTextEntity" class="algorithm" fill="#000000" font-family="Arial" font-size="12" id="1QQi" text-anchor="middle" x="470" y="630">
PARAMETER
</text>
</g>
<g baseline-shift="-50%" cb-anchor-x="380" cb-anchor-y="600" cb-classname="PointDescription" cb-content="extended" cb-labeled="false" cb-max-width="280" cb-source="DU-SzB-xIv" class="algorithm" id="1QZ2" text-anchor="end">
<text baseline-shift="-50%" cb-classname="GraphicTextEntity" class="algorithm" id="1QZ3" text-anchor="end" x="380" y="565">
@ Ovation Control
</text>
<text baseline-shift="-50%" cb-classname="GraphicTextEntity" class="algorithm" id="1QZh" text-anchor="end" x="380" y="601">
Builder @
</text>
<text baseline-shift="-50%" cb-classname="GraphicTextEntity" class="algorithm" id="1QZs" text-anchor="end" x="380" y="637">
0.00 - 100.0
</text>
</g>
<g baseline-shift="-100%" cb-anchor-x="560" cb-anchor-y="620" cb-classname="PointReferences" cb-max-width="500" cb-originator="true" cb-source="Uv-GeA-Y9i" class="algorithm" id="1QZR" text-anchor="start">
<text baseline-shift="-100%" cb-classname="GraphicTextEntity" class="algorithm" id="1QZU" text-anchor="start" x="560" y="620">
99/S11200
</text>
</g>
</g>
<g cb-alg-5hzRE="546750167" cb-alg-TSU="MEDSEL-C" cb-alg-eDW="2147682816" cb-algorithm-id="004" cb-classname="SISAlgorithm" cb-function-name="NONSECPARAM" cb-modify-id="00000002" cb-sis-algorithm-id="4" cb-sis-template-rev="2" id="1QZm">
<rect cb-classname="GraphicRectangleEntity" class="algorithm" fill="yellow" height="90" id="1QZ1" width="160" x="390" y="730"/>
<g cb-classname="ControlPin" cb-pin-name="4h-ST3-9Aa" id="1QZZ">
<line cb-classname="GraphicLineEntity" class="signalline" id="1QZi" x1="550" x2="580" y1="770" y2="770"/>
<g cb-classname="DynamicText" cb-source="0V-63A-poKG" id="1Qw2">
<text cb-classname="GraphicTextEntity" class="signal" id="1Qw3" text-anchor="start" x="564" y="767"/>
</g>
<g cb-classname="SignalSegment" id="1Qwh">
<line cb-classname="GraphicLineEntity" class="signalline" id="1Qws" x1="580" x2="1220" y1="770" y2="770"/>
<g cb-classname="SignalSegment" id="1QwR">
<line cb-classname="GraphicLineEntity" class="signalline" id="1QwU" x1="1220" x2="1220" y1="770" y2="730"/>
<g cb-classname="SignalSegment" id="1Qwm">
<line cb-classname="GraphicLineEntity" class="signalline" id="1Qw1" x1="1220" x2="1860" y1="730" y2="730"/>
<g cb-classname="SignalConnection" cb-graphic-line="$1097$" cb-input-pin="$sJby$" id="1QwZ"/>
</g>
</g>
</g>
</g>
<g cb-classname="GraphicShape" id="1Qwi">
<g cb-classname="DynamicText" cb-labeled="false" cb-source="zW-u3B-Vqh" id="1Vp2">
<text cb-classname="GraphicTextEntity" class="algorithm" id="1Vp3" text-anchor="middle" x="470" y="850"/>
</g>
</g>
<g cb-classname="GraphicShape" id="1Vph">
<text baseline-shift="0%" cb-classname="GraphicTextEntity" class="algorithm" fill="#000000" font-family="Arial" font-size="12" id="1Vps" text-anchor="middle" x="470" y="770">
NON SECURE
</text>
<text baseline-shift="0%" cb-classname="GraphicTextEntity" class="algorithm" fill="#000000" font-family="Arial" font-size="12" id="1VpR" text-anchor="middle" x="470" y="790">
PARAMETER
</text>
</g>
<g baseline-shift="-50%" cb-anchor-x="380" cb-anchor-y="760" cb-classname="PointDescription" cb-content="extended" cb-labeled="false" cb-max-width="280" cb-source="cJ-xRb-TSU" class="algorithm" id="1VpU" text-anchor="end">
<text baseline-shift="-50%" cb-classname="GraphicTextEntity" class="algorithm" id="1Vpm" text-anchor="end" x="380" y="725">
@ Ovation Control
</text>
<text baseline-shift="-50%" cb-classname="GraphicTextEntity" class="algorithm" id="1Vp1" text-anchor="end" x="380" y="761">
Builder @
</text>
<text baseline-shift="-50%" cb-classname="GraphicTextEntity" class="algorithm" id="1VpZ" text-anchor="end" x="380" y="797">
0.00 - 100.0
</text>
</g>
<g baseline-shift="-100%" cb-anchor-x="560" cb-anchor-y="780" cb-classname="PointReferences" cb-max-width="500" cb-originator="true" cb-source="iW-Unn-EiZ" class="algorithm" id="1Vpi" text-anchor="start">
<text baseline-shift="-100%" cb-classname="GraphicTextEntity" class="algorithm" id="1VA2" text-anchor="start" x="560" y="780">
-
</text>
</g>
</g>
<g cb-alg-KNUvq="546750167" cb-alg-KTl2="FALSE" cb-alg-KTlm="FALSE" cb-alg-Km9NP="0.0" cb-alg-L6Eoz="16" cb-alg-PE9ic="2" cb-alg-PHnF="0.0" cb-alg-PTLNR="3" cb-alg-YSJ="$1036$cb-alg-out$" cb-alg-YSO="$1086$cb-alg-out$" cb-alg-YSa="$1061$cb-alg-out$" cb-alg-e6Q="0.000000" cb-alg-e6So="0" cb-alg-eK9d="0.000000" cb-alg-eMDdb="1" cb-alg-eMS="32768" cb-alg-eTlU="VOTE TO TRIP IF BAD" cb-alg-eYGo="Drop2\CLS01\CLS01#4\AC029001" cb-alg-f77="SIM-AVTR" cb-alg-fUniv="SIM-AVTR-AALRT" cb-alg-g5De5="3" cb-alg-g5IFm="1" cb-alg-g5cUm="SIM-AVTR-TRSTS" cb-alg-g5nNP="90" cb-alg-gCc4="200" cb-alg-jH1="1073939456" cb-alg-k03="VOTER7" cb-alg-k0C="VOTER5" cb-alg-k0Gn="247" cb-alg-k0J="VOTER1" cb-alg-k0J2="VOTER12" cb-alg-k0J7="VOTER16" cb-alg-k0JT="VOTER15" cb-alg-k0JX="VOTER13" cb-alg-k0Jb="VOTER14" cb-alg-k0Jm="VOTER11" cb-alg-k0Jw="VOTER10" cb-alg-k0M="VOTER6" cb-alg-k0O="VOTER3" cb-alg-k0a="VOTER2" cb-alg-k0d="VOTER8" cb-alg-k0e="VOTER4" cb-alg-k0j="VOTER9" cb-alg-k6Eoz="GREATERTHAN" cb-alg-k7EUP="SIM-AVTR-DLYTM" cb-alg-kLIFm="2" cb-alg-kLnNP="0" cb-alg-r6nNP="80" cb-alg-v4l2="0" cb-alg-v4l6="0" cb-alg-v4l7="0" cb-alg-v4l8="0" cb-alg-v4lT="0" cb-alg-v4lV="0" cb-alg-v4lX="0" cb-alg-v4lb="0" cb-alg-v4lm="0" cb-alg-v4lmH="0" cb-alg-v4lmL="0" cb-alg-v4lmV="0" cb-alg-v4lmZ="0" cb-alg-v4lmi="0" cb-alg-v4lmk="0" cb-alg-v4lmy="0" cb-alg-v6Qi="3" cb-alg-v6c4="0" cb-alg-v6xIv="120" cb-alg-vChiP="$988$cb-alg-out$" cb-alg-vTl2="TRUE" cb-alg-vTl6="FALSE" cb-alg-vTl7="FALSE" cb-alg-vTl8="FALSE" cb-alg-vTlT="FALSE" cb-alg-vTlV="FALSE" cb-alg-vTlX="TRUE" cb-alg-vTlb="FALSE" cb-alg-vTlm="TRUE" cb-algorithm-id="001" cb-classname="SISAlgorithm" cb-function-name="LSAVTR" cb-modify-id="00000002" cb-sis-algorithm-id="1" cb-sis-template-rev="2" id="1VA3">
<rect cb-classname="GraphicRectangleEntity" class="algorithm" fill="yellow" height="160" id="1VAh" width="160" x="1900" y="600"/>
<g cb-classname="GraphicShape" id="1VAs">
<text baseline-shift="0%" cb-classname="GraphicTextEntity" class="algorithm" fill="#000000" font-family="Arial" font-size="12" id="1VAR" text-anchor="middle" x="1980" y="680">
ANALOG VOTER
</text>
</g>
<g cb-classname="GraphicShape" id="1VAU">
<g cb-classname="DynamicText" cb-labeled="false" cb-source="0V-rq6-CEE" id="1VAm">
<text cb-classname="GraphicTextEntity" class="algorithm" id="1VA1" text-anchor="start" x="1870" y="820"/>
</g>
<g cb-classname="DynamicText" cb-labeled="true" cb-source="cJ-xRb-H9FcL" id="1VAZ">
<text cb-classname="GraphicTextEntity" class="algorithm" id="1VAi" text-anchor="start" x="1870" y="850"/>
</g>
<g cb-classname="DynamicText" cb-labeled="true" cb-source="B5-MuP-vZnZq" id="1VK2">
<text cb-classname="GraphicTextEntity" class="algorithm" id="1VK3" text-anchor="start" x="1870" y="880"/>
</g>
</g>
<g cb-classname="ControlPin" cb-pin-name="02-ybJ-a5X" id="1VKR">
<line cb-classname="GraphicLineEntity" class="signalline" id="1VKU" x1="1860" x2="1900" y1="630" y2="630"/>
<polygon cb-classname="GraphicPolygonEntity" class="signal" id="1VKm" points="1900,630 1889,624 1889,635"/>
<g cb-classname="DynamicText" cb-source="4h-za5-AROF" id="1VK1">
<text cb-classname="GraphicTextEntity" class="signal" id="1VKZ" text-anchor="end" x="1885" y="627"/>
</g>
</g>
<g cb-classname="ControlPin" cb-pin-name="0V-rq6-cbw" id="1VKi">
<line cb-classname="GraphicLineEntity" class="signalline" id="1VI2" x1="2060" x2="2090" y1="680" y2="680"/>
<g cb-classname="DynamicText" cb-source="cJ-6jB-SGdz" id="1VI3">
<text cb-classname="GraphicTextEntity" class="signal" id="1VIh" text-anchor="start" x="2074" y="677"/>
</g>
<g cb-classname="SignalSegment" id="1VIs">
<g cb-classname="SignalSegment" id="1VIR">
<line cb-classname="GraphicLineEntity" class="signalline" id="1VIU" stroke="#1e12bf" stroke-dasharray="5,4" x1="3310" x2="3310" y1="680" y2="700"/>
<g cb-classname="SignalSegment" id="1VIm">
<line cb-classname="GraphicLineEntity" class="signalline" id="1VI1" stroke="#1e12bf" stroke-dasharray="5,4" x1="3310" x2="3380" y1="700" y2="700"/>
<g cb-classname="SignalConnection" cb-graphic-line="$1137$" cb-input-pin="$JbiB$" id="1VIZ"/>
</g>
</g>
<line cb-classname="GraphicLineEntity" class="signalline" id="1VIi" stroke="#1e12bf" stroke-dasharray="5,4" x1="2090" x2="3310" y1="680" y2="680"/>
</g>
</g>
<g cb-classname="ControlPin" cb-pin-name="4h-ST3-xHT" id="1VX2">
<line cb-classname="GraphicLineEntity" class="signalline" id="1VX3" x1="1860" x2="1900" y1="680" y2="680"/>
<polygon cb-classname="GraphicPolygonEntity" class="signal" id="1VXh" points="1900,680 1889,674 1889,685"/>
<g cb-classname="DynamicText" cb-source="cG-LxH-M6B8" id="1VXs">
<text cb-classname="GraphicTextEntity" class="signal" id="1VXR" text-anchor="end" x="1885" y="677"/>
</g>
</g>
<g cb-classname="ControlPin" cb-pin-name="DU-SzB-NvV" id="1VXU">
<line cb-classname="GraphicLineEntity" class="signalline" id="1VXm" x1="1860" x2="1900" y1="730" y2="730"/>
<polygon cb-classname="GraphicPolygonEntity" class="signal" id="1VX1" points="1900,730 1889,724 1889,735"/>
<g cb-classname="DynamicText" cb-source="iW-CNv-CSIZ" id="1VXZ">
<text cb-classname="GraphicTextEntity" class="signal" id="1VXi" text-anchor="end" x="1885" y="727"/>
</g>
</g>
<g cb-classname="ControlPin" cb-pin-name="02-ybJ-ZN8u" id="1Vs2">
<line cb-classname="GraphicLineEntity" class="signalline" id="1Vs3" x1="1920" x2="1920" y1="600" y2="570"/>
<g cb-classname="DynamicText" cb-source="zW-KdR-8MDW" id="1Vsh">
<text cb-classname="GraphicTextEntity" class="signal" id="1Vss" text-anchor="start" transform="translate(1917,585)rotate(-90)"/>
</g>
<g cb-classname="SignalSegment" id="1VsR">
<line cb-classname="GraphicLineEntity" class="signalline" id="1VsU" stroke="#1e12bf" stroke-dasharray="5,4" x1="1920" x2="1920" y1="570" y2="240"/>
<g cb-classname="SignalSegment" id="1Vsm">
<line cb-classname="GraphicLineEntity" class="signalline" id="1Vs1" stroke="#1e12bf" stroke-dasharray="5,4" x1="1920" x2="2160" y1="240" y2="240"/>
<g cb-classname="SignalConnection" cb-graphic-line="$1157$" cb-input-pin="$Ahkg$" id="1VsZ"/>
</g>
</g>
</g>
<g cb-classname="ControlPin" cb-pin-name="B5-MuP-UnCD" id="1Vsi">
<line cb-classname="GraphicLineEntity" class="signalline" id="1VS2" x1="1980" x2="1980" y1="600" y2="570"/>
<g cb-classname="DynamicText" cb-source="iW-CNv-CSIZ" id="1VS3">
<text cb-classname="GraphicTextEntity" class="signal" id="1VSh" text-anchor="start" transform="translate(1977,585)rotate(-90)"/>
</g>
<g cb-classname="SignalSegment" id="1VSs">
<line cb-classname="GraphicLineEntity" class="signalline" id="1VSR" stroke="#1e12bf" stroke-dasharray="5,4" x1="1980" x2="1980" y1="570" y2="320"/>
<g cb-classname="SignalSegment" id="1VSU">
<line cb-classname="GraphicLineEntity" class="signalline" id="1VSm" stroke="#1e12bf" stroke-dasharray="5,4" x1="1980" x2="2160" y1="320" y2="320"/>
<g cb-classname="SignalConnection" cb-graphic-line="$1166$" cb-input-pin="$FXWq$" id="1VS1"/>
</g>
</g>
</g>
<g cb-classname="ControlPin" cb-pin-name="0V-rq6-ahHq" id="1VSZ">
<line cb-classname="GraphicLineEntity" class="signalline" id="1VSi" x1="2040" x2="2040" y1="600" y2="570"/>
<g cb-classname="DynamicText" cb-source="cJ-6jB-SGdz" id="1VQ2">
<text cb-classname="GraphicTextEntity" class="signal" id="1VQ3" text-anchor="start" transform="translate(2037,585)rotate(-90)"/>
</g>
<g cb-classname="SignalSegment" id="1VQh">
<line cb-classname="GraphicLineEntity" class="signalline" id="1VQs" stroke="#1e12bf" stroke-dasharray="5,4" x1="2040" x2="2040" y1="570" y2="400"/>
<g cb-classname="SignalSegment" id="1VQR">
<line cb-classname="GraphicLineEntity" class="signalline" id="1VQU" stroke="#1e12bf" stroke-dasharray="5,4" x1="2040" x2="2160" y1="400" y2="400"/>
<g cb-classname="SignalConnection" cb-graphic-line="$1175$" cb-input-pin="$sOV7$" id="1VQm"/>
</g>
</g>
</g>
<g cb-classname="ControlPin" cb-pin-name="M1-gia-iF1hj" id="1VQ1">
<line cb-classname="GraphicLineEntity" class="signalline" id="1VQZ" x1="2060" x2="2090" y1="610" y2="610"/>
<g cb-classname="DynamicText" cb-source="4h-za5-AROF" id="1VQi">
<text cb-classname="GraphicTextEntity" class="signal" id="1VZ2" text-anchor="start" x="2074" y="607"/>
</g>
<g cb-classname="SignalSegment" id="1VZ3">
<g cb-classname="SignalSegment" id="1VZh">
<line cb-classname="GraphicLineEntity" class="signalline" id="1VZs" x1="3420" x2="3420" y1="610" y2="470"/>
<g cb-classname="SignalSegment" id="1VZR">
<line cb-classname="GraphicLineEntity" class="signalline" id="1VZU" x1="3420" x2="4760" y1="470" y2="470"/>
<g cb-classname="SignalConnection" cb-graphic-line="$1185$" cb-input-pin="$Ytln$" id="1VZm"/>
</g>
</g>
<line cb-classname="GraphicLineEntity" class="signalline" id="1VZ1" x1="2090" x2="3420" y1="610" y2="610"/>
</g>
</g>
<g cb-classname="ControlPin" cb-pin-name="Uv-GeA-BTJiJ" id="1VZZ">
<line cb-classname="GraphicLineEntity" class="signalline" id="1VZi" x1="2060" x2="2090" y1="750" y2="750"/>
<g cb-classname="DynamicText" cb-source="M1-cd9-5yJu" id="1Vw2">
<text cb-classname="GraphicTextEntity" class="signal" id="1Vw3" text-anchor="start" x="2074" y="747"/>
</g>
<g cb-classname="SignalSegment" id="1Vwh">
<g cb-classname="SignalSegment" id="1Vws">
<line cb-classname="GraphicLineEntity" class="signalline" id="1VwR" x1="3420" x2="3420" y1="750" y2="970"/>
<g cb-classname="SignalSegment" id="1VwU">
<line cb-classname="GraphicLineEntity" class="signalline" id="1Vwm" x1="3420" x2="4760" y1="970" y2="970"/>
<g cb-classname="SignalConnection" cb-graphic-line="$1196$" cb-input-pin="$AhIG$" id="1Vw1"/>
</g>
</g>
<line cb-classname="GraphicLineEntity" class="signalline" id="1VwZ" x1="2090" x2="3420" y1="750" y2="750"/>
</g>
</g>
<g cb-classname="ControlPin" cb-pin-name="Hf-f77-gu3wi" id="1Vwi">
<line cb-classname="GraphicLineEntity" class="signalline" id="1Fp2" x1="2060" x2="2090" y1="760" y2="790"/>
<g cb-classname="DynamicText" cb-source="Uv-lNR-9lPN" id="1Fp3">
<text cb-classname="GraphicTextEntity" class="signal" id="1Fph" text-anchor="start" transform="translate(2072,768)rotate(45)"/>
</g>
<g cb-classname="SignalSegment" id="1Fps">
<g cb-classname="SignalSegment" id="1bps">
<line cb-classname="GraphicLineEntity" class="signalline" id="1bpR" x1="2300" x2="2300" y1="790" y2="1090"/>
<g cb-classname="SignalSegment" id="1bpU">
<line cb-classname="GraphicLineEntity" class="signalline" id="1bpm" x1="2300" x2="4760" y1="1090" y2="1090"/>
<g cb-classname="SignalConnection" cb-graphic-line="$1506$" cb-input-pin="$sqOp$" id="1bp1"/>
</g>
</g>
<line cb-classname="GraphicLineEntity" class="signalline" id="1bph" x1="2090" x2="2300" y1="790" y2="790"/>
</g>
</g>
<g cb-classname="ControlPin" cb-pin-name="DU-SzB-1ozNU" id="1FA2">
<line cb-classname="GraphicLineEntity" class="signalline" id="1FA3" x1="1870" x2="1900" y1="780" y2="760"/>
<polygon cb-classname="GraphicPolygonEntity" class="signal" id="1FAh" points="1900,760 1888,761 1893,770"/>
<g cb-classname="DynamicText" cb-source="iW-CNv-CSIZ" id="1FAs">
<text cb-classname="GraphicTextEntity" class="signal" id="1FAR" text-anchor="end" transform="translate(1886,766)rotate(-30)"/>
</g>
</g>
<g cb-classname="GraphicShape" id="1FAU">
<g cb-classname="DynamicText" cb-labeled="true" cb-source="M1-gia-iFyfj" id="1FAm">
<text cb-classname="GraphicTextEntity" class="algorithm" id="1FA1" text-anchor="start" x="2100" y="1020"/>
</g>
</g>
<g cb-classname="GraphicShape" id="1FAZ">
<g cb-classname="DynamicText" cb-labeled="true" cb-source="ls-lxx-KaEFB" id="1FAi">
<text cb-classname="GraphicTextEntity" class="algorithm" id="1FK2" text-anchor="start" x="2100" y="960"/>
</g>
<g cb-classname="DynamicText" cb-labeled="true" cb-source="cG-yOV-LvjBy" id="1FK3">
<text cb-classname="GraphicTextEntity" class="algorithm" id="1FKh" text-anchor="start" x="2100" y="990"/>
</g>
</g>
<g cb-classname="GraphicShape" id="1FKs">
<g cb-classname="DynamicText" cb-labeled="true" cb-source="B5-MuP-Ua73L" id="1FKR">
<text cb-classname="GraphicTextEntity" class="algorithm" id="1FKU" text-anchor="start" x="2100" y="930"/>
</g>
</g>
<g cb-classname="GraphicShape" id="1FKm">
<g cb-classname="DynamicText" cb-labeled="true" cb-source="Uv-GeA-nqWe" id="1FK1">
<text cb-classname="GraphicTextEntity" class="algorithm" id="1FKZ" text-anchor="start" x="1870" y="980"/>
</g>
<g cb-classname="DynamicText" cb-labeled="true" cb-source="M1-gia-oi1o" id="1FKi">
<text cb-classname="GraphicTextEntity" class="algorithm" id="1FI2" text-anchor="start" x="1870" y="1010"/>
</g>
</g>
<g cb-classname="GraphicShape" id="1bpZ">
<g cb-classname="DynamicText" cb-labeled="true" cb-source="DU-SzB-Btod9" id="1bpi">
<text cb-classname="GraphicTextEntity" class="algorithm" id="1bA2" text-anchor="start" x="1870" y="910"/>
</g>
</g>
</g>
<g cb-alg-NR="$1111$cb-alg-dlytm$" cb-algorithm-id="010" cb-classname="ExternalPointInterface" cb-function-name="OUTPUT" id="1FI3">
<ellipse cb-classname="GraphicEllipseEntity" class="algorithm" cx="4820" cy="970" id="1FIh" rx="40" ry="40"/>
<rect cb-classname="GraphicRectangleEntity" class="algorithm" height="80" id="1FIs" width="30" x="4860" y="930"/>
<line cb-classname="GraphicLineEntity" class="algorithm" id="1FIR" x1="4860" x2="4890" y1="970" y2="970"/>
<g cb-classname="PointStatusIndicator" cb-indicator-type="highway" cb-source="cJ-xRb-0B" id="1FIU" visibility="hidden">
<line cb-classname="GraphicLineEntity" class="algorithmline" id="1FIm" x1="4780" x2="4820" y1="970" y2="930"/>
<line cb-classname="GraphicLineEntity" class="algorithmline" id="1FI1" x1="4820" x2="4860" y1="930" y2="970"/>
<line cb-classname="GraphicLineEntity" class="algorithmline" id="1FIZ" x1="4860" x2="4820" y1="970" y2="1010"/>
<line cb-classname="GraphicLineEntity" class="algorithmline" id="1FIi" x1="4820" x2="4780" y1="1010" y2="970"/>
</g>
<g cb-classname="PointStatusIndicator" cb-indicator-type="hardware" cb-source="Uv-GeA-dR" id="1FX2" visibility="hidden">
<line cb-classname="GraphicLineEntity" class="algorithmline" id="1FX3" x1="4860" x2="4780" y1="930" y2="930"/>
<line cb-classname="GraphicLineEntity" class="algorithmline" id="1FXh" x1="4780" x2="4780" y1="930" y2="1010"/>
<line cb-classname="GraphicLineEntity" class="algorithmline" id="1FXs" x1="4780" x2="4860" y1="1010" y2="1010"/>
</g>
<g cb-classname="PointStatusIndicator" cb-indicator-type="alarm" cb-source="4h-ST3-xH" id="1FXR" visibility="hidden">
<text cb-classname="GraphicTextEntity" class="algorithm" fill="#000000" font-family="Arial" font-size="20" id="1FXU" x="4867" y="959">
A
</text>
</g>
<g cb-classname="PointStatusIndicator" cb-indicator-type="ingraphic" cb-source="0V-rq6-uM" id="1FXm" visibility="hidden">
<text cb-classname="GraphicTextEntity" class="algorithm" fill="#000000" font-family="Arial" font-size="20" id="1FX1" x="4865" y="1000">
G
</text>
</g>
<g cb-classname="DynamicText" cb-labeled="false" cb-pin-name="If" cb-source="cJ-xRb-0B" class="algorithm" id="1FXZ" text-anchor="end">
<text baseline-shift="0%" cb-classname="GraphicTextEntity" class="algorithm" fill="black" font-family="Arial" font-size="20" font-style="normal" font-weight="normal" id="1FXi" text-anchor="end" text-decoration="normal" x="4757" y="949"/>
</g>
<g baseline-shift="-100%" cb-anchor-x="4758" cb-anchor-y="986" cb-classname="PointReferences" cb-max-width="240" cb-originator="false" cb-source="B5-MuP-NR" class="signal" id="1Fs2" text-anchor="end">
<text baseline-shift="-100%" cb-classname="GraphicTextEntity" class="algorithm" id="1Fs3" text-anchor="end" x="4758" y="986">
-
</text>
</g>
<g baseline-shift="-50%" cb-anchor-x="4911" cb-anchor-y="968" cb-classname="PointDescription" cb-content="extended" cb-labeled="false" cb-max-width="240" cb-source="iW-Unn-d9" class="algorithm" id="1Fsh" text-anchor="start">
<text baseline-shift="-50%" cb-classname="GraphicTextEntity" class="algorithm" id="1Fss" text-anchor="start" x="4911" y="933">
@ Ovation Control
</text>
<text baseline-shift="-50%" cb-classname="GraphicTextEntity" class="algorithm" id="1FsR" text-anchor="start" x="4911" y="969">
Builder @
</text>
<text baseline-shift="-50%" cb-classname="GraphicTextEntity" class="algorithm" id="1FsU" text-anchor="start" x="4911" y="1005">
0.00 - 100.0
</text>
</g>
<g cb-classname="ControlPin" cb-pin-name="zW-u3B-3A" id="1Fsm">
<line cb-classname="GraphicLineEntity" class="signalline" id="1Fs1" x1="4760" x2="4780" y1="970" y2="970"/>
<polygon cb-classname="GraphicPolygonEntity" class="signal" id="1FsZ" points="4780,970 4769,964 4769,975"/>
</g>
</g>
<g cb-alg-d9="$1111$cb-alg-trsts$" cb-algorithm-id="002" cb-classname="ExternalPointInterface" cb-function-name="OUTPUT" id="1Fsi">
<ellipse cb-classname="GraphicEllipseEntity" class="algorithm" cx="4820" cy="470" id="1FS2" rx="40" ry="40"/>
<rect cb-classname="GraphicRectangleEntity" class="algorithm" height="80" id="1FS3" width="30" x="4860" y="430"/>
<line cb-classname="GraphicLineEntity" class="algorithm" id="1FSh" x1="4860" x2="4890" y1="470" y2="470"/>
<g cb-classname="PointStatusIndicator" cb-indicator-type="highway" cb-source="B5-MuP-NR" id="1FSs" visibility="hidden">
<line cb-classname="GraphicLineEntity" class="algorithmline" id="1FSR" x1="4780" x2="4820" y1="470" y2="430"/>
<line cb-classname="GraphicLineEntity" class="algorithmline" id="1FSU" x1="4820" x2="4860" y1="430" y2="470"/>
<line cb-classname="GraphicLineEntity" class="algorithmline" id="1FSm" x1="4860" x2="4820" y1="470" y2="510"/>
<line cb-classname="GraphicLineEntity" class="algorithmline" id="1FS1" x1="4820" x2="4780" y1="510" y2="470"/>
</g>
<g cb-classname="PointStatusIndicator" cb-indicator-type="hardware" cb-source="M1-gia-28" id="1FSZ" visibility="hidden">
<line cb-classname="GraphicLineEntity" class="algorithmline" id="1FSi" x1="4860" x2="4780" y1="430" y2="430"/>
<line cb-classname="GraphicLineEntity" class="algorithmline" id="1FQ2" x1="4780" x2="4780" y1="430" y2="510"/>
<line cb-classname="GraphicLineEntity" class="algorithmline" id="1FQ3" x1="4780" x2="4860" y1="510" y2="510"/>
</g>
<g cb-classname="PointStatusIndicator" cb-indicator-type="alarm" cb-source="0V-rq6-uM" id="1FQh" visibility="hidden">
<text cb-classname="GraphicTextEntity" class="algorithm" fill="#000000" font-family="Arial" font-size="20" id="1FQs" x="4867" y="459">
A
</text>
</g>
<g cb-classname="PointStatusIndicator" cb-indicator-type="ingraphic" cb-source="cJ-xRb-0B" id="1FQR" visibility="hidden">
<text cb-classname="GraphicTextEntity" class="algorithm" fill="#000000" font-family="Arial" font-size="20" id="1FQU" x="4865" y="500">
G
</text>
</g>
<g cb-classname="DynamicText" cb-labeled="false" cb-pin-name="e4" cb-source="B5-MuP-NR" class="algorithm" id="1FQm" text-anchor="end">
<text baseline-shift="0%" cb-classname="GraphicTextEntity" class="algorithm" fill="black" font-family="Arial" font-size="20" font-style="normal" font-weight="normal" id="1FQ1" text-anchor="end" text-decoration="normal" x="4757" y="449"/>
</g>
<g baseline-shift="-100%" cb-anchor-x="4758" cb-anchor-y="486" cb-classname="PointReferences" cb-max-width="240" cb-originator="false" cb-source="iW-Unn-d9" class="signal" id="1FQZ" text-anchor="end">
<text baseline-shift="-100%" cb-classname="GraphicTextEntity" class="algorithm" id="1FQi" text-anchor="end" x="4758" y="486">
-
</text>
</g>
<g baseline-shift="-50%" cb-anchor-x="4911" cb-anchor-y="468" cb-classname="PointDescription" cb-content="extended" cb-labeled="false" cb-max-width="240" cb-source="02-ybJ-a5" class="algorithm" id="1FZ2" text-anchor="start">
<text baseline-shift="-50%" cb-classname="GraphicTextEntity" class="algorithm" id="1FZ3" text-anchor="start" x="4911" y="433">
@ Ovation Control
</text>
<text baseline-shift="-50%" cb-classname="GraphicTextEntity" class="algorithm" id="1FZh" text-anchor="start" x="4911" y="469">
Builder @
</text>
<text baseline-shift="-50%" cb-classname="GraphicTextEntity" class="algorithm" id="1FZs" text-anchor="start" x="4911" y="505">
0.00 - 100.0
</text>
</g>
<g cb-classname="ControlPin" cb-pin-name="ls-lxx-sp" id="1FZR">
<line cb-classname="GraphicLineEntity" class="signalline" id="1FZU" x1="4760" x2="4780" y1="470" y2="470"/>
<polygon cb-classname="GraphicPolygonEntity" class="signal" id="1FZm" points="4780,470 4769,464 4769,475"/>
</g>
</g>
<g cb-alg-dgWj="247" cb-alg-frE6V="15" cb-alg-iM="$1111$cb-alg-tvn1$" cb-alg-onu="SIM-AVTR-A" cb-alg-rtDzn="546750167" cb-alg-smW6="Drop2\CLS01\CLS01#4\AC029009" cb-alg-x3U="1073939712" cb-algorithm-id="009" cb-classname="SISAlgorithm" cb-function-name="LSNOT" cb-modify-id="00000002" cb-sis-algorithm-id="2" cb-sis-template-rev="2" id="1FZ1">
<rect cb-classname="GraphicRectangleEntity" class="algorithm" fill="yellow" height="80" id="1FZZ" width="100" x="2190" y="200"/>
<g cb-classname="GraphicShape" id="1FZi">
<text baseline-shift="0%" cb-classname="GraphicTextEntity" class="algorithm" fill="#000000" font-family="Arial" font-size="12" id="1Fw2" text-anchor="middle" x="2240" y="240">
NOT
</text>
</g>
<g cb-classname="ControlPin" cb-pin-name="iW-Unn-d9" id="1Fw3">
<line cb-classname="GraphicLineEntity" class="signalline" id="1Fwh" x1="2160" x2="2190" y1="240" y2="240"/>
<polygon cb-classname="GraphicPolygonEntity" class="signal" id="1Fws" points="2190,240 2179,234 2179,245"/>
<g cb-classname="DynamicText" cb-source="M1-cd9-5yJu" id="1FwR">
<text cb-classname="GraphicTextEntity" class="signal" id="1FwU" text-anchor="end" x="2175" y="237"/>
</g>
</g>
<g cb-classname="ControlPin" cb-pin-name="4h-ST3-9Aa" id="1Fwm">
<line cb-classname="GraphicLineEntity" class="signalline" id="1Fw1" x1="2290" x2="2320" y1="240" y2="240"/>
<g cb-classname="DynamicText" cb-source="0V-63A-poKG" id="1FwZ">
<text cb-classname="GraphicTextEntity" class="signal" id="1Fwi" text-anchor="start" x="2304" y="237"/>
</g>
<g cb-classname="SignalSegment" id="11p2">
<g cb-classname="SignalConnection" cb-graphic-line="$1302$" cb-input-pin="$As9Z$" id="11p3"/>
<line cb-classname="GraphicLineEntity" class="signalline" id="11ph" stroke="#1e12bf" stroke-dasharray="5,4" x1="2320" x2="2580" y1="240" y2="240"/>
</g>
</g>
</g>
<g cb-alg-lF="$1287$cb-alg-out$" cb-algorithm-id="008" cb-classname="ExternalPointInterface" cb-function-name="OUTPUT" id="11ps">
<ellipse cb-classname="GraphicEllipseEntity" class="algorithm" cx="2640" cy="240" id="11pR" rx="40" ry="40"/>
<rect cb-classname="GraphicRectangleEntity" class="algorithm" height="80" id="11pU" width="30" x="2680" y="200"/>
<line cb-classname="GraphicLineEntity" class="algorithm" id="11pm" x1="2680" x2="2710" y1="240" y2="240"/>
<g cb-classname="PointStatusIndicator" cb-indicator-type="highway" cb-source="M1-gia-28" id="11p1" visibility="hidden">
<line cb-classname="GraphicLineEntity" class="algorithmline" id="11pZ" x1="2600" x2="2640" y1="240" y2="200"/>
<line cb-classname="GraphicLineEntity" class="algorithmline" id="11pi" x1="2640" x2="2680" y1="200" y2="240"/>
<line cb-classname="GraphicLineEntity" class="algorithmline" id="11A2" x1="2680" x2="2640" y1="240" y2="280"/>
<line cb-classname="GraphicLineEntity" class="algorithmline" id="11A3" x1="2640" x2="2600" y1="280" y2="240"/>
</g>
<g cb-classname="PointStatusIndicator" cb-indicator-type="hardware" cb-source="cG-yOV-PH" id="11Ah" visibility="hidden">
<line cb-classname="GraphicLineEntity" class="algorithmline" id="11As" x1="2680" x2="2600" y1="200" y2="200"/>
<line cb-classname="GraphicLineEntity" class="algorithmline" id="11AR" x1="2600" x2="2600" y1="200" y2="280"/>
<line cb-classname="GraphicLineEntity" class="algorithmline" id="11AU" x1="2600" x2="2680" y1="280" y2="280"/>
</g>
<g cb-classname="PointStatusIndicator" cb-indicator-type="alarm" cb-source="Hf-f77-dC" id="11Am" visibility="hidden">
<text cb-classname="GraphicTextEntity" class="algorithm" fill="#000000" font-family="Arial" font-size="20" id="11A1" x="2687" y="229">
A
</text>
</g>
<g cb-classname="PointStatusIndicator" cb-indicator-type="ingraphic" cb-source="Uv-GeA-dR" id="11AZ" visibility="hidden">
<text cb-classname="GraphicTextEntity" class="algorithm" fill="#000000" font-family="Arial" font-size="20" id="11Ai" x="2685" y="270">
G
</text>
</g>
<g cb-classname="DynamicText" cb-labeled="false" cb-pin-name="Zu" cb-source="M1-gia-28" class="algorithm" id="11K2" text-anchor="end">
<text baseline-shift="0%" cb-classname="GraphicTextEntity" class="algorithm" fill="black" font-family="Arial" font-size="20" font-style="normal" font-weight="normal" id="11K3" text-anchor="end" text-decoration="normal" x="2577" y="219"/>
</g>
<g baseline-shift="-100%" cb-anchor-x="2578" cb-anchor-y="256" cb-classname="PointReferences" cb-max-width="240" cb-originator="false" cb-source="4h-ST3-xH" class="signal" id="11Kh" text-anchor="end">
<text baseline-shift="-100%" cb-classname="GraphicTextEntity" class="algorithm" id="11Ks" text-anchor="end" x="2578" y="256">
-
</text>
</g>
<g baseline-shift="-50%" cb-anchor-x="2731" cb-anchor-y="238" cb-classname="PointDescription" cb-content="extended" cb-labeled="false" cb-max-width="240" cb-source="0V-rq6-uM" class="algorithm" id="11KR" text-anchor="start">
<text baseline-shift="-50%" cb-classname="GraphicTextEntity" class="algorithm" id="11KU" text-anchor="start" x="2731" y="221">
@ Ovation Control
</text>
<text baseline-shift="-50%" cb-classname="GraphicTextEntity" class="algorithm" id="11Km" text-anchor="start" x="2731" y="257">
Builder @
</text>
</g>
<g cb-classname="ControlPin" cb-pin-name="DU-SzB-Nv" id="11K1">
<line cb-classname="GraphicLineEntity" class="signalline" id="11KZ" x1="2580" x2="2600" y1="240" y2="240"/>
<polygon cb-classname="GraphicPolygonEntity" class="signal" id="11Ki" points="2600,240 2589,234 2589,245"/>
</g>
</g>
<g cb-alg-3VfP="247" cb-alg-JYISx="546750167" cb-alg-LIv="1073939968" cb-alg-NLGCh="15" cb-alg-jB="$1111$cb-alg-tvn2$" cb-alg-nFg="SIM-AVTR-B" cb-alg-sjfC="Drop2\CLS01\CLS01#4\AC02900A" cb-algorithm-id="00A" cb-classname="SISAlgorithm" cb-function-name="LSNOT" cb-modify-id="00000002" cb-sis-algorithm-id="3" cb-sis-template-rev="2" id="11I2">
<rect cb-classname="GraphicRectangleEntity" class="algorithm" fill="yellow" height="80" id="11I3" width="100" x="2190" y="280"/>
<g cb-classname="GraphicShape" id="11Ih">
<text baseline-shift="0%" cb-classname="GraphicTextEntity" class="algorithm" fill="#000000" font-family="Arial" font-size="12" id="11Is" text-anchor="middle" x="2240" y="320">
NOT
</text>
</g>
<g cb-classname="ControlPin" cb-pin-name="zW-u3B-3A" id="11IR">
<line cb-classname="GraphicLineEntity" class="signalline" id="11IU" x1="2160" x2="2190" y1="320" y2="320"/>
<polygon cb-classname="GraphicPolygonEntity" class="signal" id="11Im" points="2190,320 2179,314 2179,325"/>
<g cb-classname="DynamicText" cb-source="0V-63A-poKG" id="11I1">
<text cb-classname="GraphicTextEntity" class="signal" id="11IZ" text-anchor="end" x="2175" y="317"/>
</g>
</g>
<g cb-classname="ControlPin" cb-pin-name="cJ-xRb-TSU" id="11Ii">
<line cb-classname="GraphicLineEntity" class="signalline" id="11X2" x1="2290" x2="2320" y1="320" y2="320"/>
<g cb-classname="DynamicText" cb-source="B5-QYS-vgxj" id="11X3">
<text cb-classname="GraphicTextEntity" class="signal" id="11Xh" text-anchor="start" x="2304" y="317"/>
</g>
<g cb-classname="SignalSegment" id="11Xs">
<g cb-classname="SignalConnection" cb-graphic-line="$1345$" cb-input-pin="$Nh3w$" id="11XR"/>
<line cb-classname="GraphicLineEntity" class="signalline" id="11XU" stroke="#1e12bf" stroke-dasharray="5,4" x1="2320" x2="2580" y1="320" y2="320"/>
</g>
</g>
</g>
<g cb-alg-0B="$1330$cb-alg-out$" cb-algorithm-id="007" cb-classname="ExternalPointInterface" cb-function-name="OUTPUT" id="11Xm">
<ellipse cb-classname="GraphicEllipseEntity" class="algorithm" cx="2640" cy="320" id="11X1" rx="40" ry="40"/>
<rect cb-classname="GraphicRectangleEntity" class="algorithm" height="80" id="11XZ" width="30" x="2680" y="280"/>
<line cb-classname="GraphicLineEntity" class="algorithm" id="11Xi" x1="2680" x2="2710" y1="320" y2="320"/>
<g cb-classname="PointStatusIndicator" cb-indicator-type="highway" cb-source="0V-rq6-uM" id="11s2" visibility="hidden">
<line cb-classname="GraphicLineEntity" class="algorithmline" id="11s3" x1="2600" x2="2640" y1="320" y2="280"/>
<line cb-classname="GraphicLineEntity" class="algorithmline" id="11sh" x1="2640" x2="2680" y1="280" y2="320"/>
<line cb-classname="GraphicLineEntity" class="algorithmline" id="11ss" x1="2680" x2="2640" y1="320" y2="360"/>
<line cb-classname="GraphicLineEntity" class="algorithmline" id="11sR" x1="2640" x2="2600" y1="360" y2="320"/>
</g>
<g cb-classname="PointStatusIndicator" cb-indicator-type="hardware" cb-source="Hf-f77-dC" id="11sU" visibility="hidden">
<line cb-classname="GraphicLineEntity" class="algorithmline" id="11sm" x1="2680" x2="2600" y1="280" y2="280"/>
<line cb-classname="GraphicLineEntity" class="algorithmline" id="11s1" x1="2600" x2="2600" y1="280" y2="360"/>
<line cb-classname="GraphicLineEntity" class="algorithmline" id="11sZ" x1="2600" x2="2680" y1="360" y2="360"/>
</g>
<g cb-classname="PointStatusIndicator" cb-indicator-type="alarm" cb-source="M1-gia-28" id="11si" visibility="hidden">
<text cb-classname="GraphicTextEntity" class="algorithm" fill="#000000" font-family="Arial" font-size="20" id="11S2" x="2687" y="309">
A
</text>
</g>
<g cb-classname="PointStatusIndicator" cb-indicator-type="ingraphic" cb-source="4h-ST3-xH" id="11S3" visibility="hidden">
<text cb-classname="GraphicTextEntity" class="algorithm" fill="#000000" font-family="Arial" font-size="20" id="11Sh" x="2685" y="350">
G
</text>
</g>
<g cb-classname="DynamicText" cb-labeled="false" cb-pin-name="9F" cb-source="0V-rq6-uM" class="algorithm" id="11Ss" text-anchor="end">
<text baseline-shift="0%" cb-classname="GraphicTextEntity" class="algorithm" fill="black" font-family="Arial" font-size="20" font-style="normal" font-weight="normal" id="11SR" text-anchor="end" text-decoration="normal" x="2577" y="299"/>
</g>
<g baseline-shift="-100%" cb-anchor-x="2578" cb-anchor-y="336" cb-classname="PointReferences" cb-max-width="240" cb-originator="false" cb-source="cJ-xRb-0B" class="signal" id="11SU" text-anchor="end">
<text baseline-shift="-100%" cb-classname="GraphicTextEntity" class="algorithm" id="11Sm" text-anchor="end" x="2578" y="336">
-
</text>
</g>
<g baseline-shift="-50%" cb-anchor-x="2731" cb-anchor-y="318" cb-classname="PointDescription" cb-content="extended" cb-labeled="false" cb-max-width="240" cb-source="B5-MuP-NR" class="algorithm" id="11S1" text-anchor="start">
<text baseline-shift="-50%" cb-classname="GraphicTextEntity" class="algorithm" id="11SZ" text-anchor="start" x="2731" y="301">
@ Ovation Control
</text>
<text baseline-shift="-50%" cb-classname="GraphicTextEntity" class="algorithm" id="11Si" text-anchor="start" x="2731" y="337">
Builder @
</text>
</g>
<g cb-classname="ControlPin" cb-pin-name="Uv-GeA-dR" id="11Q2">
<line cb-classname="GraphicLineEntity" class="signalline" id="11Q3" x1="2580" x2="2600" y1="320" y2="320"/>
<polygon cb-classname="GraphicPolygonEntity" class="signal" id="11Qh" points="2600,320 2589,314 2589,325"/>
</g>
</g>
<g cb-alg-AJnCY="546750167" cb-alg-DNgJ="247" cb-alg-Kjh="1073940224" cb-alg-LU5Kj="15" cb-alg-Nv="$1111$cb-alg-tvn3$" cb-alg-cQgK="Drop2\CLS01\CLS01#4\AC02900B" cb-alg-xIv="SIM-AVTR-C" cb-algorithm-id="00B" cb-classname="SISAlgorithm" cb-function-name="LSNOT" cb-modify-id="00000002" cb-sis-algorithm-id="4" cb-sis-template-rev="2" id="11Qs">
<rect cb-classname="GraphicRectangleEntity" class="algorithm" fill="yellow" height="80" id="11QR" width="100" x="2190" y="360"/>
<g cb-classname="GraphicShape" id="11QU">
<text baseline-shift="0%" cb-classname="GraphicTextEntity" class="algorithm" fill="#000000" font-family="Arial" font-size="12" id="11Qm" text-anchor="middle" x="2240" y="400">
NOT
</text>
</g>
<g cb-classname="ControlPin" cb-pin-name="cG-yOV-PH" id="11Q1">
<line cb-classname="GraphicLineEntity" class="signalline" id="11QZ" x1="2160" x2="2190" y1="400" y2="400"/>
<polygon cb-classname="GraphicPolygonEntity" class="signal" id="11Qi" points="2190,400 2179,394 2179,405"/>
<g cb-classname="DynamicText" cb-source="B5-QYS-vgxj" id="11Z2">
<text cb-classname="GraphicTextEntity" class="signal" id="11Z3" text-anchor="end" x="2175" y="397"/>
</g>
</g>
<g cb-classname="ControlPin" cb-pin-name="iW-Unn-EiZ" id="11Zh">
<line cb-classname="GraphicLineEntity" class="signalline" id="11Zs" x1="2290" x2="2320" y1="400" y2="400"/>
<g cb-classname="DynamicText" cb-source="02-odC-RrEs" id="11ZR">
<text cb-classname="GraphicTextEntity" class="signal" id="11ZU" text-anchor="start" x="2304" y="397"/>
</g>
<g cb-classname="SignalSegment" id="11Zm">
<g cb-classname="SignalConnection" cb-graphic-line="$1388$" cb-input-pin="$L3WW$" id="11Z1"/>
<line cb-classname="GraphicLineEntity" class="signalline" id="11ZZ" stroke="#1e12bf" stroke-dasharray="5,4" x1="2320" x2="2580" y1="400" y2="400"/>
</g>
</g>
</g>
<g cb-alg-d9="$1373$cb-alg-out$" cb-algorithm-id="006" cb-classname="ExternalPointInterface" cb-function-name="OUTPUT" id="11Zi">
<ellipse cb-classname="GraphicEllipseEntity" class="algorithm" cx="2640" cy="400" id="11w2" rx="40" ry="40"/>
<rect cb-classname="GraphicRectangleEntity" class="algorithm" height="80" id="11w3" width="30" x="2680" y="360"/>
<line cb-classname="GraphicLineEntity" class="algorithm" id="11wh" x1="2680" x2="2710" y1="400" y2="400"/>
<g cb-classname="PointStatusIndicator" cb-indicator-type="highway" cb-source="B5-MuP-NR" id="11ws" visibility="hidden">
<line cb-classname="GraphicLineEntity" class="algorithmline" id="11wR" x1="2600" x2="2640" y1="400" y2="360"/>
<line cb-classname="GraphicLineEntity" class="algorithmline" id="11wU" x1="2640" x2="2680" y1="360" y2="400"/>
<line cb-classname="GraphicLineEntity" class="algorithmline" id="11wm" x1="2680" x2="2640" y1="400" y2="440"/>
<line cb-classname="GraphicLineEntity" class="algorithmline" id="11w1" x1="2640" x2="2600" y1="440" y2="400"/>
</g>
<g cb-classname="PointStatusIndicator" cb-indicator-type="hardware" cb-source="M1-gia-28" id="11wZ" visibility="hidden">
<line cb-classname="GraphicLineEntity" class="algorithmline" id="11wi" x1="2680" x2="2600" y1="360" y2="360"/>
<line cb-classname="GraphicLineEntity" class="algorithmline" id="1jp2" x1="2600" x2="2600" y1="360" y2="440"/>
<line cb-classname="GraphicLineEntity" class="algorithmline" id="1jp3" x1="2600" x2="2680" y1="440" y2="440"/>
</g>
<g cb-classname="PointStatusIndicator" cb-indicator-type="alarm" cb-source="0V-rq6-uM" id="1jph" visibility="hidden">
<text cb-classname="GraphicTextEntity" class="algorithm" fill="#000000" font-family="Arial" font-size="20" id="1jps" x="2687" y="389">
A
</text>
</g>
<g cb-classname="PointStatusIndicator" cb-indicator-type="ingraphic" cb-source="cJ-xRb-0B" id="1jpR" visibility="hidden">
<text cb-classname="GraphicTextEntity" class="algorithm" fill="#000000" font-family="Arial" font-size="20" id="1jpU" x="2685" y="430">
G
</text>
</g>
<g cb-classname="DynamicText" cb-labeled="false" cb-pin-name="e4" cb-source="B5-MuP-NR" class="algorithm" id="1jpm" text-anchor="end">
<text baseline-shift="0%" cb-classname="GraphicTextEntity" class="algorithm" fill="black" font-family="Arial" font-size="20" font-style="normal" font-weight="normal" id="1jp1" text-anchor="end" text-decoration="normal" x="2577" y="379"/>
</g>
<g baseline-shift="-100%" cb-anchor-x="2578" cb-anchor-y="416" cb-classname="PointReferences" cb-max-width="240" cb-originator="false" cb-source="iW-Unn-d9" class="signal" id="1jpZ" text-anchor="end">
<text baseline-shift="-100%" cb-classname="GraphicTextEntity" class="algorithm" id="1jpi" text-anchor="end" x="2578" y="416">
-
</text>
</g>
<g baseline-shift="-50%" cb-anchor-x="2731" cb-anchor-y="398" cb-classname="PointDescription" cb-content="extended" cb-labeled="false" cb-max-width="240" cb-source="02-ybJ-a5" class="algorithm" id="1jA2" text-anchor="start">
<text baseline-shift="-50%" cb-classname="GraphicTextEntity" class="algorithm" id="1jA3" text-anchor="start" x="2731" y="381">
@ Ovation Control
</text>
<text baseline-shift="-50%" cb-classname="GraphicTextEntity" class="algorithm" id="1jAh" text-anchor="start" x="2731" y="417">
Builder @
</text>
</g>
<g cb-classname="ControlPin" cb-pin-name="4h-ST3-xH" id="1jAs">
<line cb-classname="GraphicLineEntity" class="signalline" id="1jAR" x1="2580" x2="2600" y1="400" y2="400"/>
<polygon cb-classname="GraphicPolygonEntity" class="signal" id="1jAU" points="2600,400 2589,394 2589,405"/>
</g>
</g>
<g cb-alg-dR="$1111$cb-alg-aalrt$" cb-algorithm-id="01B" cb-classname="ExternalPointInterface" cb-function-name="OUTPUT" id="1jAm">
<ellipse cb-classname="GraphicEllipseEntity" class="algorithm" cx="4820" cy="1090" id="1jA1" rx="40" ry="40"/>
<rect cb-classname="GraphicRectangleEntity" class="algorithm" height="80" id="1jAZ" width="30" x="4860" y="1050"/>
<line cb-classname="GraphicLineEntity" class="algorithm" id="1jAi" x1="4860" x2="4890" y1="1090" y2="1090"/>
<g cb-classname="PointStatusIndicator" cb-indicator-type="highway" cb-source="Hf-f77-dC" id="1jK2" visibility="hidden">
<line cb-classname="GraphicLineEntity" class="algorithmline" id="1jK3" x1="4780" x2="4820" y1="1090" y2="1050"/>
<line cb-classname="GraphicLineEntity" class="algorithmline" id="1jKh" x1="4820" x2="4860" y1="1050" y2="1090"/>
<line cb-classname="GraphicLineEntity" class="algorithmline" id="1jKs" x1="4860" x2="4820" y1="1090" y2="1130"/>
<line cb-classname="GraphicLineEntity" class="algorithmline" id="1jKR" x1="4820" x2="4780" y1="1130" y2="1090"/>
</g>
<g cb-classname="PointStatusIndicator" cb-indicator-type="hardware" cb-source="zW-u3B-3A" id="1jKU" visibility="hidden">
<line cb-classname="GraphicLineEntity" class="algorithmline" id="1jKm" x1="4860" x2="4780" y1="1050" y2="1050"/>
<line cb-classname="GraphicLineEntity" class="algorithmline" id="1jK1" x1="4780" x2="4780" y1="1050" y2="1130"/>
<line cb-classname="GraphicLineEntity" class="algorithmline" id="1jKZ" x1="4780" x2="4860" y1="1130" y2="1130"/>
</g>
<g cb-classname="PointStatusIndicator" cb-indicator-type="alarm" cb-source="cG-yOV-PH" id="1jKi" visibility="hidden">
<text cb-classname="GraphicTextEntity" class="algorithm" fill="#000000" font-family="Arial" font-size="20" id="1jI2" x="4867" y="1079">
A
</text>
</g>
<g cb-classname="PointStatusIndicator" cb-indicator-type="ingraphic" cb-source="DU-SzB-Nv" id="1jI3" visibility="hidden">
<text cb-classname="GraphicTextEntity" class="algorithm" fill="#000000" font-family="Arial" font-size="20" id="1jIh" x="4865" y="1120">
G
</text>
</g>
<g cb-classname="DynamicText" cb-labeled="false" cb-pin-name="AD" cb-source="Hf-f77-dC" class="algorithm" id="1jIs" text-anchor="end">
<text baseline-shift="0%" cb-classname="GraphicTextEntity" class="algorithm" fill="black" font-family="Arial" font-size="20" font-style="normal" font-weight="normal" id="1jIR" text-anchor="end" text-decoration="normal" x="4757" y="1069"/>
</g>
<g baseline-shift="-100%" cb-anchor-x="4758" cb-anchor-y="1106" cb-classname="PointReferences" cb-max-width="240" cb-originator="false" cb-source="Uv-GeA-dR" class="signal" id="1jIU" text-anchor="end">
<text baseline-shift="-100%" cb-classname="GraphicTextEntity" class="algorithm" id="1jIm" text-anchor="end" x="4758" y="1106">
-
</text>
</g>
<g baseline-shift="-50%" cb-anchor-x="4911" cb-anchor-y="1088" cb-classname="PointDescription" cb-content="extended" cb-labeled="false" cb-max-width="240" cb-source="M1-gia-28" class="algorithm" id="1jI1" text-anchor="start">
<text baseline-shift="-50%" cb-classname="GraphicTextEntity" class="algorithm" id="1jIZ" text-anchor="start" x="4911" y="1071">
@ Ovation Control
</text>
<text baseline-shift="-50%" cb-classname="GraphicTextEntity" class="algorithm" id="1jIi" text-anchor="start" x="4911" y="1107">
Builder @
</text>
</g>
<g cb-classname="ControlPin" cb-pin-name="ls-lxx-sp" id="1jX2">
<line cb-classname="GraphicLineEntity" class="signalline" id="1jX3" x1="4760" x2="4780" y1="1090" y2="1090"/>
<polygon cb-classname="GraphicPolygonEntity" class="signal" id="1jXh" points="4780,1090 4769,1084 4769,1095"/>
</g>
</g>
<g cb-alg-dgWj="247" cb-alg-frE6V="15" cb-alg-iM="$1111$cb-alg-out$" cb-alg-rtDzn="546750167" cb-alg-smW6="Drop2\CLS01\CLS01#4\AC02901D" cb-alg-x3U="1073940480" cb-algorithm-id="01D" cb-classname="SISAlgorithm" cb-function-name="LSNOT" cb-modify-id="00000002" cb-sis-algorithm-id="5" cb-sis-template-rev="2" id="1jXs">
<rect cb-classname="GraphicRectangleEntity" class="algorithm" fill="yellow" height="80" id="1jXR" width="100" x="3410" y="660"/>
<g cb-classname="GraphicShape" id="1jXU">
<text baseline-shift="0%" cb-classname="GraphicTextEntity" class="algorithm" fill="#000000" font-family="Arial" font-size="12" id="1jXm" text-anchor="middle" x="3460" y="700">
NOT
</text>
</g>
<g cb-classname="ControlPin" cb-pin-name="iW-Unn-d9" id="1jX1">
<line cb-classname="GraphicLineEntity" class="signalline" id="1jXZ" x1="3380" x2="3410" y1="700" y2="700"/>
<polygon cb-classname="GraphicPolygonEntity" class="signal" id="1jXi" points="3410,700 3399,694 3399,705"/>
<g cb-classname="DynamicText" cb-source="M1-cd9-5yJu" id="1js2">
<text cb-classname="GraphicTextEntity" class="signal" id="1js3" text-anchor="end" x="3395" y="697"/>
</g>
</g>
<g cb-classname="ControlPin" cb-pin-name="4h-ST3-9Aa" id="1jsh">
<line cb-classname="GraphicLineEntity" class="signalline" id="1jss" x1="3510" x2="3540" y1="700" y2="700"/>
<g cb-classname="DynamicText" cb-source="0V-63A-poKG" id="1jsR">
<text cb-classname="GraphicTextEntity" class="signal" id="1jsU" text-anchor="start" x="3524" y="697"/>
</g>
<g cb-classname="SignalSegment" id="1jsm">
<g cb-classname="SignalConnection" cb-graphic-line="$1458$" cb-input-pin="$ARyT$" id="1js1"/>
<line cb-classname="GraphicLineEntity" class="signalline" id="1jsZ" stroke="#1e12bf" stroke-dasharray="5,4" x1="3540" x2="3650" y1="700" y2="700"/>
</g>
</g>
</g>
<g cb-alg-GuOrN="5" cb-alg-IjMB="247" cb-alg-NVSPT="546750167" cb-alg-NsL="$1443$cb-alg-out$" cb-alg-bXL="SIM-AVTR-OUT" cb-alg-g3W="1073940736" cb-alg-w7Mr="Drop2\CLS01\CLS01#4\AC02901E" cb-alg-wVL="$1012$cb-alg-out$" cb-algorithm-id="01E" cb-classname="SISAlgorithm" cb-function-name="LSRS" cb-modify-id="00000002" cb-sis-algorithm-id="6" cb-sis-template-rev="2" id="1jsi">
<rect cb-classname="GraphicRectangleEntity" class="algorithm" fill="yellow" height="90" id="1jS2" width="160" x="3680" y="680"/>
<g cb-classname="ControlPin" cb-pin-name="Uv-GeA-Y9i" id="1jS3">
<line cb-classname="GraphicLineEntity" class="signalline" id="1jSh" x1="3840" x2="3860" y1="720" y2="720"/>
<g cb-classname="DynamicText" cb-source="M1-cd9-5yJu" id="1jSs">
<text cb-classname="GraphicTextEntity" class="signal" id="1jSR" text-anchor="start" x="3854" y="717"/>
</g>
<g cb-classname="SignalSegment" id="1jSU">
<g cb-classname="SignalConnection" cb-graphic-line="$1467$" cb-input-pin="$FTJ4$" id="1jSm"/>
<line cb-classname="GraphicLineEntity" class="signalline" id="1jS1" stroke="#1e12bf" stroke-dasharray="5,4" x1="3860" x2="4730" y1="720" y2="720"/>
</g>
</g>
<g cb-classname="ControlPin" cb-pin-name="cG-yOV-X0o" id="1jSZ">
<line cb-classname="GraphicLineEntity" class="signalline" id="1jSi" x1="3650" x2="3680" y1="750" y2="750"/>
<polygon cb-classname="GraphicPolygonEntity" class="signal" id="1jQ2" points="3680,750 3669,744 3669,755"/>
<g cb-classname="DynamicText" cb-source="B5-QYS-vgxj" id="1jQ3">
<text cb-classname="GraphicTextEntity" class="signal" id="1jQh" text-anchor="end" x="3665" y="747"/>
</g>
</g>
<g cb-classname="ControlPin" cb-pin-name="iW-Unn-N1Z" id="1jQs">
<line cb-classname="GraphicLineEntity" class="signalline" id="1jQR" x1="3650" x2="3680" y1="700" y2="700"/>
<polygon cb-classname="GraphicPolygonEntity" class="signal" id="1jQU" points="3680,700 3669,694 3669,705"/>
<g cb-classname="DynamicText" cb-source="M1-cd9-5yJu" id="1jQm">
<text cb-classname="GraphicTextEntity" class="signal" id="1jQ1" text-anchor="end" x="3665" y="697"/>
</g>
</g>
<g cb-classname="GraphicShape" id="1jQZ">
<text baseline-shift="0%" cb-classname="GraphicTextEntity" class="algorithm" fill="#000000" font-family="Arial" font-size="12" id="1jQi" text-anchor="middle" x="3760" y="720">
RESET/SET
</text>
<text baseline-shift="0%" cb-classname="GraphicTextEntity" class="algorithm" fill="#000000" font-family="Arial" font-size="12" id="1jZ2" text-anchor="middle" x="3760" y="740">
FLIP-FLOP
</text>
</g>
</g>
<g cb-alg-dR="$1459$cb-alg-out$" cb-algorithm-id="014" cb-classname="SISAlgorithm" cb-function-name="SECPARAM" cb-sis-template-rev="2" id="1jZ3">
<rect cb-classname="GraphicRectangleEntity" class="algorithm" fill="yellow" height="90" id="1jZh" width="160" x="4770" y="680"/>
<g cb-classname="ControlPin" cb-pin-name="DU-SzB-Nv" id="1jZs">
<line cb-classname="GraphicLineEntity" class="signalline" id="1jZR" x1="4730" x2="4770" y1="720" y2="720"/>
<polygon cb-classname="GraphicPolygonEntity" class="signal" id="1jZU" points="4770,720 4759,714 4759,725"/>
<g cb-classname="DynamicText" cb-source="iW-CNv-CSIZ" id="1jZm">
<text cb-classname="GraphicTextEntity" class="signal" id="1jZ1" text-anchor="end" x="4755" y="717"/>
</g>
</g>
<g cb-classname="GraphicShape" id="1jZZ">
<text baseline-shift="0%" cb-classname="GraphicTextEntity" class="algorithm" fill="#000000" font-family="Arial" font-size="12" id="1jZi" text-anchor="middle" x="4850" y="720">
SECURE
</text>
<text baseline-shift="0%" cb-classname="GraphicTextEntity" class="algorithm" fill="#000000" font-family="Arial" font-size="12" id="1jw2" text-anchor="middle" x="4850" y="740">
PARAMETER
</text>
</g>
<g cb-classname="GraphicShape" id="1jw3">
<g cb-classname="DynamicText" cb-labeled="false" cb-source="ls-lxx-sp" id="1jwh">
<text cb-classname="GraphicTextEntity" class="algorithm" id="1jws" text-anchor="start" x="4770" y="790"/>
</g>
</g>
<g baseline-shift="-50%" cb-anchor-x="4940" cb-anchor-y="710" cb-classname="PointDescription" cb-content="extended" cb-labeled="false" cb-max-width="500" cb-source="cG-yOV-PH" class="algorithm" id="1jwR" text-anchor="start">
<text baseline-shift="-50%" cb-classname="GraphicTextEntity" class="algorithm" id="1jwU" text-anchor="start" x="4940" y="710">
@ Ovation Control Builder @
</text>
</g>
</g>
</g>
<g cb-classname="IncludeDocument" cb-modify-time="09/25/2018 01:40:30" cb-objectname="frame" id="5">
<text cb-classname="GraphicTextEntity" class="frame" font-size="50" id="1bA3" x="3660" y="3146">
Project Title &lt;Edit in FRAME.SVG&gt;
</text>
<g baseline-shift="-50%" cb-classname="DynamicText" cb-source="iW-HAtc-dX" class="frame" id="1bAh">
<text cb-classname="GraphicTextEntity" class="frame" fill="black" font-family="arial" font-size="25" font-style="normal" font-weight="normal" id="1bAs" text-decoration="normal" x="4715" y="3325">
2
</text>
</g>
<g baseline-shift="-50%" cb-classname="DynamicText" cb-source="02-jaEz-24" class="frame" id="1bAR" text-anchor="middle">
<text cb-classname="GraphicTextEntity" class="frame" fill="black" font-family="arial" font-size="48" font-style="normal" font-weight="normal" id="1bAU" text-anchor="middle" text-decoration="normal" x="4900" y="3320">
2
</text>
</g>
<g baseline-shift="-50%" cb-classname="DynamicText" cb-source="zW-nS8U-x4" class="frame" id="1bAm" text-anchor="middle">
<text cb-classname="GraphicTextEntity" class="frame" fill="black" font-family="arial" font-size="48" font-style="normal" font-weight="normal" id="1bA1" text-anchor="middle" text-decoration="normal" x="5067" y="3324">
2
</text>
</g>
<g cb-classname="DynamicText" cb-source="ls-8GNsh-LFoVh" class="frame" id="1bAZ">
<text cb-classname="GraphicTextEntity" class="frame" fill="black" font-family="arial" font-size="48" font-style="normal" font-weight="normal" id="1bAi" text-decoration="normal" x="3660" y="3224">
SIS AVTR Test sheet
</text>
</g>
<g baseline-shift="-50%" cb-classname="DynamicText" cb-source="cG-myuWL-gxys9C" class="frame" id="1bK2" text-anchor="middle">
<text cb-classname="GraphicTextEntity" class="frame" fill="black" font-family="arial" font-size="48" font-style="normal" font-weight="normal" id="1bK3" text-anchor="middle" text-decoration="normal" x="5270" y="3324">
H-SIS-AVTR
</text>
</g>
<g baseline-shift="0%" cb-classname="DynamicText" cb-source="DU-JYI0cNqC" class="frame" id="1bKh" text-anchor="middle">
<text cb-classname="GraphicTextEntity" class="frame" fill="black" font-family="arial" font-size="36" font-style="normal" font-weight="normal" id="1bKs" text-anchor="middle" text-decoration="normal" x="5270" y="3150">
A
</text>
</g>
<g baseline-shift="0%" cb-classname="DynamicText" cb-source="Hf-KNUNmdYR-ixDW" class="frame" id="1bKR" text-anchor="middle">
<text cb-classname="GraphicTextEntity" class="frame" fill="black" font-family="arial" font-size="20" font-style="normal" font-weight="normal" id="1bKU" text-anchor="middle" text-decoration="normal" x="5270" y="3230">

</text>
</g>
<g baseline-shift="-50%" cb-classname="DynamicText" cb-source="Uv-hvAd9nZF" class="frame" id="1bKm" text-anchor="end">
<text cb-classname="GraphicTextEntity" class="frame" fill="black" font-family="arial" font-size="26" font-style="normal" font-weight="normal" id="1bK1" text-anchor="end" text-decoration="normal" x="4500" y="3420">

</text>
</g>
<g baseline-shift="-50%" cb-classname="DynamicText" cb-source="M1-aLgaZ2sU" class="frame" id="1bKZ" text-anchor="end">
<text cb-classname="GraphicTextEntity" class="frame" fill="black" font-family="arial" font-size="26" font-style="normal" font-weight="normal" id="1bKi" text-anchor="end" text-decoration="normal" x="5353" y="3420">

</text>
</g>
<g cb-classname="GraphicShape" cb-tag="BORDER" id="1bI2">
<line cb-classname="GraphicLineEntity" class="frameline" id="1bI3" x1="40" x2="40" y1="40" y2="3460"/>
<line cb-classname="GraphicLineEntity" class="frameline" id="1bIh" x1="40" x2="5380" y1="3460" y2="3460"/>
<line cb-classname="GraphicLineEntity" class="frameline" id="1bIs" x1="5380" x2="5380" y1="3460" y2="40"/>
<line cb-classname="GraphicLineEntity" class="frameline" id="1bIR" x1="5380" x2="40" y1="40" y2="40"/>
<line cb-classname="GraphicLineEntity" class="frame" id="1bIU" x1="5430" x2="5440" y1="3510" y2="3510"/>
</g>
<g cb-classname="GraphicShape" cb-tag="TITLE BOX" id="1bIm">
<line cb-classname="GraphicLineEntity" class="frameline" id="1bI1" x1="2340" x2="2340" y1="3080" y2="3460"/>
<line cb-classname="GraphicLineEntity" class="frameline" id="1bIZ" x1="2340" x2="5380" y1="3080" y2="3080"/>
<line cb-classname="GraphicLineEntity" class="frameline" id="1bIi" x1="3650" x2="3650" y1="3460" y2="3080"/>
<line cb-classname="GraphicLineEntity" class="frameline" id="1bX2" x1="3650" x2="5380" y1="3240" y2="3240"/>
<line cb-classname="GraphicLineEntity" class="frameline" id="1bX3" x1="3650" x2="5380" y1="3390" y2="3390"/>
<line cb-classname="GraphicLineEntity" class="frameline" id="1bXh" x1="3650" x2="5380" y1="3160" y2="3160"/>
<line cb-classname="GraphicLineEntity" class="frameline" id="1bXs" x1="3650" x2="4520" y1="3320" y2="3320"/>
<line cb-classname="GraphicLineEntity" class="frameline" id="1bXR" x1="4520" x2="5380" y1="3290" y2="3290"/>
<line cb-classname="GraphicLineEntity" class="frameline" id="1bXU" x1="4520" x2="5380" y1="3240" y2="3240"/>
<line cb-classname="GraphicLineEntity" class="frameline" id="1bXm" x1="4520" x2="4520" y1="3240" y2="3460"/>
<line cb-classname="GraphicLineEntity" class="frameline" id="1bX1" x1="4810" x2="4810" y1="3240" y2="3390"/>
<line cb-classname="GraphicLineEntity" class="frameline" id="1bXZ" x1="4990" x2="4990" y1="3240" y2="3390"/>
<line cb-classname="GraphicLineEntity" class="frameline" id="1bXi" x1="5150" x2="5150" y1="3080" y2="3390"/>
</g>
<g cb-classname="GraphicShape" cb-tag="TEXT LABELS" id="1bs2">
<text baseline-shift="-50%" cb-classname="GraphicTextEntity" class="frame" font-size="25" id="1bs3" text-anchor="middle" x="4890" y="3252">
Drop
</text>
<text baseline-shift="-50%" cb-classname="GraphicTextEntity" class="frame" font-size="25" id="1bsh" text-anchor="middle" x="5075" y="3252">
Task
</text>
<text baseline-shift="-50%" cb-classname="GraphicTextEntity" class="frame" font-size="25" id="1bss" text-anchor="middle" x="5265" y="3252">
Sheet
</text>
<text cb-classname="GraphicTextEntity" class="frame" font-size="25" id="1bsR" x="5152" y="3107">
Rev.
</text>
<text cb-classname="GraphicTextEntity" class="frame" font-size="25" id="1bsU" x="3653" y="3418">
Engineer
</text>
<text cb-classname="GraphicTextEntity" class="frame" font-size="25" id="1bsm" x="4528" y="3419">
Approved
</text>
<text cb-classname="GraphicTextEntity" class="frame" font-size="25" id="1bs1" x="5152" y="3187">
Date
</text>
<text baseline-shift="-50%" cb-classname="GraphicTextEntity" class="frame" font-size="25" id="1bsZ" text-anchor="middle" x="4660" y="3252">
Drawing Number
</text>
<text baseline-shift="-50%" cb-classname="GraphicTextEntity" class="frame" font-size="25" id="1bsi" text-anchor="middle" x="4680" y="3325">
CTL
</text>
</g>
<text baseline-shift="-50%" cb-classname="GraphicTextEntity" class="frame" font-size="48" id="1bS2" text-anchor="middle" x="3000" y="3100">
EMERSON PROCESS MANAGEMENT
</text>
<g baseline-shift="-100%" cb-anchor-x="2360" cb-anchor-y="3140" cb-classname="GroupText" cb-max-width="1260" fill="black" id="1bS3">
<text baseline-shift="-100%" cb-classname="GraphicTextEntity" class="frame" fill="black" font-family="arial" font-size="22" font-weight="normal" id="1bSh" text-anchor="start" text-decoration="normal" x="2360" y="3140">
THIS DOCUMENT CONTAINS INFORMATION PROPRIETARY TO EMERSON PROCESS
</text>
<text baseline-shift="-100%" cb-classname="GraphicTextEntity" class="frame" fill="black" font-family="arial" font-size="22" font-weight="normal" id="1bSs" text-anchor="start" text-decoration="normal" x="2360" y="3176">
MANAGEMENT POWER &amp; WATER SOLUTIONS, INC. IT IS SUBMITTED IN CONFIDENCE AND
</text>
<text baseline-shift="-100%" cb-classname="GraphicTextEntity" class="frame" fill="black" font-family="arial" font-size="22" font-weight="normal" id="1bSR" text-anchor="start" text-decoration="normal" x="2360" y="3212">
TRUST, IS TO BE USED BY YOU SOLELY FOR THE PURPOSES FOR WHICH IT IS
</text>
<text baseline-shift="-100%" cb-classname="GraphicTextEntity" class="frame" fill="black" font-family="arial" font-size="22" font-weight="normal" id="1bSU" text-anchor="start" text-decoration="normal" x="2360" y="3248">
FURNISHED AND IS TO BE RETURNED UPON REQUEST. THIS DOCUMENT AND ANY
</text>
<text baseline-shift="-100%" cb-classname="GraphicTextEntity" class="frame" fill="black" font-family="arial" font-size="22" font-weight="normal" id="1bSm" text-anchor="start" text-decoration="normal" x="2360" y="3284">
OTHER INFORMATION PROVIDED TO YOU IS NOT TO BE REPRODUCED, TRANSMITTED,
</text>
<text baseline-shift="-100%" cb-classname="GraphicTextEntity" class="frame" fill="black" font-family="arial" font-size="22" font-weight="normal" id="1bS1" text-anchor="start" text-decoration="normal" x="2360" y="3320">
DISCLOSED, OR USED OTHERWISE IN WHOLE OR IN PART WITHOUT THE PRIOR
</text>
<text baseline-shift="-100%" cb-classname="GraphicTextEntity" class="frame" fill="black" font-family="arial" font-size="22" font-weight="normal" id="1bSZ" text-anchor="start" text-decoration="normal" x="2360" y="3356">
WRITTEN AUTHORIZATION OF EMERSON PROCESS MANAGEMENT POWER &amp; WATER
</text>
<text baseline-shift="-100%" cb-classname="GraphicTextEntity" class="frame" fill="black" font-family="arial" font-size="22" font-weight="normal" id="1bSi" text-anchor="start" text-decoration="normal" x="2360" y="3392">
SOLUTIONS,INC.
</text>
</g>
</g>
</svg>