<?xml version="1.0" ?><svg cb-auto-time="04/22/2020 11:53:13" cb-classname="SISControlFunction" cb-create-time="03/06/2020" cb-drop-id="2" cb-filename="C:\OvPtSvr\OVATION\NET0\UNIT0\ControlFunctions\c02a.svg" cb-function-id="C02A" cb-key="332152551123" cb-modified-timestamp="1584712500" cb-modify-id="00000002" cb-path="C:/OvPtSvr/OVATION/NET0/UNIT0/ControlFunctions" cb-revision="A" cb-sheet-number="03039" cb-sheet-title="H0MAD-H0MAY - Lubr oil press prot CH1" cb-sis-module="3" cb-sis-secure-parameter-0="H0MAA00EU101ZT01_SW" cb-sis-secure-parameter-1="H0MAV30EZ101ZK94" cb-sis-secure-parameter-2="H0MAV30EZ101ZV01" cb-sis-secure-parameter-3="LUB_OIL_CH1_OUT" cb-sis-solver="CLS01" cb-snap-grid="10" cb-task-id="2" height="3522" id="1" width="5450" xmlns="http://www.w3.org/2000/svg">
<style cb-classname="EntityStyle" id="2" type="text/css">
	.algorithm { fill: white; stroke: black; stroke-width: 3 }
	.algorithm-function { fill: black; stroke: none }
	.algorithm-functionline { fill: none; stroke: black; stroke-linecap: round; stroke-width: 3 }
	.algorithm-name { fill: black; stroke: none }
	.algorithm-nameline { fill: none; stroke: black; stroke-linecap: round; stroke-width: 3 }
	.algorithm-sequence { fill: black; stroke: none; visibility: hidden }
	.algorithm-sequenceline { fill: none; stroke: black; stroke-linecap: round; stroke-width: 3; visibility: hidden }
	.algorithmline { fill: none; stroke: black; stroke-linecap: round; stroke-width: 3 }
	.annotation { fill: black; stroke: none }
	.annotationline { fill: none; stroke: black; stroke-linecap: round; stroke-width: 3 }
	.frame { fill: black; stroke: none }
	.frameline { fill: none; stroke: black; stroke-linecap: round; stroke-width: 3 }
	.signal { fill: black; stroke: none }
	.signalline { fill: none; stroke: black; stroke-linecap: round; stroke-width: 3 }
	text.algorithm { fill: black; font-family: Arial; font-size: 22; stroke: none }
	text.algorithm-function { fill: black; font-family: Arial; font-size: 22; stroke: none }
	text.algorithm-name { fill: black; font-family: Arial; font-size: 22; stroke: none }
	text.algorithm-sequence { fill: black; font-family: Arial; font-size: 22; stroke: none; visibility: hidden }
	text.annotation { fill: black; font-family: Arial; font-size: 22; stroke: none }
	text.frame { fill: black; font-family: Arial; font-size: 18; stroke: none }
	text.signal { fill: black; font-family: Arial; font-size: 12; stroke: none }
</style>
<g cb-classname="NamedObject" cb-objectname="Comments" id="3"/>
<g cb-classname="SISAlgorithmContainer" cb-objectname="Algorithms" id="4">
<g cb-alg-otL="H0MAY20EE300XG01" cb-alg-r1EVt="685544187" cb-alg-x7f="0" cb-algorithm-id="004" cb-classname="SISAlgorithm" cb-function-name="NONSECPARAM" cb-modify-id="00000001" cb-sis-algorithm-id="-1" cb-sis-template-rev="2" id="6r">
<rect cb-classname="GraphicRectangleEntity" class="algorithm" fill="yellow" height="90" id="6j" width="160" x="1920" y="1450"/>
<g cb-classname="ControlPin" cb-pin-name="oY-quw-cm4" id="6c">
<line cb-classname="GraphicLineEntity" class="signalline" id="6q" x1="2080" x2="2110" y1="1490" y2="1490"/>
<g cb-classname="DynamicText" cb-source="ak-91N-HUIf" id="66">
<text cb-classname="GraphicTextEntity" class="signal" id="7A" text-anchor="start" x="2094" y="1487"/>
</g>
<g cb-classname="SignalSegment" id="7Q">
<g cb-classname="SignalSegment" id="7Y">
<line cb-classname="GraphicLineEntity" class="signalline" id="7L" stroke="#1e12bf" stroke-dasharray="5,4" x1="3410" x2="3410" y1="1490" y2="1110"/>
<g cb-classname="SignalSegment" id="7z">
<line cb-classname="GraphicLineEntity" class="signalline" id="7r" stroke="#1e12bf" stroke-dasharray="5,4" x1="3410" x2="3500" y1="1110" y2="1110"/>
<g cb-classname="SignalConnection" cb-graphic-line="$75$" cb-input-pin="$DnN$" id="7j"/>
</g>
</g>
<line cb-classname="GraphicLineEntity" class="signalline" id="7c" stroke="#1e12bf" stroke-dasharray="5,4" x1="2110" x2="3410" y1="1490" y2="1490"/>
</g>
</g>
<g cb-classname="GraphicShape" id="7q">
<g cb-classname="DynamicText" cb-labeled="false" cb-source="Jf-pLP-uHK" id="76">
<text cb-classname="GraphicTextEntity" class="algorithm" id="8A" text-anchor="middle" x="2000" y="1570"/>
</g>
</g>
<g cb-classname="GraphicShape" id="8Q">
<text baseline-shift="0%" cb-classname="GraphicTextEntity" class="algorithm" fill="#000000" font-family="Arial" font-size="12" id="8Y" text-anchor="middle" x="2000" y="1490">
NON SECURE
</text>
<text baseline-shift="0%" cb-classname="GraphicTextEntity" class="algorithm" fill="#000000" font-family="Arial" font-size="12" id="8L" text-anchor="middle" x="2000" y="1510">
PARAMETER
</text>
</g>
<g baseline-shift="-50%" cb-anchor-x="1910" cb-anchor-y="1480" cb-classname="PointDescription" cb-content="extended" cb-labeled="false" cb-max-width="280" cb-source="oF-kLL-KWN" class="algorithm" id="8z" text-anchor="end">
<text baseline-shift="-50%" cb-classname="GraphicTextEntity" class="algorithm" id="8r" text-anchor="end" x="1910" y="1445">
Turbine protection
</text>
<text baseline-shift="-50%" cb-classname="GraphicTextEntity" class="algorithm" id="8j" text-anchor="end" x="1910" y="1481">
storage
</text>
<text baseline-shift="-50%" cb-classname="GraphicTextEntity" class="algorithm" id="9Y2" text-anchor="end" x="1910" y="1517">
(RESET)
</text>
</g>
<g baseline-shift="-100%" cb-anchor-x="2090" cb-anchor-y="1500" cb-classname="PointReferences" cb-max-width="500" cb-originator="true" cb-source="Uq-Jlo-8LQ" class="algorithm" id="8q" text-anchor="start">
<text baseline-shift="-100%" cb-classname="GraphicTextEntity" class="algorithm" id="86" text-anchor="start" x="2090" y="1500">
-
</text>
</g>
</g>
<g cb-alg-dePs="247" cb-alg-fxtz4="32" cb-alg-iI9R="NO" cb-alg-iIJV="CLS01/CHM4-05" cb-alg-otL="H0MAV30CP101XG52" cb-alg-pl0dU="0" cb-alg-r1EVt="685544187" cb-alg-sbPz="Drop2\CLS01\CLS01#3\AC02A00C" cb-alg-sejA="0" cb-alg-sejB5="0" cb-alg-sejrR="GOODNONCASCADE" cb-alg-x7f="1073879296" cb-algorithm-id="00C" cb-classname="SISAlgorithm" cb-function-name="LSDI" cb-modify-id="00000001" cb-sis-algorithm-id="25" cb-sis-template-rev="2" id="9Q">
<rect cb-classname="GraphicRectangleEntity" class="algorithm" fill="yellow" height="90" id="9Y" width="160" x="480" y="940"/>
<g cb-classname="GraphicShape" id="9L">
<text baseline-shift="0%" cb-classname="GraphicTextEntity" class="algorithm" fill="#000000" font-family="Arial" font-size="12" id="9z" text-anchor="middle" x="560" y="990">
DISCRETE INPUT
</text>
</g>
<g cb-classname="GraphicShape" id="9r">
<g cb-classname="DynamicText" cb-labeled="true" cb-source="GN-UOO-iKOM" id="9j">
<text cb-classname="GraphicTextEntity" class="algorithm" id="9c" text-anchor="start" x="480" y="1060"/>
</g>
</g>
<g cb-classname="GraphicShape" id="9q">
<g cb-classname="DynamicText" cb-labeled="false" cb-source="Y6-XWN-FBL" id="96">
<text cb-classname="GraphicTextEntity" class="algorithm" id="1AK" text-anchor="start" x="170" y="1000"/>
</g>
</g>
<g cb-classname="ControlPin" cb-pin-name="Uq-Jlo-8LQ" id="1AD">
<line cb-classname="GraphicLineEntity" class="signalline" id="1A2" x1="640" x2="680" y1="990" y2="990"/>
<g cb-classname="DynamicText" cb-source="z3-Bf9-X0ax" id="1AW">
<text cb-classname="GraphicTextEntity" class="signal" id="1AQ" text-anchor="start" x="654" y="987"/>
</g>
<g cb-classname="SignalSegment" id="1Ax">
<g cb-classname="SignalSegment" id="1QW">
<line cb-classname="GraphicLineEntity" class="signalline" id="1QQ" stroke="#1e12bf" stroke-dasharray="5,4" x1="1870" x2="1870" y1="990" y2="1010"/>
<g cb-classname="SignalSegment" id="1Qx">
<line cb-classname="GraphicLineEntity" class="signalline" id="1Qk" stroke="#1e12bf" stroke-dasharray="5,4" x1="1870" x2="1970" y1="1010" y2="1010"/>
<g cb-classname="SignalConnection" cb-graphic-line="$116$" cb-input-pin="$LXv$" id="1Qd"/>
</g>
</g>
<line cb-classname="GraphicLineEntity" class="signalline" id="1Q2" stroke="#1e12bf" stroke-dasharray="5,4" x1="680" x2="1870" y1="990" y2="990"/>
</g>
</g>
</g>
<g cb-alg-1Yq="1073879552" cb-alg-EKRPY="32" cb-alg-IfXP="Drop2\CLS01\CLS01#3\AC02A001" cb-alg-Izub="0" cb-alg-Izug5="0" cb-alg-Izuom="GOODNONCASCADE" cb-alg-VadY="NO" cb-alg-Vaip="CLS01/CHM4-06" cb-alg-WB1pK="685544187" cb-alg-cm4="H0MAV30CP102XG52" cb-alg-mkDyI="0" cb-alg-rzXT="247" cb-algorithm-id="001" cb-classname="SISAlgorithm" cb-function-name="LSDI" cb-modify-id="00000001" cb-sis-algorithm-id="26" cb-sis-template-rev="2" id="1LX">
<rect cb-classname="GraphicRectangleEntity" class="algorithm" fill="yellow" height="90" id="1zK" width="160" x="480" y="1070"/>
<g cb-classname="GraphicShape" id="1zD">
<text baseline-shift="0%" cb-classname="GraphicTextEntity" class="algorithm" fill="#000000" font-family="Arial" font-size="12" id="1z2" text-anchor="middle" x="560" y="1120">
DISCRETE INPUT
</text>
</g>
<g cb-classname="GraphicShape" id="1zW">
<g cb-classname="DynamicText" cb-labeled="true" cb-source="Jf-pLP-1czH" id="1zQ">
<text cb-classname="GraphicTextEntity" class="algorithm" id="1zx" text-anchor="start" x="480" y="1190"/>
</g>
</g>
<g cb-classname="GraphicShape" id="1zk">
<g cb-classname="DynamicText" cb-labeled="false" cb-source="ak-bez-7Hm" id="1zd">
<text cb-classname="GraphicTextEntity" class="algorithm" id="1zb" text-anchor="start" x="170" y="1130"/>
</g>
</g>
<g cb-classname="ControlPin" cb-pin-name="oF-kLL-KWN" id="1zX">
<line cb-classname="GraphicLineEntity" class="signalline" id="1rK" x1="640" x2="680" y1="1120" y2="1120"/>
<g cb-classname="DynamicText" cb-source="Y6-di5-MP1e" id="1rD">
<text cb-classname="GraphicTextEntity" class="signal" id="1r2" text-anchor="start" x="654" y="1117"/>
</g>
<g cb-classname="SignalSegment" id="1rW">
<line cb-classname="GraphicLineEntity" class="signalline" id="1rQ" stroke="#1e12bf" stroke-dasharray="5,4" x1="680" x2="1270" y1="1120" y2="1120"/>
<g cb-classname="SignalSegment" id="1rx">
<line cb-classname="GraphicLineEntity" class="signalline" id="1rk" stroke="#1e12bf" stroke-dasharray="5,4" x1="1270" x2="1270" y1="1120" y2="1040"/>
<g cb-classname="SignalSegment" id="1rd">
<line cb-classname="GraphicLineEntity" class="signalline" id="1rb" stroke="#1e12bf" stroke-dasharray="5,4" x1="1270" x2="1970" y1="1040" y2="1040"/>
<g cb-classname="SignalConnection" cb-graphic-line="$158$" cb-input-pin="$wup$" id="1rX"/>
</g>
</g>
</g>
</g>
</g>
<g cb-alg-th7="H0MAA00EU101ZT01_SW" cb-algorithm-id="011" cb-classname="SISAlgorithm" cb-function-name="SECPARAMREF" cb-sis-template-rev="2" id="3Ak">
<rect cb-classname="GraphicRectangleEntity" class="algorithm" fill="yellow" height="90" id="3Ad" width="160" x="460" y="1570"/>
<g cb-classname="GraphicShape" id="3Ab">
<text baseline-shift="0%" cb-classname="GraphicTextEntity" class="algorithm" fill="#000000" font-family="Arial" font-size="12" id="3AX" text-anchor="middle" x="540" y="1600">
SECURE
</text>
<text baseline-shift="0%" cb-classname="GraphicTextEntity" class="algorithm" font-size="12" id="3QK" text-anchor="middle" x="540" y="1620">
PARAMETER
</text>
<text baseline-shift="0%" cb-classname="GraphicTextEntity" class="algorithm" fill="#000000" font-family="Arial" font-size="12" id="3QD" text-anchor="middle" x="540" y="1640">
REFERENCE
</text>
</g>
<g cb-classname="ControlPin" cb-pin-name="cN-eii-th7" id="3Q2">
<line cb-classname="GraphicLineEntity" class="signalline" id="3QW" x1="620" x2="650" y1="1610" y2="1610"/>
<g cb-classname="DynamicText" cb-source="oY-0T6-NTug" id="3QQ">
<text cb-classname="GraphicTextEntity" class="signal" id="3Qx" text-anchor="start" x="634" y="1607"/>
</g>
<g cb-classname="SignalSegment" id="3Qk">
<g cb-classname="SignalConnection" cb-graphic-line="$920$" cb-input-pin="$I1N$" id="9YD"/>
<line cb-classname="GraphicLineEntity" class="signalline" id="9YK" stroke="#1e12bf" stroke-dasharray="5,4" x1="650" x2="1570" y1="1610" y2="1610"/>
</g>
</g>
<g cb-classname="GraphicShape" id="3YW">
<g cb-classname="DynamicText" cb-labeled="false" cb-source="z3-gii-yZL" id="3YQ">
<text cb-classname="GraphicTextEntity" class="algorithm" id="3Yx" text-anchor="middle" x="550" y="1690"/>
</g>
</g>
<g baseline-shift="-100%" cb-anchor-x="630" cb-anchor-y="1620" cb-classname="PointReferences" cb-max-width="500" cb-originator="true" cb-source="Jf-pLP-uHK" class="algorithm" id="3Yk" text-anchor="start">
<text baseline-shift="-100%" cb-classname="GraphicTextEntity" class="algorithm" id="3Yd" text-anchor="start" x="630" y="1620">
[01012]
</text>
</g>
<g baseline-shift="-50%" cb-anchor-x="450" cb-anchor-y="1610" cb-classname="PointDescription" cb-content="extended" cb-labeled="false" cb-max-width="280" cb-source="qx-jlZ-aIy" class="algorithm" id="3Yb" text-anchor="end">
<text baseline-shift="-50%" cb-classname="GraphicTextEntity" class="algorithm" id="3YX" text-anchor="end" x="450" y="1593">
Stop valves &gt;=2
</text>
<text baseline-shift="-50%" cb-classname="GraphicTextEntity" class="algorithm" id="3LK" text-anchor="end" x="450" y="1629">
closed
</text>
</g>
</g>
<g cb-alg-A4jw="247" cb-alg-Fej9="Drop2\CLS01\CLS01#3\AC02A002" cb-alg-NTD6u="685544187" cb-alg-V7y9o="15" cb-alg-lcN="1073879808" cb-alg-mD="$306$cb-alg-out$" cb-alg-tWO="H0MAV30EZ101ZK94" cb-algorithm-id="002" cb-classname="SISAlgorithm" cb-function-name="LSNOT" cb-modify-id="00000002" cb-sis-algorithm-id="27" cb-sis-template-rev="2" id="8YW">
<rect cb-classname="GraphicRectangleEntity" class="algorithm" fill="yellow" height="80" id="8YQ" width="100" x="1600" y="1570"/>
<g cb-classname="GraphicShape" id="8Yx">
<text baseline-shift="0%" cb-classname="GraphicTextEntity" class="algorithm" fill="#000000" font-family="Arial" font-size="12" id="8Yk" text-anchor="middle" x="1650" y="1610">
NOT
</text>
</g>
<g cb-classname="ControlPin" cb-pin-name="Y6-XWN-fD" id="8Yd">
<line cb-classname="GraphicLineEntity" class="signalline" id="8Yb" x1="1570" x2="1600" y1="1610" y2="1610"/>
<polygon cb-classname="GraphicPolygonEntity" class="signal" id="8YX" points="1600,1610 1589,1604 1589,1615"/>
<g cb-classname="DynamicText" cb-source="QA-vfD-qAD4" id="8LK">
<text cb-classname="GraphicTextEntity" class="signal" id="8LD" text-anchor="end" x="1585" y="1607"/>
</g>
</g>
<g cb-classname="ControlPin" cb-pin-name="cN-eii-th7" id="8L2">
<line cb-classname="GraphicLineEntity" class="signalline" id="8LW" x1="1700" x2="1730" y1="1610" y2="1610"/>
<g cb-classname="DynamicText" cb-source="oY-0T6-NTug" id="8LQ">
<text cb-classname="GraphicTextEntity" class="signal" id="8Lx" text-anchor="start" x="1714" y="1607"/>
</g>
<g cb-classname="SignalSegment" cb-start-x="1730" cb-start-y="1610" id="8Ld">
<g cb-classname="SignalSegment" id="8cK">
<line cb-classname="GraphicLineEntity" class="signalline" id="8cD" stroke="#1e12bf" stroke-dasharray="5,4" x1="2860" x2="2860" y1="1610" y2="1060"/>
<g cb-classname="SignalSegment" id="8c2">
<line cb-classname="GraphicLineEntity" class="signalline" id="8cW" stroke="#1e12bf" stroke-dasharray="5,4" x1="2860" x2="2900" y1="1060" y2="1060"/>
<g cb-classname="SignalConnection" cb-graphic-line="$873$" cb-input-pin="$CIl$" id="8cQ"/>
</g>
<line cb-classname="GraphicLineEntity" class="signalline" id="8zD" stroke="#1e12bf" stroke-dasharray="5,4" x1="2860" x2="2920" y1="1610" y2="1610"/>
<g cb-classname="SignalConnection" cb-graphic-line="$841$" cb-input-pin="$okB$" id="8z2"/>
<ellipse cb-classname="GraphicEllipseEntity" class="signal" cx="2860" cy="1610" fill="#1e12bf" id="8cx" rx="5" ry="5" stroke="#1e12bf" stroke-dasharray="5,4"/>
</g>
<line cb-classname="GraphicLineEntity" class="signalline" id="8jX" stroke="#1e12bf" stroke-dasharray="5,4" x1="1730" x2="2860" y1="1610" y2="1610"/>
</g>
</g>
</g>
<g cb-alg-iE="$823$cb-alg-out$" cb-algorithm-id="01F" cb-classname="SISAlgorithm" cb-function-name="SECPARAM" cb-sis-template-rev="2" id="7A2">
<rect cb-classname="GraphicRectangleEntity" class="algorithm" fill="yellow" height="90" id="7AW" width="160" x="2960" y="1570"/>
<g cb-classname="ControlPin" cb-pin-name="oY-quw-Vs" id="7AQ">
<line cb-classname="GraphicLineEntity" class="signalline" id="7Ax" x1="2920" x2="2960" y1="1610" y2="1610"/>
<polygon cb-classname="GraphicPolygonEntity" class="signal" id="7Ak" points="2960,1610 2949,1604 2949,1615"/>
<g cb-classname="DynamicText" cb-source="GN-iVs-pJux" id="7Ad">
<text cb-classname="GraphicTextEntity" class="signal" id="7Ab" text-anchor="end" x="2945" y="1607"/>
</g>
</g>
<g cb-classname="GraphicShape" id="7AX">
<text baseline-shift="0%" cb-classname="GraphicTextEntity" class="algorithm" fill="#000000" font-family="Arial" font-size="12" id="7QK" text-anchor="middle" x="3040" y="1610">
SECURE
</text>
<text baseline-shift="0%" cb-classname="GraphicTextEntity" class="algorithm" fill="#000000" font-family="Arial" font-size="12" id="7QD" text-anchor="middle" x="3040" y="1630">
PARAMETER
</text>
</g>
<g cb-classname="GraphicShape" id="7Q2">
<g cb-classname="DynamicText" cb-labeled="false" cb-source="QA-6cX-JX" id="7QW">
<text cb-classname="GraphicTextEntity" class="algorithm" id="7QQ" text-anchor="start" x="2960" y="1680"/>
</g>
</g>
<g baseline-shift="-50%" cb-anchor-x="3130" cb-anchor-y="1600" cb-classname="PointDescription" cb-content="extended" cb-labeled="false" cb-max-width="500" cb-source="cN-eii-Id" class="algorithm" id="7Qx" text-anchor="start">
<text baseline-shift="-50%" cb-classname="GraphicTextEntity" class="algorithm" id="7Qk" text-anchor="start" x="3130" y="1600">
Lubricant oil protection
</text>
</g>
</g>
<g cb-alg-otL="SIS_BYPASS_EN" cb-alg-r1EVt="685544187" cb-alg-x7f="0" cb-algorithm-id="016" cb-classname="SISAlgorithm" cb-function-name="NONSECPARAM" cb-modify-id="00000002" cb-sis-algorithm-id="-1" cb-sis-template-rev="2" id="86d">
<rect cb-classname="GraphicRectangleEntity" class="algorithm" fill="yellow" height="90" id="86b" width="160" x="1230" y="1220"/>
<g cb-classname="ControlPin" cb-pin-name="oY-quw-cm4" id="86X">
<line cb-classname="GraphicLineEntity" class="signalline" id="9AK" x1="1390" x2="1420" y1="1260" y2="1260"/>
<g cb-classname="DynamicText" cb-source="ak-91N-HUIf" id="9AD">
<text cb-classname="GraphicTextEntity" class="signal" id="9A2" text-anchor="start" x="1404" y="1257"/>
</g>
<g cb-classname="SignalSegment" id="9QW">
<line cb-classname="GraphicLineEntity" class="signalline" id="9QQ" stroke="#1e12bf" stroke-dasharray="5,4" x1="1420" x2="1690" y1="1260" y2="1260"/>
<g cb-classname="SignalSegment" id="9Qx">
<line cb-classname="GraphicLineEntity" class="signalline" id="9Qk" stroke="#1e12bf" stroke-dasharray="5,4" x1="1690" x2="1690" y1="1260" y2="1120"/>
<g cb-classname="SignalSegment" id="9Qd">
<line cb-classname="GraphicLineEntity" class="signalline" id="9Qb" stroke="#1e12bf" stroke-dasharray="5,4" x1="1690" x2="1970" y1="1120" y2="1120"/>
<g cb-classname="SignalConnection" cb-graphic-line="$918$" cb-input-pin="$gJD$" id="9QX"/>
</g>
</g>
</g>
</g>
<g cb-classname="GraphicShape" id="9AW">
<g cb-classname="DynamicText" cb-labeled="false" cb-source="sV-T5T-eIG" id="9AQ">
<text cb-classname="GraphicTextEntity" class="algorithm" id="9Ax" text-anchor="middle" x="1310" y="1340"/>
</g>
</g>
<g cb-classname="GraphicShape" id="9Ak">
<text baseline-shift="0%" cb-classname="GraphicTextEntity" class="algorithm" fill="#000000" font-family="Arial" font-size="12" id="9Ad" text-anchor="middle" x="1310" y="1260">
NON SECURE
</text>
<text baseline-shift="0%" cb-classname="GraphicTextEntity" class="algorithm" fill="#000000" font-family="Arial" font-size="12" id="9Ab" text-anchor="middle" x="1310" y="1280">
PARAMETER
</text>
</g>
<g baseline-shift="-50%" cb-anchor-x="1220" cb-anchor-y="1250" cb-classname="PointDescription" cb-content="extended" cb-labeled="false" cb-max-width="280" cb-source="z3-gii-yZL" class="algorithm" id="9AX" text-anchor="end">
<text baseline-shift="-50%" cb-classname="GraphicTextEntity" class="algorithm" id="9QK" text-anchor="end" x="1220" y="1250">
SIS Bypass enable
</text>
</g>
<g baseline-shift="-100%" cb-anchor-x="1400" cb-anchor-y="1270" cb-classname="PointReferences" cb-max-width="500" cb-originator="true" cb-source="Jf-pLP-uHK" class="algorithm" id="9QD" text-anchor="start">
<text baseline-shift="-100%" cb-classname="GraphicTextEntity" class="algorithm" id="9Q2" text-anchor="start" x="1400" y="1270">
1/0001
</text>
</g>
</g>
<g cb-alg-3CzR="VOTE TO TRIP IF BAD" cb-alg-3L8H="0.0" cb-alg-3LQ="0" cb-alg-3TeH="Drop2\CLS01\CLS01#3\AC02A00E" cb-alg-3ldU="0" cb-alg-7ACRY="LUB_OIL_CH1_DLYTM" cb-alg-7J7="VOTER6" cb-alg-7JO="VOTER3" cb-alg-7JR="VOTER1" cb-alg-7JRI="VOTER11" cb-alg-7JRL="VOTER10" cb-alg-7JRY="VOTER16" cb-alg-7JRc="VOTER13" cb-alg-7JRd="VOTER15" cb-alg-7JRo="VOTER12" cb-alg-7JRw="VOTER14" cb-alg-7JT="VOTER8" cb-alg-7JX="VOTER4" cb-alg-7Ja="VOTER7" cb-alg-7Jb="VOTER9" cb-alg-7Je6="247" cb-alg-7Jv="VOTER2" cb-alg-7Jw="VOTER5" cb-alg-7PKN7="LUB_OIL_CH1_DALRT" cb-alg-E2dN0="2" cb-alg-E6Kv="0" cb-alg-ECMmD="2" cb-alg-HCzI="FALSE" cb-alg-HCzo="FALSE" cb-alg-HjdmY="0" cb-alg-HmA52="685544187" cb-alg-N9BNY="$897$cb-alg-out$" cb-alg-NCz7="FALSE" cb-alg-NCzC="FALSE" cb-alg-NCzG="FALSE" cb-alg-NCzI="TRUE" cb-alg-NCzY="FALSE" cb-alg-NCzc="TRUE" cb-alg-NCzd="TRUE" cb-alg-NCzo="TRUE" cb-alg-NCzw="FALSE" cb-alg-NLGz7="120" cb-alg-NLQN="60" cb-alg-Ntz7="0" cb-alg-NtzC="0" cb-alg-NtzG="0" cb-alg-NtzI="0" cb-alg-NtzIE="0" cb-alg-NtzII="0" cb-alg-NtzIO="0" cb-alg-NtzIZ="0" cb-alg-NtzIr="0" cb-alg-NtzIu="0" cb-alg-NtzIy="0" cb-alg-NtzY="0" cb-alg-Ntzc="0" cb-alg-Ntzd="0" cb-alg-Ntzo="0" cb-alg-Ntzw="0" cb-alg-TAs="LUB_OIL_CH1" cb-alg-eMR="$91$cb-alg-out$" cb-alg-eMv="$139$cb-alg-out$" cb-alg-m6Y="1073880064" cb-alg-pLCHT="17" cb-alg-xBWiF="3" cb-alg-xBrRn="LUB_OIL_CH1_TRSTS" cb-algorithm-id="00E" cb-classname="SISAlgorithm" cb-function-name="LSDVTR" cb-modify-id="00000001" cb-sis-algorithm-id="28" cb-sis-template-rev="2" id="3cb">
<rect cb-classname="GraphicRectangleEntity" class="algorithm" fill="yellow" height="140" id="3cX" stroke-width="3" width="160" x="2010" y="990"/>
<g cb-classname="GraphicShape" id="3qK">
<text baseline-shift="0%" cb-classname="GraphicTextEntity" class="annotation" fill="#000000" font-family="Arial" font-size="12" id="3qD" text-anchor="middle" x="2090" y="1060">
DIGITAL VOTER
</text>
</g>
<g cb-classname="GraphicShape" id="3q2">
<g cb-classname="DynamicText" cb-labeled="true" cb-source="oF-kLL-5ehf9" id="3qW">
<text cb-classname="GraphicTextEntity" class="algorithm" id="3qQ" text-anchor="start" x="1920" y="1220"/>
</g>
<g cb-classname="DynamicText" cb-labeled="true" cb-source="Y6-XWN-MCL4v" id="3qx">
<text cb-classname="GraphicTextEntity" class="algorithm" id="3qk" text-anchor="start" x="1920" y="1250"/>
</g>
<g cb-classname="DynamicText" cb-labeled="true" cb-source="Uq-Jlo-L4YgH" id="3qd">
<text cb-classname="GraphicTextEntity" class="algorithm" id="3qb" text-anchor="start" x="1920" y="1280"/>
</g>
</g>
<g cb-classname="GraphicShape" id="3qX">
<g cb-classname="DynamicText" cb-labeled="false" cb-source="cN-eii-bez" id="36K">
<text cb-classname="GraphicTextEntity" class="algorithm" id="36D" text-anchor="start" x="1920" y="1190"/>
</g>
</g>
<g cb-classname="ControlPin" cb-pin-name="oY-quw-VsG" id="362">
<line cb-classname="GraphicLineEntity" class="signalline" id="36W" x1="1970" x2="2010" y1="1010" y2="1010"/>
<polygon cb-classname="GraphicPolygonEntity" class="signal" id="36Q" points="2010,1010 1999,1004 1999,1015"/>
<g cb-classname="DynamicText" cb-source="GN-iVs-pJux" id="36x">
<text cb-classname="GraphicTextEntity" class="signal" id="36k" text-anchor="end" x="1995" y="1007"/>
</g>
</g>
<g cb-classname="ControlPin" cb-pin-name="sV-T5T-eIG" id="36d">
<line cb-classname="GraphicLineEntity" class="signalline" id="36b" x1="2170" x2="2210" y1="1060" y2="1060"/>
<g cb-classname="DynamicText" cb-source="vw-Pgh-DaNx" id="36X">
<text cb-classname="GraphicTextEntity" class="signal" id="4AK" text-anchor="start" x="2184" y="1057"/>
</g>
<g cb-classname="SignalSegment" id="4AD">
<line cb-classname="GraphicLineEntity" class="signalline" id="4A2" stroke="#1e12bf" stroke-dasharray="5,4" x1="2210" x2="2530" y1="1060" y2="1060"/>
<g cb-classname="SignalConnection" cb-graphic-line="$402$" cb-input-pin="$rDi$" id="4AW"/>
</g>
</g>
<g cb-classname="ControlPin" cb-pin-name="Jf-pLP-1Np" id="4AQ">
<line cb-classname="GraphicLineEntity" class="signalline" id="4Ax" x1="1970" x2="2010" y1="1040" y2="1040"/>
<polygon cb-classname="GraphicPolygonEntity" class="signal" id="4Ak" points="2010,1040 1999,1034 1999,1045"/>
<g cb-classname="DynamicText" cb-source="ak-91N-HUIf" id="4Ad">
<text cb-classname="GraphicTextEntity" class="signal" id="4Ab" text-anchor="end" x="1995" y="1037"/>
</g>
</g>
<g cb-classname="ControlPin" cb-pin-name="oF-kLL-ghd" id="4AX">
<line cb-classname="GraphicLineEntity" class="signalline" id="4QK" x1="1970" x2="2010" y1="1080" y2="1080"/>
<polygon cb-classname="GraphicPolygonEntity" class="signal" id="4QD" points="2010,1080 1999,1074 1999,1085"/>
<g cb-classname="DynamicText" cb-source="vw-Pgh-DaNx" id="4Q2">
<text cb-classname="GraphicTextEntity" class="signal" id="4QW" text-anchor="end" x="1995" y="1077"/>
</g>
</g>
<g cb-classname="ControlPin" cb-pin-name="QA-6cX-KWhLi" id="4QQ">
<line cb-classname="GraphicLineEntity" class="signalline" id="4Qx" x1="2170" x2="2210" y1="1120" y2="1120"/>
<g cb-classname="DynamicText" cb-source="cN-zmD-6UqB" id="4Qk">
<text cb-classname="GraphicTextEntity" class="signal" id="4Qd" text-anchor="start" x="2184" y="1117"/>
</g>
<g cb-classname="SignalSegment" id="4Qb">
<line cb-classname="GraphicLineEntity" class="signalline" id="4QX" x1="2210" x2="3350" y1="1120" y2="1120"/>
<g cb-classname="SignalSegment" id="4YK">
<line cb-classname="GraphicLineEntity" class="signalline" id="4YD" x1="3350" x2="3350" y1="1120" y2="1350"/>
<g cb-classname="SignalSegment" id="4Y2">
<line cb-classname="GraphicLineEntity" class="signalline" id="4YW" x1="3350" x2="4410" y1="1350" y2="1350"/>
<g cb-classname="SignalConnection" cb-graphic-line="$423$" cb-input-pin="$4cK$" id="4YQ"/>
</g>
</g>
</g>
</g>
<g cb-classname="ControlPin" cb-pin-name="vw-UkU-laHEB" id="4Yx">
<line cb-classname="GraphicLineEntity" class="signalline" id="4Yk" x1="2170" x2="2200" y1="1130" y2="1160"/>
<g cb-classname="DynamicText" cb-source="QA-vfD-qAD4" id="4Yd">
<text cb-classname="GraphicTextEntity" class="signal" id="4Yb" text-anchor="start" transform="translate(2182,1138)rotate(45)"/>
</g>
<g cb-classname="SignalSegment" id="4YX">
<line cb-classname="GraphicLineEntity" class="signalline" id="4LK" x1="2200" x2="2200" y1="1160" y2="1540"/>
<g cb-classname="SignalSegment" id="4LD">
<line cb-classname="GraphicLineEntity" class="signalline" id="4L2" x1="2200" x2="4410" y1="1540" y2="1540"/>
<g cb-classname="SignalConnection" cb-graphic-line="$432$" cb-input-pin="$ZZR$" id="4LW"/>
</g>
</g>
</g>
<g cb-classname="ControlPin" cb-pin-name="GN-UOO-yszN7" id="4LQ">
<line cb-classname="GraphicLineEntity" class="signalline" id="4Lx" x1="2170" x2="2210" y1="1000" y2="1000"/>
<g cb-classname="DynamicText" cb-source="sV-Mip-hg0J" id="4Lk">
<text cb-classname="GraphicTextEntity" class="signal" id="4Ld" text-anchor="start" x="2184" y="997"/>
</g>
<g cb-classname="SignalSegment" id="4Lb">
<line cb-classname="GraphicLineEntity" class="signalline" id="4LX" x1="2210" x2="3350" y1="1000" y2="1000"/>
<g cb-classname="SignalSegment" id="4zK">
<line cb-classname="GraphicLineEntity" class="signalline" id="4zD" x1="3350" x2="3350" y1="1000" y2="850"/>
<g cb-classname="SignalSegment" id="4z2">
<line cb-classname="GraphicLineEntity" class="signalline" id="4zW" x1="3350" x2="4410" y1="850" y2="850"/>
<g cb-classname="SignalConnection" cb-graphic-line="$443$" cb-input-pin="$wLE$" id="4zQ"/>
</g>
</g>
</g>
</g>
<g cb-classname="ControlPin" cb-pin-name="qx-jlZ-wdgsu" id="4zx">
<line cb-classname="GraphicLineEntity" class="signalline" id="4zk" x1="1970" x2="2010" y1="1120" y2="1120"/>
<polygon cb-classname="GraphicPolygonEntity" class="signal" id="4zd" points="2010,1120 1999,1114 1999,1125"/>
<g cb-classname="DynamicText" cb-source="oF-mzH-56Sj" id="4zb">
<text cb-classname="GraphicTextEntity" class="signal" id="4zX" text-anchor="end" x="1995" y="1117"/>
</g>
</g>
</g>
<g cb-alg-1N="$378$cb-alg-dlytm$" cb-algorithm-id="009" cb-classname="ExternalPointInterface" cb-function-name="OUTPUT" id="4rK">
<ellipse cb-classname="GraphicEllipseEntity" class="algorithm" cx="4470" cy="1350" id="4rD" rx="40" ry="40"/>
<rect cb-classname="GraphicRectangleEntity" class="algorithm" height="80" id="4r2" width="30" x="4510" y="1310"/>
<line cb-classname="GraphicLineEntity" class="algorithm" id="4rW" x1="4510" x2="4540" y1="1350" y2="1350"/>
<g cb-classname="PointStatusIndicator" cb-indicator-type="highway" cb-source="z3-gii-KN" id="4rQ" visibility="hidden">
<line cb-classname="GraphicLineEntity" class="algorithmline" id="4rx" x1="4430" x2="4470" y1="1350" y2="1310"/>
<line cb-classname="GraphicLineEntity" class="algorithmline" id="4rk" x1="4470" x2="4510" y1="1310" y2="1350"/>
<line cb-classname="GraphicLineEntity" class="algorithmline" id="4rd" x1="4510" x2="4470" y1="1350" y2="1390"/>
<line cb-classname="GraphicLineEntity" class="algorithmline" id="4rb" x1="4470" x2="4430" y1="1390" y2="1350"/>
</g>
<g cb-classname="PointStatusIndicator" cb-indicator-type="hardware" cb-source="ak-bez-ip" id="4rX" visibility="hidden">
<line cb-classname="GraphicLineEntity" class="algorithmline" id="4jK" x1="4510" x2="4430" y1="1310" y2="1310"/>
<line cb-classname="GraphicLineEntity" class="algorithmline" id="4jD" x1="4430" x2="4430" y1="1310" y2="1390"/>
<line cb-classname="GraphicLineEntity" class="algorithmline" id="4j2" x1="4430" x2="4510" y1="1390" y2="1390"/>
</g>
<g cb-classname="PointStatusIndicator" cb-indicator-type="alarm" cb-source="Y6-XWN-fD" id="4jW" visibility="hidden">
<text cb-classname="GraphicTextEntity" class="algorithm" fill="#000000" font-family="Arial" font-size="20" id="4jQ" x="4517" y="1339">
A
</text>
</g>
<g cb-classname="PointStatusIndicator" cb-indicator-type="ingraphic" cb-source="Uq-Jlo-jq" id="4jx" visibility="hidden">
<text cb-classname="GraphicTextEntity" class="algorithm" fill="#000000" font-family="Arial" font-size="20" id="4jk" x="4515" y="1380">
G
</text>
</g>
<g cb-classname="DynamicText" cb-labeled="false" cb-pin-name="KG" cb-source="z3-gii-KN" class="algorithm" id="4jd" text-anchor="end">
<text baseline-shift="0%" cb-classname="GraphicTextEntity" class="algorithm" fill="black" font-family="Arial" font-size="20" font-style="normal" font-weight="normal" id="4jb" text-anchor="end" text-decoration="normal" x="4407" y="1329"/>
</g>
<g baseline-shift="-100%" cb-anchor-x="4408" cb-anchor-y="1366" cb-classname="PointReferences" cb-max-width="240" cb-originator="false" cb-source="Jf-pLP-1N" class="signal" id="4jX" text-anchor="end">
<text baseline-shift="-100%" cb-classname="GraphicTextEntity" class="algorithm" id="4cK" text-anchor="end" x="4408" y="1366">
-
</text>
</g>
<g baseline-shift="-50%" cb-anchor-x="4561" cb-anchor-y="1348" cb-classname="PointDescription" cb-content="extended" cb-labeled="false" cb-max-width="240" cb-source="qx-jlZ-zH" class="algorithm" id="4cD" text-anchor="start">
<text baseline-shift="-50%" cb-classname="GraphicTextEntity" class="algorithm" id="4c2" text-anchor="start" x="4561" y="1313">
Lubricant oil
</text>
<text baseline-shift="-50%" cb-classname="GraphicTextEntity" class="algorithm" id="4cW" text-anchor="start" x="4561" y="1349">
protection - time
</text>
<text baseline-shift="-50%" cb-classname="GraphicTextEntity" class="algorithm" id="4cQ" text-anchor="start" x="4561" y="1385">
0 - 1000
</text>
</g>
<g cb-classname="ControlPin" cb-pin-name="sV-T5T-OM" id="4cx">
<line cb-classname="GraphicLineEntity" class="signalline" id="4ck" x1="4410" x2="4430" y1="1350" y2="1350"/>
<polygon cb-classname="GraphicPolygonEntity" class="signal" id="4cd" points="4430,1350 4419,1344 4419,1355"/>
</g>
</g>
<g cb-alg-zH="$378$cb-alg-trsts$" cb-algorithm-id="00F" cb-classname="ExternalPointInterface" cb-function-name="OUTPUT" id="4cb">
<ellipse cb-classname="GraphicEllipseEntity" class="algorithm" cx="4470" cy="850" id="4cX" rx="40" ry="40"/>
<rect cb-classname="GraphicRectangleEntity" class="algorithm" height="80" id="4qK" width="30" x="4510" y="810"/>
<line cb-classname="GraphicLineEntity" class="algorithm" id="4qD" x1="4510" x2="4540" y1="850" y2="850"/>
<g cb-classname="PointStatusIndicator" cb-indicator-type="highway" cb-source="Jf-pLP-1N" id="4q2" visibility="hidden">
<line cb-classname="GraphicLineEntity" class="algorithmline" id="4qW" x1="4430" x2="4470" y1="850" y2="810"/>
<line cb-classname="GraphicLineEntity" class="algorithmline" id="4qQ" x1="4470" x2="4510" y1="810" y2="850"/>
<line cb-classname="GraphicLineEntity" class="algorithmline" id="4qx" x1="4510" x2="4470" y1="850" y2="890"/>
<line cb-classname="GraphicLineEntity" class="algorithmline" id="4qk" x1="4470" x2="4430" y1="890" y2="850"/>
</g>
<g cb-classname="PointStatusIndicator" cb-indicator-type="hardware" cb-source="oF-kLL-gh" id="4qd" visibility="hidden">
<line cb-classname="GraphicLineEntity" class="algorithmline" id="4qb" x1="4510" x2="4430" y1="810" y2="810"/>
<line cb-classname="GraphicLineEntity" class="algorithmline" id="4qX" x1="4430" x2="4430" y1="810" y2="890"/>
<line cb-classname="GraphicLineEntity" class="algorithmline" id="46K" x1="4430" x2="4510" y1="890" y2="890"/>
</g>
<g cb-classname="PointStatusIndicator" cb-indicator-type="alarm" cb-source="Uq-Jlo-jq" id="46D" visibility="hidden">
<text cb-classname="GraphicTextEntity" class="algorithm" fill="#000000" font-family="Arial" font-size="20" id="462" x="4517" y="839">
A
</text>
</g>
<g cb-classname="PointStatusIndicator" cb-indicator-type="ingraphic" cb-source="z3-gii-KN" id="46W" visibility="hidden">
<text cb-classname="GraphicTextEntity" class="algorithm" fill="#000000" font-family="Arial" font-size="20" id="46Q" x="4515" y="880">
G
</text>
</g>
<g cb-classname="DynamicText" cb-labeled="false" cb-pin-name="Vg" cb-source="Jf-pLP-1N" class="algorithm" id="46x" text-anchor="end">
<text baseline-shift="0%" cb-classname="GraphicTextEntity" class="algorithm" fill="black" font-family="Arial" font-size="20" font-style="normal" font-weight="normal" id="46k" text-anchor="end" text-decoration="normal" x="4407" y="829"/>
</g>
<g baseline-shift="-100%" cb-anchor-x="4408" cb-anchor-y="866" cb-classname="PointReferences" cb-max-width="240" cb-originator="false" cb-source="qx-jlZ-zH" class="signal" id="46d" text-anchor="end">
<text baseline-shift="-100%" cb-classname="GraphicTextEntity" class="algorithm" id="46b" text-anchor="end" x="4408" y="866">
-
</text>
</g>
<g baseline-shift="-50%" cb-anchor-x="4561" cb-anchor-y="848" cb-classname="PointDescription" cb-content="extended" cb-labeled="false" cb-max-width="240" cb-source="GN-UOO-i5" class="algorithm" id="46X" text-anchor="start">
<text baseline-shift="-50%" cb-classname="GraphicTextEntity" class="algorithm" id="5AK" text-anchor="start" x="4561" y="813">
Lubricant oil
</text>
<text baseline-shift="-50%" cb-classname="GraphicTextEntity" class="algorithm" id="5AD" text-anchor="start" x="4561" y="849">
protection - status
</text>
<text baseline-shift="-50%" cb-classname="GraphicTextEntity" class="algorithm" id="5A2" text-anchor="start" x="4561" y="885">
0 - 100
</text>
</g>
<g cb-classname="ControlPin" cb-pin-name="vw-UkU-f9" id="5AW">
<line cb-classname="GraphicLineEntity" class="signalline" id="5AQ" x1="4410" x2="4430" y1="850" y2="850"/>
<polygon cb-classname="GraphicPolygonEntity" class="signal" id="5Ax" points="4430,850 4419,844 4419,855"/>
</g>
</g>
<g cb-alg-4myBj="15" cb-alg-Ng6o="247" cb-alg-i5="$378$cb-alg-out$" cb-alg-mL4="1073880320" cb-alg-nY5My="685544187" cb-alg-oA6B="Drop2\CLS01\CLS01#3\AC02A006" cb-algorithm-id="006" cb-classname="SISAlgorithm" cb-function-name="LSNOT" cb-modify-id="00000001" cb-sis-algorithm-id="29" cb-sis-template-rev="2" id="5Ak">
<rect cb-classname="GraphicRectangleEntity" class="algorithm" fill="yellow" height="80" id="5Ad" width="100" x="2560" y="1020"/>
<g cb-classname="GraphicShape" id="5Ab">
<text baseline-shift="0%" cb-classname="GraphicTextEntity" class="algorithm" fill="#000000" font-family="Arial" font-size="12" id="5AX" text-anchor="middle" x="2610" y="1060">
NOT
</text>
</g>
<g cb-classname="ControlPin" cb-pin-name="qx-jlZ-zH" id="5QK">
<line cb-classname="GraphicLineEntity" class="signalline" id="5QD" x1="2530" x2="2560" y1="1060" y2="1060"/>
<polygon cb-classname="GraphicPolygonEntity" class="signal" id="5Q2" points="2560,1060 2549,1054 2549,1065"/>
<g cb-classname="DynamicText" cb-source="oF-mzH-56Sj" id="5QW">
<text cb-classname="GraphicTextEntity" class="signal" id="5QQ" text-anchor="end" x="2545" y="1057"/>
</g>
</g>
<g cb-classname="ControlPin" cb-pin-name="Y6-XWN-FBL" id="5Qx">
<line cb-classname="GraphicLineEntity" class="signalline" id="5Qk" x1="2660" x2="2690" y1="1060" y2="1060"/>
<g cb-classname="DynamicText" cb-source="Uq-0OM-9u5C" id="5Qd">
<text cb-classname="GraphicTextEntity" class="signal" id="5Qb" text-anchor="start" x="2674" y="1057"/>
</g>
<g cb-classname="SignalSegment" id="8ck">
<line cb-classname="GraphicLineEntity" class="signalline" id="8cd" stroke="#1e12bf" stroke-dasharray="5,4" x1="2690" x2="2780" y1="1060" y2="1060"/>
<g cb-classname="SignalSegment" id="8cb">
<line cb-classname="GraphicLineEntity" class="signalline" id="8cX" stroke="#1e12bf" stroke-dasharray="5,4" x1="2780" x2="2780" y1="1060" y2="1020"/>
<g cb-classname="SignalSegment" id="8qK">
<line cb-classname="GraphicLineEntity" class="signalline" id="8qD" stroke="#1e12bf" stroke-dasharray="5,4" x1="2780" x2="2900" y1="1020" y2="1020"/>
<g cb-classname="SignalConnection" cb-graphic-line="$881$" cb-input-pin="$IBm$" id="8q2"/>
</g>
</g>
</g>
</g>
</g>
<g cb-alg-2qJv="Drop2\CLS01\CLS01#3\AC02A003" cb-alg-Dyqvx="11" cb-alg-HCPOM="2" cb-alg-ON3="1073880576" cb-alg-ciJU="247" cb-alg-ip1="$823$cb-alg-out$" cb-alg-ipS="$506$cb-alg-out$" cb-alg-ygWhF="685544187" cb-algorithm-id="003" cb-classname="SISAlgorithm" cb-function-name="LSAND" cb-modify-id="00000002" cb-sis-algorithm-id="30" cb-sis-template-rev="2" id="8zW">
<rect cb-classname="GraphicRectangleEntity" class="algorithm" fill="yellow" height="120" id="8zQ" width="100" x="2920" y="1000"/>
<g cb-classname="ControlPin" cb-pin-name="cN-eii-IdB" id="8zx">
<line cb-classname="GraphicLineEntity" class="signalline" id="8zk" x1="2900" x2="2920" y1="1020" y2="1020"/>
<polygon cb-classname="GraphicPolygonEntity" class="signal" id="8zd" points="2920,1020 2909,1014 2909,1025"/>
<g cb-classname="DynamicText" cb-source="qx-aId-sXfY" id="8zb">
<text cb-classname="GraphicTextEntity" class="signal" id="8zX" text-anchor="end" x="2905" y="1017"/>
</g>
</g>
<g cb-classname="ControlPin" cb-pin-name="GN-UOO-i58" id="8rK">
<line cb-classname="GraphicLineEntity" class="signalline" id="8rD" x1="2900" x2="2920" y1="1060" y2="1060"/>
<polygon cb-classname="GraphicPolygonEntity" class="signal" id="8r2" points="2920,1060 2909,1054 2909,1065"/>
<g cb-classname="DynamicText" cb-source="Y6-di5-MP1e" id="8rW">
<text cb-classname="GraphicTextEntity" class="signal" id="8rQ" text-anchor="end" x="2905" y="1057"/>
</g>
</g>
<g cb-classname="ControlPin" cb-pin-name="Uq-Jlo-jqO" id="8rx">
<line cb-classname="GraphicLineEntity" class="signalline" id="8rk" x1="2900" x2="2920" y1="1100" y2="1100"/>
<polygon cb-classname="GraphicPolygonEntity" class="signal" id="8rd" points="2920,1100 2909,1094 2909,1105"/>
<g cb-classname="DynamicText" cb-source="cN-zmD-6UqB" id="8rb">
<text cb-classname="GraphicTextEntity" class="signal" id="8rX" text-anchor="end" x="2905" y="1097"/>
</g>
</g>
<g cb-classname="ControlPin" cb-pin-name="oY-quw-cm4" id="8jK">
<line cb-classname="GraphicLineEntity" class="signalline" id="8jD" x1="3020" x2="3040" y1="1060" y2="1060"/>
<g cb-classname="DynamicText" cb-source="ak-91N-HUIf" id="8j2">
<text cb-classname="GraphicTextEntity" class="signal" id="8jW" text-anchor="start" x="3034" y="1057"/>
</g>
<g cb-classname="SignalSegment" cb-start-x="3040" cb-start-y="1060" id="8jd">
<g cb-classname="SignalConnection" cb-graphic-line="$533$" cb-input-pin="$wYy$" id="5Lx"/>
<line cb-classname="GraphicLineEntity" class="signalline" id="5LW" stroke="#1e12bf" stroke-dasharray="5,4" x1="3040" x2="3500" y1="1060" y2="1060"/>
</g>
</g>
<g cb-classname="GraphicShape" id="8jQ">
<text baseline-shift="0%" cb-classname="GraphicTextEntity" class="algorithm" fill="#000000" font-family="Arial" font-size="12" id="8jx" text-anchor="middle" x="2970" y="1060">
AND
</text>
</g>
</g>
<g cb-alg-445wt="685544187" cb-alg-4F7="$843$cb-alg-out$" cb-alg-Gz7="LUB_OIL_CH1_OUT" cb-alg-JAk="1073880832" cb-alg-MRFaB="5" cb-alg-WmqP="247" cb-alg-r47="$65$cb-alg-out$" cb-alg-rBqa="Drop2\CLS01\CLS01#3\AC02A00D" cb-algorithm-id="00D" cb-classname="SISAlgorithm" cb-function-name="LSRS" cb-modify-id="00000001" cb-sis-algorithm-id="31" cb-sis-template-rev="2" id="5Lk">
<rect cb-classname="GraphicRectangleEntity" class="algorithm" fill="yellow" height="90" id="5Ld" width="160" x="3530" y="1040"/>
<g cb-classname="ControlPin" cb-pin-name="GN-UOO-CyV" id="5Lb">
<line cb-classname="GraphicLineEntity" class="signalline" id="5LX" x1="3690" x2="3710" y1="1080" y2="1080"/>
<g cb-classname="DynamicText" cb-source="sV-Mip-hg0J" id="5zK">
<text cb-classname="GraphicTextEntity" class="signal" id="5zD" text-anchor="start" x="3704" y="1077"/>
</g>
<g cb-classname="SignalSegment" id="5z2">
<line cb-classname="GraphicLineEntity" class="signalline" id="8qW" stroke="#1e12bf" stroke-dasharray="5,4" x1="3710" x2="3890" y1="1080" y2="1080"/>
<g cb-classname="SignalSegment" id="8qQ">
<line cb-classname="GraphicLineEntity" class="signalline" id="8qx" stroke="#1e12bf" stroke-dasharray="5,4" x1="3890" x2="3890" y1="1080" y2="1940"/>
<g cb-classname="SignalSegment" id="8qk">
<line cb-classname="GraphicLineEntity" class="signalline" id="86K" stroke="#1e12bf" stroke-dasharray="5,4" x1="3890" x2="4090" y1="1940" y2="1940"/>
<g cb-classname="SignalSegment" id="86D">
<line cb-classname="GraphicLineEntity" class="signalline" id="862" stroke="#1e12bf" stroke-dasharray="5,4" x1="4090" x2="4090" y1="1940" y2="1980"/>
<g cb-classname="SignalSegment" id="86W">
<line cb-classname="GraphicLineEntity" class="signalline" id="86Q" stroke="#1e12bf" stroke-dasharray="5,4" x1="4090" x2="4140" y1="1980" y2="1980"/>
<g cb-classname="SignalConnection" cb-graphic-line="$894$" cb-input-pin="$XBm$" id="86x"/>
</g>
<line cb-classname="GraphicLineEntity" class="signalline" id="8qd" stroke="#1e12bf" stroke-dasharray="5,4" x1="4090" x2="4140" y1="1940" y2="1940"/>
<g cb-classname="SignalConnection" cb-graphic-line="$887$" cb-input-pin="$ZBJ$" id="8qb"/>
<ellipse cb-classname="GraphicEllipseEntity" class="signal" cx="4090" cy="1940" fill="#1e12bf" id="86k" rx="5" ry="5" stroke="#1e12bf" stroke-dasharray="5,4"/>
</g>
</g>
<line cb-classname="GraphicLineEntity" class="signalline" id="5zx" stroke="#1e12bf" stroke-dasharray="5,4" x1="3890" x2="4340" y1="1080" y2="1080"/>
<g cb-classname="SignalConnection" cb-graphic-line="$545$" cb-input-pin="$KL1$" id="5zW"/>
<ellipse cb-classname="GraphicEllipseEntity" class="signal" cx="3890" cy="1080" fill="#1e12bf" id="8qX" rx="5" ry="5" stroke="#1e12bf" stroke-dasharray="5,4"/>
</g>
</g>
</g>
<g cb-classname="ControlPin" cb-pin-name="QA-6cX-0xB" id="5rd">
<line cb-classname="GraphicLineEntity" class="signalline" id="5rb" x1="3500" x2="3530" y1="1110" y2="1110"/>
<polygon cb-classname="GraphicPolygonEntity" class="signal" id="5rX" points="3530,1110 3519,1104 3519,1115"/>
<g cb-classname="DynamicText" cb-source="Jf-H4w-dkiZ" id="5jK">
<text cb-classname="GraphicTextEntity" class="signal" id="5jD" text-anchor="end" x="3515" y="1107"/>
</g>
</g>
<g cb-classname="ControlPin" cb-pin-name="qx-jlZ-D2y" id="5j2">
<line cb-classname="GraphicLineEntity" class="signalline" id="5jW" x1="3500" x2="3530" y1="1060" y2="1060"/>
<polygon cb-classname="GraphicPolygonEntity" class="signal" id="5jQ" points="3530,1060 3519,1054 3519,1065"/>
<g cb-classname="DynamicText" cb-source="oF-mzH-56Sj" id="5jx">
<text cb-classname="GraphicTextEntity" class="signal" id="5jk" text-anchor="end" x="3515" y="1057"/>
</g>
</g>
<g cb-classname="GraphicShape" id="5jd">
<text baseline-shift="0%" cb-classname="GraphicTextEntity" class="algorithm" fill="#000000" font-family="Arial" font-size="12" id="5jb" text-anchor="middle" x="3610" y="1080">
RESET/SET
</text>
<text baseline-shift="0%" cb-classname="GraphicTextEntity" class="algorithm" fill="#000000" font-family="Arial" font-size="12" id="5jX" text-anchor="middle" x="3610" y="1100">
FLIP-FLOP
</text>
</g>
</g>
<g cb-alg-ip="$536$cb-alg-out$" cb-algorithm-id="014" cb-classname="SISAlgorithm" cb-function-name="SECPARAM" cb-sis-template-rev="2" id="5cK">
<rect cb-classname="GraphicRectangleEntity" class="algorithm" fill="yellow" height="90" id="5cD" width="160" x="4380" y="1040"/>
<g cb-classname="ControlPin" cb-pin-name="cN-eii-Id" id="5c2">
<line cb-classname="GraphicLineEntity" class="signalline" id="5cW" x1="4340" x2="4380" y1="1080" y2="1080"/>
<polygon cb-classname="GraphicPolygonEntity" class="signal" id="5cQ" points="4380,1080 4369,1074 4369,1085"/>
<g cb-classname="DynamicText" cb-source="qx-aId-sXfY" id="5cx">
<text cb-classname="GraphicTextEntity" class="signal" id="5ck" text-anchor="end" x="4365" y="1077"/>
</g>
</g>
<g cb-classname="GraphicShape" id="5cd">
<text baseline-shift="0%" cb-classname="GraphicTextEntity" class="algorithm" fill="#000000" font-family="Arial" font-size="12" id="5cb" text-anchor="middle" x="4460" y="1080">
SECURE
</text>
<text baseline-shift="0%" cb-classname="GraphicTextEntity" class="algorithm" fill="#000000" font-family="Arial" font-size="12" id="5cX" text-anchor="middle" x="4460" y="1100">
PARAMETER
</text>
</g>
<g cb-classname="GraphicShape" id="5qK">
<g cb-classname="DynamicText" cb-labeled="false" cb-source="vw-UkU-f9" id="5qD">
<text cb-classname="GraphicTextEntity" class="algorithm" id="5q2" text-anchor="start" x="4380" y="1150"/>
</g>
</g>
<g baseline-shift="-50%" cb-anchor-x="4550" cb-anchor-y="1070" cb-classname="PointDescription" cb-content="extended" cb-labeled="false" cb-max-width="500" cb-source="QA-6cX-JX" class="algorithm" id="5qW" text-anchor="start">
<text baseline-shift="-50%" cb-classname="GraphicTextEntity" class="algorithm" id="5qQ" text-anchor="start" x="4550" y="1053">
Lubricant oil protection - ok
</text>
<text baseline-shift="-50%" cb-classname="GraphicTextEntity" class="algorithm" id="7jW" text-anchor="start" x="4550" y="1089">
(OK - !Trip)
</text>
</g>
</g>
<g cb-alg-11kO="247" cb-alg-6uEzH="2" cb-alg-DzuMZ="12" cb-alg-IdB="$536$cb-alg-out$" cb-alg-Idy="$536$cb-alg-out$" cb-alg-MFkM="Drop2\CLS01\CLS01#3\AC02A008" cb-alg-Soes7="685544187" cb-alg-WC6="1073881088" cb-alg-th7="H0MAV30EZ101ZV01" cb-algorithm-id="008" cb-classname="SISAlgorithm" cb-function-name="LSOR" cb-modify-id="00000001" cb-sis-algorithm-id="32" cb-sis-template-rev="2" id="6LD">
<rect cb-classname="GraphicRectangleEntity" class="algorithm" fill="yellow" height="140" id="6L2" width="100" x="4170" y="1910"/>
<g cb-classname="ControlPin" cb-pin-name="vw-UkU-f9r" id="6LW">
<line cb-classname="GraphicLineEntity" class="signalline" id="6LQ" x1="4140" x2="4170" y1="1940" y2="1940"/>
<polygon cb-classname="GraphicPolygonEntity" class="signal" id="6Lx" points="4170,1940 4159,1934 4159,1945"/>
<g cb-classname="DynamicText" cb-source="z3-Bf9-X0ax" id="6Lk">
<text cb-classname="GraphicTextEntity" class="signal" id="6Ld" text-anchor="end" x="4155" y="1937"/>
</g>
</g>
<g cb-classname="ControlPin" cb-pin-name="Jf-pLP-uHK" id="6Lb">
<line cb-classname="GraphicLineEntity" class="signalline" id="6LX" x1="4270" x2="4300" y1="1980" y2="1980"/>
<g cb-classname="DynamicText" cb-source="qx-aId-sXfY" id="6zK">
<text cb-classname="GraphicTextEntity" class="signal" id="6zD" text-anchor="start" x="4284" y="1977"/>
</g>
<g cb-classname="SignalSegment" id="6z2">
<g cb-classname="SignalConnection" cb-graphic-line="$644$" cb-input-pin="$ORx$" id="6zW"/>
<line cb-classname="GraphicLineEntity" class="signalline" id="6zQ" stroke="#1e12bf" stroke-dasharray="5,4" x1="4300" x2="4460" y1="1980" y2="1980"/>
</g>
</g>
<g cb-classname="ControlPin" cb-pin-name="Y6-XWN-fDw" id="6zx">
<line cb-classname="GraphicLineEntity" class="signalline" id="6zk" x1="4140" x2="4170" y1="1980" y2="1980"/>
<polygon cb-classname="GraphicPolygonEntity" class="signal" id="6zd" points="4170,1980 4159,1974 4159,1985"/>
<g cb-classname="DynamicText" cb-source="QA-vfD-qAD4" id="6zb">
<text cb-classname="GraphicTextEntity" class="signal" id="6zX" text-anchor="end" x="4155" y="1977"/>
</g>
</g>
<g cb-classname="ControlPin" cb-pin-name="cN-eii-IdQ" id="6rK">
<line cb-classname="GraphicLineEntity" class="signalline" id="6rD" x1="4140" x2="4170" y1="2020" y2="2020"/>
<polygon cb-classname="GraphicPolygonEntity" class="signal" id="6r2" points="4170,2020 4159,2014 4159,2025"/>
<g cb-classname="DynamicText" cb-source="qx-aId-sXfY" id="6rW">
<text cb-classname="GraphicTextEntity" class="signal" id="6rQ" text-anchor="end" x="4155" y="2017"/>
</g>
</g>
<g cb-classname="GraphicShape" id="6rx">
<text baseline-shift="0%" cb-classname="GraphicTextEntity" class="algorithm" fill="#000000" font-family="Arial" font-size="12" id="6rk" text-anchor="middle" x="4220" y="1980">
OR
</text>
</g>
</g>
<g cb-alg-Id="$631$cb-alg-out$" cb-algorithm-id="019" cb-classname="SISAlgorithm" cb-function-name="SECPARAM" cb-sis-template-rev="2" id="6rd">
<rect cb-classname="GraphicRectangleEntity" class="algorithm" fill="yellow" height="90" id="6rb" width="160" x="4500" y="1940"/>
<g cb-classname="ControlPin" cb-pin-name="vw-UkU-f9" id="6rX">
<line cb-classname="GraphicLineEntity" class="signalline" id="6jK" x1="4460" x2="4500" y1="1980" y2="1980"/>
<polygon cb-classname="GraphicPolygonEntity" class="signal" id="6jD" points="4500,1980 4489,1974 4489,1985"/>
<g cb-classname="DynamicText" cb-source="z3-Bf9-X0ax" id="6j2">
<text cb-classname="GraphicTextEntity" class="signal" id="6jW" text-anchor="end" x="4485" y="1977"/>
</g>
</g>
<g cb-classname="GraphicShape" id="6jQ">
<text baseline-shift="0%" cb-classname="GraphicTextEntity" class="algorithm" fill="#000000" font-family="Arial" font-size="12" id="6jx" text-anchor="middle" x="4580" y="1980">
SECURE
</text>
<text baseline-shift="0%" cb-classname="GraphicTextEntity" class="algorithm" fill="#000000" font-family="Arial" font-size="12" id="6jk" text-anchor="middle" x="4580" y="2000">
PARAMETER
</text>
</g>
<g cb-classname="GraphicShape" id="6jd">
<g cb-classname="DynamicText" cb-labeled="false" cb-source="GN-UOO-i5" id="6jb">
<text cb-classname="GraphicTextEntity" class="algorithm" id="6jX" text-anchor="start" x="4500" y="2050"/>
</g>
</g>
<g baseline-shift="-50%" cb-anchor-x="4670" cb-anchor-y="1970" cb-classname="PointDescription" cb-content="extended" cb-labeled="false" cb-max-width="500" cb-source="sV-T5T-OM" class="algorithm" id="6cK" text-anchor="start">
<text baseline-shift="-50%" cb-classname="GraphicTextEntity" class="algorithm" id="6cD" text-anchor="start" x="4670" y="1970">
Lubricant oil protection - ok
</text>
</g>
</g>
<g cb-alg-Vs="$378$cb-alg-dalrt$" cb-algorithm-id="01B" cb-classname="ExternalPointInterface" cb-function-name="OUTPUT" id="6c2">
<ellipse cb-classname="GraphicEllipseEntity" class="algorithm" cx="4470" cy="1540" id="6cW" rx="40" ry="40"/>
<rect cb-classname="GraphicRectangleEntity" class="algorithm" height="80" id="6cQ" width="30" x="4510" y="1500"/>
<line cb-classname="GraphicLineEntity" class="algorithm" id="6cx" x1="4510" x2="4540" y1="1540" y2="1540"/>
<g cb-classname="PointStatusIndicator" cb-indicator-type="highway" cb-source="cN-eii-Id" id="6ck" visibility="hidden">
<line cb-classname="GraphicLineEntity" class="algorithmline" id="6cd" x1="4430" x2="4470" y1="1540" y2="1500"/>
<line cb-classname="GraphicLineEntity" class="algorithmline" id="6cb" x1="4470" x2="4510" y1="1500" y2="1540"/>
<line cb-classname="GraphicLineEntity" class="algorithmline" id="6cX" x1="4510" x2="4470" y1="1540" y2="1580"/>
<line cb-classname="GraphicLineEntity" class="algorithmline" id="6qK" x1="4470" x2="4430" y1="1580" y2="1540"/>
</g>
<g cb-classname="PointStatusIndicator" cb-indicator-type="hardware" cb-source="GN-UOO-i5" id="6qD" visibility="hidden">
<line cb-classname="GraphicLineEntity" class="algorithmline" id="6q2" x1="4510" x2="4430" y1="1500" y2="1500"/>
<line cb-classname="GraphicLineEntity" class="algorithmline" id="6qW" x1="4430" x2="4430" y1="1500" y2="1580"/>
<line cb-classname="GraphicLineEntity" class="algorithmline" id="6qQ" x1="4430" x2="4510" y1="1580" y2="1580"/>
</g>
<g cb-classname="PointStatusIndicator" cb-indicator-type="alarm" cb-source="vw-UkU-f9" id="6qx" visibility="hidden">
<text cb-classname="GraphicTextEntity" class="algorithm" fill="#000000" font-family="Arial" font-size="20" id="6qk" x="4517" y="1529">
A
</text>
</g>
<g cb-classname="PointStatusIndicator" cb-indicator-type="ingraphic" cb-source="QA-6cX-JX" id="6qd" visibility="hidden">
<text cb-classname="GraphicTextEntity" class="algorithm" fill="#000000" font-family="Arial" font-size="20" id="6qb" x="4515" y="1570">
G
</text>
</g>
<g cb-classname="DynamicText" cb-labeled="false" cb-pin-name="IR" cb-source="cN-eii-Id" class="algorithm" id="6qX" text-anchor="end">
<text baseline-shift="0%" cb-classname="GraphicTextEntity" class="algorithm" fill="black" font-family="Arial" font-size="20" font-style="normal" font-weight="normal" id="66K" text-anchor="end" text-decoration="normal" x="4407" y="1519"/>
</g>
<g baseline-shift="-100%" cb-anchor-x="4408" cb-anchor-y="1556" cb-classname="PointReferences" cb-max-width="240" cb-originator="false" cb-source="oY-quw-Vs" class="signal" id="66D" text-anchor="end">
<text baseline-shift="-100%" cb-classname="GraphicTextEntity" class="algorithm" id="662" text-anchor="end" x="4408" y="1556">
-
</text>
</g>
<g baseline-shift="-50%" cb-anchor-x="4561" cb-anchor-y="1538" cb-classname="PointDescription" cb-content="extended" cb-labeled="false" cb-max-width="240" cb-source="oF-kLL-gh" class="algorithm" id="66x" text-anchor="start">
<text baseline-shift="-50%" cb-classname="GraphicTextEntity" class="algorithm" id="66k" text-anchor="start" x="4561" y="1521">
Lubricant oil
</text>
<text baseline-shift="-50%" cb-classname="GraphicTextEntity" class="algorithm" id="66d" text-anchor="start" x="4561" y="1557">
protection - alerts
</text>
</g>
<g cb-classname="ControlPin" cb-pin-name="Uq-Jlo-jq" id="66X">
<line cb-classname="GraphicLineEntity" class="signalline" id="7AK" x1="4410" x2="4430" y1="1540" y2="1540"/>
<polygon cb-classname="GraphicPolygonEntity" class="signal" id="7AD" points="4430,1540 4419,1534 4419,1545"/>
</g>
</g>
</g>
<g cb-classname="IncludeDocument" cb-modify-time="09/25/2018 01:40:30" cb-objectname="frame" id="5">
<text cb-classname="GraphicTextEntity" class="frame" font-size="50" id="7jQ" x="3660" y="3146">
Project Title &lt;Edit in FRAME.SVG&gt;
</text>
<g baseline-shift="-50%" cb-classname="DynamicText" cb-source="QA-Xjyk-Ke" class="frame" id="7jx">
<text cb-classname="GraphicTextEntity" class="frame" fill="black" font-family="arial" font-size="25" font-style="normal" font-weight="normal" id="7jk" text-decoration="normal" x="4715" y="3325">
2
</text>
</g>
<g baseline-shift="-50%" cb-classname="DynamicText" cb-source="cN-WN2a-1r" class="frame" id="7jd" text-anchor="middle">
<text cb-classname="GraphicTextEntity" class="frame" fill="black" font-family="arial" font-size="48" font-style="normal" font-weight="normal" id="7jb" text-anchor="middle" text-decoration="normal" x="4900" y="3320">
2
</text>
</g>
<g baseline-shift="-50%" cb-classname="DynamicText" cb-source="oY-7jMt-zc" class="frame" id="7jX" text-anchor="middle">
<text cb-classname="GraphicTextEntity" class="frame" fill="black" font-family="arial" font-size="48" font-style="normal" font-weight="normal" id="7cK" text-anchor="middle" text-decoration="normal" x="5067" y="3324">
2
</text>
</g>
<g cb-classname="DynamicText" cb-source="ak-M9fB4-mONiJ" class="frame" id="7cD">
<text cb-classname="GraphicTextEntity" class="frame" fill="black" font-family="arial" font-size="48" font-style="normal" font-weight="normal" id="7c2" text-decoration="normal" x="3660" y="3224">
H0MAD-H0MAY - Lubr oil press prot CH1
</text>
</g>
<g baseline-shift="-50%" cb-classname="DynamicText" cb-source="oF-IEZgm-MB13x6" class="frame" id="7cW" text-anchor="middle">
<text cb-classname="GraphicTextEntity" class="frame" fill="black" font-family="arial" font-size="48" font-style="normal" font-weight="normal" id="7cQ" text-anchor="middle" text-decoration="normal" x="5270" y="3324">
03039
</text>
</g>
<g baseline-shift="0%" cb-classname="DynamicText" cb-source="Y6-ygWOnf8q" class="frame" id="7cx" text-anchor="middle">
<text cb-classname="GraphicTextEntity" class="frame" fill="black" font-family="arial" font-size="36" font-style="normal" font-weight="normal" id="7ck" text-anchor="middle" text-decoration="normal" x="5270" y="3150">
A
</text>
</g>
<g baseline-shift="0%" cb-classname="DynamicText" cb-source="Uq-sflfpJyN-ci41" class="frame" id="7cd" text-anchor="middle">
<text cb-classname="GraphicTextEntity" class="frame" fill="black" font-family="arial" font-size="20" font-style="normal" font-weight="normal" id="7cb" text-anchor="middle" text-decoration="normal" x="5270" y="3230">

</text>
</g>
<g baseline-shift="-50%" cb-classname="DynamicText" cb-source="z3-xDiJXC49" class="frame" id="7cX" text-anchor="end">
<text cb-classname="GraphicTextEntity" class="frame" fill="black" font-family="arial" font-size="26" font-style="normal" font-weight="normal" id="7qK" text-anchor="end" text-decoration="normal" x="4500" y="3420">

</text>
</g>
<g baseline-shift="-50%" cb-classname="DynamicText" cb-source="Jf-NTDIooBy" class="frame" id="7qD" text-anchor="end">
<text cb-classname="GraphicTextEntity" class="frame" fill="black" font-family="arial" font-size="26" font-style="normal" font-weight="normal" id="7q2" text-anchor="end" text-decoration="normal" x="5353" y="3420">

</text>
</g>
<g cb-classname="GraphicShape" cb-tag="BORDER" id="7qW">
<line cb-classname="GraphicLineEntity" class="frameline" id="7qQ" x1="40" x2="40" y1="40" y2="3460"/>
<line cb-classname="GraphicLineEntity" class="frameline" id="7qx" x1="40" x2="5380" y1="3460" y2="3460"/>
<line cb-classname="GraphicLineEntity" class="frameline" id="7qk" x1="5380" x2="5380" y1="3460" y2="40"/>
<line cb-classname="GraphicLineEntity" class="frameline" id="7qd" x1="5380" x2="40" y1="40" y2="40"/>
<line cb-classname="GraphicLineEntity" class="frame" id="7qb" x1="5430" x2="5440" y1="3510" y2="3510"/>
</g>
<g cb-classname="GraphicShape" cb-tag="TITLE BOX" id="7qX">
<line cb-classname="GraphicLineEntity" class="frameline" id="76K" x1="2340" x2="2340" y1="3080" y2="3460"/>
<line cb-classname="GraphicLineEntity" class="frameline" id="76D" x1="2340" x2="5380" y1="3080" y2="3080"/>
<line cb-classname="GraphicLineEntity" class="frameline" id="762" x1="3650" x2="3650" y1="3460" y2="3080"/>
<line cb-classname="GraphicLineEntity" class="frameline" id="76W" x1="3650" x2="5380" y1="3240" y2="3240"/>
<line cb-classname="GraphicLineEntity" class="frameline" id="76Q" x1="3650" x2="5380" y1="3390" y2="3390"/>
<line cb-classname="GraphicLineEntity" class="frameline" id="76x" x1="3650" x2="5380" y1="3160" y2="3160"/>
<line cb-classname="GraphicLineEntity" class="frameline" id="76k" x1="3650" x2="4520" y1="3320" y2="3320"/>
<line cb-classname="GraphicLineEntity" class="frameline" id="76d" x1="4520" x2="5380" y1="3290" y2="3290"/>
<line cb-classname="GraphicLineEntity" class="frameline" id="76b" x1="4520" x2="5380" y1="3240" y2="3240"/>
<line cb-classname="GraphicLineEntity" class="frameline" id="76X" x1="4520" x2="4520" y1="3240" y2="3460"/>
<line cb-classname="GraphicLineEntity" class="frameline" id="8AK" x1="4810" x2="4810" y1="3240" y2="3390"/>
<line cb-classname="GraphicLineEntity" class="frameline" id="8AD" x1="4990" x2="4990" y1="3240" y2="3390"/>
<line cb-classname="GraphicLineEntity" class="frameline" id="8A2" x1="5150" x2="5150" y1="3080" y2="3390"/>
</g>
<g cb-classname="GraphicShape" cb-tag="TEXT LABELS" id="8AW">
<text baseline-shift="-50%" cb-classname="GraphicTextEntity" class="frame" font-size="25" id="8AQ" text-anchor="middle" x="4890" y="3252">
Drop
</text>
<text baseline-shift="-50%" cb-classname="GraphicTextEntity" class="frame" font-size="25" id="8Ax" text-anchor="middle" x="5075" y="3252">
Task
</text>
<text baseline-shift="-50%" cb-classname="GraphicTextEntity" class="frame" font-size="25" id="8Ak" text-anchor="middle" x="5265" y="3252">
Sheet
</text>
<text cb-classname="GraphicTextEntity" class="frame" font-size="25" id="8Ad" x="5152" y="3107">
Rev.
</text>
<text cb-classname="GraphicTextEntity" class="frame" font-size="25" id="8Ab" x="3653" y="3418">
Engineer
</text>
<text cb-classname="GraphicTextEntity" class="frame" font-size="25" id="8AX" x="4528" y="3419">
Approved
</text>
<text cb-classname="GraphicTextEntity" class="frame" font-size="25" id="8QK" x="5152" y="3187">
Date
</text>
<text baseline-shift="-50%" cb-classname="GraphicTextEntity" class="frame" font-size="25" id="8QD" text-anchor="middle" x="4660" y="3252">
Drawing Number
</text>
<text baseline-shift="-50%" cb-classname="GraphicTextEntity" class="frame" font-size="25" id="8Q2" text-anchor="middle" x="4680" y="3325">
CTL
</text>
</g>
<text baseline-shift="-50%" cb-classname="GraphicTextEntity" class="frame" font-size="48" id="8QW" text-anchor="middle" x="3000" y="3100">
EMERSON PROCESS MANAGEMENT
</text>
<g baseline-shift="-100%" cb-anchor-x="2360" cb-anchor-y="3140" cb-classname="GroupText" cb-max-width="1260" fill="black" id="8QQ">
<text baseline-shift="-100%" cb-classname="GraphicTextEntity" class="frame" fill="black" font-family="arial" font-size="22" font-weight="normal" id="8Qx" text-anchor="start" text-decoration="normal" x="2360" y="3140">
THIS DOCUMENT CONTAINS INFORMATION PROPRIETARY TO EMERSON PROCESS
</text>
<text baseline-shift="-100%" cb-classname="GraphicTextEntity" class="frame" fill="black" font-family="arial" font-size="22" font-weight="normal" id="8Qk" text-anchor="start" text-decoration="normal" x="2360" y="3176">
MANAGEMENT POWER &amp; WATER SOLUTIONS, INC. IT IS SUBMITTED IN CONFIDENCE AND
</text>
<text baseline-shift="-100%" cb-classname="GraphicTextEntity" class="frame" fill="black" font-family="arial" font-size="22" font-weight="normal" id="8Qd" text-anchor="start" text-decoration="normal" x="2360" y="3212">
TRUST, IS TO BE USED BY YOU SOLELY FOR THE PURPOSES FOR WHICH IT IS
</text>
<text baseline-shift="-100%" cb-classname="GraphicTextEntity" class="frame" fill="black" font-family="arial" font-size="22" font-weight="normal" id="8Qb" text-anchor="start" text-decoration="normal" x="2360" y="3248">
FURNISHED AND IS TO BE RETURNED UPON REQUEST. THIS DOCUMENT AND ANY
</text>
<text baseline-shift="-100%" cb-classname="GraphicTextEntity" class="frame" fill="black" font-family="arial" font-size="22" font-weight="normal" id="8QX" text-anchor="start" text-decoration="normal" x="2360" y="3284">
OTHER INFORMATION PROVIDED TO YOU IS NOT TO BE REPRODUCED, TRANSMITTED,
</text>
<text baseline-shift="-100%" cb-classname="GraphicTextEntity" class="frame" fill="black" font-family="arial" font-size="22" font-weight="normal" id="8YK" text-anchor="start" text-decoration="normal" x="2360" y="3320">
DISCLOSED, OR USED OTHERWISE IN WHOLE OR IN PART WITHOUT THE PRIOR
</text>
<text baseline-shift="-100%" cb-classname="GraphicTextEntity" class="frame" fill="black" font-family="arial" font-size="22" font-weight="normal" id="8YD" text-anchor="start" text-decoration="normal" x="2360" y="3356">
WRITTEN AUTHORIZATION OF EMERSON PROCESS MANAGEMENT POWER &amp; WATER
</text>
<text baseline-shift="-100%" cb-classname="GraphicTextEntity" class="frame" fill="black" font-family="arial" font-size="22" font-weight="normal" id="8Y2" text-anchor="start" text-decoration="normal" x="2360" y="3392">
SOLUTIONS,INC.
</text>
</g>
</g>
</svg>